"Roost";"In";"Out";"InLink";"OutLink";"Betweeness";"Closeness"
"R_1";22;22;7;6;17,5597014097014;0,494192185850053
"R_2";25;25;16;15;193,744896769897;0,695910780669145
"R_3";22;21;11;9;39,6190476190476;0,503225806451613
"R_4";22;22;11;12;128,88253968254;0,628609805238415
"R_5";25;25;12;13;204,036111111111;0,633716993906567
"R_6";25;26;13;10;144,279761904762;0,675812274368231
"R_7";20;20;9;7;1,66666666666667;0,468468468468468
"R_8";19;19;6;6;40,3;0,562162162162162
"R_9";24;24;8;10;73,552380952381;0,633288227334236
"R_10";17;17;4;6;0,5;0,46382556987116
"R_11";22;22;7;6;41,5;0,514285714285714
"R_12";17;18;4;5;11,3333333333333;0,559473998804543
"R_13";21;21;10;10;19,75;0,579566563467492
"R_14";24;24;10;9;698,569227994228;0,79931682322801
"R_15";25;25;14;11;135,142857142857;0,675812274368231
"R_16";24;24;12;10;109,03035020535;0,601542416452442
"R_17";24;24;7;11;78,209126984127;0,659619450317125
"R_18";19;19;6;6;6,33333333333333;0,623169107856192
"R_19";21;21;8;9;280,360317460317;0,682713347921226
"R_20";26;26;11;11;69,425;0,592030360531309
"R_21";28;28;15;14;731,468831168831;0,722222222222223
"R_22";19;18;8;7;3,20952380952381;0,445290199809705
"R_23";26;27;15;14;528,40202020202;0,785234899328859
"R_24";23;23;12;13;251,880952380952;0,623584277148568
"R_25";15;15;1;1;0;NA
"R_26";31;31;14;15;654,691378066378;0,732394366197183
"R_27";19;19;8;8;2,29166666666667;0,445926631729395
"R_28";20;20;9;8;10,6999361749362;0,476093591047813
"R_29";26;26;10;12;604,770238095238;0,711787072243346
"R_30";20;20;9;9;28,5583333333333;0,546409807355517
"R_31";23;23;11;9;218,079365079365;0,65546218487395
"R_32";22;21;10;11;131,436111111111;0,653175157013259
"R_33";18;17;5;6;30,9166666666667;0,479753972321886
"R_34";23;23;9;7;83,4428571428571;0,599231754161332
"R_35";28;28;16;16;482,644047619048;0,623169107856192
"R_36";18;18;5;4;20,2023809523809;0,504854368932039
"R_37";30;29;14;14;854,454426129426;0,780650542118432
"R_38";24;23;7;8;14,5690476190476;0,600770218228498
"R_39";25;25;12;11;169,825;0,640657084188912
"R_40";24;24;11;10;528,225;0,749399519615693
"R_41";26;26;12;12;247,547619047619;0,570731707317073
"R_42";19;19;5;6;1,5;0,43984962406015
"R_43";18;18;4;4;11,0454545454545;0,42295526434704
"R_44";23;23;8;10;390,014285714286;0,666192170818506
"R_45";20;20;5;8;29,6;0,558472553699284
"R_46";23;23;8;7;59,125;0,532726237905521
"R_47";19;19;5;5;202,368831168831;0,542608695652174
"R_48";25;24;9;9;2,5;0,470824949698189
"R_49";27;27;14;15;333,221342546342;0,677279305354559
"R_50";23;23;10;11;132,678571428571;0,665245202558636
"R_51";20;20;8;8;37,5080919080919;0,603481624758221
"R_52";27;27;13;12;223,059523809524;0,689248895434463
"R_53";23;22;12;12;162,424206349206;0,656381486676017
"R_54";23;22;9;12;94,1166666666667;0,578491965389369
"R_55";24;24;15;14;457,588888888889;0,663829787234043
"R_56";21;21;7;8;85,1980769230769;0,671449067431851
"R_57";24;23;11;10;523,367893217893;0,75423045930701
"R_58";26;26;13;13;159,363031413031;0,604651162790698
"R_59";20;20;9;9;620,740356865357;0,730109204368175
"R_60";19;19;4;4;99,3309523809524;0,468703054581873
"R_61";19;19;5;5;18,3166666666667;0,565558912386707
"R_62";22;22;9;8;29,1365079365079;0,579207920792079
"R_63";21;20;10;9;55,05;0,514851485148515
"R_64";25;25;17;17;387,096428571429;0,674351585014409
"R_65";19;19;8;10;151,575396825397;0,625250501002004
"R_66";19;19;6;7;27,8333333333333;0,601929260450161
"R_67";23;23;12;12;84,2773809523809;0,582089552238806
"R_68";25;25;11;13;219,74880952381;0,633716993906567
"R_69";22;22;11;10;46,7714285714286;0,542608695652174
"R_70";19;19;7;7;63,0690476190476;0,45703125
"R_71";22;22;10;10;28,2580086580087;0,589792060491493
"R_72";27;27;15;13;617,303427128427;0,763458401305057
"R_73";18;18;4;3;179,053174603175;0,630303030303031
"R_74";27;26;11;11;341,079503829504;0,677279305354559
"R_75";23;23;9;9;17,5833333333333;0,437383177570094
"R_76";21;21;6;8;31,9380952380952;0,528514963297572
"R_77";21;21;7;7;175,624758574759;0,603092783505155
"R_78";25;25;14;13;149,443276168276;0,632005401755571
"R_79";17;17;5;5;69,3890442890443;0,539481268011527
"R_80";18;18;6;6;2,43333333333333;0,545136866627839
