"Foraging";"In";"Out";"InLink";"OutLink";"Betweeness";"Closeness"
"F_1";109;117;109;122;5428,70530574702;0,741372912801488
"F_2";43;47;48;49;696,881162729391;0,625972534071328
"F_3";78;67;77;63;1335,41331034132;0,669496258237465
"F_4";40;35;39;38;276,395282839548;0,591299200947024
"F_5";55;57;59;58;342,89769997277;0,606373292867981
"F_6";41;44;39;39;414,942355236622;0,620111731843575
"F_7";54;60;60;62;575,292744085574;0,623595505617977
"F_8";90;91;89;89;2855,21532357876;0,710063377361845
"F_9";54;56;52;55;978,495423793471;0,626136007521154
"F_10";65;55;63;59;728,049816702064;0,65141553007662
"F_11";42;43;43;46;349,228535976216;0,620400558919423
"F_12";99;99;99;93;2690,96795580428;0,702984812056532
"F_13";98;92;97;91;4330,90698189171;0,716471431986617
"F_14";91;101;90;96;3378,71269291972;0,715359828141785
"F_15";40;31;41;33;140,733271971905;0,587330361079808
"F_16";78;68;76;69;2199,70022928845;0,687898089171975
"F_17";35;36;33;34;285,107093877793;0,61889519876097
"F_18";18;19;18;19;51,3359282659205;0,521398747390397
"F_19";63;54;60;52;995,844529571502;0,656768750342416
"F_20";45;41;46;43;349,634363432313;0,596417910447759
"F_21";64;77;64;74;861,528040256277;0,643616450123484
"F_22";87;86;91;85;1904,07510968886;0,670432302443936
"F_23";69;63;66;64;878,646101015434;0,640658401026081
"F_24";66;73;67;76;834,890120234471;0,647475020253851
"F_25";75;70;72;67;1425,63877620704;0,673975375274078
"F_26";77;69;78;66;1381,98818734333;0,669346733668343
"F_27";59;63;58;60;1694,63120339793;0,65529681862906
"F_28";110;90;110;92;4230,18994371133;0,724876043052367
"F_29";47;61;47;62;419,64207739532;0,598711481795934
"F_30";67;78;67;81;1805,2551436925;0,685067718155328
"F_31";69;73;69;70;1462,59175030055;0,672500841467521
"F_32";109;102;109;92;3273,0457808534;0,714592274678113
"F_33";97;83;91;82;3170,86209129361;0,719222462203027
"F_34";116;103;117;101;4451,43538835579;0,735640648011787
"F_35";44;38;44;37;408,514748024099;0,630151387720775
"F_36";89;98;89;98;2938,62849997007;0,695037105751393
"F_37";80;87;82;89;1724,74301852153;0,67549444976616
"F_38";65;70;67;76;2173,01895791883;0,691987993534982
"F_39";53;53;49;53;476,05135888923;0,642719279433843
"F_40";46;41;48;41;236,232181142054;0,60585232728559
"F_41";28;25;28;26;189,949295169859;0,575433206931309
"F_42";74;73;77;73;1827,49242374919;0,66334661354582
"F_43";108;93;107;96;4177,97923670111;0,722734671730876
"F_44";32;37;34;40;325,208702597318;0,625221654323567
"F_45";60;47;59;48;591,598628723392;0,633247055094818
"F_46";36;48;42;52;339,88420591927;0,594259653992959
"F_47";57;62;55;62;700,73674276167;0,610635696821515
"F_48";39;49;36;46;449,050751036433;0,609084442637942
"F_49";39;28;39;31;186,574944697649;0,577734939759035
"F_50";48;55;49;54;409,521362709552;0,602442333785616
"F_51";71;70;71;72;1723,08155316992;0,664781234403595
"F_52";42;39;43;40;350,580528238988;0,602987777274784
"F_53";53;55;55;55;458,455171995277;0,607633433017385
"F_54";23;24;22;24;98,2729386904178;0,553181671358036
"F_55";77;69;75;70;2284,04003815883;0,672463117742751
"F_56";68;52;69;55;699,37524244023;0,632612137203166
"F_57";74;73;73;71;1608,58020903634;0,660423093873956
"F_58";49;47;46;46;366,728317679491;0,610853503184712
"F_59";95;92;89;89;3168,18023779334;0,723563495895703
"F_60";75;77;74;79;2327,2159242321;0,686755270394135
"F_61";39;35;41;31;323,550293263715;0,602049015668942
"F_62";54;63;52;60;1092,57504525414;0,66574110068307
"F_63";57;71;58;73;2088,20786593864;0,680710919311796
"F_64";63;64;68;66;911,240045187947;0,631379364828567
"F_65";34;39;34;38;247,666594640104;0,567963234945752
"F_66";63;74;61;70;1132,18679142704;0,659659935068515
"F_67";70;66;68;60;999,53322409733;0,664449617559032
"F_68";24;34;29;33;214,254106895559;0,608188321241945
"F_69";72;73;71;70;2385,15471052096;0,690234914785817
"F_70";30;34;32;34;152,904215352712;0,606158669161146
"F_71";69;71;67;72;1870,1224612728;0,677364673974466
"F_72";39;46;41;48;235,072515300253;0,594436455595773
"F_73";74;70;74;72;2263,33629906976;0,718274415817858
"F_74";51;53;49;54;720,392183908947;0,646601941747575
"F_75";90;77;87;75;1553,72816037771;0,67299163532252
"F_76";46;35;47;36;345,160275291742;0,620272158120763
"F_77";35;34;34;32;261,836756411152;0,613071494323411
"F_78";36;42;40;49;186,939505989358;0,586583157997748
"F_79";33;35;33;33;306,533889787297;0,608929750596844
"F_80";36;40;38;44;302,340407835554;0,588108320251177
"F_81";89;85;91;92;2330,5953711904;0,687937564558708
"F_82";41;52;44;51;544,185609683672;0,635630965005304
"F_83";90;93;93;94;2736,46266942886;0,702037947997191
"F_84";108;113;103;104;3429,46102087295;0,709265175718851
"F_85";42;47;43;47;355,118957235628;0,592673159638106
"F_86";43;56;47;57;1016,62042219845;0,632011809363139
"F_87";59;51;59;49;609,304478509009;0,648280337443222
"F_88";71;70;72;74;1282,11800130428;0,641138089635256
"F_89";112;114;107;111;7644,57793859798;0,748548236028726
"F_90";77;92;85;95;2852,41611570465;0,706797948234185
"F_91";73;57;68;55;1052,42305878528;0,64989699663884
"F_92";36;43;39;41;695,836656263671;0,646079223928867
"F_93";63;66;68;66;647,52679278802;0,636204426046808
"F_94";37;42;37;42;457,748213305598;0,600240336471059
"F_95";53;48;52;51;483,684637148058;0,622785599251909
"F_96";32;30;33;30;437,877803441274;0,607849102525101
"F_97";104;91;97;86;3302,01254879084;0,726457399103141
"F_98";108;108;100;105;3686,68524395283;0,714549681111048
"F_99";51;55;52;57;755,947870113319;0,655583506507713
"F_100";88;98;85;96;1980,87390256457;0,683973298339707
"F_101";81;75;81;79;1469,69969269578;0,681833693550223
"F_102";88;90;86;85;1629,02446520887;0,688174512055111
"F_103";47;47;51;50;698,499587641714;0,601928098011647
"F_104";88;88;88;82;3146,3907015831;0,720432692307695
"F_105";88;83;91;77;2337,2543363186;0,708050321894754
"F_106";26;25;27;24;123,97229286302;0,555694618272841
"F_107";40;45;39;46;392,51777668236;0,623303696771174
"F_108";30;27;33;29;204,659161481168;0,605148914689549
"F_109";30;28;31;28;363,608022390365;0,585380145514917
"F_110";48;51;49;50;895,529383851585;0,642478160673136
"F_111";39;33;43;33;341,215520596994;0,611944869831546
"F_112";31;49;33;49;315,994964820774;0,607725844063671
"F_113";77;68;75;65;1756,44174687214;0,678361249434135
"F_114";59;53;66;54;790,063009980512;0,611102615078757
"F_115";82;73;78;73;1503,27354353833;0,673785971223022
"F_116";80;65;78;68;877,448973725193;0,638100814392931
"F_117";30;28;31;32;242,858815385412;0,610542398777692
"F_118";55;49;53;49;807,147861723795;0,649896996638839
"F_119";61;63;61;65;592,539013849608;0,626987447698744
"F_120";49;45;48;43;515,675792279853;0,626561438352585
"F_121";40;34;40;34;188,86975434197;0,593524111298147
"F_122";45;52;47;51;588,277795177458;0,638508655126501
"F_123";56;61;56;60;1758,55418547785;0,696045985020033
"F_124";60;65;63;64;1047,41550878025;0,645696434342348
"F_125";23;19;26;20;51,8089304149153;0,543969507214811
"F_126";71;65;72;64;1872,74187866755;0,696248112440473
"F_127";63;57;63;56;784,889959187015;0,643685567010312
"F_128";37;51;35;49;508,461234901695;0,593318485523384
"F_129";55;50;57;57;2015,24527529628;0,663126452041156
"F_130";66;59;70;63;1879,18518740365;0,663971199113821
"F_131";79;76;79;76;1953,39436322468;0,649580059604445
"F_132";92;85;91;90;3032,4555871413;0,690234914785818
"F_133";87;94;91;91;3449,62927482586;0,701914632004219
"F_134";76;75;78;70;3151,64893577043;0,680093039087767
"F_135";32;25;33;26;134,988578826538;0,568852614596184
"F_136";91;91;88;86;2895,49923618386;0,693428968070342
"F_137";85;73;88;77;1477,26600988889;0,670544803669316
"F_138";62;65;68;65;749,689065741692;0,651946921905593
"F_139";60;58;56;54;1068,91416282771;0,646636819677442
"F_140";50;50;53;53;442,135239035204;0,608713313699603
"F_141";87;85;87;86;2147,91974086192;0,69158878504673
"F_142";56;65;59;64;1760,16100676326;0,673218397259509
"F_143";53;50;51;49;1318,9791742105;0,668339187155047
"F_144";71;69;75;67;1935,62393310096;0,681794915543428
"F_145";52;55;57;57;544,079529804021;0,620914694152379
"F_146";45;47;44;48;415,817907848163;0,637422236401342
"F_147";89;94;87;94;2188,76903071633;0,697706902572461
"F_148";54;60;51;64;523,244017526137;0,624863174354964
"F_149";79;87;75;83;2656,37673413385;0,694996811409358
"F_150";44;44;45;46;782,246457326501;0,630947368421054
"F_151";78;71;78;73;1426,30106790658;0,656588892540259
"F_152";70;76;74;77;812,412714741014;0,635833244934763
"F_153";88;94;93;93;3897,67741110214;0,711707432913799
"F_154";64;67;58;62;1507,50164869317;0,658175030196559
"F_155";91;96;88;94;2666,02252528086;0,703026038001409
"F_156";68;73;69;78;2691,13994409014;0,720432692307696
"F_157";98;86;101;84;2095,72922622218;0,701339729713921
"F_158";108;98;110;99;2769,22484737407;0,704803339408553
"F_159";29;32;29;32;234,32931943976;0,591678594343813
"F_160";63;59;62;59;570,626815397515;0,601083032490974
"F_161";97;93;99;93;3212,51509930796;0,69872355306872
"F_162";53;47;56;49;439,359922562766;0,597636970935739
"F_163";50;40;47;38;445,15043378336;0,614013521819299
"F_164";45;59;46;57;641,992221129819;0,662137531068772
"F_165";46;40;47;40;162,534451819107;0,577567932164192
"F_166";76;66;76;70;1452,63842691232;0,669234634064647
"F_167";63;53;62;54;1119,73724334643;0,634185049992068
"F_168";29;20;29;21;49,3424905886943;0,568933605429262
"F_169";26;26;26;27;115,483591442333;0,558542608209476
"F_170";33;27;32;29;234,594320942301;0,566674545024815
"F_171";110;107;112;108;5587,6491919828;0,753867438058107
"F_172";36;52;36;51;521,335435110787;0,636103151862465
"F_173";44;44;43;47;388,950734541965;0,592204712740205
"F_174";66;75;67;70;1850,12772587969;0,682377049180331
"F_175";122;116;116;114;6782,41778043023;0,759936608557847
"F_176";43;35;42;34;251,679459390378;0,576845346934846
"F_177";85;75;86;72;1979,86938927427;0,693228473948998
"F_178";31;36;32;36;466,034460420916;0,595233366434954
"F_179";33;31;35;31;334,853027332581;0,593201049037557
"F_180";32;30;31;31;217,805118062132;0,575737201037363
"F_181";47;51;50;46;547,777747955166;0,640795381654909
"F_182";72;68;75;79;1401,63997489128;0,664228723404258
"F_183";23;29;21;29;91,454267796458;0,545479364790463
"F_184";85;86;86;85;3270,72180442461;0,697341632249435
"F_185";39;46;39;44;582,871380798459;0,636035653650257
"F_186";50;50;52;53;618,461778810428;0,621719738616325
"F_187";31;21;32;20;125,433897763352;0,565525049532973
"F_188";43;48;45;51;301,864788526713;0,60874422383588
"F_189";48;45;47;47;343,854659197481;0,604264327839104
"F_190";49;62;54;64;642,863827534074;0,641138089635257
"F_191";27;31;29;33;210,779208968105;0,600691486696399
"F_192";57;58;60;56;662,808702619692;0,640829635965148
"F_193";41;40;47;45;364,643789353448;0,581631167823006
"F_194";30;31;29;31;189,118968655496;0,568178586662874
"F_195";67;66;64;67;1626,57382274185;0,689123936537137
"F_196";93;103;92;106;2450,32197044192;0,702819956616056
"F_197";63;59;59;59;1054,02073047753;0,635395134361584
"F_198";43;38;49;42;348,925045654835;0,605332256109875
"F_199";99;106;98;101;5045,95311034618;0,726193360794771
"F_200";31;29;35;28;207,866791942587;0,570775603485215
"F_201";68;60;68;61;941,142709655177;0,624732919902026
"F_202";51;47;52;50;778,007503591775;0,614391143911439
"F_203";80;93;83;97;1663,56546721632;0,665704131497113
"F_204";43;38;46;37;605,163438179516;0,621719738616326
"F_205";84;115;83;109;4866,68025389923;0,738814248736599
"F_206";62;61;62;61;1071,58988954517;0,634554308702097
"F_207";72;75;67;75;1152,35269134345;0,668749302688834
"F_208";58;57;60;55;1219,00179602623;0,66122448979592
"F_209";72;73;75;76;1677,6345629418;0,670732389638003
"F_210";31;35;31;38;219,034959426988;0,565018617146627
"F_211";34;30;32;30;140,731786754644;0,548348732961303
"F_212";51;47;53;45;479,484936270554;0,621623023074928
"F_213";29;31;31;31;160,753664533297;0,577818479780208
"F_214";35;41;41;41;231,526856902564;0,57328678685859
"F_215";40;35;40;35;282,086735328398;0,594495412844036
"F_216";37;34;39;35;204,350940745686;0,599759855913547
"F_217";105;114;100;107;5927,57168666118;0,730263157894739
"F_218";44;40;42;38;359,949456560532;0,60566867074218
"F_219";35;32;38;37;182,755803931997;0,560658497801889
"F_220";68;64;69;63;824,577731579426;0,626823529411764
"F_221";93;92;87;93;5709,15106770659;0,767330218267938
"F_222";68;70;64;74;1578,99293204148;0,67732640262162
"F_223";69;62;71;66;1054,73987592455;0,640384615384616
"F_224";57;45;56;46;331,051874082207;0,593201049037557
"F_225";30;35;30;33;179,56913060912;0,569176716361219
"F_226";89;98;95;102;2601,78227666932;0,687148916657115
"F_227";71;74;73;72;2090,00479001489;0,702778754836445
"F_228";103;104;99;105;3688,25549529325;0,711496231230342
"F_229";68;63;63;57;876,474454157093;0,650178978197203
"F_230";50;53;52;56;365,020908422632;0,59772636617471
"F_231";100;102;104;99;4040,57168982077;0,716899892357375
"F_232";76;68;69;63;2141,64078180129;0,679514794241019
"F_233";56;63;62;65;1115,18417094451;0,657597366977512
"F_234";73;70;74;70;2124,3351671299;0,682338209346009
"F_235";79;67;77;70;1569,84844434124;0,669047884808575
"F_236";54;53;58;51;1030,8545155802;0,648350459707953
"F_237";41;33;44;34;161,848060790141;0,588166028848984
"F_238";70;75;68;77;2641,87735224042;0,690871369294609
"F_239";43;40;49;43;261,270743488218;0,593142348226212
"F_240";48;49;52;47;452,757184825827;0,60432525079397
"F_241";36;32;39;32;390,62469824518;0,582167832167831
"F_242";50;47;50;47;449,473257976499;0,604051194195302
"F_243";42;32;42;34;219,570458305065;0,594465932758107
"F_244";61;57;60;58;787,741211341815;0,647964974866226
"F_245";45;43;47;48;278,677797771328;0,582196105094458
"F_246";57;51;54;53;715,480886440567;0,632245134750278
"F_247";46;46;41;43;521,750546160383;0,629291338582678
"F_248";60;57;65;65;1094,88187729911;0,648982243395412
"F_249";81;68;80;67;2739,93547027476;0,720735886490716
"F_250";56;52;57;54;379,025850731183;0,608466145568977
"F_251";44;42;46;44;630,037306860308;0,631113450908136
"F_252";32;25;31;24;493,035147445672;0,628631358154173
"F_253";76;80;72;82;1733,04575452795;0,691588785046731
"F_254";61;59;61;60;796,662157982197;0,628367753433274
"F_255";72;70;78;70;1457,31541470235;0,675913396481733
"F_256";46;53;48;57;543,861196911294;0,619662979427271
"F_257";74;63;74;61;910,294958445569;0,65745310957552
"F_258";73;60;74;63;1453,81283691932;0,679129843643781
"F_259";100;77;107;81;1739,30640431066;0,660241229277966
"F_260";44;45;48;45;405,23783387959;0,61653980662415
"F_261";90;85;91;85;3817,70333529074;0,713146936347413
"F_262";50;37;55;35;394,21061350627;0,602109492717226
"F_263";80;73;85;71;2232,1209180664;0,667186108637579
"F_264";43;51;45;49;488,279231688992;0,632278481012659
"F_265";28;36;29;35;96,4433054572005;0,573698315467074
"F_266";80;85;81;90;1932,51973138991;0,681678607983625
"F_267";39;33;37;33;222,710854082157;0,576263038984761
"F_268";31;27;31;28;141,212226909736;0,584238998001851
"F_269";96;101;96;103;1736,32988157345;0,684285632741597
"F_270";101;87;97;85;4453,41685572372;0,734019103600298
"F_271";67;64;69;68;1428,26606076635;0,673823843516386
"F_272";67;68;68;70;880,854526681807;0,644308287649147
"F_273";115;117;115;116;4135,0699400391;0,725490196078433
"F_274";49;55;49;56;533,877327902767;0,626659696811292
"F_275";96;113;96;113;3758,62732124696;0,722821826952067
"F_276";58;54;58;64;917,818633536026;0,620946855899719
"F_277";86;83;87;81;2469,22314560427;0,702037947997194
"F_278";100;114;95;100;4014,20048286112;0,72689788988601
"F_279";89;88;83;92;2311,52303535357;0,682493595217764
"F_280";36;42;37;41;285,67491250993;0,587791125275801
"F_281";81;84;83;84;1501,49985126804;0,651344743276286
"F_282";42;48;43;49;323,236596707522;0,607633433017384
"F_283";25;24;24;23;242,011979937049;0,591153409931455
"F_284";77;88;77;90;3493,03243150439;0,712892483349195
"F_285";56;60;56;61;969,480039144744;0,641309581126628
"F_286";33;36;39;41;195,162201783418;0,585465911310802
"F_287";63;76;63;73;2015,16410106825;0,687267098549566
"F_288";78;85;78;85;3409,88565194479;0,716985645933019
"F_289";73;69;76;74;1135,06832936518;0,653368214519296
"F_290";66;65;70;69;2278,41497985127;0,690672351212771
"F_291";74;79;74;82;2363,43352026978;0,6908315565032
"F_292";82;78;84;84;1472,84413278644;0,685302692505575
"F_293";40;39;43;40;271,670384630352;0,585895117540686
"F_294";35;44;39;48;217,085721561087;0,569203741512748
"F_295";71;66;68;68;1017,482881003;0,642134018961917
"F_296";69;86;67;77;2345,69991496702;0,698723553068721
"F_297";42;42;44;44;412,009466130363;0,59470185534279
"F_298";74;89;78;86;2598,8203098129;0,685459431642748
"F_299";79;80;75;74;1779,01953248181;0,681097664905405
"F_300";24;26;25;28;134,372524337462;0,551121735932328
"F_301";63;59;65;60;909,460939024096;0,651167843563283
"F_302";79;78;80;78;1382,28709105212;0,651132475150726
"F_303";63;75;67;75;896,483699754939;0,658753709198817
"F_304";51;51;51;56;679,076583550798;0,640863893937776
"F_305";80;71;82;78;1264,25599178741;0,671370967741938
"F_306";20;26;20;27;136,981061099635;0,563822782428745
"F_307";100;100;96;95;3992,02097762271;0,728532360984505
"F_308";34;46;36;47;296,778577685193;0,603109121094732
"F_309";66;57;67;61;2275,3461119057;0,682144076476617
"F_310";51;43;52;45;662,510362327701;0,627939866953016
"F_311";40;40;37;39;351,37364692793;0,593113002176924
"F_312";72;66;72;68;2175,11524189445;0,687661331956636
"F_313";23;28;27;30;88,383969511592;0,548273496455523
"F_314";43;51;42;49;222,379805343639;0,582196105094458
"F_315";86;98;79;92;3767,88807677588;0,709433069002252
"F_316";83;89;80;87;1492,23809613537;0,670920080591003
"F_317";52;59;53;61;624,654199129834;0,636474648261217
"F_318";64;74;67;73;1111,39350689417;0,663713874432512
"F_319";30;32;33;35;92,9775990212605;0,560056061667834
"F_320";86;77;82;76;2643,53517497312;0,711749688297813
"F_321";34;34;32;32;269,929638022055;0,59641791044776
"F_322";66;64;69;73;1776,0236853751;0,651946921905593
"F_323";43;44;44;47;468,893222561463;0,597994712425798
"F_324";50;53;51;56;588,92713336685;0,616127871717119
"F_325";31;31;32;30;112,492941483392;0,572520177658913
"F_326";62;49;62;48;456,80574696076;0,616857054646495
"F_327";21;21;18;20;88,692516678461;0,563504747579204
"F_328";48;44;52;45;635,172881493003;0,62975415003152
"F_329";60;63;58;62;759,148761097865;0,629423500997584
"F_330";34;36;34;32;327,561534793021;0,599519903980795
"F_331";25;16;24;16;73,4881278499622;0,549177699390719
"F_332";98;99;101;104;3774,63311264291;0,701011636746391
"F_333";83;77;80;74;2085,35892858008;0,683856246434686
"F_334";19;23;18;24;85,6086158897644;0,563531236779015
"F_335";92;84;90;83;4741,17684179414;0,736997417926968
"F_336";38;38;32;36;430,000392679855;0,585694743013484
"F_337";86;72;88;74;1998,21968990812;0,670507299065945
"F_338";82;88;83;95;2532,31458646303;0,708971553610506
"F_339";101;102;100;99;4480,9106214767;0,722865412445734
"F_340";60;59;57;54;1274,14206358531;0,662137531068769
"F_341";20;14;22;15;34,2289537991121;0,532326820603909
"F_342";110;109;106;101;4887,95269513407;0,735144416508251
"F_343";79;82;76;80;1539,57294954613;0,652834504165989
"F_344";59;41;57;41;910,356114349095;0,629489603024575
"F_345";82;81;79;81;2847,72397579339;0,714421930870086
"F_346";56;61;57;66;1011,16584022773;0,641549823397198
"F_347";54;64;54;66;785,838728506426;0,641138089635257
"F_348";77;76;78;79;1434,28596636264;0,656014008974502
"F_349";51;54;52;55;643,563695993067;0,622106901920082
"F_350";31;33;34;33;128,665529534986;0,559011424574492
"F_351";85;83;90;89;3029,62110599077;0,700683850604947
"F_352";30;43;29;44;239,331392536055;0,600872136734999
"F_353";52;46;51;42;812,909314246889;0,654116876739239
"F_354";76;85;81;80;2353,84517991341;0,690951008645534
"F_355";19;27;21;28;83,5523985415432;0,544686264709892
"F_356";52;43;55;48;476,0420857848;0,630914162412506
"F_357";41;37;43;42;296,015839464808;0,58833922261484
"F_358";47;50;49;46;492,940372539918;0,666111018503086
"F_359";41;49;43;51;414,555396468963;0,602593746858348
"F_360";91;104;97;100;4363,59125810755;0,735415005214408
"F_361";40;42;40;42;247,231192318808;0,592995647012267
"F_362";44;49;42;48;520,838833704942;0,628565436241611
"F_363";35;33;35;34;293,679110864505;0,577067488206411
"F_364";22;30;25;29;97,4800642889034;0,588483628687839
"F_365";77;81;82;83;1543,77886309919;0,670657342657345
"F_366";43;41;47;39;343,466965880234;0,612601563697684
"F_367";82;79;81;85;2060,54009481344;0,683700239534624
"F_368";44;43;39;42;284,515247945578;0,595647421246148
"F_369";30;38;28;35;285,63564406939;0,609952172585732
"F_370";58;65;60;70;654,222484635965;0,618767420253947
"F_371";68;57;70;59;1833,37188637406;0,67118302446672
"F_372";49;52;49;56;603,029948655988;0,632879315806146
"F_373";42;34;42;35;295,984822938581;0,596091691114315
"F_374";80;72;82;74;1054,0210790262;0,64368556701031
"F_375";61;64;62;61;639,4943214633;0,621848739495797
"F_376";79;88;86;92;2232,49147679959;0,682415893436559
"F_377";61;62;67;68;1079,86185651914;0,648315396679468
"F_378";47;54;46;56;792,098729691857;0,655762813850453
"F_379";103;104;100;99;4006,17642863897;0,741602227033719
"F_380";64;56;66;57;1251,77929031722;0,6552610002733
"F_381";110;104;107;107;5363,9977204614;0,741143740340034
"F_382";88;93;87;93;3634,51630504795;0,712934879571813
"F_383";72;76;78;81;2206,36113008624;0,677135110709446
"F_384";63;69;63;67;1134,74790082181;0,652727866710228
"F_385";88;89;87;90;2192,16952966911;0,698357217756031
"F_386";79;82;80;81;1614,63505749368;0,681833693550228
"F_387";62;60;61;57;515,020922073461;0,60386862784606
"F_388";36;39;35;39;207,254357828135;0,583386052849286
"F_389";60;60;57;58;779,582951530022;0,664486447536169
"F_390";48;47;53;49;573,418690348572;0,651946921905594
"F_391";57;69;59;72;529,172504277392;0,621977793919268
"F_392";45;40;46;41;166,314943433224;0,576484731906707
"F_393";52;68;53;68;698,710066767889;0,636035653650256
"F_394";101;104;94;107;2755,21694499493;0,714549681111046
"F_395";50;49;56;53;600,285766267618;0,635799522673035
"F_396";72;73;74;73;1526,72265198755;0,684950291395271
"F_397";98;92;97;92;4014,68471308819;0,732942039618492
"F_398";72;80;76;77;2186,26994980375;0,679091372571236
"F_399";66;76;68;79;1302,03155009774;0,662649936432488
"F_400";61;59;61;58;1091,60768747713;0,646044406122011
"F_401";76;69;77;72;1331,47171654948;0,650284784377544
"F_402";86;91;89;88;2495,46819966053;0,690473447759479
"F_403";20;24;19;25;56,1236821041539;0,533962852434191
"F_404";59;55;59;57;579,405504524447;0,632078456184753
"F_405";28;34;32;35;177,808536562656;0,58118000678722
"F_406";47;52;48;52;434,468372614307;0,597130902570232
"F_407";50;65;49;68;735,958231741879;0,61023161109697
"F_408";29;28;29;28;95,9864552584024;0,552773550975238
"F_409";61;62;62;67;1929,43844793913;0,673710239406545
"F_410";25;28;28;27;167,327935730458;0,55517991941833
"F_411";30;35;27;36;344,16198276975;0,600541027953111
"F_412";72;77;69;72;4023,33181551071;0,722255693457047
"F_413";27;25;30;26;132,002686114357;0,559742260820843
"F_414";31;31;33;32;175,807994984757;0,577178623013961
"F_415";36;25;36;29;317,382111034602;0,637523931078497
"F_416";66;57;69;54;932,814397086316;0,65918838667107
"F_417";68;66;72;68;568,487619633699;0,615053101431429
"F_418";78;94;77;95;2988,81000708522;0,698194525334887
"F_419";49;50;50;47;659,151272961951;0,648280337443221
"F_420";38;34;38;36;209,631052270403;0,577734939759035
"F_421";70;66;77;65;1018,86109324371;0,64723032069971
"F_422";67;64;67;56;1236,15772157279;0,673218397259507
"F_423";70;90;72;92;2237,85018688892;0,681756141947226
"F_424";94;95;92;96;4349,93378560133;0,719567827130854
"F_425";50;47;54;52;705,630438886706;0,614233744940308
"F_426";60;62;64;66;852,938467562469;0,661224489795926
"F_427";69;73;70;72;1680,68161537852;0,664339152119702
"F_428";61;65;64;63;659,507268744969;0,627381201590956
"F_429";25;20;27;21;67,7604327090701;0,536183916271581
"F_430";52;49;53;51;665,506699013312;0,624179943767574
"F_431";44;46;46;45;480,698943047518;0,62411495210329
"F_432";46;51;48;49;424,893602304912;0,600751691305436
"F_433";102;99;97;100;4581,03426477884;0,729285801192362
"F_434";87;80;85;74;2093,85897066268;0,678975985500682
"F_435";74;77;75;73;1868,57451584887;0,704927672586153
"F_436";33;34;35;33;276,981606017536;0,589148810693925
"F_437";49;52;49;55;374,709485649638;0,598651685393257
"F_438";72;82;66;77;1849,8913586242;0,674089068825914
"F_439";52;55;54;53;629,463610629886;0,634923997669616
"F_440";31;27;34;27;165,887482567701;0,557737042895691
"F_441";73;68;73;63;1728,42109795124;0,677517802644966
"F_442";45;48;43;47;432,676406674293;0,630947368421054
"F_443";70;59;72;60;1074,82624422793;0,663016426082629
"F_444";69;59;73;61;1207,95978642624;0,666148032896201
"F_445";17;16;17;16;18,8818362449004;0,526412857331051
"F_446";75;63;75;62;1145,21381537635;0,651592564409177
"F_447";64;63;64;59;735,361802456414;0,624700364773318
"F_448";22;22;23;23;88,914618972411;0,560265457774454
"F_449";63;56;61;54;693,653599944059;0,631745362563239
"F_450";38;41;40;42;167,194021851466;0,592351022828342
"F_451";45;50;43;51;305,709065043284;0,583584850550091
"F_452";53;61;55;60;966,467067971772;0,646811265781809
"F_453";51;46;53;48;979,348740185867;0,646323053698515
"F_454";78;76;76;78;1683,71897757476;0,689758342922903
"F_455";33;40;32;41;202,698157361522;0,576373864128082
"F_456";89;90;83;84;1637,79748790378;0,68370023953462
"F_457";70;69;69;68;1157,24935838865;0,654688438643441
"F_458";50;40;49;42;461,450317363038;0,611851171336701
"F_459";65;54;68;53;1042,95823730179;0,641481164383563
"F_460";89;97;96;94;2265,61747969322;0,680131623737661
"F_461";49;45;52;48;635,565490373097;0,630383341221015
"F_462";40;51;39;51;352,915822795028;0,606465320989527
"F_463";82;86;85;89;1741,4291609049;0,669271996426979
"F_464";57;55;58;55;809,388404778414;0,633983817229892
"F_465";106;89;106;88;2108,73379763606;0,700929661462904
"F_466";55;52;53;50;571,957933886363;0,624993483134352
"F_467";39;31;41;32;177,441843932241;0,599160335865653
"F_468";50;43;50;43;298,182645586714;0,588194887395121
"F_469";79;82;82;82;1975,14257576654;0,690990835206647
"F_470";85;97;86;95;2343,31431057065;0,692507654092775
"F_471";84;96;82;94;2196,0337668883;0,675076022074559
"F_472";38;42;38;40;461,474953847621;0,608775137111517
"F_473";38;39;36;40;265,871686387294;0,597101160531951
"F_474";29;29;30;29;71,222979856862;0,5572185553593
"F_475";85;91;84;91;3376,88837909226;0,719697424506218
"F_476";56;59;55;58;1337,03705478914;0,662064394985371
"F_477";32;45;32;41;900,031570271292;0,651627982823292
"F_478";53;57;54;59;2234,35181644553;0,649580059604448
"F_479";82;94;80;95;1998,00282560806;0,69270773142263
"F_480";52;44;52;43;612,079944872833;0,637422236401341
"F_481";31;33;31;35;181,095827989434;0,571919278660368
"F_482";62;64;61;64;836,035265424964;0,65212424522657
"F_483";51;46;55;47;453,581436548884;0,602805853069844
"F_484";46;53;49;53;521,223618610326;0,602533172496983
"F_485";55;59;59;56;869,819215861134;0,629192253188475
"F_486";79;69;77;67;1975,97126471701;0,672727272727275
"F_487";97;88;93;88;3028,03079592661;0,703686311340695
"F_488";23;32;24;33;105,038158832669;0,565818662387312
"F_489";24;30;23;30;242,95072259783;0,576457010963646
"F_490";79;68;81;66;1273,07664549824;0,661845083641585
"F_491";40;40;40;39;272,235212823918;0,601354401805868
"F_492";43;50;41;49;354,616158830585;0,565925506302222
"F_493";64;83;66;88;1033,12534076889;0,648385526529288
"F_494";71;66;68;66;1444,32918666636;0,678399637824686
"F_495";31;42;37;45;89,5305209664261;0,576956396188275
"F_496";66;76;66;73;1735,17352926097;0,697463346520835
"F_497";62;69;64;69;1224,70073757679;0,654974594328801
"F_498";40;41;41;41;512,58671317936;0,582932166301969
"F_499";46;48;45;47;595,523616463275;0,657200811359033
"F_500";35;43;34;44;161,094251590032;0,578431845597104
"F_501";73;77;73;74;3070,09279867428;0,718791221969066
"F_502";29;29;27;29;145,235259241327;0,564805653710246
"F_503";69;62;72;70;808,027673982101;0,626823529411764
"F_504";69;82;70;83;2023,00232971356;0,673520984324963
"F_505";103;113;105;114;4058,76026121955;0,736906810917142
"F_506";45;46;46;45;626,005299567542;0,616730116267105
"F_507";83;74;83;72;2042,66963418931;0,683388439174555
"F_508";56;51;53;55;780,969123805935;0,641618497109828
"F_509";55;49;57;51;674,404879862027;0,616793578925704
"F_510";63;57;69;68;759,196293456119;0,614422633386294
"F_511";32;27;33;27;227,849676253119;0,586038326163472
"F_512";68;75;72;79;1073,21063087906;0,648455671552985
"F_513";63;58;66;62;895,111464683988;0,637693494334806
"F_514";50;46;48;45;492,310459702722;0,635496183206109
"F_515";38;31;38;31;194,91639623699;0,55325826103009
"F_516";60;56;65;64;1670,34035663874;0,655619360131258
"F_517";72;64;70;66;1395,8538657144;0,656193551918552
"F_518";88;86;90;93;1862,08039196366;0,688095511422341
"F_519";64;60;60;59;788,736206842554;0,63755783651545
"F_520";102;101;102;99;3429,54780924148;0,731198536139071
"F_521";42;42;40;44;258,481046722967;0,590076786769048
"F_522";42;39;45;40;308,784178867554;0,563319392885672
"F_523";51;48;53;44;1214,70120407447;0,682066454255809
"F_524";68;76;64;80;1816,20369695591;0,677977604343404
"F_525";64;63;61;63;1617,91244770483;0,664560119740567
"F_526";35;24;38;28;156,356975725901;0,579550398839737
"F_527";34;37;37;39;213,466158272306;0,588830492656808
"F_528";21;20;20;19;48,3911573099908;0,529505300353358
"F_529";34;21;33;23;116,359095001143;0,583812213889158
"F_530";46;41;44;42;355,451495945981;0,626136007521154
"F_531";93;92;88;89;2516,61430395215;0,6986013986014
"F_532";77;81;80;78;1481,29036431887;0,653119041133208
"F_533";48;49;44;46;836,154101647843;0,648035028920486
"F_534";47;53;47;52;514,542946378322;0,62985341249409
"F_535";80;85;82;85;2606,16230125901;0,700561009817676
"F_536";80;82;75;80;2563,15438104137;0,698642112011194
"F_537";57;60;62;63;1117,51142482799;0,64989699663884
"F_538";74;71;70;69;1860,52874598087;0,695480652085633
"F_539";103;105;104;104;4940,53293168261;0,732718049019014
"F_540";50;55;50;55;723,730259782592;0,629919604855237
"F_541";94;110;95;107;2763,79068140315;0,704761904761907
"F_542";59;65;57;63;821,486576077115;0,641858970926811
"F_543";94;77;91;75;2732,12291793068;0,677364673974463
"F_544";58;47;67;54;598,429491652792;0,597041685342894
"F_545";64;64;70;68;1070,0192065545;0,635732088879463
"F_546";69;76;72;75;2052,37514332638;0,697828744397233
"F_547";35;32;32;32;507,838700397741;0,616001233235702
"F_548";76;72;74;70;1437,36272234311;0,667037614066327
"F_549";81;77;74;74;1627,57119683387;0,66408154221139
"F_550";44;40;44;39;352,65596729311;0,623595505617982
"F_551";31;38;29;37;196,453344171327;0,58313065473295
"F_552";25;27;23;25;123,784098190737;0,598293157658331
"F_553";105;100;98;97;4471,77810126753;0,734738906594757
"F_554";55;48;55;47;626,461103412208;0,643893006767647
"F_555";34;23;36;23;135,856209205382;0,57466085039068
"F_556";97;87;94;88;2569,69083876534;0,704471998589647
"F_557";123;112;126;115;5267,34481788058;0,733076499724822
"F_558";82;76;82;76;1507,07714204082;0,675913396481736
"F_559";34;40;34;38;380,766326122004;0,600360576923075
"F_560";32;37;33;37;245,643277108242;0,59337722120477
"F_561";108;99;106;94;4745,27217422287;0,741648106904235
"F_562";56;56;54;54;1191,54304816453;0,651592564409177
"F_563";65;77;64;85;986,645839102751;0,661845083641586
"F_564";38;43;40;47;349,990872982927;0,604203417166473
"F_565";33;34;37;37;241,270340442806;0,580785814640762
"F_566";32;33;32;33;99,2704123219825;0,554871557509835
"F_567";49;48;51;48;1155,98774357721;0,654188267394273
"F_568";69;74;66;69;1398,58152679521;0,680440458621866
"F_569";38;42;38;43;241,807403349005;0,57314974182444
"F_570";39;40;38;39;188,510014485798;0,604752055692882
"F_571";70;78;69;78;1554,7925506111;0,685498627630379
"F_572";111;109;113;111;3845,37883300285;0,708803878673211
"F_573";63;63;65;61;1070,23930407132;0,650885003800632
"F_574";78;66;81;73;1099,89588990069;0,649404117009752
"F_575";22;20;23;20;114,100894863015;0,538592865486567
"F_576";58;56;64;58;656,254338029739;0,608466145568977
"F_577";63;66;65;69;883,904370829187;0,663493469116672
"F_578";65;57;70;61;1091,58322646667;0,630681818181818
"F_579";43;42;44;42;423,004365384016;0,614328174643845
"F_580";44;37;42;34;591,664696574134;0,642030848329054
"F_581";38;41;46;46;283,449908362979;0,569176716361218
"F_582";17;15;18;15;52,3316533930466;0,521421425775304
"F_583";77;79;74;79;2642,12645259104;0,682299373932842
"F_584";60;66;63;66;798,995731955203;0,640111063648014
"F_585";111;116;115;114;4319,23973003062;0,731510861606058
"F_586";64;70;64;74;827,440137587833;0,647859922178989
"F_587";62;59;64;61;840,50018978616;0,649615259564324
"F_588";86;80;85;81;1995,66038352182;0,68315477547299
"F_589";37;32;41;34;277,167118812807;0,581292731416378
"F_590";53;55;52;58;546,733514390596;0,615811373092926
"F_591";57;58;57;57;1140,47419465049;0,630250775458703
"F_592";78;85;79;86;1751,59627034447;0,660204868377577
"F_593";32;29;32;31;165,570997530586;0,584295949700248
"F_594";69;54;74;59;1551,93050522362;0,66013215859031
"F_595";51;48;48;46;433,139849079282;0,607356368426385
"F_596";70;73;75;75;1284,37377609654;0,657597366977511
"F_597";39;44;44;46;284,138900955481;0,586439683005575
"F_598";46;38;45;38;745,05652581831;0,644342918570281
"F_599";86;86;83;84;1844,20629865392;0,692067890543819
"F_600";83;86;76;82;1610,11009136225;0,668152937242227
"F_601";53;52;52;54;983,006778846013;0,666296131614058
"F_602";31;40;33;38;487,404468620681;0,615400410677617
"F_603";79;83;80;83;1613,64278949912;0,680208806173401
"F_604";59;39;59;42;370,931156253532;0,610791256941967
"F_605";56;58;55;56;664,384811845765;0,635732088879462
"F_606";55;63;52;64;915,044523129154;0,640692640692642
"F_607";87;107;86;98;3344,1874380271;0,717414721723523
"F_608";61;60;62;62;1776,14243343412;0,662833130598254
"F_609";24;30;26;34;121,088648917676;0,575958489478235
"F_610";71;83;69;73;2128,99841195909;0,707381837493366
"F_611";53;70;56;70;878,922929964643;0,659623638164413
"F_612";32;34;34;36;182,747448742705;0,568555845387716
"F_613";85;80;84;84;3166,79136963627;0,706548004950792
"F_614";44;48;42;46;647,133850371494;0,62489574645538
"F_615";31;32;33;33;242,006215499302;0,58586648421464
"F_616";73;74;70;77;2024,23036856514;0,678975985500683
"F_617";73;71;78;72;2552,60114090347;0,69713886950454
"F_618";48;46;51;48;700,266402733915;0,627611119836658
"F_619";37;41;38;41;426,760212300106;0,597577388963659
"F_620";70;66;73;71;1075,39439904566;0,648315396679468
"F_621";49;52;49;53;481,708352867381;0,632512003376775
"F_622";33;44;32;46;251,062608823384;0,583045571713437
"F_623";53;59;64;73;1013,97145529988;0,648000000000002
"F_624";55;54;55;53;707,833370405148;0,596032416844826
"F_625";80;71;83;71;1056,69351876377;0,651557149845102
"F_626";32;35;30;33;101,851007888964;0,558776918057238
"F_627";62;52;65;55;958,628568334863;0,652124245226569
"F_628";27;28;28;29;89,9842820894713;0,55554010843876
"F_629";91;90;94;93;2210,46839743371;0,668562824159279
"F_630";57;66;60;66;2003,6689943839;0,690592776081576
"F_631";50;42;52;42;277,929633784813;0,597845601436265
"F_632";97;102;91;97;3270,76356737296;0,708803878673212
"F_633";26;33;26;35;135,207607950808;0,573918039065491
"F_634";44;51;44;49;388,183884144533;0,617015801122033
"F_635";68;70;71;71;1907,69180844699;0,660932848164078
"F_636";46;48;47;50;441,468171500915;0,614863825203877
"F_637";22;26;25;28;122,753441311084;0,561682987396335
"F_638";50;51;49;50;399,099627271254;0,59567701863354
"F_639";35;38;38;34;451,801301200284;0,626397742710839
"F_640";104;102;104;102;3992,84257368497;0,724394223215908
"F_641";47;50;48;51;389,029065928016;0,587014004504945
"F_642";86;86;82;91;2227,05768887805;0,679707433236947
"F_643";47;47;47;46;341,368676117783;0,618863249186929
"F_644";60;78;61;78;1456,46900419852;0,654724194429276
"F_645";49;50;44;45;932,077791194433;0,67874532895482
"F_646";59;52;58;56;687,989073862205;0,625580545843552
"F_647";72;66;68;64;1251,63682251355;0,648070061628286
"F_648";26;30;27;30;265,98351744753;0,578292329956583
"F_649";77;89;75;87;2128,49234643191;0,675038008896902
"F_650";30;33;34;32;300,694441851853;0,601837441638636
"F_651";81;81;90;82;1899,34406178621;0,667929574325833
"F_652";57;60;54;60;894,97287835927;0,641206675224648
"F_653";82;77;82;79;801,997974556727;0,658608944072083
"F_654";62;60;59;58;1287,89698017547;0,646601941747574
"F_655";74;70;80;74;2895,03816057803;0,701462843768291
"F_656";80;89;84;91;2486,91322920121;0,693709854753777
"F_657";42;33;42;34;265,093759819587;0,591124260355029
"F_658";72;80;70;85;2044,8370870526;0,695319297024537
"F_659";16;27;20;27;67,3126674000493;0,538689673766515
"F_660";47;47;48;48;497,256258401692;0,617238183503243
"F_661";80;84;78;74;3144,94124736767;0,729729729729734
"F_662";46;44;50;46;357,803481147651;0,608991617983235
"F_663";58;60;56;58;644,174011882103;0,624049973971889
"F_664";53;57;53;56;1104,9927801196;0,653119041133209
"F_665";87;95;89;99;1897,20670747984;0,687898089171977
"F_666";69;70;66;72;1305,01916808116;0,670657342657346
"F_667";79;77;80;74;3470,38049160656;0,732181029744095
"F_668";60;67;66;70;678,546840882147;0,641069518716579
"F_669";39;33;39;36;256,640786852226;0,586870318695843
"F_670";73;78;70;75;1445,47107970633;0,666259100761408
"F_671";36;29;36;30;84,8130603996602;0,562631998873609
"F_672";29;28;30;29;132,276728814145;0,549429396397635
"F_673";30;33;28;34;254,150120041108;0,581490104772991
"F_674";44;39;44;42;268,703092484529;0,586554457383305
"F_675";46;38;48;40;236,035462366324;0,598412619178355
"F_676";73;78;72;81;1677,01579216486;0,670694864048342
"F_677";46;38;51;38;231,608599559219;0,576263038984761
"F_678";82;84;82;85;2724,98594898543;0,700151851419228
"F_679";90;86;88;84;1901,1376689406;0,679553313304236
"F_680";41;40;37;38;348,859145599462;0,589264648053479
"F_681";48;50;52;57;295,16332995658;0,590105833128229
"F_682";34;26;32;28;198,521188885098;0,593230403800474
"F_683";43;34;43;31;285,359918668725;0,58744548439261
"F_684";65;67;64;67;1263,60670460183;0,6591159005938
"F_685";91;87;91;88;2406,28878253454;0,702984812056533
"F_686";49;63;54;60;1246,22690784653;0,70236700257793
"F_687";62;65;66;70;1326,13941533636;0,640966689835857
"F_688";60;56;61;55;1099,51332747428;0,656588892540259
"F_689";70;63;71;62;1635,20978355715;0,681950054041757
"F_690";52;53;52;54;524,91736500394;0,618831302911418
"F_691";102;111;99;108;3461,81677091113;0,710610551274453
"F_692";49;52;48;52;857,869298895202;0,660787123801131
"F_693";56;52;57;52;515,76819969659;0,612132352941176
"F_694";100;118;92;114;6186,88235861353;0,74589347934296
"F_695";75;68;82;75;951,909575348001;0,646636819677438
"F_696";39;39;38;38;685,788290994912;0,622042341220423
"F_697";128;108;117;102;6454,36239574504;0,747801135300359
"F_698";82;83;79;82;1076,80081679044;0,660568657703331
"F_699";33;33;32;33;143,270370225882;0,551755879780918
"F_700";57;55;58;54;1477,25224787255;0,65561936013126
"F_701";46;42;41;39;268,920146928824;0,587215282880234
"F_702";45;38;47;39;333,710029428054;0,591328367779805
"F_703";59;68;54;67;1361,25768269672;0,673823843516387
"F_704";97;92;100;94;2453,46590450934;0,709601041789987
"F_705";45;50;44;50;590,151177855113;0,620529012888866
"F_706";83;80;81;84;1684,30243244342;0,672387682988392
"F_707";49;67;51;70;634,5397712492;0,616888797406472
"F_708";53;50;46;48;775,197610071661;0,659188386671067
"F_709";27;36;24;38;192,386499552652;0,593788696815096
"F_710";41;33;42;33;207,48211307733;0,572301522891105
"F_711";61;49;55;47;1091,37104502664;0,681446111869036
"F_712";57;69;57;66;1647,61535605734;0,675532514369438
"F_713";74;75;74;71;1008,32428780713;0,664928725941541
"F_714";44;39;42;42;402,082751508881;0,625319492984197
"F_715";63;59;65;60;1703,41714338379;0,643858424190345
"F_716";31;34;36;37;232,088070970869;0,565098519845384
"F_717";53;45;57;46;515,629916155615;0,60874422383588
"F_718";64;56;59;55;1247,1483119374;0,666889185580778
"F_719";53;52;53;55;1019,33769990209;0,615432003696287
"F_720";46;48;45;47;303,450592795901;0,598621791670826
"F_721";87;73;88;73;2846,23160713892;0,694312521718988
"F_722";59;62;64;62;1022,25685761937;0,653225806451616
"F_723";39;39;38;35;549,694698099148;0,64223722275796
"F_724";29;28;30;26;359,827773298828;0,606772283241382
"F_725";82;75;80;74;1483,12407747592;0,653261402648359
"F_726";38;32;39;36;196,712851693709;0,572738999570015
"F_727";50;47;55;51;551,141266135755;0,624505105230255
"F_728";35;38;32;38;297,57779447997;0,59922023392982
"F_729";47;51;50;55;690,763363414637;0,641549823397197
"F_730";81;70;80;69;2569,13183826759;0,68354430379747
"F_731";53;48;55;47;480,539218502686;0,634554308702099
"F_732";85;98;85;96;2333,77311705752;0,681484850207494
"F_733";43;59;43;60;583,969430268838;0,626266847769303
"F_734";55;61;53;61;565,035341997226;0,609084442637942
"F_735";56;56;49;53;489,741954477226;0,62593984962406
"F_736";39;34;41;35;248,717517683599;0,579942915195199
"F_737";49;45;50;44;906,250840123149;0,633883248730966
"F_738";46;48;45;49;356,446663637678;0,599639855942376
"F_739";108;104;104;101;4121,62767698434;0,729108380975555
"F_740";71;75;74;73;1239,35097020943;0,682338209346009
"F_741";94;88;88;85;2667,03828559212;0,697382198952882
"F_742";77;66;80;69;1255,85857015245;0,685420240137224
"F_743";58;60;59;61;549,381312019376;0,615874646801951
"F_744";41;44;41;47;395,407269785284;0,58747427227286
"F_745";75;68;72;67;1815,09652366623;0,665852032881587
"F_746";82;79;77;84;2031,57321866069;0,6584280771132
"F_747";76;76;73;74;1664,39523239506;0,699457377910034
"F_748";30;38;34;38;279,898382204761;0,583300895289995
"F_749";81;74;78;68;1997,96936290069;0,692627686618911
"F_750";83;79;82;81;2089,94994574558;0,668264674731035
"F_751";37;48;36;49;612,002521707354;0,62372528616025
"F_752";43;46;46;47;368,242407773103;0,61470618398113
"F_753";78;82;86;86;1348,21064597009;0,649791316602527
"F_754";52;50;53;52;452,776351814859;0,599100449775112
"F_755";102;89;103;89;3379,63829410216;0,722778246714101
"F_756";64;63;72;69;1161,48207587273;0,659079663532906
"F_757";36;38;38;38;187,038028045438;0,597577388963659
"F_758";73;86;71;85;1177,29764652089;0,645731214651227
"F_759";33;39;35;42;299,794371514299;0,600691486696396
"F_760";54;54;58;59;373,033286218661;0,604386186034786
"F_761";33;30;32;29;204,105982539414;0,605393394606604
"F_762";94;79;91;78;2045,21573665231;0,674089068825912
"F_763";20;33;20;33;60,7441685122692;0,55051432770022
"F_764";48;36;47;37;267,865695163399;0,596893049193386
"F_765";60;68;61;74;1854,34717836286;0,68017021276596
"F_766";111;110;113;107;3854,9388182836;0,715573330149826
"F_767";102;92;96;94;3401,81498290634;0,71978384869409
"F_768";34;33;38;34;154,744440112366;0,556494290223749
"F_769";26;27;29;29;89,7538548139168;0,546972669617193
"F_770";38;43;39;41;569,538129502237;0,626168712457561
"F_771";38;35;36;34;194,33409944666;0,591941536638356
"F_772";46;36;49;35;332,9328207304;0,598831110445076
"F_773";57;56;57;58;628,439358354129;0,613479351107926
"F_774";45;42;43;41;474,199763762059;0,593113002176924
"F_775";66;57;64;56;729,344742209631;0,620047584566049
"F_776";29;33;30;33;199,663829143124;0,560108396019249
"F_777";71;68;70;72;1078,71816411447;0,66013215859031
"F_778";40;35;41;31;781,899633432465;0,661589403973518
"F_779";51;61;51;61;464,182357758397;0,606097376004853
"F_780";34;42;33;40;489,029948638231;0,631146677898286
"F_781";72;68;72;64;1564,30414512304;0,656229472301294
"F_782";21;28;20;28;150,029487229342;0,591941536638356
"F_783";45;42;45;45;355,101008040044;0,62294741218042
"F_784";46;44;45;45;319,851426036577;0,58833922261484
"F_785";40;44;40;44;215,604497796935;0,583528037383176
"F_786";89;94;89;90;3369,23518223259;0,733525056599159
"F_787";66;66;65;59;1469,96480268975;0,654188267394273
"F_788";43;37;45;42;397,019331904196;0,595351609058402
"F_789";58;48;64;48;757,46896000877;0,601083032490974
"F_790";65;66;71;67;825,821692832634;0,621848739495797
"F_791";67;60;68;62;738,736953417781;0,651167843563283
"F_792";78;80;76;79;1451,07550819222;0,677096865292292
"F_793";37;37;36;36;213,817070103693;0,599789863411216
"F_794";41;44;41;43;273,547989232219;0,58230922426774
"F_795";38;45;41;46;447,203169771955;0,615116219405818
"F_796";75;77;68;80;1113,84893663617;0,661881625441697
"F_797";81;63;78;61;945,700705016031;0,655189375307429
"F_798";70;74;71;78;2227,56224879776;0,670995186387555
"F_799";39;32;39;34;232,70322448524;0,564088085827215
"F_800";56;46;59;44;779,105186655689;0,64434291857028
"F_801";29;27;28;29;204,714733340337;0,598591900933738
"F_802";71;70;74;66;2263,93349955222;0,681756141947232
"F_803";32;32;34;32;199,517012278383;0,583414444228147
"F_804";29;29;27;27;138,696367981984;0,572520177658913
"F_805";85;82;84;85;1705,38325138944;0,672500841467521
"F_806";35;40;36;37;207,519254238513;0,586095629216778
"F_807";87;86;93;91;1532,18132376872;0,675951508316889
"F_808";41;41;42;43;337,934335348271;0,641412520064209
"F_809";64;59;68;60;2017,41843041765;0,685969329365992
"F_810";85;87;85;90;2506,79439597464;0,684324694599841
"F_811";55;61;57;63;653,744249450953;0,626070607896385
"F_812";83;82;83;82;2478,21681545123;0,701996837852084
"F_813";44;39;43;43;342,173293555195;0,589148810693924
"F_814";40;40;43;41;347,986238244583;0,618256833419287
"F_815";61;63;60;62;1645,67762891757;0,67507602207456
"F_816";62;62;57;55;741,801026724961;0,636711281070747
"F_817";45;41;43;39;597,0776205689;0,636711281070748
"F_818";41;44;41;42;462,512409644148;0,625091250391074
"F_819";74;58;78;61;1359,80432401783;0,644932214331828
"F_820";78;61;76;60;1173,2500270844;0,661881625441698
"F_821";61;60;68;65;938,454193700288;0,649685670929983
"F_822";43;43;44;40;483,235405513697;0,62597253407133
"F_823";34;40;37;45;264,659696162621;0,571973853714394
"F_824";48;49;44;43;297,749653172294;0,606680161943319
"F_825";40;38;40;40;185,921912513738;0,597488038277511
"F_826";97;98;92;95;3271,69275990179;0,70909736188336
"F_827";98;88;103;92;2583,65522050172;0,688332567753794
"F_828";73;89;74;85;3048,22971713355;0,701257677683535
"F_829";65;76;66;78;1440,20109501483;0,662357036300351
"F_830";55;44;56;45;440,925927210631;0,610355888193064
"F_831";50;44;52;45;346,483134639403;0,590367379099772
"F_832";42;42;42;42;354,062537688641;0,599459945994598
"F_833";43;38;43;40;537,71303651253;0,61819306930693
"F_834";26;28;25;28;156,961434014444;0,563637218486999
"F_835";66;80;65;74;2415,17064955359;0,696490820357891
"F_836";83;83;78;87;2275,36750664531;0,676982154958213
"F_837";62;68;62;71;917,283204987476;0,646950890447924
"F_838";37;39;37;41;226,451181076648;0,599789863411215
"F_839";33;36;32;37;259,225047338959;0,612257405515832
"F_840";65;62;68;65;994,281604640113;0,645175178946236
"F_841";58;65;53;59;566,283106713622;0,612101097778911
"F_842";34;31;37;32;280,572980452312;0,562526394819576
"F_843";60;68;58;68;1030,32131518079;0,657994401449042
"F_844";46;54;43;50;467,547576720102;0,627249895353704
"F_845";55;48;48;50;502,286609406279;0,615021547301456
"F_846";91;107;100;104;2878,89583888141;0,701011636746391
"F_847";85;81;78;79;2024,38573519485;0,675532514369438
"F_848";84;72;78;63;2212,31241778767;0,69222773992378
"F_849";48;57;46;55;817,015496957001;0,661516388919548
"F_850";38;38;37;44;251,754599153268;0,568124733424956
"F_851";37;35;38;35;315,144208905807;0,600721587492482
"F_852";39;44;45;48;288,195597305099;0,582365800340052
"F_853";63;56;55;51;1545,11486495951;0,669047884808578
"F_854";38;35;40;42;388,803787018384;0,606097376004852
"F_855";92;87;92;85;2691,28754398766;0,684207522401692
"F_856";78;77;71;76;3427,93151088114;0,709727073589491
"F_857";69;80;71;80;1532,89094824517;0,659986787051314
"F_858";38;35;39;32;367,055526596873;0,602957448948797
"F_859";67;67;63;66;1129,27482185833;0,648560917550317
"F_860";46;43;47;43;536,742851848884;0,624407521225064
"F_861";52;57;50;62;864,496353092461;0,619023030052669
"F_862";57;61;55;60;1310,1660755148;0,658355758141582
"F_863";85;84;88;81;2563,76597641777;0,708510638297874
"F_864";61;58;63;53;880,694929918561;0,644273660450371
"F_865";52;48;53;46;752,928329389902;0,613134206219312
"F_866";51;50;51;51;411,287039108492;0,606680161943319
"F_867";82;76;80;79;1790,36379376561;0,685341870569406
"F_868";63;50;68;53;1024,09315929036;0,643547348078164
"F_869";55;60;57;66;787,048722189493;0,644100580270796
"F_870";70;69;67;73;2172,529806972;0,693950795947905
"F_871";40;53;38;55;359,875394185177;0,596299243931555
"F_872";18;15;19;15;41,2044438842891;0,523905253037323
"F_873";37;31;35;32;273,26496513403;0,614233744940309
"F_874";52;40;59;45;368,470557307984;0,613259668508287
"F_875";54;54;54;58;661,221458164195;0,618416301263863
"F_876";81;94;82;93;3701,91079685467;0,737496155029224
"F_877";66;65;63;59;1433,60237807293;0,666407248874315
"F_878";84;81;81;78;1853,21178618486;0,682726806765762
"F_879";34;43;37;43;322,901885932216;0,588772653602473
"F_880";46;39;46;37;589,179738865876;0,655655217676664
"F_881";70;60;68;64;789,670868406556;0,641584158415843
"F_882";50;52;51;50;441,333422675608;0,608311767392296
"F_883";26;28;25;30;169,853715080975;0,568421052631578
"F_884";53;51;53;48;537,38251715575;0,621816484257482
"F_885";40;36;40;36;224,471269988252;0,619727047146402
"F_886";23;19;24;19;107,597635070664;0,571619301926377
"F_887";16;15;16;17;30,1658979601381;0,527826699542093
"F_888";94;92;100;98;1966,44404970153;0,695440306300037
"F_889";56;44;61;48;465,34113870128;0,614800759013282
"F_890";107;105;101;104;4834,32934625594;0,740960504357504
"F_891";110;116;112;113;4410,13841833704;0,733929227378477
"F_892";70;75;74;76;2421,63799226188;0,706548004950787
"F_893";106;120;109;121;3941,77002032612;0,732673267326737
"F_894";59;57;61;62;525,461268596061;0,618927151634054
"F_895";34;34;41;36;223,381472205568;0,572766364070711
"F_896";83;85;85;87;2092,62450882893;0,679514794241017
"F_897";84;82;81;82;1528,6340157777;0,66327321013611
"F_898";36;34;38;32;208,199619963587;0,589641434262947
"F_899";72;90;70;88;2624,84956442821;0,713571428571432
"F_900";99;105;105;93;4806,51248745074;0,743487968246096
"F_901";35;39;32;40;427,059253122545;0,602351522460053
"F_902";52;49;56;52;316,976161114747;0,604508093389137
"F_903";78;75;83;74;2366,53801199027;0,702449314426346
"F_904";72;76;69;75;1603,62251174108;0,683466362599776
"F_905";63;66;65;65;1165,46161527561;0,648911984410525
"F_906";25;30;26;31;110,343196918597;0,562236187974861
"F_907";57;60;58;61;563,763605957592;0,622139187295655
"F_908";98;81;99;88;2441,42019019871;0,675608656447252
"F_909";100;101;99;96;2594,20278822197;0,694111516414801
"F_910";56;61;58;62;802,164175580926;0,653795811518328
"F_911";52;50;50;52;895,696712791471;0,645939975214183
"F_912";37;31;39;34;446,397913346884;0,632378540908378
"F_913";37;36;37;37;167,154066055345;0,577818479780208
"F_914";87;84;84;84;2048,30748352406;0,684793784988005
"F_915";71;77;69;78;1181,73243322806;0,665852032881585
"F_916";89;99;84;94;2944,58955845179;0,711116383912684
"F_917";95;88;88;88;3092,0971585203;0,692587671153737
"F_918";64;58;63;58;1043,51638850164;0,637863147813133
"F_919";54;55;55;53;966,697120478985;0,646357901547423
"F_920";42;38;44;39;473,340109493237;0,606833712984053
"F_921";115;106;116;109;4480,27924863556;0,726633531337136
"F_922";63;74;64;77;1096,81529903475;0,640453039854689
"F_923";47;33;50;35;177,102757834637;0,571483052867425
"F_924";73;79;74;79;2194,12222232019;0,681329923273662
"F_925";49;52;49;50;804,867219814999;0,642615920664704
"F_926";42;42;43;44;195,145834953757;0,576928629866691
"F_927";60;55;58;57;993,500136205503;0,655834564254065
"F_928";47;42;45;44;687,076383494112;0,599699849924962
"F_929";58;63;56;62;1762,02723006745;0,668301928866101
"F_930";42;42;40;41;253,778457112472;0,589293614511133
"F_931";103;111;94;108;4474,72222413392;0,736363636363638
"F_932";42;49;48;51;381,024559688753;0,601263918146253
"F_933";79;81;73;87;2254,26064343923;0,691389353480596
"F_934";83;83;80;86;3310,98358206688;0,723388848660395
"F_935";39;34;38;35;221,461666389081;0,606281292671824
"F_936";35;35;34;36;646,9353813607;0,623887587822018
"F_937";37;45;36;45;267,543168037743;0,584637893196781
"F_938";91;84;85;78;2317,08123275991;0,704016913319241
"F_939";41;40;43;42;234,212115774825;0,569365946331037
"F_940";33;36;34;36;307,743224885976;0,579242365674525
"F_941";53;39;55;42;324,342586440169;0,593171697179613
"F_942";33;28;34;30;183,57200383186;0,605576884219033
"F_943";68;74;73;72;1160,30769465538;0,666926286509044
"F_944";62;61;63;59;798,170697268318;0,65007320644217
"F_945";90;72;92;67;3493,88462310324;0,725007559721806
"F_946";83;82;79;86;1572,01900937667;0,675570583262892
"F_947";78;76;76;75;1319,42347605241;0,661260963097802
"F_948";61;65;62;62;1808,64949507032;0,660677872692204
"F_949";37;36;39;39;504,843502417925;0,621719738616326
"F_950";46;43;44;39;276,828254179717;0,580055160400637
"F_951";95;85;95;87;2216,14337854828;0,693509198195074
"F_952";70;69;70;72;1731,5821944358;0,673294018534122
"F_953";79;78;78;76;1409,30777857391;0,675304191077064
"F_954";48;60;46;57;651,009499179565;0,649263431542465
"F_955";102;96;96;99;4051,10242121937;0,740548554484807
"F_956";35;44;34;45;377,316259335699;0,611196084429488
"F_957";38;48;38;48;397,039942295552;0,608898821617228
"F_958";72;82;77;77;1466,28429514152;0,681523592950541
"F_959";61;57;62;61;639,395910732941;0,634252155970584
"F_960";58;62;63;61;764,49304942549;0,643098546215333
"F_961";57;55;55;54;854,026969330511;0,646950890447925
"F_962";79;72;73;72;2059,66529097425;0,672651778700483
"F_963";68;75;66;73;2004,79745392532;0,694755143436689
"F_964";40;41;41;41;213,039488043578;0,58067328651005
"F_965";66;62;68;64;1433,2934278827;0,653083460448901
"F_966";59;58;60;61;821,360004877546;0,637897089341778
"F_967";57;59;52;61;732,600990461005;0,642857142857145
"F_968";35;27;35;29;251,59911805019;0,572356170923847
"F_969";30;36;28;36;114,218159285772;0,555746140651801
"F_970";15;23;12;22;95,8630195748109;0,577234206471493
"F_971";37;33;37;34;279,893299373598;0,602714932126696
"F_972";73;71;81;72;1734,92473594279;0,687779690189331
"F_973";70;77;74;82;2025,99290553232;0,690632561354996
"F_974";39;39;37;37;254,785567637534;0,612257405515831
"F_975";70;72;70;73;1275,94988512577;0,6612609630978
"F_976";85;80;86;75;2291,12029507368;0,693148308759758
"F_977";55;57;62;58;872,783569851992;0,619855222337124
"F_978";74;72;78;71;2028,70507830791;0,670207413205128
"F_979";38;44;38;44;236,753682388101;0,621590791247538
"F_980";34;29;35;29;264,283390706765;0,571483052867425
"F_981";62;64;61;65;1246,64012923029;0,661735482446462
"F_982";92;113;93;111;2978,03837190358;0,72012975310867
"F_983";26;23;27;24;74,7656436458312;0,547572283378249
"F_984";65;65;71;65;1348,72285182756;0,668749302688837
"F_985";33;39;36;41;320,997342727908;0,584694922694238
"F_986";38;34;39;33;377,88779661642;0,603351955307261
"F_987";65;69;68;69;2114,27428291904;0,661772012144632
"F_988";65;72;71;76;1406,304052697;0,668786610878664
"F_989";19;21;20;20;72,6319003557889;0,522352941176471
"F_990";61;59;61;59;1011,98865298502;0,645800786510803
"F_991";52;52;52;51;479,712693205023;0,620657520062127
"F_992";74;65;73;64;1011,14507719209;0,640418825791977
"F_993";55;59;53;61;835,661171750957;0,64656706757996
"F_994";50;57;55;58;576,344836910306;0,625156445556946
"F_995";88;81;86;79;2640,34616402742;0,700110961864162
"F_996";28;27;29;30;178,330851525089;0,555488624252815
"F_997";84;85;78;80;1299,13540836589;0,668898560428525
"F_998";55;74;54;71;1451,1344138847;0,685890834191562
"F_999";96;90;95;82;4788,4035355941;0,73155550131202
"F_1000";77;66;78;69;2818,27563392533;0,712087912087918
