"ID";"index"
"F_1";7,99
"F_2";1,65
"F_3";2,47333333333333
"F_4";1,26666666666667
"F_5";3,79666666666667
"F_6";1,23333333333333
"F_7";1,47
"F_8";6,52666666666667
"F_9";1,26666666666667
"F_10";1,46666666666667
"F_11";1,3325
"F_12";5,4675
"F_13";10,1733333333333
"F_14";8
"F_15";0,991666666666667
"F_16";3,05
"F_17";1,365
"F_18";0,14
"F_19";2,36833333333333
"F_20";0,56
"F_21";2,6125
"F_22";4,31916666666667
"F_23";2,385
"F_24";5,87666666666667
"F_25";6,5975
"F_26";1,84
"F_27";2,61
"F_28";7,35
"F_29";2,47
"F_30";2,5175
"F_31";5,88
"F_32";3,795
"F_33";3,36
"F_34";9,45166666666667
"F_35";1,14083333333333
"F_36";5,805
"F_37";1,47
"F_38";4,14166666666667
"F_39";1,80166666666667
"F_40";1,87833333333333
"F_41";0,853333333333333
"F_42";2,85
"F_43";1,87833333333333
"F_44";0,826666666666667
"F_45";2,47
"F_46";1,92
"F_47";2,8025
"F_48";1,61333333333333
"F_49";1,07666666666667
"F_50";4,3125
"F_51";5,7275
"F_52";1,54083333333333
"F_53";5,67
"F_54";9,275
"F_55";3,62666666666667
"F_56";4,68416666666667
"F_57";6,9
"F_58";6,74916666666667
"F_59";6,4525
"F_60";5,2
"F_61";0,935
"F_62";2,61
"F_63";2,75333333333333
"F_64";1,80166666666667
"F_65";6,75
"F_66";3,85
"F_67";4,62333333333333
"F_68";0,700833333333333
"F_69";3,35833333333333
"F_70";0,9625
"F_71";2,34
"F_72";2,20833333333333
"F_73";3,4125
"F_74";1,57666666666667
"F_75";6,675
"F_76";1,65
"F_77";1,50333333333333
"F_78";2,70666666666667
"F_79";1,26666666666667
"F_80";1,14083333333333
"F_81";3,8525
"F_82";1,76
"F_83";6,89333333333333
"F_84";4,44
"F_85";2,38333333333333
"F_86";3,8525
"F_87";1,505
"F_88";1,96
"F_89";7,3425
"F_90";6,01333333333333
"F_91";5,07
"F_92";0,963333333333333
"F_93";4,56
"F_94";0,963333333333333
"F_95";1,725
"F_96";1,07916666666667
"F_97";9,17416666666667
"F_98";7,12833333333333
"F_99";2,475
"F_100";6,67333333333333
"F_101";5,94833333333333
"F_102";1,4625
"F_103";2,16666666666667
"F_104";2,70666666666667
"F_105";6,45
"F_106";4,44
"F_107";7,05333333333333
"F_108";0,44
"F_109";1,295
"F_110";1,84083333333333
"F_111";1,6125
"F_112";1,87833333333333
"F_113";3,6225
"F_114";4,625
"F_115";9,62833333333333
"F_116";3,85333333333333
"F_117";0,8525
"F_118";4,8125
"F_119";4,93333333333333
"F_120";7,44
"F_121";0,1875
"F_122";1,91916666666667
"F_123";2,12
"F_124";3,795
"F_125";0,63
"F_126";2,70666666666667
"F_127";2,475
"F_128";4,68416666666667
"F_129";1,9975
"F_130";3,575
"F_131";6,74916666666667
"F_132";7,28333333333333
"F_133";5,7375
"F_134";3,57333333333333
"F_135";0,88
"F_136";10,5366666666667
"F_137";6,59333333333333
"F_138";2,70416666666667
"F_139";2,08
"F_140";2,16666666666667
"F_141";5,60333333333333
"F_142";1,84083333333333
"F_143";1,14
"F_144";2,99916666666667
"F_145";3,91
"F_146";1,725
"F_147";7,44166666666667
"F_148";2,38333333333333
"F_149";2,52
"F_150";1,3
"F_151";5,6025
"F_152";2,99916666666667
"F_153";4,62
"F_154";2,80333333333333
"F_155";7,36333333333333
"F_156";4,02333333333333
"F_157";6,0175
"F_158";8,5
"F_159";1,50333333333333
"F_160";3,685
"F_161";6,52166666666667
"F_162";0,88
"F_163";0,826666666666667
"F_164";1,05
"F_165";2,04
"F_166";4,26
"F_167";3,25333333333333
"F_168";0,933333333333333
"F_169";0,826666666666667
"F_170";2,84166666666667
"F_171";5,20083333333333
"F_172";1,20333333333333
"F_173";1,50333333333333
"F_174";3,8525
"F_175";11,89
"F_176";1,33333333333333
"F_177";6,74916666666667
"F_178";1,65
"F_179";1,57666666666667
"F_180";0,316666666666667
"F_181";2,47333333333333
"F_182";4,56
"F_183";2,0825
"F_184";3
"F_185";1,11
"F_186";3,04833333333333
"F_187";0,878333333333333
"F_188";2
"F_189";1,14
"F_190";2,56666666666667
"F_191";0,606666666666667
"F_192";4,68666666666667
"F_193";1,2675
"F_194";0,5
"F_195";3,685
"F_196";5,53333333333333
"F_197";2,9
"F_198";1,2675
"F_199";10,2666666666667
"F_200";0,35
"F_201";4,025
"F_202";0,8
"F_203";7,59833333333333
"F_204";2,25333333333333
"F_205";9,435
"F_206";2,95
"F_207";2,61333333333333
"F_208";5,26666666666667
"F_209";3,96416666666667
"F_210";2,0825
"F_211";0,88
"F_212";2,1675
"F_213";0,44
"F_214";1,65
"F_215";1,33
"F_216";4,87166666666667
"F_217";10,4458333333333
"F_218";0,906666666666667
"F_219";0,676666666666667
"F_220";2,08333333333333
"F_221";3,96416666666667
"F_222";3,10083333333333
"F_223";2,6125
"F_224";4,87166666666667
"F_225";0,5175
"F_226";6,59333333333333
"F_227";3,85333333333333
"F_228";7,91166666666667
"F_229";5,535
"F_230";2,03666666666667
"F_231";11,6033333333333
"F_232";2,20833333333333
"F_233";6,97666666666667
"F_234";3,4125
"F_235";5,39833333333333
"F_236";1,9975
"F_237";1,46916666666667
"F_238";2,945
"F_239";1,46916666666667
"F_240";1,17
"F_241";0,520833333333333
"F_242";8,0025
"F_243";0,826666666666667
"F_244";7,20416666666667
"F_245";1,76
"F_246";3,85333333333333
"F_247";1,3
"F_248";7,59833333333333
"F_249";5,67166666666667
"F_250";2,42916666666667
"F_251";1,76333333333333
"F_252";0,4
"F_253";5,95
"F_254";3,20333333333333
"F_255";10,2666666666667
"F_256";1,92
"F_257";3,5175
"F_258";5,06666666666667
"F_259";7,8375
"F_260";1,02
"F_261";3,91
"F_262";1,6125
"F_263";5,80833333333333
"F_264";1,91666666666667
"F_265";0,88
"F_266";5,53333333333333
"F_267";6,52666666666667
"F_268";0,88
"F_269";5,6025
"F_270";4,255
"F_271";2,745
"F_272";7,13
"F_273";6,82333333333333
"F_274";2,04
"F_275";6,02083333333333
"F_276";3,1
"F_277";6,235
"F_278";8,075
"F_279";6,38
"F_280";1,20333333333333
"F_281";5,3325
"F_282";6,525
"F_283";0,6525
"F_284";8,075
"F_285";4,62333333333333
"F_286";1,1375
"F_287";3,41
"F_288";6,23
"F_289";5,00333333333333
"F_290";4,87666666666667
"F_291";4,81
"F_292";5,87666666666667
"F_293";0,6075
"F_294";1,36666666666667
"F_295";2,8025
"F_296";3,05
"F_297";1,20333333333333
"F_298";5,6025
"F_299";6,44
"F_300";0,585
"F_301";4,14166666666667
"F_302";4,625
"F_303";5,1975
"F_304";2,61
"F_305";5,7375
"F_306";0,773333333333333
"F_307";8,4875
"F_308";1,57666666666667
"F_309";3,73333333333333
"F_310";1,96
"F_311";0,935
"F_312";3,85
"F_313";0,88
"F_314";1,05
"F_315";6,97166666666667
"F_316";8,75333333333333
"F_317";5,33
"F_318";6,23
"F_319";0,63
"F_320";5,87916666666667
"F_321";1,01333333333333
"F_322";4,20083333333333
"F_323";1,045
"F_324";1,435
"F_325";0,585
"F_326";2,04166666666667
"F_327";0,348333333333333
"F_328";1,29833333333333
"F_329";3,46666666666667
"F_330";0,88
"F_331";0,606666666666667
"F_332";4,9375
"F_333";4,6875
"F_334";0,3325
"F_335";3,05
"F_336";2,24583333333333
"F_337";5,7375
"F_338";2,21
"F_339";5,32583333333333
"F_340";1,61333333333333
"F_341";0,13
"F_342";10,5466666666667
"F_343";4,38
"F_344";0,5625
"F_345";9,0125
"F_346";1,3
"F_347";2,75333333333333
"F_348";5,8725
"F_349";2,16416666666667
"F_350";1,505
"F_351";6,8975
"F_352";0,498333333333333
"F_353";2,0825
"F_354";4,08333333333333
"F_355";0,175
"F_356";1,54083333333333
"F_357";1,725
"F_358";1,2025
"F_359";0,52
"F_360";9,18416666666667
"F_361";2,80333333333333
"F_362";1,23333333333333
"F_363";1,17
"F_364";8,00333333333333
"F_365";4,8125
"F_366";0,9625
"F_367";6,16333333333333
"F_368";0,991666666666667
"F_369";0,826666666666667
"F_370";2,66
"F_371";4,32
"F_372";2,04166666666667
"F_373";1,33333333333333
"F_374";6,09166666666667
"F_375";2,8025
"F_376";6,74916666666667
"F_377";5,95
"F_378";2,70666666666667
"F_379";8,16416666666667
"F_380";3,685
"F_381";4,68666666666667
"F_382";5,46666666666667
"F_383";3,35833333333333
"F_384";2,70666666666667
"F_385";5,81
"F_386";4,6875
"F_387";2,475
"F_388";0,7
"F_389";1,87833333333333
"F_390";1,3
"F_391";4,3125
"F_392";1,26666666666667
"F_393";2,04166666666667
"F_394";7,28
"F_395";3,4125
"F_396";3,79666666666667
"F_397";7,2075
"F_398";4,38
"F_399";4,44083333333333
"F_400";1,9975
"F_401";5,67
"F_402";5,66666666666667
"F_403";0,421666666666667
"F_404";1,68666666666667
"F_405";0,826666666666667
"F_406";1,6125
"F_407";1,47
"F_408";0,255
"F_409";3,25333333333333
"F_410";0,421666666666667
"F_411";0,316666666666667
"F_412";5,67166666666667
"F_413";0,285
"F_414";2,04
"F_415";0,653333333333333
"F_416";5,2
"F_417";4,55
"F_418";4,50166666666667
"F_419";1,575
"F_420";0,52
"F_421";4,875
"F_422";8,75333333333333
"F_423";4,68
"F_424";6,5975
"F_425";1,725
"F_426";2,385
"F_427";2,88
"F_428";1,96
"F_429";0,653333333333333
"F_430";1,365
"F_431";1,02
"F_432";1,92
"F_433";5,53333333333333
"F_434";4,5625
"F_435";5,06666666666667
"F_436";0,333333333333333
"F_437";1,05
"F_438";5,74
"F_439";1,68666666666667
"F_440";0,5625
"F_441";1,4
"F_442";1,2
"F_443";2,99916666666667
"F_444";5,74
"F_445";3,7375
"F_446";3,96666666666667
"F_447";2,85166666666667
"F_448";1,725
"F_449";8,84
"F_450";2,42916666666667
"F_451";1,645
"F_452";4,31916666666667
"F_453";3,355
"F_454";6,74666666666667
"F_455";2,29666666666667
"F_456";7,26
"F_457";3,25333333333333
"F_458";1,65
"F_459";5,4
"F_460";4,62333333333333
"F_461";2,16416666666667
"F_462";9,90083333333333
"F_463";5,59583333333333
"F_464";3,2025
"F_465";9,095
"F_466";2,04166666666667
"F_467";1,47
"F_468";2,33333333333333
"F_469";5,06916666666667
"F_470";5,74083333333333
"F_471";4,37833333333333
"F_472";1,11
"F_473";1,11
"F_474";1,36666666666667
"F_475";5,265
"F_476";3,1
"F_477";0,826666666666667
"F_478";2,16
"F_479";5,60333333333333
"F_480";2,21
"F_481";1,575
"F_482";2,65833333333333
"F_483";1,4
"F_484";2,47333333333333
"F_485";2,125
"F_486";3,45666666666667
"F_487";5,265
"F_488";3,19583333333333
"F_489";0,675
"F_490";3,68
"F_491";1,43333333333333
"F_492";1,43333333333333
"F_493";4,14166666666667
"F_494";3,2025
"F_495";2,52
"F_496";4,56333333333333
"F_497";3,25333333333333
"F_498";1,91666666666667
"F_499";3,15166666666667
"F_500";0,845833333333333
"F_501";6,0175
"F_502";0,63
"F_503";3,14666666666667
"F_504";3,52083333333333
"F_505";7,20416666666667
"F_506";1,92
"F_507";3,52083333333333
"F_508";2,66
"F_509";3,46666666666667
"F_510";2,56166666666667
"F_511";1,1375
"F_512";3,68333333333333
"F_513";4,44083333333333
"F_514";1,96
"F_515";0,775
"F_516";1,88
"F_517";2,80333333333333
"F_518";6,3075
"F_519";2,34
"F_520";4,2
"F_521";1,46916666666667
"F_522";0,991666666666667
"F_523";2,20833333333333
"F_524";4,2
"F_525";1,84
"F_526";1,2025
"F_527";1,96
"F_528";0,1875
"F_529";0,5
"F_530";0,775
"F_531";11,4041666666667
"F_532";6,975
"F_533";1,50333333333333
"F_534";3,1
"F_535";5,535
"F_536";8,40666666666667
"F_537";3,575
"F_538";0,9075
"F_539";7,0525
"F_540";4,20083333333333
"F_541";7,67916666666667
"F_542";2,25333333333333
"F_543";3,9675
"F_544";1,64833333333333
"F_545";3,91
"F_546";2,8025
"F_547";0,825
"F_548";4,08333333333333
"F_549";3,96416666666667
"F_550";1,08
"F_551";0,878333333333333
"F_552";0,85
"F_553";7,13
"F_554";3,10083333333333
"F_555";0,42
"F_556";6,01333333333333
"F_557";7,91666666666667
"F_558";4,75
"F_559";0,52
"F_560";1,36666666666667
"F_561";9,54
"F_562";3,52
"F_563";4,14166666666667
"F_564";1,505
"F_565";0,48
"F_566";1,53333333333333
"F_567";1,95833333333333
"F_568";5,95
"F_569";1,91916666666667
"F_570";1,435
"F_571";3,62916666666667
"F_572";7,59833333333333
"F_573";2,655
"F_574";3,685
"F_575";0,300833333333333
"F_576";3,30416666666667
"F_577";4,75
"F_578";3,575
"F_579";2,21
"F_580";1,17166666666667
"F_581";1,45666666666667
"F_582";0,269166666666667
"F_583";5,60333333333333
"F_584";3,1
"F_585";9,18666666666667
"F_586";2,70666666666667
"F_587";1,7625
"F_588";3,245
"F_589";2,56666666666667
"F_590";1,96
"F_591";1,3975
"F_592";7,84
"F_593";1,76333333333333
"F_594";7,12833333333333
"F_595";2,385
"F_596";6,09
"F_597";2,12
"F_598";1,96
"F_599";5,87916666666667
"F_600";5,395
"F_601";3,74
"F_602";0,963333333333333
"F_603";6,45
"F_604";1,65
"F_605";1,6125
"F_606";1,61333333333333
"F_607";5,26666666666667
"F_608";3,15
"F_609";0,7
"F_610";3
"F_611";1,88
"F_612";5,1975
"F_613";7,68
"F_614";1,6125
"F_615";0,541666666666667
"F_616";5,00333333333333
"F_617";4,8125
"F_618";6,3075
"F_619";2,43
"F_620";5,20083333333333
"F_621";2,42916666666667
"F_622";2,70416666666667
"F_623";2,52
"F_624";2,94833333333333
"F_625";8,41666666666667
"F_626";1,235
"F_627";2,84666666666667
"F_628";1,11
"F_629";4,26
"F_630";2,04166666666667
"F_631";1,60583333333333
"F_632";6,6
"F_633";5,80833333333333
"F_634";1,3975
"F_635";3,10083333333333
"F_636";3
"F_637";0,653333333333333
"F_638";1,36666666666667
"F_639";7,68
"F_640";8,41166666666667
"F_641";2,25
"F_642";6,67333333333333
"F_643";2,2525
"F_644";5,67166666666667
"F_645";2
"F_646";2,0825
"F_647";3,255
"F_648";0,364166666666667
"F_649";3,68
"F_650";0,604166666666667
"F_651";4,56
"F_652";2,34
"F_653";5,13333333333333
"F_654";4,1975
"F_655";4,1975
"F_656";5,87916666666667
"F_657";1,26666666666667
"F_658";7,05
"F_659";1,14083333333333
"F_660";1,8375
"F_661";5,20083333333333
"F_662";1,96
"F_663";2,94833333333333
"F_664";3,245
"F_665";7,8375
"F_666";3,90833333333333
"F_667";1,725
"F_668";2,475
"F_669";1,11
"F_670";6,74916666666667
"F_671";0,6075
"F_672";7,59833333333333
"F_673";0,541666666666667
"F_674";0,906666666666667
"F_675";1,9975
"F_676";4,20083333333333
"F_677";1,95833333333333
"F_678";6,97666666666667
"F_679";5,67
"F_680";1,46916666666667
"F_681";0,8
"F_682";0,700833333333333
"F_683";5,00333333333333
"F_684";3,905
"F_685";7,36
"F_686";3,8525
"F_687";2,8975
"F_688";2,21
"F_689";3,465
"F_690";2,65833333333333
"F_691";8,16416666666667
"F_692";2,65833333333333
"F_693";2,9
"F_694";11,5033333333333
"F_695";3,62916666666667
"F_696";1,65
"F_697";1,3
"F_698";2,125
"F_699";0,853333333333333
"F_700";3,8525
"F_701";1,84083333333333
"F_702";1,54
"F_703";2,66
"F_704";4,94
"F_705";3,05
"F_706";6,96
"F_707";3,57333333333333
"F_708";1,84083333333333
"F_709";2
"F_710";0,583333333333333
"F_711";1,8
"F_712";3,8525
"F_713";5,46666666666667
"F_714";1,235
"F_715";2,99916666666667
"F_716";0,5625
"F_717";2,21
"F_718";3,57333333333333
"F_719";1,505
"F_720";1,4
"F_721";4,44083333333333
"F_722";3,05
"F_723";3,30666666666667
"F_724";1,02
"F_725";7,20666666666667
"F_726";1,36666666666667
"F_727";1,87833333333333
"F_728";0,6525
"F_729";2,29166666666667
"F_730";4,25833333333333
"F_731";2,8
"F_732";7,91666666666667
"F_733";1,54083333333333
"F_734";4,26
"F_735";2,475
"F_736";4,94083333333333
"F_737";2,29666666666667
"F_738";1,2025
"F_739";7,52
"F_740";4,81333333333333
"F_741";4,81333333333333
"F_742";3,96
"F_743";3,795
"F_744";5,535
"F_745";5,2
"F_746";8,50083333333333
"F_747";5,59583333333333
"F_748";1,05
"F_749";6,67333333333333
"F_750";2,84666666666667
"F_751";1,65
"F_752";2,7075
"F_753";6,8875
"F_754";2
"F_755";8,24833333333333
"F_756";3,57333333333333
"F_757";5,67166666666667
"F_758";4,14
"F_759";0,498333333333333
"F_760";3,045
"F_761";1,29833333333333
"F_762";3,25333333333333
"F_763";1,04833333333333
"F_764";2,34083333333333
"F_765";1,96
"F_766";6,45333333333333
"F_767";4,625
"F_768";0,676666666666667
"F_769";0,88
"F_770";0,826666666666667
"F_771";1,46666666666667
"F_772";1,17
"F_773";2,66
"F_774";1,26416666666667
"F_775";2,25333333333333
"F_776";0,725
"F_777";4,025
"F_778";0,54
"F_779";2,565
"F_780";0,9625
"F_781";1,92
"F_782";0,48
"F_783";2,08
"F_784";1,46916666666667
"F_785";1,57666666666667
"F_786";6,675
"F_787";2,79583333333333
"F_788";5,79333333333333
"F_789";2,8
"F_790";2,80333333333333
"F_791";3,85333333333333
"F_792";4,94083333333333
"F_793";1,02083333333333
"F_794";4,14166666666667
"F_795";1,6125
"F_796";6,02083333333333
"F_797";4,56333333333333
"F_798";5,86666666666667
"F_799";0,6075
"F_800";2,85166666666667
"F_801";1,2025
"F_802";5,4675
"F_803";1,08
"F_804";0,72
"F_805";4,50166666666667
"F_806";0,723333333333333
"F_807";6,02
"F_808";1,05
"F_809";2,25333333333333
"F_810";7,67916666666667
"F_811";1,505
"F_812";6,09166666666667
"F_813";1,29833333333333
"F_814";0,821666666666667
"F_815";3,52083333333333
"F_816";4,875
"F_817";0,700833333333333
"F_818";1,2
"F_819";3,575
"F_820";1,87833333333333
"F_821";4,2
"F_822";1,3975
"F_823";1,4
"F_824";2,08333333333333
"F_825";1,2025
"F_826";4,44083333333333
"F_827";3,74083333333333
"F_828";4,38
"F_829";3,96666666666667
"F_830";0,935
"F_831";1,84083333333333
"F_832";1,10833333333333
"F_833";1,80166666666667
"F_834";0,421666666666667
"F_835";3,52
"F_836";7,755
"F_837";4,66666666666667
"F_838";2,04166666666667
"F_839";0,725
"F_840";2,9
"F_841";2,21
"F_842";1,08
"F_843";2,7
"F_844";3,79666666666667
"F_845";2,56666666666667
"F_846";7,35583333333333
"F_847";3,79666666666667
"F_848";3,5175
"F_849";2,94833333333333
"F_850";0,479166666666667
"F_851";1,3325
"F_852";1,505
"F_853";4,255
"F_854";2,66
"F_855";3,41
"F_856";5,13333333333333
"F_857";7,28333333333333
"F_858";1,05
"F_859";3,62916666666667
"F_860";3,9675
"F_861";3,40583333333333
"F_862";3,74
"F_863";7,76
"F_864";2,1675
"F_865";1,3
"F_866";3,09333333333333
"F_867";2,8
"F_868";2,38333333333333
"F_869";2,38333333333333
"F_870";4,32
"F_871";4,37833333333333
"F_872";2,00083333333333
"F_873";1,725
"F_874";1,6875
"F_875";2,89333333333333
"F_876";4,81
"F_877";3,3075
"F_878";5
"F_879";2
"F_880";0,906666666666667
"F_881";4,14166666666667
"F_882";1,36666666666667
"F_883";0,935
"F_884";1,84
"F_885";1,61
"F_886";0,385
"F_887";0,35
"F_888";6,67
"F_889";2,85
"F_890";4,9375
"F_891";9,44666666666667
"F_892";5,2
"F_893";6,74666666666667
"F_894";2,42666666666667
"F_895";2,08333333333333
"F_896";6,01333333333333
"F_897";7,285
"F_898";0,749166666666667
"F_899";4,3125
"F_900";7,0525
"F_901";0,63
"F_902";2,8
"F_903";3,57
"F_904";3,90833333333333
"F_905";1,68666666666667
"F_906";1,02
"F_907";2,00083333333333
"F_908";7,28333333333333
"F_909";6,825
"F_910";3,62666666666667
"F_911";2,84666666666667
"F_912";1,575
"F_913";1,96
"F_914";5,395
"F_915";9,35583333333333
"F_916";6,38
"F_917";5,4
"F_918";1,365
"F_919";1,505
"F_920";0,8
"F_921";7,20416666666667
"F_922";0,421666666666667
"F_923";1,725
"F_924";3,15
"F_925";1,02083333333333
"F_926";2,04166666666667
"F_927";2,47333333333333
"F_928";1,43333333333333
"F_929";2,85
"F_930";2,7075
"F_931";6,30666666666667
"F_932";1,96
"F_933";5,06916666666667
"F_934";10,53
"F_935";1,57666666666667
"F_936";0,933333333333333
"F_937";1,07916666666667
"F_938";4,50166666666667
"F_939";1,43333333333333
"F_940";1,10833333333333
"F_941";1,40083333333333
"F_942";0,583333333333333
"F_943";6,02083333333333
"F_944";2,65
"F_945";7,76
"F_946";3,8525
"F_947";5,535
"F_948";1,435
"F_949";1,11
"F_950";1,84
"F_951";5,20083333333333
"F_952";3,85
"F_953";4,37
"F_954";1,575
"F_955";6,09166666666667
"F_956";1,61333333333333
"F_957";0,48
"F_958";3,7375
"F_959";2,66
"F_960";3,685
"F_961";2,475
"F_962";5,00333333333333
"F_963";3,04833333333333
"F_964";0,458333333333333
"F_965";4,025
"F_966";2,20833333333333
"F_967";4,26
"F_968";1,05
"F_969";0,906666666666667
"F_970";0,385
"F_971";0,563333333333333
"F_972";4,08
"F_973";4,31916666666667
"F_974";1,20333333333333
"F_975";2,85166666666667
"F_976";3,62916666666667
"F_977";2,21
"F_978";5,6025
"F_979";1,84
"F_980";0,99
"F_981";2,25
"F_982";10,6408333333333
"F_983";0,520833333333333
"F_984";3,15
"F_985";1,435
"F_986";3,90833333333333
"F_987";4,025
"F_988";6,4525
"F_989";1,2675
"F_990";4,20083333333333
"F_991";2,205
"F_992";5,7375
"F_993";2,75
"F_994";3,4125
"F_995";7,84
"F_996";0,826666666666667
"F_997";5,39833333333333
"F_998";3,63
"F_999";3,52
"F_1000";3,52083333333333
