"ID";"index"
"R_1";0,165
"R_2";0,275
"R_3";0,146666666666667
"R_4";0,113333333333333
"R_5";0,293333333333333
"R_6";0,22
"R_7";0,110833333333333
"R_8";0,0708333333333333
"R_9";0,201666666666667
"R_10";0,085
"R_11";0,095
"R_12";0,0875
"R_13";0,21
"R_14";0,183333333333333
"R_15";0,18
"R_16";0,1725
"R_17";0,165
"R_18";0,075
"R_19";0,183333333333333
"R_20";0,165
"R_21";0,183333333333333
"R_22";0,110833333333333
"R_23";0,175
"R_24";0,0991666666666667
"R_25";0,0425
"R_26";0,26
"R_27";0,14
"R_28";0,18
"R_29";0,23
"R_30";0,075
"R_31";0,249166666666667
"R_32";0,191666666666667
"R_33";0,0566666666666667
"R_34";0,1425
"R_35";0,128333333333333
"R_36";0,134166666666667
"R_37";0,26
"R_38";0,116666666666667
"R_39";0,201666666666667
"R_40";0,208333333333333
"R_41";0,116666666666667
"R_42";0,115
"R_43";0,0633333333333333
"R_44";0,183333333333333
"R_45";0,09
"R_46";0,14
"R_47";0,04
"R_48";0,095
"R_49";0,201666666666667
"R_50";0,191666666666667
"R_51";0,165
"R_52";0,22
"R_53";0,18
"R_54";0,1
"R_55";0,216666666666667
"R_56";0,175
"R_57";0,105
"R_58";0,05
"R_59";0,1725
"R_60";0,095
"R_61";0,0991666666666667
"R_62";0,14
"R_63";0,1575
"R_64";0,291666666666667
"R_65";0,26
"R_66";0,2
"R_67";0,075
"R_68";0,18
"R_69";0,095
"R_70";0,105
"R_71";0,166666666666667
"R_72";0,133333333333333
"R_73";0,095
"R_74";0,166666666666667
"R_75";0,210833333333333
"R_76";0,11
"R_77";0,0833333333333333
"R_78";0,1875
"R_79";0,18
"R_80";0,191666666666667
