"Roost";"In";"Out";"InLink";"OutLink";"Betweeness";"Closeness"
"R_1";23;23;10;9;24,3428571428571;0,566985645933014
"R_2";25;25;11;14;150,462301587302;0,681524083393242
"R_3";21;21;7;6;51,1666666666667;0,573155985489722
"R_4";26;26;11;14;409,280194805195;0,653342522398346
"R_5";19;19;8;9;247,993037518037;0,633689839572192
"R_6";26;26;9;11;245,188961038961;0,619607843137255
"R_7";22;22;6;7;26,438961038961;0,513264753654575
"R_8";19;19;5;3;45,5;0,462439024390244
"R_9";23;23;8;9;95,3;0,612403100775194
"R_10";22;22;9;6;12,0857142857143;0,500263852242744
"R_11";18;18;9;8;115,354761904762;0,450784593437946
"R_12";18;19;7;7;4,33333333333333;0,488408037094281
"R_13";26;26;13;13;462,261796536796;0,679083094555874
"R_14";26;26;13;15;168,235930735931;0,633266533066133
"R_15";24;24;11;11;669,389393939394;0,706408345752608
"R_16";20;20;12;11;204,217532467532;0,629064366290644
"R_17";26;26;11;12;314,257756132756;0,63496316141996
"R_18";19;18;7;6;111,216666666667;0,533783783783784
"R_19";20;20;8;8;157,041486291486;0,550203134068485
"R_20";19;19;7;7;84,9571428571428;0,553738317757009
"R_21";22;22;8;7;20,2579365079365;0,580171358629131
"R_22";22;22;10;12;37,2404761904762;0,539249146757679
"R_23";23;23;11;10;270,586904761905;0,699115044247788
"R_24";17;17;4;6;99,821645021645;0,384428223844282
"R_25";16;16;3;3;0;0,329739130434782
"R_26";21;21;9;10;141,802380952381;0,626155878467636
"R_27";22;22;8;8;55,7666666666667;0,448651206814955
"R_28";22;22;7;9;41,5401515151515;0,609254498714653
"R_29";24;24;12;11;218,382683982684;0,573502722323049
"R_30";18;18;5;4;15,8333333333333;0,474
"R_31";22;22;11;11;436,16461038961;0,647540983606558
"R_32";28;28;16;14;488,085894660894;0,731481481481481
"R_33";20;20;5;5;89,8666666666667;0,558303886925795
"R_34";21;21;6;6;29,5;0,483673469387755
"R_35";24;24;12;11;416,06829004329;0,620418848167539
"R_36";17;17;4;3;0;0,516339869281046
"R_37";27;26;13;13;645,790476190476;0,657876474670368
"R_38";19;19;8;8;34,8969696969697;0,501322051824431
"R_39";23;23;12;12;216,576406926407;0,651994497936726
"R_40";21;21;10;9;95,0238095238095;0,619203135205748
"R_41";18;18;4;4;3;0,421708185053381
"R_42";21;21;7;8;85,65;0,498947368421053
"R_43";16;16;2;1;0;0,365740740740741
"R_44";24;24;13;13;713,573665223665;0,724770642201835
"R_45";22;22;12;12;228,274747474747;0,609646302250804
"R_46";17;17;6;6;6,81515151515152;0,50052798310454
"R_47";16;16;2;2;0;0,367015098722416
"R_48";16;16;4;3;0,25;0,394835485214494
"R_49";26;26;15;15;112,788564213564;0,627814569536424
"R_50";21;21;8;10;102,398015873016;0,626569729015202
"R_51";24;24;10;9;252,658333333333;0,643584521384929
"R_52";21;21;9;10;9,13333333333333;0,56664674237896
"R_53";22;21;7;6;31,0706349206349;0,599241466498104
"R_54";22;22;10;10;234,030988455988;0,627814569536424
"R_55";19;19;5;5;200,833333333333;0,572463768115942
"R_56";20;20;7;7;101,183333333333;0,559622195985833
"R_57";20;21;7;6;6,05;0,555360281195079
"R_58";22;22;8;9;68,1945887445887;0,588454376163873
"R_59";23;23;13;12;637,054437229437;0,649315068493151
"R_60";18;18;4;3;15,3428571428571;0,469306930693069
"R_61";25;25;13;14;387,192857142857;0,612403100775194
"R_62";32;32;13;15;693,885930735931;0,701183431952663
"R_63";17;17;5;6;11,0651515151515;0,491191709844559
"R_64";33;34;17;17;802,772582972583;0,731481481481482
"R_65";24;24;13;12;60,6501082251082;0,642276422764228
"R_66";21;21;12;11;142,75;0,555360281195079
"R_67";20;20;5;4;260,83924963925;0,547028274668205
"R_68";21;20;11;11;312,786868686869;0,544514646754739
"R_69";23;23;8;7;372,349350649351;0,669019054340156
"R_70";27;27;12;9;125,373015873016;0,587360594795539
"R_71";22;22;9;9;172,01038961039;0,540787221905305
"R_72";22;22;10;12;188,75753968254;0,643584521384929
"R_73";20;20;6;5;84,8878787878788;0,416703296703297
"R_74";23;23;13;12;73,4095238095238;0,544514646754739
"R_75";24;24;8;9;185,121176046176;0,650205761316872
"R_76";20;20;6;6;75,1666666666667;0,502384737678855
"R_77";22;22;8;10;224,459523809524;0,572463768115942
"R_78";25;25;11;12;599,198773448773;0,699115044247788
"R_79";17;17;3;2;0;0,433470507544581
"R_80";21;21;8;8;16,9333333333333;0,566308243727599
