"Foraging";"In";"Out";"InLink";"OutLink";"Betweeness";"Closeness"
"F_1";91;87;91;86;2508,39160937805;0,680594981264905
"F_2";83;68;83;65;2416,12234588406;0,702079062957543
"F_3";93;90;88;86;2492,99893529708;0,688253530830181
"F_4";49;46;47;46;872,27801424025;0,633883248730967
"F_5";56;66;59;67;716,834967961045;0,641549823397198
"F_6";71;68;70;73;1120,81759272214;0,636677465611557
"F_7";45;40;46;41;437,33379794107;0,599280143971205
"F_8";76;65;76;68;1812,78836051171;0,664891846921799
"F_9";33;37;36;38;290,473996168965;0,603716573500528
"F_10";69;76;70;81;1311,38651745192;0,667223242611456
"F_11";49;41;47;39;348,237932964832;0,59520381311752
"F_12";86;78;83;80;1768,23119259804;0,66235703630035
"F_13";107;100;104;97;2728,86964089498;0,699090272918127
"F_14";42;53;43;57;977,071500579486;0,630549126867243
"F_15";33;28;32;28;106,824045062923;0,569528243622024
"F_16";98;98;99;98;2946,50680006564;0,690354160668012
"F_17";76;64;74;61;1549,55706919763;0,67234997195738
"F_18";26;32;25;30;192,001441465876;0,575350355154537
"F_19";50;51;53;56;418,857421012594;0,613542146476277
"F_20";24;23;24;24;133,719237013467;0,571183533447683
"F_21";103;97;93;93;5247,11017977806;0,731510861606057
"F_22";69;67;72;69;1149,60918123783;0,657489167992104
"F_23";69;65;71;66;1196,84367966653;0,660204868377577
"F_24";49;45;48;44;383,671161303077;0,623109309215656
"F_25";69;80;67;83;1279,73937387433;0,6513093556449
"F_26";59;61;57;61;1138,3262493365;0,649017378593473
"F_27";46;50;51;52;604,27375757933;0,617238183503243
"F_28";65;54;61;56;941,502115067462;0,652088772845956
"F_29";42;35;40;33;185,283635879835;0,58495169317849
"F_30";73;66;81;75;2348,64594899724;0,680247403960737
"F_31";78;73;75;73;1562,23725963482;0,681368648402867
"F_32";55;41;59;43;387,546810891806;0,623627945690059
"F_33";105;113;106;109;4608,9384889217;0,705674593830943
"F_34";51;52;53;49;620,140624017926;0,648350459707954
"F_35";33;33;37;36;281,686779686671;0,602018781700396
"F_36";90;89;86;82;3980,44843713079;0,716514254975796
"F_37";85;90;84;88;4417,65818735963;0,727957250425069
"F_38";63;63;63;57;2306,18361187847;0,705300935459202
"F_39";53;47;51;49;872,842322660261;0,667260380719143
"F_40";49;55;48;57;500,553338641084;0,625645843118835
"F_41";90;89;91;94;2668,56130342925;0,690513219284607
"F_42";67;63;70;65;1155,0079310158;0,6549745943288
"F_43";88;95;87;89;3120,48925877549;0,706548004950792
"F_44";45;53;48;55;803,396602037973;0,630283911671926
"F_45";97;110;93;104;4564,80412062431;0,711876484560571
"F_46";51;40;49;39;307,169914747165;0,598263299730511
"F_47";58;58;60;61;707,441958483667;0,635260452546236
"F_48";55;52;55;56;832,024667537246;0,637693494334806
"F_49";24;31;25;31;130,128940622962;0,562394445486957
"F_50";69;66;60;63;1416,10327572881;0,66729752296132
"F_51";59;61;62;58;867,918410288375;0,645140458508236
"F_52";53;45;55;47;483,05834078589;0,608836973082782
"F_53";41;55;43;57;1035,56336815075;0,649650463339297
"F_54";29;30;27;30;76,5470686983666;0,541463414634147
"F_55";75;76;80;75;1639,08325855289;0,672349971957377
"F_56";67;63;68;69;645,391063834363;0,643651006711411
"F_57";75;79;77;80;2246,92074090352;0,686165645927542
"F_58";54;50;56;52;426,359699652697;0,604325250793969
"F_59";72;64;79;77;1374,6623633836;0,6487012987013
"F_60";66;74;69;78;1574,75463236429;0,655046172340311
"F_61";40;38;42;39;529,47833596432;0,625907168589778
"F_62";59;66;67;66;1083,30059512777;0,651273971858535
"F_63";68;59;65;56;1174,80713097521;0,641549823397198
"F_64";40;45;34;40;501,870773269491;0,617492531163078
"F_65";43;35;44;38;327,945863675912;0,604386186034786
"F_66";68;59;60;53;1294,88415892787;0,66718610863758
"F_67";82;69;81;72;1977,50345597717;0,67874532895482
"F_68";30;31;31;29;131,019295889577;0,564699232182391
"F_69";71;63;67;60;1268,88693657717;0,644169801182163
"F_70";41;32;41;33;189,383594265126;0,583159021257964
"F_71";36;38;40;41;342,022528080748;0,591270036991367
"F_72";48;51;49;51;441,388382312311;0,610386965376781
"F_73";56;61;54;61;681,028730048473;0,633648712934088
"F_74";61;65;58;61;1776,45430151187;0,673067205659428
"F_75";59;56;59;56;1020,85269237544;0,639019189765459
"F_76";41;38;41;39;327,058714924422;0,58495169317849
"F_77";51;56;50;56;468,143193560795;0,62288267691988
"F_78";49;48;52;56;467,582082213112;0,60874422383588
"F_79";35;33;37;33;157,665845128111;0,554204613748786
"F_80";73;64;76;60;1756,41374081919;0,660059464816652
"F_81";40;35;43;37;266,892770032086;0,579886808881148
"F_82";39;43;37;39;419,441086420521;0,609022556390977
"F_83";62;68;63;68;688,857134007688;0,629721069496245
"F_84";71;71;76;73;1145,20524250764;0,651734261172124
"F_85";42;39;42;38;142,72078202743;0,564699232182391
"F_86";36;40;40;39;569,812900718138;0,609766022380467
"F_87";77;70;81;68;1286,9080293428;0,650461204557788
"F_88";51;58;48;59;1017,06095646125;0,644204417217478
"F_89";86;77;89;76;1472,94354614854;0,664081542211391
"F_90";61;74;61;70;2270,06141047366;0,690155440414509
"F_91";64;60;63;59;472,128942905206;0,610418045725341
"F_92";86;84;83;83;2804,39783167423;0,70717319490326
"F_93";62;68;65;65;915,946323715529;0,638780838706241
"F_94";26;30;27;30;95,1475003993811;0,545305676855896
"F_95";28;28;26;27;394,585642040107;0,620721793610525
"F_96";76;81;85;86;1811,39361957791;0,67088253399743
"F_97";40;38;43;40;670,361758564907;0,611383108935127
"F_98";69;69;73;71;945,469520573969;0,653332606681564
"F_99";45;42;46;44;333,715947162602;0,601324237560191
"F_100";77;76;76;76;2377,95711412313;0,680749574105623
"F_101";67;63;67;63;2643,48424350063;0,703232240276885
"F_102";64;58;58;62;865,504641291198;0,649193111664682
"F_103";68;65;66;63;4050,49947259792;0,70517647058824
"F_104";79;74;79;75;1177,83597468362;0,649298597194391
"F_105";83;87;88;89;2573,32122700891;0,695158016816471
"F_106";20;26;20;28;73,4647057001672;0,542198100407056
"F_107";15;15;17;15;24,937784925343;0,52223916358092
"F_108";49;48;47;46;1056,67555945473;0,66217410517013
"F_109";45;39;45;39;181,802747272427;0,573533633145152
"F_110";54;52;56;50;976,549890976842;0,638882967384355
"F_111";104;97;107;94;3844,6785714978;0,720865904990985
"F_112";98;87;100;87;3852,9822747287;0,721647002167111
"F_113";70;71;68;71;1454,37877526175;0,657777777777781
"F_114";54;59;55;60;606,547137822102;0,625319492984195
"F_115";64;80;67;81;1176,95745568355;0,652941176470591
"F_116";67;82;67;78;1604,19648368704;0,677288135593223
"F_117";41;41;41;47;315,158141831581;0,592438843587841
"F_118";48;39;50;41;396,914251731456;0,600390644563529
"F_119";62;66;59;64;1274,0344003866;0,658211167847145
"F_120";43;44;42;46;556,167435916206;0,627217077381887
"F_121";38;38;37;41;209,198738673145;0,587589452014507
"F_122";61;62;61;65;1507,64618576319;0,67009502515372
"F_123";76;69;72;63;1799,891866665;0,687267098549564
"F_124";50;56;57;55;844,159616659931;0,631179908387302
"F_125";32;36;33;36;137,878732275595;0,56664775950085
"F_126";56;54;53;57;767,586198300023;0,647055648512986
"F_127";52;51;52;55;407,225368853313;0,608806053526991
"F_128";51;53;50;53;1354,09301440606;0,652337160581165
"F_129";50;39;48;39;476,750843983298;0,594318576173714
"F_130";83;70;83;69;2835,88759739085;0,685302692505577
"F_131";77;72;77;64;1269,13079488501;0,66544546211491
"F_132";23;28;22;28;94,3519851725734;0,545181681749966
"F_133";47;44;48;49;553,729066851189;0,627742577368174
"F_134";64;61;65;63;1855,60927299208;0,675304191077063
"F_135";57;56;56;60;1131,82890014514;0,680054458815527
"F_136";68;63;70;66;1716,94868328456;0,641584158415844
"F_137";97;121;99;119;3396,64992141364;0,701832445407179
"F_138";48;49;50;47;370,674670521848;0,615906288532675
"F_139";51;42;50;42;581,434779693026;0,599789863411217
"F_140";21;18;21;19;62,1033486329055;0,545851926054094
"F_141";96;88;100;87;2374,77408197113;0,680904237191869
"F_142";51;57;53;60;615,757582587566;0,601656210790463
"F_143";52;49;49;47;443,088678159683;0,621623023074929
"F_144";50;51;49;52;444,525510170777;0,604294787781025
"F_145";47;48;49;46;597,493071864326;0,627841206661779
"F_146";81;91;73;85;1374,10088360333;0,659805162639663
"F_147";89;88;85;88;1679,86946152075;0,673823843516388
"F_148";41;33;44;33;185,152794429163;0,57039539420469
"F_149";61;65;57;65;901,259876143796;0,64737012636354
"F_150";37;41;39;43;240,585230193508;0,568097810634062
"F_151";60;65;65;69;965,097112795023;0,648140138408307
"F_152";85;89;82;87;4439,9840903534;0,726413379385568
"F_153";89;91;94;90;2730,22591441411;0,677211614506839
"F_154";89;89;93;82;2738,54249387995;0,699212598425199
"F_155";86;85;92;85;2593,49038869323;0,693148308759762
"F_156";85;83;77;80;1907,41431189015;0,682921271505076
"F_157";75;67;79;72;1615,07488103816;0,662100961007403
"F_158";31;37;29;37;156,552567641906;0,575930819120825
"F_159";39;47;37;49;440,781323219549;0,634789515488487
"F_160";67;58;67;55;1194,25766795177;0,640076886112447
"F_161";100;94;106;95;2736,10998712498;0,680479082704208
"F_162";36;35;36;37;201,974399708081;0,556649331352154
"F_163";28;34;27;33;282,986341704941;0,573561073632839
"F_164";37;39;36;40;326,560807807652;0,595795437602503
"F_165";24;21;26;21;130,210871126983;0,575405587021214
"F_166";69;70;67;66;1518,64028170029;0,665778073975344
"F_167";64;63;62;61;976,538913220075;0,661735482446458
"F_168";50;44;53;47;1375,86260817968;0,635159478647878
"F_169";47;41;51;44;424,466301410199;0,590891167192428
"F_170";42;49;45;52;290,414360011506;0,587704676929109
"F_171";15;15;15;15;32,5968822237476;0,523219273743018
"F_172";38;43;41;41;389,99009974273;0,590309237738821
"F_173";39;50;41;47;401,393266658988;0,621913260012451
"F_174";72;70;75;74;1230,96341687763;0,665667166416793
"F_175";99;97;91;98;5048,7686159025;0,738404681244229
"F_176";61;68;63;69;1035,4460785136;0,642615920664703
"F_177";50;42;52;41;762,526558612035;0,625417362270451
"F_178";77;86;82;83;2145,69362329168;0,682299373932841
"F_179";32;25;31;26;252,121795651839;0,577401021096232
"F_180";18;19;20;19;49,5325380991557;0,534510433386839
"F_181";95;88;91;85;2366,81573180246;0,687464158733805
"F_182";61;61;60;59;802,051863516252;0,642926096749975
"F_183";54;52;57;48;956,192008107172;0,634285714285715
"F_184";80;81;78;78;2281,84206851429;0,688056017907365
"F_185";53;40;52;41;488,502250597426;0,604294787781025
"F_186";74;77;77;82;1644,64321428739;0,673445312061123
"F_187";112;113;113;111;5060,13979552536;0,737496155029225
"F_188";45;43;46;42;367,709292438527;0,596833615453548
"F_189";45;43;46;42;348,317487502434;0,61628624305984
"F_190";41;48;42;49;778,211939795721;0,639428205675273
"F_191";24;30;25;28;102,680381086859;0,586095629216778
"F_192";66;57;65;54;875,852574104683;0,64625336927224
"F_193";43;43;45;42;625,281389342468;0,623076923076923
"F_194";26;18;30;18;65,5540969943685;0,545305676855896
"F_195";60;61;61;62;1170,49444198338;0,656768750342412
"F_196";100;84;97;90;3208,3199630369;0,708050321894751
"F_197";73;77;73;78;1960,16045597091;0,641858970926809
"F_198";39;34;41;34;274,694375510685;0,588801571709233
"F_199";51;59;54;62;626,14733378821;0,611383108935127
"F_200";32;32;34;30;429,732948007838;0,59552906110283
"F_201";62;54;65;58;1165,94078735996;0,649967469095643
"F_202";37;34;38;36;801,810181989719;0,607417916497769
"F_203";85;84;90;86;1678,87448343661;0,677556095631042
"F_204";58;50;59;56;1135,25767176927;0,629919604855236
"F_205";28;27;27;26;89,1247417508324;0,544315292408282
"F_206";67;67;68;68;1531,58012186243;0,675684815691581
"F_207";88;89;85;89;2932,75738714807;0,700642898889545
"F_208";82;72;83;71;1817,08334043652;0,669982674789026
"F_209";98;88;98;83;2669,94354949943;0,696207677565481
"F_210";57;64;59;64;652,954606975772;0,617492531163077
"F_211";19;24;20;25;72,1175422313358;0,538907619689818
"F_212";54;52;55;53;393,861127016091;0,601897876186172
"F_213";57;51;57;50;907,310531773682;0,650002711055687
"F_214";35;45;33;46;695,764292579026;0,617079322592267
"F_215";35;31;34;31;202,5914146789;0,572492836676217
"F_216";33;40;33;42;308,319474893577;0,58747427227286
"F_217";86;70;87;73;2624,71140039969;0,698764280718118
"F_218";97;90;93;85;5140,25116034382;0,723781923564575
"F_219";86;95;88;94;2214,87054507644;0,687464158733801
"F_220";75;78;80;78;4623,51558098107;0,722821826952068
"F_221";85;81;88;81;2401,21785986035;0,680517711171663
"F_222";58;59;59;60;796,927955282689;0,64852583175548
"F_223";51;45;50;48;438,259458889229;0,613040143185885
"F_224";15;20;15;22;45,2381694861232;0,527780223650613
"F_225";24;22;26;26;79,8144555242059;0,549580525374777
"F_226";101;114;105;120;4255,6498724393;0,716557083084283
"F_227";71;65;71;65;921,899655234834;0,657669519420673
"F_228";101;102;103;101;6007,09199867688;0,732136313668015
"F_229";56;69;62;72;659,313101620252;0,620464779255731
"F_230";76;67;76;66;1115,35211919686;0,631945176594623
"F_231";95;107;96;107;2075,79029472025;0,691948051948053
"F_232";50;58;52;57;954,612136395718;0,638985128724482
"F_233";64;56;65;56;1147,69865438755;0,664302338468362
"F_234";67;65;66;67;900,105744212745;0,640350408632018
"F_235";88;89;82;89;2467,45175411148;0,688095511422342
"F_236";53;43;53;47;1185,25611315979;0,645418326693229
"F_237";73;70;74;73;1351,83259632058;0,654652686762779
"F_238";63;55;63;53;679,006460299786;0,635058536843779
"F_239";46;50;51;52;605,839868145733;0,636846578835531
"F_240";45;42;43;42;771,932724912189;0,646846166297959
"F_241";35;34;40;33;430,339902971415;0,597190395536513
"F_242";31;30;31;30;174,396773651421;0,576484731906707
"F_243";42;42;44;41;406,534981113799;0,590076786769048
"F_244";62;60;57;58;478,799258427201;0,620882535736481
"F_245";62;52;67;49;962,073770388365;0,647719904905991
"F_246";80;86;88;84;2236,4066425958;0,679283771532188
"F_247";41;50;44;54;367,573286182391;0,613887750921753
"F_248";55;66;54;66;1086,79548597556;0,650002711055686
"F_249";75;81;76;85;3965,02282485704;0,709643047416094
"F_250";45;43;46;44;481,30990262145;0,633615221987317
"F_251";80;72;80;71;2110,41290305133;0,68424657534247
"F_252";37;30;37;31;93,7446731986882;0,562869753028452
"F_253";99;99;96;95;3251,09044008097;0,701914632004217
"F_254";64;69;72;66;1943,96931203629;0,700888681010291
"F_255";56;66;64;71;618,918377973858;0,611071464981138
"F_256";56;55;57;52;973,093456108049;0,639769452449569
"F_257";73;73;70;72;2281,90374722865;0,687306501547993
"F_258";91;88;87;88;3820,51292431654;0,710736941957671
"F_259";80;80;81;83;1393,8357593208;0,662869781586954
"F_260";37;39;37;40;226,653354903908;0,599639855942376
"F_261";80;83;82;82;2714,03265858399;0,684911158087187
"F_262";40;38;42;37;674,730803852349;0,656768750342417
"F_263";69;76;69;77;4225,97113586526;0,713571428571433
"F_264";61;57;64;60;935,223817464703;0,630582294461104
"F_265";83;65;84;71;2736,8599487349;0,678668478260872
"F_266";88;96;87;96;3018,37224508028;0,67820773930754
"F_267";71;63;75;68;1079,6202605066;0,648455671552985
"F_268";43;39;46;42;347,599187623129;0,588917272548633
"F_269";85;85;89;84;1142,31648158803;0,647614931662256
"F_270";88;97;94;101;2561,6307147768;0,692587671153736
"F_271";57;58;60;60;847,801138618685;0,63912139467932
"F_272";85;85;86;88;3304,46669448854;0,691269749740516
"F_273";105;95;110;96;2926,26586327466;0,709853150165803
"F_274";46;54;47;52;1058,99284067862;0,637286693955666
"F_275";53;54;54;56;381,207069469537;0,611414290814503
"F_276";105;114;101;104;5513,26297601298;0,741235392320537
"F_277";20;26;20;26;50,8192623817195;0,535035258412926
"F_278";105;109;99;114;4247,69419264234;0,722603978300183
"F_279";79;85;85;89;2935,73584268686;0,699253383107795
"F_280";62;57;67;59;1174,80240824422;0,65063772048847
"F_281";90;87;91;85;1560,21489155798;0,653510684692544
"F_282";73;87;71;85;2572,87446993806;0,699824868651492
"F_283";32;26;35;27;237,921794483875;0,561840933589538
"F_284";77;87;76;85;1686,89051449925;0,662613309750168
"F_285";60;54;61;52;414,870425459077;0,622526873344758
"F_286";49;40;50;41;352,556492668365;0,608836973082782
"F_287";66;80;70;77;2455,38533650244;0,685302692505576
"F_288";75;74;78;75;1398,93467040356;0,669533649818489
"F_289";67;74;70;74;772,533367682609;0,643167551907292
"F_290";75;63;70;62;1169,69365081942;0,644481479490353
"F_291";77;79;78;78;1977,32438088792;0,689203173508109
"F_292";80;63;79;70;1542,93426694696;0,680054458815526
"F_293";22;25;23;27;125,645306216558;0,552442396313364
"F_294";56;58;61;54;3026,68055618624;0,700847705349316
"F_295";38;33;35;32;353,904693064097;0,609828059822973
"F_296";30;37;29;35;255,179158724151;0,614580129191017
"F_297";41;52;43;51;551,804869271809;0,610355888193065
"F_298";63;72;66;73;1105,50880047877;0,655583506507712
"F_299";74;77;69;75;1557,82470429486;0,667631989307197
"F_300";36;40;39;42;227,097922584546;0,580673286510049
"F_301";33;24;32;24;235,641813404728;0,589554440838004
"F_302";42;40;43;40;330,687092588236;0,597726366174709
"F_303";87;81;85;80;3327,92481664261;0,70546695698229
"F_304";49;52;50;56;520,672452564295;0,610635696821515
"F_305";59;52;61;56;1208,4036043181;0,646636819677439
"F_306";67;64;65;63;1649,02476234289;0,672916081953415
"F_307";109;94;98;89;2676,28647388407;0,695722825140736
"F_308";35;40;36;40;194,525604224937;0,581433698709864
"F_309";64;56;66;53;1080,11001504869;0,65123859191656
"F_310";31;39;31;38;187,702963433689;0,581292731416378
"F_311";26;24;28;23;348,871738222922;0,566487099518003
"F_312";62;54;63;57;1029,54917049506;0,646044406122011
"F_313";19;18;19;17;39,5832615497628;0,53656789902426
"F_314";45;46;44;46;728,744070420096;0,655225185832978
"F_315";57;75;65;76;1057,80089300477;0,660932848164078
"F_316";91;98;91;93;3681,81894615336;0,717285945072702
"F_317";61;58;64;58;948,238003265634;0,642960579243767
"F_318";57;74;60;72;1188,07374773062;0,661443389980138
"F_319";36;35;37;36;152,330941919413;0,569798944816768
"F_320";63;52;66;49;938,89295461044;0,642960579243766
"F_321";23;25;23;26;151,621892678415;0,575405587021213
"F_322";75;75;73;75;1230,37704783253;0,641172380595818
"F_323";49;56;55;57;1067,03780776468;0,653225806451616
"F_324";52;52;52;46;1293,18258355499;0,66400797607179
"F_325";45;42;45;43;357,923308855697;0,618097447795824
"F_326";36;41;38;39;291,319352651684;0,601263918146252
"F_327";27;23;28;24;100,915289712746;0,576263038984759
"F_328";59;56;59;60;658,423678106512;0,63204513101703
"F_329";58;65;60;67;1028,06909463797;0,622785599251909
"F_330";35;25;35;27;117,438970798751;0,551223100974802
"F_331";35;36;34;35;354,234987602075;0,60892975059684
"F_332";81;98;77;98;2070,10768213662;0,688411622832206
"F_333";69;84;69;85;1532,25109619359;0,665667166416793
"F_334";67;71;63;70;1228,07029144112;0,655189375307429
"F_335";82;90;81;83;4261,62279223893;0,720952610055333
"F_336";66;72;69;73;889,682380782276;0,657164784563098
"F_337";84;84;84;83;1527,78640642774;0,66397119911382
"F_338";82;75;88;77;1692,85321729512;0,685224349814235
"F_339";28;35;32;32;233,383617156652;0,60985908327822
"F_340";64;63;62;63;781,60756282284;0,639325902618529
"F_341";83;71;79;68;1251,83842145838;0,658175030196554
"F_342";53;43;54;44;564,493781002444;0,634419983065201
"F_343";46;54;49;60;676,216281149951;0,62217147602242
"F_344";35;30;39;33;758,742348830052;0,61048021591893
"F_345";51;49;50;48;708,093970078194;0,62343335586874
"F_346";41;34;41;33;205,505185425134;0,560579845686228
"F_347";92;94;93;96;2978,06116312225;0,701914632004217
"F_348";60;70;63;72;1158,0918846881;0,65301231070923
"F_349";42;33;44;38;272,910287137093;0,597309417040358
"F_350";36;24;35;23;546,908513732385;0,628697293895537
"F_351";70;88;67;87;1939,12185760368;0,68849069607168
"F_352";45;47;46;53;1040,0897830075;0,63932590261853
"F_353";52;55;49;57;608,507030744017;0,644828142649672
"F_354";83;76;83;77;2616,61172669014;0,680517711171666
"F_355";26;22;26;22;80,937188053636;0,529131355932204
"F_356";50;53;54;56;831,459150710094;0,646427608519819
"F_357";86;94;88;95;2164,94750365995;0,676752850852435
"F_358";38;34;40;34;196,575895758356;0,57466085039068
"F_359";41;43;39;42;317,656422492884;0,603351955307261
"F_360";75;71;80;76;1284,98557289648;0,658500411974734
"F_361";20;30;19;28;96,7626525156009;0,562288930581613
"F_362";41;38;42;37;720,658317216006;0,621172081454999
"F_363";65;69;63;68;1624,05991565295;0,675000000000002
"F_364";37;47;40;44;782,091171620459;0,641584158415844
"F_365";66;57;69;58;908,11965420676;0,64302955532908
"F_366";45;51;47;52;292,259676227938;0,576817591300581
"F_367";78;73;80;72;1043,13698232943;0,653724506489259
"F_368";34;42;34;45;264,873167593494;0,604477611940298
"F_369";40;41;38;42;474,466572910585;0,598950786909817
"F_370";55;52;52;54;662,109528104473;0,634050880626224
"F_371";64;55;65;53;1073,03025431491;0,65857276273142
"F_372";54;55;55;56;436,364099456857;0,602805853069843
"F_373";35;37;36;37;187,119086682436;0,55992526856609
"F_374";75;76;75;78;1311,48508294367;0,666333166583294
"F_375";59;55;56;55;681,399793497858;0,624863174354964
"F_376";30;29;33;31;319,986080508659;0,570775603485216
"F_377";38;39;41;42;211,896775528462;0,564539675064751
"F_378";50;37;47;35;244,715247631254;0,600842020850039
"F_379";82;89;76;84;1871,80130919006;0,672349971957378
"F_380";55;59;56;61;1237,38202783072;0,64785992217899
"F_381";28;30;29;26;544,827455719631;0,632111784866864
"F_382";95;86;95;84;3007,30710552992;0,685106869356501
"F_383";84;77;92;77;3545,08772761281;0,70047913988548
"F_384";39;35;40;35;257,35930883614;0,603564595710401
"F_385";76;80;74;85;1909,89397404467;0,688332567753792
"F_386";84;76;77;79;2874,50233488218;0,700151851419233
"F_387";80;85;78;86;2991,05312643664;0,688293047023024
"F_388";77;79;80;77;1822,58259348724;0,668190178919796
"F_389";66;60;73;58;835,503579564856;0,636711281070747
"F_390";37;36;32;35;184,734112283463;0,611258413216397
"F_391";83;84;80;82;2188,08068346189;0,689520303692627
"F_392";51;50;53;51;681,512699797857;0,627053039020819
"F_393";52;39;53;41;402,005235848143;0,600932377562784
"F_394";97;82;97;83;1731,37944695785;0,665704131497114
"F_395";55;41;59;42;710,50718563482;0,609797039523881
"F_396";63;70;63;70;1897,3478482905;0,676332863187592
"F_397";63;74;65;69;2489,22435328655;0,706423099587513
"F_398";70;64;66;63;2776,00309924982;0,689401345678304
"F_399";56;60;61;64;525,946998570435;0,602593746858348
"F_400";68;55;65;55;626,543584756826;0,614233744940307
"F_401";82;83;85;83;2658,35282797168;0,668078466339725
"F_402";86;104;83;101;4051,48652130147;0,713062098501072
"F_403";27;22;27;22;199,694693790323;0,601113172541744
"F_404";52;52;50;52;503,396316435404;0,630615465544451
"F_405";32;36;31;37;305,984686409951;0,585237258347976
"F_406";42;59;42;58;703,257528842741;0,635125827814571
"F_407";66;74;71;81;1205,30519007579;0,651521739130438
"F_408";34;37;35;39;158,93954338264;0,566835311362238
"F_409";63;69;69;73;1212,21255606305;0,651876019575858
"F_410";20;24;19;24;125,997923462414;0,571183533447684
"F_411";84;78;80;75;1489,27552998623;0,671521398162673
"F_412";81;84;74;78;2025,31296672899;0,681639847614718
"F_413";62;49;59;48;592,415170326779;0,62669245647969
"F_414";40;38;41;36;539,019056628607;0,617842601659536
"F_415";23;25;24;27;151,771725161913;0,554537885095753
"F_416";41;32;42;33;286,411554116436;0,557425834650795
"F_417";64;68;65;65;1112,07232606486;0,65518937530743
"F_418";58;64;62;68;909,237146760521;0,631179908387302
"F_419";56;62;62;63;1030,004462972;0,624472573839662
"F_420";28;26;26;30;117,627483418621;0,566835311362238
"F_421";73;58;76;58;1156,96967017536;0,651698831204135
"F_422";78;74;87;77;2476,73820233375;0,679630364533141
"F_423";81;80;77;82;2011,08889770902;0,66845098695216
"F_424";79;75;77;73;2074,94233723864;0,670132483649173
"F_425";60;60;65;61;1340,84541255787;0,652301665034284
"F_426";70;66;68;64;1110,04106634068;0,644620100016134
"F_427";76;65;79;71;1147,66475104405;0,654295382600156
"F_428";58;60;59;61;463,857067812351;0,622494547720428
"F_429";29;30;28;27;179,374914854501;0,583471235276938
"F_430";56;52;55;51;720,712110460497;0,646357901547422
"F_431";37;49;38;52;573,712929989693;0,615811373092926
"F_432";47;46;46;45;553,711594601599;0,651273971858534
"F_433";34;39;34;40;221,491525393863;0,58324413739418
"F_434";94;83;90;83;2404,98827698631;0,697950628784355
"F_435";68;74;67;70;1831,35251747413;0,667855153203346
"F_436";20;22;18;23;74,5416705320359;0,556726884317094
"F_437";63;65;68;65;1360,02961649739;0,652692328632878
"F_438";71;67;78;65;1119,06167923461;0,650178978197203
"F_439";59;59;57;59;1059,70615270696;0,632278481012659
"F_440";19;17;18;17;77,0720763693395;0,532776321052398
"F_441";68;62;68;63;1673,39832111024;0,677900927391996
"F_442";84;74;86;81;1566,56488308532;0,677709310871165
"F_443";54;55;55;58;922,790544655258;0,65889853797956
"F_444";66;62;65;63;792,389756507878;0,639564660691422
"F_445";77;92;77;93;1539,25516762446;0,673634524612275
"F_446";78;83;79;82;1853,53465022908;0,664118331394387
"F_447";72;67;71;69;2850,92661445373;0,697260512999481
"F_448";60;60;56;63;1012,46647169384;0,658283455054642
"F_449";75;72;80;72;1456,07310836255;0,654545454545457
"F_450";60;60;57;61;843,059182129441;0,643133047210303
"F_451";52;50;51;48;515,234291441856;0,619566902682309
"F_452";57;61;59;62;980,423723872699;0,660277594183744
"F_453";55;62;55;60;873,651102900338;0,649474482609171
"F_454";67;69;70;77;889,807679278985;0,629886506935687
"F_455";79;88;75;86;2741,35360561071;0,687345909064848
"F_456";86;85;92;93;3831,80249318345;0,709895185645764
"F_457";72;83;74;83;1160,93885657978;0,634957627118644
"F_458";100;99;104;101;3312,06193203138;0,706589649888013
"F_459";76;63;79;66;950,458783745223;0,654045501664033
"F_460";92;83;94;82;2717,46483862697;0,684950291395271
"F_461";52;51;52;51;671,749912647447;0,627085839828426
"F_462";48;52;50;49;445,6444741559;0,616001233235702
"F_463";61;63;63;64;783,853409778846;0,633347421808961
"F_464";54;59;53;56;849,25583390054;0,631911865478891
"F_465";84;92;81;98;2345,6408308958;0,683817238035482
"F_466";50;52;49;48;1006,57483910944;0,6398035971607
"F_467";43;50;45;49;561,750256935621;0,632145117063912
"F_468";59;49;62;50;814,079617953463;0,638985128724483
"F_469";61;65;62;64;1165,04636822997;0,652727866710228
"F_470";19;22;19;22;23,1910495335418;0,537988601175785
"F_471";33;31;33;33;107,423369171227;0,560475010519425
"F_472";81;95;80;91;4186,30298074656;0,728532360984508
"F_473";45;38;46;40;308,592454386697;0,593700475435815
"F_474";51;51;54;51;702,109917463981;0,631512405836804
"F_475";96;97;86;95;4906,99219573631;0,726545454545456
"F_476";61;75;67;74;1751,58575421889;0,672802783701876
"F_477";52;42;53;43;805,03513651547;0,623595505617978
"F_478";38;40;37;36;410,333611724961;0,611757501530924
"F_479";76;74;76;72;1914,91377998175;0,669758087043971
"F_480";53;54;54;53;830,697669776315;0,629093198992443
"F_481";40;43;40;44;470,306218957626;0,62004758456605
"F_482";100;101;97;104;2218,12915675192;0,67874532895482
"F_483";44;45;46;45;324,224546086846;0,59106596982546
"F_484";49;59;53;64;669,639166080221;0,621494115817305
"F_485";74;76;72;77;4546,00866466115;0,708092144122861
"F_486";75;63;77;65;1146,92712943598;0,639564660691422
"F_487";75;74;76;79;1312,98020449702;0,662906436629067
"F_488";28;27;27;30;110,235704069237;0,549908256880734
"F_489";54;44;56;47;737,135685140009;0,626365013846074
"F_490";80;92;85;102;2577,41198793519;0,689123936537136
"F_491";87;85;85;84;1431,20170887925;0,667483296213811
"F_492";74;73;68;70;1208,78298863431;0,661224489795921
"F_493";77;76;80;71;2259,93033466243;0,688490696071676
"F_494";79;74;73;72;2560,34756904265;0,692907924397437
"F_495";40;43;41;43;384,37102730088;0,608651502843217
"F_496";62;75;61;82;1018,19438041913;0,668562824159283
"F_497";66;69;69;65;1396,83373582131;0,660459478816597
"F_498";51;60;51;58;1778,33073139481;0,661918171277127
"F_499";55;60;52;60;1236,86212283427;0,680208806173404
"F_500";38;34;39;36;136,310607088999;0,564885496183205
"F_501";26;25;28;25;173,086763424634;0,567318158156261
"F_502";50;50;49;47;943,9779830077;0,663824132011746
"F_503";60;70;58;70;1586,10296029173;0,669608445511931
"F_504";69;65;70;66;1740,90008781666;0,684285632741596
"F_505";58;51;53;51;960,84302474558;0,645557350565432
"F_506";44;49;41;49;603,51251573801;0,612319950965368
"F_507";54;59;54;57;824,914997939549;0,648666197716576
"F_508";69;71;69;68;1750,45915618934;0,683038003532564
"F_509";37;35;38;38;201,73050085009;0,604112074178592
"F_510";62;58;60;62;740,923173524051;0,634890371782651
"F_511";36;36;36;33;334,207547330515;0,615274071032643
"F_512";84;76;81;77;1838,0066170268;0,673975375274079
"F_513";85;90;85;92;3122,88547528223;0,699008746355688
"F_514";51;54;54;52;667,276027575402;0,630482802145787
"F_515";36;38;39;42;225,880647404819;0,581772299330291
"F_516";53;58;50;55;767,473357996476;0,635664669388622
"F_517";68;64;71;63;907,969207793;0,654867256637171
"F_518";61;62;60;61;849,753615772678;0,637897089341777
"F_519";44;37;42;34;303,963464782602;0,601414739376912
"F_520";88;82;86;87;2600,24259084062;0,694674624789942
"F_521";73;80;70;78;2116,94025469868;0,669907795473597
"F_522";42;36;42;35;188,196915975338;0,559663865546218
"F_523";63;53;65;51;445,189245964861;0,613667775787048
"F_524";75;70;75;70;985,137444641054;0,655547656805383
"F_525";55;48;55;51;713,24973333174;0,646427608519822
"F_526";40;48;39;44;1025,92061298905;0,641446840387397
"F_527";52;63;55;66;778,769453919817;0,6584642425574
"F_528";50;55;48;57;665,000426359911;0,619214876033058
"F_529";75;83;74;77;1589,60636001204;0,662247265495528
"F_530";28;34;30;35;135,131765754999;0,555462885738115
"F_531";56;60;58;66;1135,20933268874;0,647195378718352
"F_532";95;90;96;94;2301,21444454472;0,681213774292534
"F_533";38;43;37;43;378,723478406625;0,576429292686444
"F_534";18;21;18;22;64,5633693549292;0,531147540983607
"F_535";80;87;80;97;2031,57702523592;0,669683257918553
"F_536";93;97;88;95;4382,39610421236;0,729907452508528
"F_537";60;62;65;67;1119,94858299809;0,622365278787248
"F_538";78;83;82;85;1510,12419369501;0,666629594617141
"F_539";89;89;87;90;3058,41812778863;0,698805013115712
"F_540";62;62;58;61;601,296262694658;0,648210230344979
"F_541";48;37;48;40;420,477431854108;0,589496459480723
"F_542";24;22;24;21;143,95999863015;0,574302960620867
"F_543";79;86;77;84;3735,24338733125;0,721951219512199
"F_544";39;33;41;35;431,349013539286;0,581123660865771
"F_545";73;71;75;70;1078,82433273144;0,645348837209304
"F_546";79;80;81;79;1903,96587994699;0,681020280633986
"F_547";43;38;45;36;422,85815006044;0,605485125511388
"F_548";70;74;71;75;1353,11087852824;0,668264674731036
"F_549";67;65;68;65;1031,27659372109;0,645800786510803
"F_550";26;30;28;32;95,4968458796152;0,546100583090379
"F_551";81;89;82;90;3028,1880486684;0,691349480968861
"F_552";29;32;31;32;208,635464373071;0,592146208940478
"F_553";67;70;67;73;1038,83386355384;0,627348369878067
"F_554";37;40;35;39;207,151243359541;0,580027095026126
"F_555";25;27;25;27;216,23385626985;0,572192258126103
"F_556";65;66;67;65;1069,40500270931;0,648631100530248
"F_557";107;127;92;117;4594,70745851942;0,736725663716815
"F_558";74;62;72;61;1507,67876982074;0,65102639296188
"F_559";90;93;92;96;2674,78257932751;0,686440677966106
"F_560";48;45;48;47;337,455367147832;0,60825003805368
"F_561";104;93;99;90;3240,34937289317;0,712807706029256
"F_562";60;74;61;76;1200,53673151289;0,655368467089441
"F_563";72;77;70;76;1486,2272439376;0,647964974866225
"F_564";49;50;48;51;353,033768503139;0,582733812949639
"F_565";39;34;40;37;323,021435673898;0,579494368443949
"F_566";56;65;60;67;603,727020673821;0,640111063648015
"F_567";55;56;54;54;1377,90839324023;0,655117765998146
"F_568";74;77;72;75;2548,01401862282;0,688807170765346
"F_569";37;39;37;40;433,886421730904;0,589670437776683
"F_570";54;48;53;47;481,013124968238;0,636440857931622
"F_571";67;59;67;61;1314,61665029136;0,672916081953413
"F_572";82;87;80;89;2959,72803047077;0,700070077084794
"F_573";53;48;55;50;349,130332708232;0,595292481875061
"F_574";79;73;80;74;1474,05618166779;0,663934426229512
"F_575";25;25;25;23;102,47006143417;0,578906702723584
"F_576";52;62;52;61;640,739766169163;0,644793459552498
"F_577";59;68;61;70;1709,87276330467;0,672161480235498
"F_578";62;54;64;54;857,070351432866;0,652798954476152
"F_579";33;31;36;36;199,989932185636;0,574165429378801
"F_580";30;42;29;41;201,848780763542;0,568151658767772
"F_581";95;111;96;103;3405,69733941804;0,715103793843956
"F_582";24;34;29;35;119,185456674976;0,55033741908828
"F_583";95;87;90;79;4229,33924257549;0,720735886490715
"F_584";72;65;72;69;1253,4076212658;0,665150086001223
"F_585";72;58;75;65;1319,01930449041;0,661443389980139
"F_586";69;70;71;72;1553,40829918749;0,668115699715768
"F_587";40;43;42;41;645,121703352757;0,597309417040358
"F_588";52;56;52;58;640,119517445818;0,623498205648308
"F_589";61;60;57;58;1189,41523130311;0,65810276679842
"F_590";58;54;57;54;1139,95294740759;0,653938468252239
"F_591";54;57;56;61;644,62265841689;0,612914770693797
"F_592";81;82;80;82;1866,97188644325;0,678169372631105
"F_593";88;111;90;114;3131,87874547644;0,711158569140419
"F_594";55;52;56;55;648,742911073216;0,611757501530923
"F_595";54;64;51;63;785,080123236715;0,6311799083873
"F_596";62;65;59;60;1126,37375206628;0,668786610878668
"F_597";87;79;92;84;1805,25603389556;0,657958287596051
"F_598";60;56;58;58;1681,16767286135;0,681252486219249
"F_599";96;95;101;96;3304,94351981773;0,703190990145475
"F_600";86;98;80;101;4883,07835096332;0,713444027852173
"F_601";46;45;48;46;599,370350311556;0,625841816758027
"F_602";86;82;90;84;1354,28428873999;0,660714285714288
"F_603";82;79;81;77;2335,25996292678;0,666518403202494
"F_604";37;36;37;36;206,145239994267;0,583159021257964
"F_605";93;81;92;82;7944,85494181732;0,760032967729666
"F_606";56;45;56;45;388,69784368429;0,590047743269183
"F_607";84;86;78;83;2624,49927581635;0,709181258873643
"F_608";55;48;53;47;538,024769412336;0,613259668508287
"F_609";40;39;42;40;225,288442923084;0,592204712740204
"F_610";52;60;51;60;879,535899827568;0,638678742674483
"F_611";66;68;65;67;852,003750030445;0,63071499973694
"F_612";27;31;27;29;122,283973247492;0,57449561508602
"F_613";59;62;56;63;615,359451816004;0,599639855942376
"F_614";53;50;53;45;1203,01683757714;0,672916081953415
"F_615";31;40;31;44;389,352853892814;0,603503826016914
"F_616";77;64;76;68;2865,78496520175;0,689163552745045
"F_617";93;90;91;89;1693,20801999957;0,665482402575777
"F_618";59;71;63;75;2499,16695675164;0,677135110709451
"F_619";54;60;53;61;1730,41480787004;0,667148978796823
"F_620";74;74;72;72;2138,40231109013;0,681252486219244
"F_621";52;46;51;48;595,65367617874;0,609735008392247
"F_622";51;47;46;48;454,271685057426;0,609301143583226
"F_623";58;62;60;61;843,259457973679;0,640384615384616
"F_624";52;43;50;40;401,118918408658;0,602381789859804
"F_625";59;83;60;82;1926,73320020438;0,66845098695216
"F_626";45;55;51;62;1279,55878114421;0,634252155970585
"F_627";81;73;77;74;2562,55807978161;0,71124295461288
"F_628";48;43;53;45;660,111821907969;0,620464779255731
"F_629";51;53;50;53;877,075197927788;0,64396218306833
"F_630";63;65;68;70;1073,82050932099;0,654938811188815
"F_631";46;36;44;35;345,463543385701;0,598233444782672
"F_632";69;56;68;52;1415,64041522482;0,65687671232877
"F_633";68;61;69;64;699,911660209073;0,621461897356142
"F_634";71;65;72;64;1769,94368898421;0,686558616345
"F_635";66;54;69;53;1413,33803146083;0,644239036973349
"F_636";62;50;65;50;1763,92301270403;0,667297522961321
"F_637";47;48;53;60;337,208497785969;0,585465911310802
"F_638";62;48;61;49;907,901217999276;0,640418825791979
"F_639";72;64;67;58;1979,08780158203;0,680208806173409
"F_640";45;43;44;46;901,407522280497;0,633514770385249
"F_641";36;34;36;35;342,831278687201;0,607910750507098
"F_642";81;96;82;91;1888,92098713169;0,653760157059499
"F_643";72;82;80;90;1930,54937151722;0,663199822969686
"F_644";70;92;75;90;2286,8004779631;0,692627686618906
"F_645";48;48;51;48;893,253584766279;0,649685670929986
"F_646";105;96;101;99;3782,99167809343;0,710652676507205
"F_647";62;65;65;65;1571,22662770812;0,657994401449038
"F_648";23;20;26;22;95,0448894315067;0,537144905457479
"F_649";77;83;81;83;1288,32984285707;0,648140138408307
"F_650";49;46;46;43;511,179629557517;0,625743814594427
"F_651";73;78;77;80;2788,67554174586;0,68797704447633
"F_652";50;49;55;48;502,632908943009;0,615084658799383
"F_653";73;71;75;69;2107,31800889321;0,684207522401696
"F_654";45;41;46;41;295,854414622181;0,578320227700322
"F_655";66;56;76;63;904,759653441437;0,609053497942386
"F_656";78;87;78;87;2629,83803437826;0,692387663162761
"F_657";37;44;38;46;217,428141553616;0,570748428870691
"F_658";68;62;71;63;834,196135446774;0,642581475128647
"F_659";18;22;18;22;95,3277732473426;0,545926499385218
"F_660";35;38;34;35;235,065620027059;0,596121332670312
"F_661";94;103;99;102;2203,61257744188;0,696693206253271
"F_662";19;22;22;23;129,241189593635;0,545553836352053
"F_663";66;72;67;73;1266,20187795849;0,654366812227077
"F_664";62;66;62;71;1963,76516051973;0,653332606681565
"F_665";96;103;97;100;3824,07987616512;0,709223214813943
"F_666";62;65;57;64;1120,63735135791;0,661516388919548
"F_667";84;76;82;74;1443,29037229125;0,674923995045606
"F_668";51;58;49;56;760,803738689549;0,648525831755481
"F_669";55;55;56;58;1174,54859149024;0,670132483649173
"F_670";86;83;86;82;2722,31259737085;0,707548840229008
"F_671";36;34;38;36;203,008991840053;0,587215282880234
"F_672";73;73;77;77;1487,31687440098;0,667817948860789
"F_673";73;67;67;66;1773,88730155863;0,668115699715768
"F_674";55;63;54;59;1921,03526544457;0,688807170765346
"F_675";41;44;43;44;555,823230574401;0,620657520062128
"F_676";46;48;47;54;510,612449083501;0,60880605352699
"F_677";61;61;61;61;1037,36943249909;0,644273660450369
"F_678";74;84;75;83;1600,04893451025;0,661370407149952
"F_679";105;99;102;96;4864,17432453623;0,715189118243649
"F_680";55;47;62;51;684,175169933777;0,638474648487433
"F_681";49;48;48;46;1016,80563935527;0,645835578062713
"F_682";38;43;38;43;568,780537746868;0,608898821617228
"F_683";39;36;40;34;478,805719789923;0,586525759577278
"F_684";88;78;90;77;2687,36090760446;0,71707142002632
"F_685";56;55;57;56;614,278004034587;0,627381201590957
"F_686";66;69;69;69;1596,39499630884;0,666296131614053
"F_687";81;75;77;74;2154,5860063594;0,671973094170406
"F_688";78;83;81;85;1271,58734357604;0,6449669123581
"F_689";73;75;68;72;2037,67045417218;0,69182825484765
"F_690";60;67;65;71;940,358429444876;0,653154625694674
"F_691";58;60;61;59;1072,18127201776;0,636576040781649
"F_692";59;60;55;58;1240,52313731549;0,647614931662258
"F_693";54;59;52;55;1009,44981372244;0,645418326693231
"F_694";95;98;93;92;4893,54350796227;0,729197080291974
"F_695";73;70;74;72;1297,36931235231;0,653475061324614
"F_696";55;63;59;64;644,804358437853;0,602230483271374
"F_697";105;97;102;97;3800,63304451934;0,711200759373518
"F_698";62;74;65;73;821,253876271099;0,639155470249521
"F_699";49;44;45;41;248,514496821922;0,587877599058452
"F_700";60;62;61;62;1359,44942968334;0,634185049992066
"F_701";35;43;32;43;677,813113125229;0,616761845963883
"F_702";66;52;66;51;928,347758290492;0,632445265101556
"F_703";57;54;54;51;470,255657271893;0,613008795254652
"F_704";80;75;83;76;1756,58279598976;0,677900927391997
"F_705";72;55;68;57;1109,51007351775;0,651450929246822
"F_706";61;71;66;76;1003,81227931034;0,653617578103707
"F_707";64;56;62;56;861,304150894853;0,640555703980765
"F_708";46;39;48;40;527,504728013036;0,597875417684903
"F_709";37;43;37;40;445,94061757067;0,621333056908885
"F_710";76;65;77;65;1565,20167049693;0,670169946332743
"F_711";49;49;50;51;320,331806478232;0,59748803827751
"F_712";44;44;47;43;713,811213812112;0,651132475150731
"F_713";69;79;70;86;1318,95946295286;0,665150086001222
"F_714";28;36;31;35;190,692178276465;0,572793731186391
"F_715";47;51;46;50;384,919228482778;0,593318485523384
"F_716";34;25;33;22;127,576521777713;0,578236542542927
"F_717";55;58;57;59;1308,90690397852;0,655153568696036
"F_718";57;53;57;55;555,676542231196;0,605546294893165
"F_719";35;33;35;33;558,183581935859;0,595795437602504
"F_720";76;84;74;79;1212,46005521504;0,658102766798421
"F_721";73;67;76;68;844,301279744087;0,638474648487432
"F_722";55;48;55;47;370,461567058698;0,59425965399296
"F_723";52;40;51;38;487,577967097584;0,624928321951728
"F_724";32;33;33;38;233,917383077848;0,587387917095398
"F_725";91;97;88;92;3601,66131748095;0,716857023261378
"F_726";63;73;71;75;1471,67840573199;0,675799086757992
"F_727";54;49;55;53;822,073358670257;0,6385086551265
"F_728";43;35;44;39;372,225965333431;0,612883435582821
"F_729";52;54;51;55;1073,51259450246;0,653475061324617
"F_730";59;49;58;50;626,933467342277;0,62288267691988
"F_731";55;52;57;53;708,606769000757;0,619727047146402
"F_732";53;65;59;66;1020,07217666178;0,649861766140839
"F_733";41;44;44;44;235,708870068518;0,585380145514917
"F_734";70;68;74;73;1180,98376807274;0,652088772845955
"F_735";41;49;43;48;512,585671721068;0,6310802274163
"F_736";45;45;43;45;555,40210227344;0,631013790925362
"F_737";41;53;39;56;896,385098942007;0,637659574468089
"F_738";45;52;44;54;534,922801212591;0,618416301263864
"F_739";104;99;106;103;4585,27383284608;0,731020184157574
"F_740";90;82;90;84;2704,99075905145;0,691229891022315
"F_741";72;73;73;74;1329,95018548839;0,650955690703738
"F_742";68;73;65;74;1700,12036375836;0,684793784988011
"F_743";60;68;61;72;930,89003591282;0,645522588982824
"F_744";47;41;48;42;353,309600178531;0,612319950965369
"F_745";40;26;39;24;150,720630719556;0,580926536150416
"F_746";53;62;55;65;817,421773263409;0,636339508466481
"F_747";87;89;83;83;3104,34219928318;0,706298238378604
"F_748";27;27;27;25;85,8359247063647;0,559846822024003
"F_749";62;68;64;66;838,848819028553;0,637117346938776
"F_750";81;90;84;90;1972,4239846091;0,678630059439571
"F_751";58;71;61;72;1074,25452769047;0,643547348078163
"F_752";47;47;44;43;871,953473437972;0,662759840778424
"F_753";54;46;52;46;413,653213457679;0,591357537490133
"F_754";49;57;46;54;520,483230456275;0,612226137582349
"F_755";55;62;55;62;625,374389847441;0,641790245730502
"F_756";76;64;77;62;3079,71171435296;0,688095511422344
"F_757";85;78;74;73;3535,70435424201;0,72535850426575
"F_758";86;74;89;73;1637,86541066216;0,658898537979555
"F_759";83;85;81;89;1661,02807791486;0,678514829069506
"F_760";71;71;76;71;1550,32615780668;0,668935885274262
"F_761";62;63;68;63;874,90636765168;0,636407071189681
"F_762";94;77;92;74;2004,81995673378;0,691588785046731
"F_763";72;73;70;74;853,362044761927;0,634352841570537
"F_764";47;46;46;45;702,956041725329;0,639257718765002
"F_765";65;52;62;52;1102,76191659062;0,667297522961316
"F_766";101;112;100;109;3874,65912150602;0,710063377361847
"F_767";85;87;84;86;2658,92060207221;0,687661331956638
"F_768";46;50;43;49;867,569157700867;0,643133047210307
"F_769";83;82;82;78;2263,28750779374;0,703645007923932
"F_770";39;37;41;38;249,767652572453;0,567318158156262
"F_771";67;61;64;56;1166,52508335436;0,654331095464225
"F_772";53;60;53;60;909,572156525304;0,640282006088769
"F_773";29;44;29;43;197,930618039322;0,590425531914892
"F_774";73;64;69;62;876,529734663523;0,632545377796539
"F_775";52;49;54;50;471,463412785513;0,60825003805368
"F_776";28;30;31;34;160,004985362196;0,553667097727693
"F_777";57;50;52;46;655,370277501371;0,626528692380057
"F_778";89;96;90;93;3410,96114597498;0,715018489800789
"F_779";54;53;53;52;2089,72639289975;0,651380134753317
"F_780";44;43;49;43;758,129747403176;0,641138089635259
"F_781";60;70;62;69;1432,0590696791;0,676065869614262
"F_782";43;37;43;38;416,790960237009;0,602866482273069
"F_783";32;30;33;31;239,316891335311;0,592438843587841
"F_784";55;50;59;52;613,005308438183;0,614107883817426
"F_785";41;43;42;47;305,052087380615;0,601626016260161
"F_786";47;48;50;54;509,999612445258;0,61166386040104
"F_787";75;76;78;76;2049,96663344272;0,659623638164412
"F_788";35;43;36;40;630,269445765792;0,625874490967946
"F_789";54;62;56;66;839,951148910844;0,614548623571024
"F_790";61;73;58;76;1394,02975733818;0,659732540861816
"F_791";65;66;69;72;1122,84252327745;0,657741687698893
"F_792";59;64;61;65;722,072370942638;0,626266847769302
"F_793";47;51;46;51;971,926253123156;0,628104369695065
"F_794";32;35;33;40;422,952944925057;0,60277554304103
"F_795";48;38;45;36;313,291794160845;0,598920863309351
"F_796";70;64;66;65;1659,78661837251;0,692907924397438
"F_797";75;76;80;76;1588,80753391373;0,653154625694673
"F_798";88;92;101;96;4893,46298440593;0,724525565091265
"F_799";74;85;78;90;1975,22960225099;0,686597938144331
"F_800";76;91;74;88;1264,49497449398;0,650814332247558
"F_801";26;22;27;22;65,6524078989574;0,542959373160017
"F_802";97;93;97;95;3361,55495142994;0,709853150165802
"F_803";25;26;27;28;121,68716691477;0,569609426969494
"F_804";33;26;32;27;189,850630480689;0,575764852792853
"F_805";51;54;53;55;899,659737144006;0,640795381654909
"F_806";44;30;43;28;223,495872143797;0,58828148002748
"F_807";90;92;89;88;1395,24333434841;0,673785971223025
"F_808";54;60;56;58;876,624685785435;0,617683429513602
"F_809";38;42;40;39;471,921498376417;0,647929953518542
"F_810";77;89;73;92;1734,53551149265;0,676829268292686
"F_811";70;80;78;83;1440,58296788921;0,6487012987013
"F_812";35;41;35;43;544,561073401014;0,599759855913547
"F_813";68;70;68;62;1267,14036640821;0,672538569424968
"F_814";34;33;35;33;356,65794219648;0,62502606882169
"F_815";55;52;54;54;416,356860961031;0,608126616953279
"F_816";69;58;70;58;905,124992491982;0,637897089341776
"F_817";31;37;28;38;323,890542693077;0,594613362432417
"F_818";70;73;72;75;2047,49754201307;0,679977311401023
"F_819";68;75;73;81;2158,66934167536;0,676447353571832
"F_820";50;45;48;44;376,895029747462;0,603594985146769
"F_821";37;40;38;43;235,736956331895;0,590745577292661
"F_822";33;46;32;49;279,242645397471;0,590134882347149
"F_823";40;39;40;39;310,418147196549;0,584894613583137
"F_824";43;48;47;51;336,464668877377;0,608280901156889
"F_825";38;44;39;44;314,169954238212;0,598532128413799
"F_826";59;73;62;69;1689,15573294518;0,670694864048341
"F_827";48;47;48;49;421,94752250367;0,60081190798376
"F_828";90;77;93;79;3128,84108813268;0,707674144037785
"F_829";73;77;74;78;2751,71164997538;0,698805013115714
"F_830";73;62;78;64;1054,2015938509;0,648911984410525
"F_831";39;43;44;45;603,202759148134;0,612789449470939
"F_832";25;28;26;25;156,819592271698;0,594259653992959
"F_833";32;29;31;32;152,3377502484;0,570666920550292
"F_834";16;13;17;13;43,0980682909146;0,510475217169137
"F_835";71;72;68;74;1499,31576848997;0,660714285714288
"F_836";82;81;83;82;2232,22905147734;0,691349480968859
"F_837";80;75;74;72;2642,61712651894;0,693268563497575
"F_838";64;61;61;54;2470,70142134658;0,695158016816472
"F_839";70;70;72;76;1671,3568143096;0,683856246434688
"F_840";66;58;65;58;728,294138739574;0,628400691932693
"F_841";71;67;68;68;1241,40502779221;0,656445077209509
"F_842";38;43;36;46;589,482879684596;0,602381789859804
"F_843";79;70;78;73;1393,13818290437;0,673067205659427
"F_844";61;59;58;56;615,831813328533;0,632678910702978
"F_845";66;58;66;61;1195,90099533763;0,66759480982347
"F_846";67;53;65;52;706,52742419024;0,622429906542055
"F_847";73;70;77;67;1205,75097273745;0,637388345384943
"F_848";108;110;103;107;5385,479154821;0,735054264516526
"F_849";45;37;45;35;636,191306332433;0,654795717719036
"F_850";40;37;39;38;586,473197573286;0,589322583816732
"F_851";27;27;27;26;70,2352005021474;0,545553836352053
"F_852";38;31;42;37;266,052002901977;0,598621791670826
"F_853";52;46;52;48;1013,05333967316;0,659260888693363
"F_854";39;44;41;40;352,286736566464;0,604051194195303
"F_855";41;42;41;41;1119,96524346141;0,668301928866104
"F_856";41;37;38;35;285,883516649479;0,59039645407535
"F_857";69;56;69;58;1951,38202349231;0,687779690189331
"F_858";62;65;61;66;635,095639273423;0,633313962702731
"F_859";62;60;63;61;663,552715501899;0,645661657779934
"F_860";35;34;34;37;204,441328964706;0,573698315467074
"F_861";29;26;32;28;226,839768648018;0,594141844674628
"F_862";34;36;36;35;519,963881574301;0,617524339360223
"F_863";94;98;95;104;2274,0801222395;0,684285632741597
"F_864";61;63;60;56;1067,62837863415;0,64555735056543
"F_865";44;46;49;47;514,055811892622;0,607571841265013
"F_866";30;25;30;24;91,8833433141113;0,543550215370665
"F_867";65;61;62;61;1563,92235718092;0,658391915641479
"F_868";45;62;47;65;526,676195944173;0,615716486902926
"F_869";104;87;103;90;4562,05909833863;0,734693877551024
"F_870";65;76;68;74;1106,18490298945;0,649368939927417
"F_871";77;71;72;68;1702,6717961393;0,683895259284616
"F_872";47;44;49;46;332,662845271068;0,602018781700396
"F_873";24;28;24;28;103,494896223246;0,547672346840879
"F_874";53;67;56;67;890,615616399246;0,64427366045037
"F_875";87;105;86;99;2742,8527894148;0,698031908699197
"F_876";74;72;69;73;2217,6394295311;0,683661248930712
"F_877";48;54;49;56;1663,23083439302;0,694151708164451
"F_878";100;92;94;91;3774,56481388384;0,708636283028908
"F_879";51;50;52;53;533,212881226742;0,62085038065151
"F_880";68;67;64;68;867,679587472211;0,639325902618528
"F_881";73;69;71;67;772,497132888042;0,626790756038899
"F_882";62;52;60;55;1032,59304553008;0,660023123933273
"F_883";37;32;37;30;215,649442220932;0,579102458818412
"F_884";53;55;53;57;402,888510560972;0,59790523690773
"F_885";55;61;57;57;1019,50637857839;0,658572762731423
"F_886";41;34;44;36;347,165873366258;0,588772653602474
"F_887";68;75;62;74;815,450363369018;0,661370407149952
"F_888";79;76;76;77;3943,68650720282;0,708803878673216
"F_889";64;65;66;66;1794,96704522212;0,683622262773726
"F_890";26;30;27;28;168,51938582789;0,554435297382296
"F_891";103;99;105;94;3141,62277256059;0,714336789417235
"F_892";52;49;50;50;788,805407169444;0,624277456647401
"F_893";42;33;41;34;440,812332063413;0,597964884277734
"F_894";70;58;71;58;1036,52918693616;0,657236842105264
"F_895";57;68;54;69;896,918335351298;0,631047007422225
"F_896";78;78;77;78;3166,32740914026;0,697463346520832
"F_897";62;75;63;72;959,809789064015;0,643893006767647
"F_898";43;46;45;48;589,841820141705;0,629456550275665
"F_899";78;67;77;67;2145,975655171;0,680054458815526
"F_900";33;38;29;33;374,435602168344;0,609208252871226
"F_901";28;32;28;32;108,136634742753;0,587186520376174
"F_902";51;55;53;55;608,514739365623;0,634487138774215
"F_903";52;53;50;53;1098,13732412073;0,660459478816598
"F_904";72;64;77;68;1004,00356630076;0,651734261172124
"F_905";38;36;35;35;182,680085545723;0,577206413404592
"F_906";82;69;80;69;1442,96689290813;0,662576687116566
"F_907";49;51;50;52;510,102171224829;0,623174091594323
"F_908";35;42;30;37;233,168925281006;0,608836973082782
"F_909";96;96;91;90;3619,04449605077;0,718489661372492
"F_910";60;62;56;59;1602,62298597323;0,694071329319133
"F_911";62;55;62;57;968,890021408946;0,655978112175105
"F_912";39;48;42;48;309,545465523257;0,583073929961089
"F_913";31;35;34;37;172,173899144706;0,561682987396335
"F_914";80;82;82;85;2102,8797899684;0,690513219284607
"F_915";62;60;63;60;1688,68205669735;0,667000500751128
"F_916";34;29;32;29;143,033826497559;0,569501187648455
"F_917";33;29;32;29;137,197600100749;0,55724445684005
"F_918";34;35;34;36;483,340470743314;0,615274071032642
"F_919";34;25;37;26;176,753205139699;0,58635363169479
"F_920";31;30;30;29;192,758570368398;0,588310349904303
"F_921";92;85;87;84;2656,72826754552;0,695965166908565
"F_922";72;66;71;76;1156,92752539146;0,657020716869452
"F_923";61;59;57;58;837,57224470193;0,642340459733164
"F_924";78;85;76;82;3086,67297921972;0,692467652495381
"F_925";38;42;37;44;359,38998645671;0,614517121181053
"F_926";44;42;50;42;334,157755779455;0,581715838509316
"F_927";42;47;40;46;447,509877888;0,621333056908884
"F_928";33;39;32;44;330,836908522923;0,604447133565269
"F_929";58;63;58;64;1168,14999930829;0,650249511824693
"F_930";63;67;62;68;1195,62510253996;0,661406896551727
"F_931";92;101;97;104;2688,06887878808;0,693148308759759
"F_932";43;46;37;45;335,090644020678;0,619695011630913
"F_933";64;64;69;64;938,054096675196;0,643409188492917
"F_934";58;62;65;69;861,797755610373;0,634520721960515
"F_935";36;51;37;50;564,461292622357;0,640692640692645
"F_936";48;50;49;54;531,012904646683;0,629357412851744
"F_937";75;76;74;76;1329,66828445666;0,653581943081455
"F_938";19;25;21;28;82,7452345085285;0,543427017225748
"F_939";32;29;31;27;235,05270322516;0,593965218252984
"F_940";38;39;39;39;379,117343703802;0,629952706253287
"F_941";47;56;47;52;1108,73855995726;0,641069518716579
"F_942";69;77;71;78;1751,48052785829;0,669645849625744
"F_943";79;76;79;78;2699,39282707131;0,689322063136106
"F_944";63;51;64;50;1244,37377264498;0,651876019575858
"F_945";94;92;88;89;2901,5150533647;0,702943590946409
"F_946";72;85;76;88;1714,32825682509;0,680401838923891
"F_947";84;71;78;75;2270,80182400936;0,696571760604307
"F_948";56;67;59;68;1040,9081745634;0,648035028920485
"F_949";37;35;36;36;325,626423879347;0,590949423247558
"F_950";31;43;29;41;148,040094405646;0,575737201037363
"F_951";95;78;100;82;2906,63398098285;0,700888681010293
"F_952";58;63;56;63;963,108938936669;0,630947368421054
"F_953";82;76;86;86;1181,51707283685;0,644828142649671
"F_954";43;46;44;45;329,436566130792;0,578766957949113
"F_955";69;73;74;77;1290,90268333053;0,670357322596882
"F_956";47;47;55;50;520,506924713028;0,610107384599724
"F_957";38;39;36;39;292,08031671594;0,599489923488522
"F_958";59;54;57;57;660,125566342081;0,612726808075644
"F_959";43;52;43;51;636,947542180041;0,649298597194391
"F_960";67;74;66;75;1020,87817280936;0,659152141639635
"F_961";61;65;63;66;694,833096334105;0,620561134693031
"F_962";67;72;70;72;1027,56218905011;0,65021424309812
"F_963";75;73;68;66;1688,73811057671;0,662649936432486
"F_964";73;69;76;76;1338,98379809164;0,673483146067418
"F_965";62;52;61;50;1913,18207451996;0,670694864048345
"F_966";47;44;47;41;507,795968947041;0,595115170770451
"F_967";72;62;69;65;1654,04706946058;0,669122572002683
"F_968";35;33;33;33;301,921128480329;0,58324413739418
"F_969";46;35;47;34;427,26443419261;0,597339179829586
"F_970";39;41;37;39;598,636900362151;0,653688859806976
"F_971";24;28;23;27;200,032186054929;0,569203741512747
"F_972";59;59;61;61;952,938704000693;0,651946921905592
"F_973";68;62;70;68;713,369105361666;0,627249895353703
"F_974";41;42;43;42;228,613812339162;0,572356170923847
"F_975";47;51;49;51;623,996108197695;0,627020241644439
"F_976";72;77;76;78;1832,28309339787;0,676676450666069
"F_977";86;76;86;77;1932,349696787;0,672614038040737
"F_978";69;77;69;74;2171,9778449048;0,677632694590471
"F_979";38;41;39;40;293,44610916498;0,601686408351736
"F_980";42;43;44;43;175,675199074116;0,566112580279561
"F_981";68;75;68;76;1481,17480010547;0,681020280633985
"F_982";109;113;105;112;4371,62584235252;0,728399562522789
"F_983";31;34;32;36;273,463618759571;0,574192930357313
"F_984";61;66;64;67;2334,86365388459;0,693148308759761
"F_985";46;50;42;46;795,571201472051;0,639053254437875
"F_986";71;72;67;73;1046,76417981501;0,660787123801126
"F_987";71;74;73;82;1255,03927670079;0,662100961007403
"F_988";49;60;52;64;331,049245673109;0,603382323334003
"F_989";68;67;72;64;1010,9403160801;0,642478160673136
"F_990";64;59;64;59;1407,08782584463;0,67587528894402
"F_991";72;75;71;75;1754,99654516794;0,679553313304236
"F_992";90;102;101;104;3462,6784719056;0,700438212094656
"F_993";65;62;65;62;939,451693620481;0,645244631035041
"F_994";66;59;67;60;1073,72541635149;0,638474648487433
"F_995";83;86;77;79;1614,59929679629;0,657381004606275
"F_996";68;65;69;68;1255,11403612825;0,647125506072876
"F_997";70;88;77;91;1560,54157565562;0,666814996106354
"F_998";93;66;90;69;3242,97627307967;0,689798032107718
"F_999";89;78;93;73;1582,48459691961;0,675190087299354
"F_1000";29;27;30;29;177,466184931945;0,570884327825134
