"ID";"lon";"lat";"cell";"min";"max";"mean";"sd"
"F_1";464207,635595852;947573,929937113;2653532;5,13;12,5;7,18770833333333;1,63409291045074
"F_2";461658,2855;945744,6599;3716252;3,68333333333333;8,755;5,960125;1,21733829320462
"F_3";463488,2855;946284,6599;3402878;6,09;11,6033333333333;8,01241666666666;1,39425248003013
"F_4";464043,2855;942559,6599;5567214;0,75;2,565;1,64304166666667;0,498297927143899
"F_5";468672,177353133;940237,757681443;6916060;2,47;4,68666666666667;3,57208333333333;0,682659300647281
"F_6";467103,2855;939294,6599;7464791;2,0825;4,625;3,29083333333333;0,715964568367664
"F_7";464152,641240499;948069,009046392;2365926;0,9075;2,755;1,80720833333333;0,477443183830861
"F_8";470451,994671824;945918,665440435;3616336;3,68333333333333;6,675;5,07620833333333;0,936987539275369
"F_9";468298,2855;942109,6599;5829515;0,9075;2,61333333333333;1,74341666666667;0,478827446669685
"F_10";471021,936172754;942318,090100229;5708050;2,42916666666667;5,13;3,65558333333333;0,761235678861633
"F_11";458343,237520499;950199,349456014;1127234;0,628333333333333;2,565;1,772875;0,416450511915004
"F_12";468522,192747625;945113,536787972;4083655;5,2;9,5375;6,91829166666667;1,1263690978821
"F_13";467887,257917642;944893,501628293;4211348;5,53333333333333;11,7975;7,340625;1,44690244043927
"F_14";460358,2855;941884,6599;5958652;1,47;4,13166666666667;2,81729166666667;0,872176433199531
"F_15";467327,315390413;951774,601167354;213956;0,583333333333333;1,65;1,05729166666667;0,299944911486928
"F_16";467233,2855;944534,6599;4420377;5,80833333333333;10,4533333333333;7,848875;1,2027523952152
"F_17";469333,2855;940914,6599;6524017;1,7625;5,6;3,79145833333333;0,999841430227521
"F_18";459303,138995749;939987,717727262;7059436;0,1875;0,8;0,398166666666667;0,172283553501248
"F_19";471431,894094475;950499,397401031;955552;1,3325;3,35833333333333;2,264625;0,641459551616193
"F_20";459038,2855;942409,6599;5653363;0,269166666666667;0,800833333333333;0,577;0,156694519733843
"F_21";469163,2855;946269,6599;3412728;5,46666666666667;9,53333333333333;6,967625;1,08612502225204
"F_22";467117,336942702;940687,829598969;6654299;2,75333333333333;5,74;4,38045833333333;0,856723685512846
"F_23";466952,353876644;939637,661791409;7264316;2,16416666666667;5,81;3,25066666666667;0,901392587328755
"F_24";464178,2855;942034,6599;5872266;1,04833333333333;2;1,48233333333333;0,265285017200137
"F_25";462617,79877747;943053,207565521;5279334;3,685;7,52;5,27225;0,922008086091827
"F_26";465817,470361635;939902,704142841;7110124;2,385;6,675;3,81804166666667;1,10616300084112
"F_27";461492,914236162;940787,845580641;6595074;1,76;4,68;2,80675;0,746607869904617
"F_28";467523,2855;939554,6599;7313815;2,125;5;3,421125;0,878056369453918
"F_29";464572,598135921;942843,174004009;5401735;0,9625;2,65833333333333;1,817875;0,471484177935866
"F_30";460463,019945009;948934,147287858;1862623;2,90083333333333;5,13333333333333;4,01270833333333;0,614170438168333
"F_31";464027,654069243;941973,034963459;5907096;3,57333333333333;8,41166666666667;5,29316666666667;1,06148186857334
"F_32";467558,2855;949029,6599;1808847;0,935;2,70666666666667;1,68275;0,459514912356893
"F_33";465232,530400155;942293,086104811;5721417;3,85333333333333;10,2641666666667;6,25016666666667;1,40326820909856
"F_34";464578,2855;947629,6599;2621651;0,963333333333333;3,3075;2,13329166666667;0,559690904867346
"F_35";461447,918854509;942018,042155212;5880435;0,63;1,57666666666667;0,973166666666667;0,265378412374455
"F_36";462442,816737711;945843,653454181;3658309;4,8125;9,0125;6,855875;1,26777913045258
"F_37";460548,2855;946279,6599;3405195;3,3075;6,6;4,781125;0,8107180989048
"F_38";469332,109617367;940867,858365979;6550162;2,56666666666667;5,46416666666667;3,65741666666667;0,851950372459865
"F_39";466657,384152478;945043,525600802;4123952;1,235;4,5;2,34491666666667;0,769811052802921
"F_40";464128,2855;948349,6599;2203241;0,723333333333333;3,3075;1,93375;0,598553110445006
"F_41";468038,2855;941879,6599;5963093;2,52;7,92166666666667;5,355125;1,42611296628877
"F_42";465167,537071102;939627,660193242;7269769;2,34083333333333;4,94083333333333;3,41554166666667;0,83493846619051
"F_43";468213,2855;944844,6599;4240463;3,255;9,98666666666667;7,009375;1,57938209369364
"F_44";458468,2855;944364,6599;4517394;1,4;3,52;2,42470833333333;0,718104803219163
"F_45";466423,2855;943384,6599;5088365;4,74833333333333;10,1733333333333;7,18308333333333;1,46231211868606
"F_46";471788,2855;950979,6599;676743;1,14;2,65833333333333;1,80325;0,396046055491246
"F_47";459623,106154165;945468,593522909;3875620;1,92;5,13333333333333;3,70058333333333;0,704420311423655
"F_48";458543,216994509;947643,941124284;2611729;1,54083333333333;3,90833333333333;2,68208333333333;0,637789006844318
"F_49";463267,732068003;951939,627537113;117279;0,458333333333333;1,84;1,08504166666667;0,408074521900078
"F_50";464922,562215439;939737,677773081;7205810;2,21;5,46666666666667;3,82291666666667;0,89285731704259
"F_51";470796,959264492;949894,300711913;1306930;2,04;4,31916666666667;3,09216666666667;0,651390853374263
"F_52";469948,2855;939519,6599;7334635;1,61;3,96666666666667;2,35470833333333;0,674648396350892
"F_53";459918,2855;950484,6599;961964;1,505;4,19333333333333;2,69904166666667;0,639310339475922
"F_54";471526,88434463;939892,702544674;7117076;0,226666666666667;0,800833333333333;0,574041666666667;0,162347831362027
"F_55";469782,06343389;941522,963045934;6169697;2,90083333333333;6,23333333333333;4,43266666666667;1,00971120154543
"F_56";470383,2855;940729,6599;6631712;2,08;4,5;3,02783333333333;0,614098754844654
"F_57";469772,064460189;949164,184045704;1730855;2,6125;5,87916666666667;4,385125;0,913957530772386
"F_58";471221,915646764;940152,744097022;6965955;1,64833333333333;3,41333333333333;2,45883333333333;0,434064531543249
"F_59";469282,114748864;950584,410985452;905737;2,25;5,1975;3,56254166666667;0,921957715339629
"F_60";468117,234312754;940302,76806953;6878184;2,7075;6,3075;4,32741666666667;0,992491839346596
"F_61";460283,2855;940704,6599;6644217;0,88;4,20083333333333;1,89770833333333;0,740254908827938
"F_62";459538,114877711;949374,217607216;1606798;1,725;3,9675;3,03625;0,660447886527555
"F_63";464378,2855;939234,6599;7499106;1,40083333333333;3,575;2,625375;0,622393364066893
"F_64";460158,2855;944114,6599;4662982;0,5;1,91916666666667;1,05720833333333;0,324218840229326
"F_65";464972,557083941;949404,222401718;1590455;1,02083333333333;2,295;1,645;0,388717809069406
"F_66";470561,98338253;941137,901516495;6393538;2,04166666666667;4,42;3,035875;0,63636270385887
"F_67";464812,573504733;941893,022178121;5953733;3,685;6,525;5,28520833333333;0,753084489398444
"F_68";460118,055352341;950654,422172623;863234;0,3325;1,575;0,86325;0,299494933032732
"F_69";465042,549899845;940012,72172268;7046059;2,755;5,60333333333333;3,9485;0,915676602491773
"F_70";470037,037263253;942188,069324055;5783383;0,541666666666667;2,0825;1,203625;0,383100832905012
"F_71";459698,2855;939324,6599;7445880;0,933333333333333;2,04;1,34420833333333;0,284240739304057
"F_72";470113,2855;946054,6599;3537833;0,675;2,1675;1,455875;0,470885106220438
"F_73";464277,628411756;952029,641920618;65191;2,655;5,805;3,7645;0,868935432900344
"F_74";468452,199931721;939677,668184078;7241376;2,00083333333333;5,88;3,53558333333333;0,888796170694348
"F_75";461163,2855;940989,6599;6478808;1,575;3,96416666666667;2,55441666666667;0,590513461032701
"F_76";467132,335403253;949894,300711913;1306197;1,1375;2,52;1,65358333333333;0,389750548128006
"F_77";469377,104999019;942783,164415006;5437556;0,5175;2,61333333333333;1,47316666666667;0,436589369748941
"F_78";471736,862792341;939987,717727262;7061923;0,963333333333333;3,575;2,07954166666667;0,603169956737342
"F_79";461183,2855;951299,6599;488702;0,316666666666667;1,505;0,808333333333333;0,3043604885946
"F_80";469928,2855;950739,6599;815811;2,04;5,13333333333333;3,311875;0,919030082223734
"F_81";468218,2855;949759,6599;1384849;0,46;2,04166666666667;1,219375;0,365585514811994
"F_82";470453,2855;943424,6599;5065931;0,541666666666667;1,84;1,19595833333333;0,391455735941823
"F_83";468938,2855;941159,6599;6381593;2,66;5,60333333333333;4,322125;0,728185403651188
"F_84";468883,2855;941619,6599;6114322;2,99666666666667;5,53333333333333;4,56829166666667;0,71834190550305
"F_85";468918,2855;948704,6599;1997944;0,749166666666667;2,385;1,61270833333333;0,471694707724521
"F_86";459443,124627556;940272,763275029;6893879;0,9625;2,70666666666667;1,55416666666667;0,451943415570128
"F_87";466513,2855;940269,6599;6898198;3,04833333333333;6,67;4,287625;1,03747335888433
"F_88";460667,998905869;942088,053342383;5839609;1,92;4,13666666666667;3,12879166666667;0,63799390195577
"F_89";465412,511926764;947178,866809507;2883268;4,87666666666667;11,4075;8,174625;1,84952893234043
"F_90";469632,078828382;948974,153680527;1841217;3,46166666666667;6,97666666666667;4,58829166666667;0,874188657885713
"F_91";461417,921933408;941908,024575372;5944339;2,9;5,33;3,97575;0,771633553342048
"F_92";466258,2855;944624,6599;4367892;5,39833333333333;11,9791666666667;7,7205;1,6071498099729
"F_93";472371,797622324;946093,693408362;3515045;1,2025;4,375;2,81354166666667;0,698913885623647
"F_94";459608,107693614;942918,185990263;5357167;0,385;0,991666666666667;0,674291666666667;0,158135211918592
"F_95";460183,2855;942799,6599;5427002;0,366666666666667;1,3325;0,748416666666667;0,279005635672189
"F_96";465018,2855;941274,6599;6313994;2,70416666666667;7,28333333333333;4,98791666666667;1,29436132334836
"F_97";459608,2855;939234,6599;7498152;0,583333333333333;1,785;1,19120833333333;0,315892460210954
"F_98";469083,2855;950264,6599;1091617;2,99916666666667;5,88;4,06833333333333;0,874083856228508
"F_99";459028,2855;948659,6599;2022111;1,295;4,13666666666667;2,64341666666667;0,715291975104658
"F_100";462058,2855;943374,6599;5093302;4,08;6,97666666666667;5,21679166666667;0,840706473094807
"F_101";470841,954646145;944543,44569244;4415289;3,3075;7,92;4,75175;1,05358646400497
"F_102";470243,2855;939649,6599;7259164;1,645;3,72;2,733625;0,659987942639731
"F_103";459888,078957229;949594,252766896;1479048;2,04;4,9375;3,11716666666667;0,684008299511906
"F_104";465442,508847866;942058,048547881;5857994;3,57333333333333;8,40666666666667;6,02220833333333;1,35018352865009
"F_105";469332,109617367;949009,159274112;1820822;2,43;7,6725;4,78404166666667;1,47626225292141
"F_106";462592,801343219;940357,77685945;6845124;0,240833333333333;1,26666666666667;0,758916666666667;0,251574297560348
"F_107";460918,2855;940754,6599;6615294;0,1875;0,906666666666667;0,672375;0,167085936454325
"F_108";458258,246244045;952059,64671512;46557;0,906666666666667;1,9125;1,36091666666667;0,317276294538409
"F_109";465537,499098021;941267,922292669;6317003;0,700833333333333;1,95833333333333;1,413875;0,307921996250436
"F_110";469847,056762943;939537,645809737;7322995;1,14;3,7375;2,62420833333333;0,606913235210025
"F_111";466468,2855;945259,6599;3998999;5,135;11,7;8,35604166666667;1,77194523141752
"F_112";460708,2855;946169,6599;3469137;3,685;7,52;5,08695833333333;1,02919151809615
"F_113";466762,373376334;939762,681768499;7191653;2,65833333333333;6,2775;4,10304166666667;0,938778885018267
"F_114";459973,2855;944174,6599;4628085;1,96;5,265;3,36954166666667;0,979941946715594
"F_115";464538,2855;951569,6599;332503;3,2025;6,29416666666667;4,66691666666667;0,93335115506168
"F_116";468052,2409837;940547,807224628;6735826;2,70666666666667;6,52166666666667;4,29845833333333;0,976548825108933
"F_117";459363,2855;940919,6599;6519118;0,986666666666667;3,255;1,791625;0,515514098918943
"F_118";460238,2855;941244,6599;6330468;1,17;3,41;2,30845833333333;0,694627896675033
"F_119";469122,131169656;941192,910306415;6361295;2,85;6,45333333333333;4,242;0,832805376616672
"F_120";466098,2855;949544,6599;1509340;1,235;2,34;1,80691666666667;0,417383865207644
"F_121";460877,97735358;948464,072173998;2135776;0,749166666666667;1,7625;1,274;0,255480512755202
"F_122";472311,80378012;942358,096492898;5685068;1,92;3,52083333333333;2,59229166666667;0,531456598974523
"F_123";461227,941433098;949859,295118328;1325351;2,47;5,46416666666667;4,2035;0,820916778196881
"F_124";459318,1374563;944963,512815464;4168964;2,3375;5;3,32675;0,705455448877445
"F_125";462427,81827716;951759,598770103;221691;0,54;1,80166666666667;1,084375;0,351916523341239
"F_126";469087,134761704;951074,489295647;621008;1,435;4,31916666666667;3,15075;0,635484625356371
"F_127";472231,811990516;947328,890782016;2797482;1,7625;4,62;2,95366666666667;0,762052159731896
"F_128";458938,2855;949704,6599;1414948;1,76;3,91;2,7025;0,636998340629638
"F_129";459923,075365181;941432,948662428;6220015;1,235;3,90833333333333;2,28091666666667;0,678020365104969
"F_130";460423,024050207;943803,327428064;4843145;2,20833333333333;5,4675;3,6725;0,892416269599348
"F_131";463517,706410516;941387,941470676;6246879;3,255;6,45333333333333;4,575625;0,881246951593582
"F_132";462553,2855;940424,6599;6807351;0,35;1,235;0,814791666666666;0,282447386162967
"F_133";472128,2855;950669,6599;856921;1,29833333333333;3,1;1,88679166666667;0,505042502626329
"F_134";461412,922446558;942308,088502062;5711938;2,65833333333333;4,995;3,711375;0,753959784311902
"F_135";471093,2855;948984,6599;1835699;1,40083333333333;4,55583333333333;3,30820833333333;0,869777071786365
"F_136";460028,2855;948504,6599;2112366;2,34;5,4;3,915625;0,697518097765589
"F_137";465562,496532272;943398,262702291;5079478;5,60333333333333;11,9991666666667;7,62858333333334;1,48763588744886
"F_138";472091,826358709;947188,868407675;2878794;1,79666666666667;4,375;3,02083333333333;0,702778060929606
"F_139";464397,616096162;944658,464071363;4347185;1,17;3,1;2,141375;0,554346941723543
"F_140";471533,2855;951159,6599;572112;0,163333333333333;0,7;0,415541666666667;0,149794272907566
"F_141";462207,840855749;945708,631878923;3736697;3,90833333333333;8,92666666666667;6,778625;1,36965901215449
"F_142";458438,227770654;943873,338615235;4802078;1,20333333333333;3,73333333333333;2,2285;0,649629876628366
"F_143";469697,072157435;939247,599462887;7491455;1,84;4,08333333333333;2,503375;0,602304751977256
"F_144";464083,2855;947229,6599;2853952;1,36666666666667;3,10083333333333;2,10570833333333;0,57912910234106
"F_145";465603,2855;949214,6599;1700971;1,23333333333333;2,42916666666667;1,87608333333333;0,312529776359168
"F_146";468298,2855;941239,6599;6334985;3,46166666666667;6,44583333333333;4,56329166666667;0,596522970727249
"F_147";469517,090630826;945048,526399885;4121619;4,37833333333333;8,585;6,11404166666667;1,28698143690294
"F_148";466337,416994062;945923,666239519;3612608;0,9075;3,905;2,29916666666667;0,731055123480611
"F_149";458913,2855;945564,6599;3820283;1,54;3,79166666666667;2,81758333333333;0,583314905723971
"F_150";462602,800316919;942783,164415006;5436201;0,6525;2,295;1,29075;0,385840286398643
"F_151";471286,908975818;946353,73496071;3363768;2,21;5,46;3,85625;0,812566528990143
"F_152";469162,127064458;948834,131306186;1922463;3,57;7,76;5,606;1,02790444296133
"F_153";463357,722831308;949044,164867698;1799292;4,625;6,97666666666667;5,98604166666667;0,77594579503177
"F_154";463712,686397676;941342,934278923;6273063;4,14166666666667;7,43666666666667;4,968625;0,863169194372712
"F_155";465152,538610551;942508,120465407;5596486;3,35833333333333;9,5375;6,16125;1,54453376119581
"F_156";464297,626359157;950434,387012944;991890;4,08;8,0025;5,680625;0,900543446833357
"F_157";467448,2855;939094,6599;7581060;1,725;4,37833333333333;2,88654166666667;0,914311459011067
"F_158";469698,2855;950684,6599;847720;0,52;1,23333333333333;0,881416666666666;0,201965144494398
"F_159";471358,2855;946249,6599;3424787;0,585;1,91916666666667;1,0975;0,314471035492528
"F_160";468942,149643046;939562,649805155;7308289;1,84;5,005;3,01304166666667;0,747359155451275
"F_161";465627,489861325;943503,279483047;5018486;4,62333333333333;11,02;7,064375;1,60541207921174
"F_162";462797,780304079;941813,009392784;5999810;0,421666666666667;1,96;1,10170833333333;0,453175401008205
"F_163";458013,271388382;941187,909507331;6361978;0,7;1,95833333333333;1,270625;0,345318193272904
"F_164";464077,648937745;949269,20082646;1668711;1,235;2,70666666666667;1,76845833333333;0,398881593897603
"F_165";460948,2855;951704,6599;253350;0,366666666666667;1,76333333333333;0,747708333333333;0,362975930263003
"F_166";466072,444190998;940427,788046621;6805150;3,15;6,23333333333333;4,70783333333333;0,87987914507705
"F_167";460088,058431239;942718,154026919;5473463;2,12333333333333;4,80583333333333;3,22108333333333;0,79996468763439
"F_168";458018,270875232;950559,406990034;918009;0,991666666666667;2,84166666666667;1,763375;0,510918539515321
"F_169";466903,2855;950504,6599;951741;0,583333333333333;2,43;1,51616666666667;0,516020209609222
"F_170";468523,2855;947029,6599;2971040;0,8525;2,8;1,83820833333333;0,46002584428734
"F_171";460468,2855;939224,6599;7504134;0,1875;0,825;0,416875;0,190755054618673
"F_172";464398,2855;941749,6599;6037895;0,800833333333333;2;1,38441666666667;0,327042960409203
"F_173";465707,481650929;942548,126858076;5573357;1,0175;2,8025;1,69591666666667;0,545523911225987
"F_174";468967,147077298;940012,72172268;7046844;2,08333333333333;4,38;3,357125;0,595522429927525
"F_175";464902,564268038;945568,609504582;3818576;7,285;12,3016666666667;9,16695833333333;1,20595456340247
"F_176";465258,2855;941249,6599;6328567;2,61;6,1625;4,73204166666667;0,935800485863363
"F_177";468153,2855;948729,6599;1983266;0,606666666666667;2,75333333333333;1,66891666666667;0,500098827952334
"F_178";463208,2855;941594,6599;6127712;2,43;5,94833333333333;4,065875;0,939676653474372
"F_179";462133,2855;940379,6599;6833412;0,541666666666667;1,17166666666667;0,821958333333334;0,172395674656735
"F_180";458188,253428141;943328,25151512;5118673;0,226666666666667;1,02;0,514708333333333;0,210366791031773
"F_181";464843,2855;941104,6599;6412729;2,94833333333333;6,30416666666667;4,72583333333333;1,03676679157704
"F_182";472091,826358709;945598,614299084;3802584;1,76333333333333;4,375;3,19333333333333;0,752800958836884
"F_183";470508,2855;940784,6599;6599782;1,61333333333333;4,31916666666667;3,23966666666667;0,732544352288772
"F_184";461892,873184182;942598,134848912;5543544;2,56666666666667;7,36;4,611375;0,962052746962762
"F_185";463432,715134062;942153,06373047;5802397;0,541666666666667;2,56666666666667;1,190625;0,467583832040181
"F_186";460138,053299742;948839,132105269;1917753;2,94833333333333;5,26166666666667;4,01616666666667;0,695032888699716
"F_187";467033,2855;946244,6599;3426827;5,67;11,3083333333333;8,294625;1,74865498594446
"F_188";470037,037263253;945558,607906415;3825413;1,02;2,43;1,61683333333333;0,427254306812769
"F_189";470571,982356231;943983,356195074;4740595;0,6075;1,88;1,24666666666667;0,38027633073766
"F_190";471331,90435747;950854,454135968;749277;1,26416666666667;3,14666666666667;2,11891666666667;0,540059362938071
"F_191";472026,833029656;950449,389410195;984721;0,285;0,935;0,533583333333333;0,174041884284732
"F_192";465702,482164079;939962,713731844;7075241;1,84083333333333;5,8;3,595375;1,00541859699831
"F_193";458338,238033649;951189,50767457;552043;1,235;2,85;1,898125;0,436934670250887
"F_194";459038,166192685;943718,313843643;4892253;0,240833333333333;1,3;0,644958333333333;0,282490293136551
"F_195";472331,801727521;943468,273889462;5040162;1,68666666666667;3,685;2,842125;0,531266518491039
"F_196";467717,275364733;947943,989069301;2439264;4,9375;10,1733333333333;6,75920833333333;1,52825784396684
"F_197";464237,632516954;941082,892726575;6424228;2,94;6,525;4,52625;1,06970744278887
"F_198";461147,949643494;947248,877996678;2841745;0,725;1,75583333333333;1,255375;0,258127461119909
"F_199";463878,2855;946149,6599;3481391;1,72;4,745;2,547125;0,740081663099117
"F_200";460892,975814131;940727,835991638;6629814;0,283333333333333;1,11;0,639791666666666;0,250665470292731
"F_201";460608,005063666;941968,034164376;5909317;1,80166666666667;4,5;2,86483333333333;0,69097691247049
"F_202";458188,253428141;940987,877543986;6478213;0,63;1,9975;1,15483333333333;0,342382818132053
"F_203";465602,492427074;942808,168410424;5422276;4,62333333333333;9,88;7,28441666666667;1,64953001679745
"F_204";458628,208270964;941923,026972623;5935066;0,9625;2,61;1,82591666666667;0,436623131283639
"F_205";472258,2855;944539,6599;4418477;0,421666666666667;1,4;0,799916666666666;0,307536060263789
"F_206";471566,880239432;947258,879594845;2838019;2,25;4,94083333333333;3,56566666666667;0,721748638025198
"F_207";464038,2855;945874,6599;3641198;6,38;10,0833333333333;8,14845833333333;1,17994062923665
"F_208";466437,406731067;940272,763275029;6895278;2,8;5,1975;3,93591666666667;0,735748509942794
"F_209";466158,2855;943864,6599;4809432;5,53333333333333;10,64;7,83954166666667;1,28454720089626
"F_210";470853,2855;942334,6599;5699301;1,61;5,525;3,7965;0,914413083102877
"F_211";460762,989156024;940562,809621879;6725653;0,27;1,02;0,598041666666667;0,187772467722249
"F_212";470586,980816781;940182,748891523;6948398;1,07916666666667;4,08333333333333;2,67545833333333;0,770645210567206
"F_213";470743,2855;943554,6599;4990459;2,125;6,4525;4,61504166666667;1,1113167363643
"F_214";465827,469335336;940817,850375143;6578511;0,585;2,65833333333333;1,40345833333333;0,524356349733507
"F_215";470686,970553787;949554,246374227;1504448;0,5625;1,64833333333333;0,902833333333333;0,335858897202991
"F_216";461947,867539535;951884,618747194;148970;0,440833333333333;1,4;0,853375;0,256612188767363
"F_217";468612,183510929;946023,682221191;3554963;4,25833333333333;8,925;6,963875;1,42244451980216
"F_218";467833,2855;944479,6599;4452452;5,805;11,2125;7,73720833333333;1,28741919848081
"F_219";468193,2855;944404,6599;4496099;5,06666666666667;10,735;7,05508333333333;1,37442156626446
"F_220";461382,925525456;950539,4037937;930302;2,7;6,67333333333333;4,19333333333333;0,912732106184952
"F_221";464707,584280878;949669,26475315;1436437;4,31666666666667;8,085;6,013375;0,903550439818012
"F_222";471181,919751962;944633,460075945;4363067;2,84166666666667;7,0525;3,87008333333333;1,06829323281885
"F_223";464147,641753649;939137,581883047;7554255;1,575;4,625;2,76754166666667;0,79738069351768
"F_224";458083,2855;942709,6599;5478872;0,1875;0,775;0,489791666666667;0,167467784062578
"F_225";459758,092299122;941267,922292669;6315847;0,213333333333333;0,933333333333333;0,518791666666667;0,204094504791199
"F_226";463797,677674131;947433,907562772;2734790;5,67166666666667;11,505;7,64629166666667;1,74665041749088
"F_227";470441,995698124;950974,473313975;679379;1,29833333333333;4,68416666666667;2,689125;0,872486342450791
"F_228";466412,409296816;945448,590326575;3888598;6,59333333333333;11,1;8,41925;1,43913284837195
"F_229";466027,448809346;940532,804827377;6744136;2,90083333333333;10,07;4,73170833333333;1,5961038654618
"F_230";469668,2855;950409,6599;1007489;2,29666666666667;4,6875;3,46995833333333;0,641960884643512
"F_231";466422,408270516;944973,514413631;4164575;5,59583333333333;12,4;8,48679166666667;1,74802757003413
"F_232";466897,359521291;939357,617042726;7426985;1,54;4,31916666666667;3,17291666666667;0,651605725826458
"F_233";461242,939893649;941742,998205613;6040169;2,42916666666667;5,81;3,47704166666667;0,889695989004602
"F_234";464817,572991583;939162,585878465;7539864;1,91916666666667;3,62916666666667;2,72275;0,569391930969022
"F_235";465028,2855;943139,6599;5230431;4,62;10,0825;7,16208333333333;1,32111143234273
"F_236";469647,077288933;939047,567499542;7607645;1,17166666666667;3,57;2,28220833333333;0,638062060161046
"F_237";471166,921291411;939847,695352921;7143149;1,13333333333333;4,25833333333333;2,40654166666667;0,790934346191502
"F_238";465112,542715749;939417,62663173;7391768;1,6125;4,31916666666667;2,848625;0,650454085372951
"F_239";472246,810451067;940817,850375143;6579795;0,9625;3,685;2,05154166666667;0,758045746268438
"F_240";472346,800188072;941337,93347984;6277695;1,04833333333333;3,795;2,27191666666667;0,619881325889993
"F_241";459108,159008589;939182,5890748;7527102;0,585;1,75583333333333;1,048;0,352704504984353
"F_242";469988,2855;942044,6599;5867618;0,585;1,84;1,098375;0,355548180147829
"F_243";462472,813658812;943448,270693127;5049810;0,676666666666667;3,2025;1,54141666666667;0,642090774630423
"F_244";469527,089604527;941452,951858763;6210316;2,125;7,0525;3,89904166666667;1,15264190164841
"F_245";467783,2855;939334,6599;7441687;1,725;5,135;3,06608333333333;0,804309486454064
"F_246";461243,2855;945324,6599;3960189;3,63;6,02;4,9735;0,651995116223234
"F_247";472026,833029656;940797,847178809;6591371;1,43333333333333;3;2,2085;0,478971363707124
"F_248";463132,745923046;939482,637019817;7353607;1,36666666666667;4,56333333333333;2,61066666666667;0,850265206304851
"F_249";467942,252272995;951059,486898396;629494;2,52;7,20666666666667;4,13191666666667;1,14165056654034
"F_250";461178,2855;945629,6599;3782971;0,6525;2,42916666666667;1,45345833333333;0,412187616521227
"F_251";467883,2855;941169,6599;6375572;2,29666666666667;7,44166666666667;4,583625;1,17603352191328
"F_252";462447,816224561;951099,493291065;605155;0,628333333333333;2,07583333333333;1,15179166666667;0,390368535107217
"F_253";464782,576583632;941727,995808362;6049592;3,685;8,75333333333333;5,888875;1,3601675613527
"F_254";472101,82533241;943903,343409737;4787381;2,295;4,44083333333333;3,25354166666667;0,652644803396598
"F_255";470951,94335685;949879,298314662;1315676;1,68416666666667;4,485;3,13166666666667;0,741815133966985
"F_256";471643,2855;945559,6599;3825734;2,38333333333333;5,005;3,77470833333333;0,704560814376567
"F_257";470586,980816781;942353,095693814;5687628;2,755;5,53;4,162625;0,742041954873441
"F_258";461972,864973787;945838,652655097;3661120;4,49666666666667;8,4975;6,508875;1,13151851842082
"F_259";462842,775685731;945463,592723826;3879169;4,20083333333333;11,8008333333333;7,203875;1,87646748177548
"F_260";465597,492940224;941067,890329324;6433215;0,758333333333333;2,29666666666667;1,423;0,360234694453101
"F_261";461037,960932788;947523,921946277;2681948;2,95;9,45166666666667;5,00175;1,3712673924862
"F_262";458903,2855;951169,6599;563776;1,17166666666667;3,1;2,20070833333333;0,538569096912478
"F_263";461322,931683253;943333,252314204;5116395;2,8025;9,18416666666667;4,69883333333333;1,53583844750745
"F_264";465708,2855;939504,6599;7342502;2,2525;4,81333333333333;3,5135;0,722173386787962
"F_265";468023,2855;940294,6599;6883975;2,20833333333333;6,225;3,83166666666667;0,898218184202897
"F_266";461782,884473477;944608,456080527;4375712;3,4125;7,84083333333333;5,573875;1,50539670693427
"F_267";470753,2855;940424,6599;6808991;1,47;4,0825;2,642;0,699353209959532
"F_268";461348,2855;947709,6599;2574525;0,75;3,25333333333333;1,603375;0,589907532834868
"F_269";469337,109104217;946298,72617079;3395333;4,81333333333333;8,25;6,581625;0,907246068858424
"F_270";468652,179405731;946143,701399198;3485251;5,38333333333333;9,8975;6,721625;1,10416395150279
"F_271";470653,2855;940089,6599;7003606;1,505;3,685;2,51083333333333;0,604325478219917
"F_272";466552,394928623;940962,873548568;6494411;3,09333333333333;6,97166666666667;4,98729166666667;1,02345154308253
"F_273";466437,406731067;944993,517609966;4152958;3,66;11,6025;7,903375;2,09569444231284
"F_274";458223,249836093;944798,486445704;4264610;1,3975;3,41333333333333;2,289375;0,563787699236105
"F_275";472273,2855;942789,6599;5435230;1,575;5,33333333333333;2,908125;0,839956612418531
"F_276";466443,2855;944264,6599;4577089;5,4;12,3;8,494875;1,74912946758419
"F_277";460698,2855;939064,6599;7597140;0,11;0,933333333333333;0,487375;0,215386616045067
"F_278";468207,225076059;945313,568751317;3967392;5,33333333333333;11,02;7,90425;1,45399580255916
"F_279";467732,273825284;941868,018182703;5968842;3,25333333333333;11,02;5,732625;1,61476383031844
"F_280";460268,2855;949069,6599;1784149;2,8025;5,67;3,79308333333333;0,744235748546927
"F_281";466732,376455232;941152,903913746;6384057;2,8025;8,0025;5,46458333333333;1,42049074945888
"F_282";465228,2855;942654,6599;5512256;4,68416666666667;10,6333333333333;6,46595833333333;1,48153597678615
"F_283";460393,027129105;939262,601860137;7480879;0,100833333333333;0,6525;0,33825;0,14208887034537
"F_284";463237,735146902;948804,126511684;1938708;4,4375;9,98166666666667;6,53170833333333;1,58464242915854
"F_285";466057,445730447;939847,695352921;7142127;2,08333333333333;4,94;3,65991666666667;0,826946662224199
"F_286";471403,2855;940294,6599;6884651;1,11;3,25333333333333;2,20104166666667;0,586810680277978
"F_287";463887,668437435;951384,538838832;439858;3,2025;7,13;4,48858333333333;0,956852368277553
"F_288";467678,2855;940259,6599;6904241;2,8025;5,74;4,06816666666667;0,881562218135763
"F_289";468972,146564148;942083,052543299;5844175;3,74;7,19416666666667;5,202375;1,09624562902968
"F_290";469677,074210034;950764,439752463;801236;2,12;4,26;3,23833333333333;0,608919928670563
"F_291";464797,575044182;950009,319090836;1238915;4,20083333333333;8,75;5,87725;1,17310149286969
"F_292";470736,965422289;947538,924343528;2675173;3,255;8,00333333333333;4,86170833333333;1,25088809022006
"F_293";459783,089733373;940182,748891523;6946237;0,140833333333333;0,8;0,39875;0,185899799300906
"F_294";459278,141561497;951664,583587514;276256;1,14083333333333;2,99916666666667;2,20145833333333;0,593782101317503
"F_295";470428,2855;946054,6599;3537896;0,878333333333333;2,66;1,372;0,419533593020291
"F_296";466513,2855;951634,6599;295133;0,520833333333333;1,84083333333333;1,13125;0,365927035116619
"F_297";459193,150285043;940107,736905269;6989694;0,541666666666667;2,21;1,351375;0,46071044449805
"F_298";470052,035723804;941833,012589118;5989641;3,15166666666667;7,65;4,45966666666667;0,966181305858002
"F_299";461412,922446558;946188,708590951;3457658;2,99666666666667;7,44166666666667;5,42279166666667;1,09695159322557
"F_300";462533,2855;951169,6599;564502;0,800833333333333;1,65;1,21575;0,28342231574865
"F_301";458323,2855;942144,6599;5807185;0,1625;0,725;0,421916666666667;0,146046861221029
"F_302";464438,2855;949344,6599;1625208;0,906666666666667;2,8;1,78229166666667;0,455944883156515
"F_303";465208,2855;941264,6599;6319842;3,15166666666667;7,13;5,180375;1,07777377341075
"F_304";467627,284601429;939212,593869301;7511376;2,125;4,49666666666667;2,87566666666667;0,585113799097865
"F_305";472288,2855;943229,6599;5179593;1,68666666666667;3,84583333333333;2,597;0,599976632098556
"F_306";472143,2855;947049,6599;2960144;1,8;5,6025;3,07133333333333;0,813374783240602
"F_307";467992,247141497;945103,535189805;4089359;4,5625;12,3;7,705625;1,81596735041221
"F_308";471101,927962358;946893,821261741;3049991;0,725;1,68666666666667;1,1905;0,2949683301466
"F_309";470836,955159294;951029,482103895;647503;1,68416666666667;3,95416666666667;2,37854166666667;0,62596299349494
"F_310";462113,2855;946679,6599;3173108;0,63;2,66;1,759625;0,545632410790157
"F_311";458713,199547418;939437,629828064;7378868;0,46;1,3975;0,905125;0,291261156074771
"F_312";465022,551952444;939912,705741008;7104155;2,38333333333333;6,02083333333333;3,84441666666667;0,877506356085676
"F_313";458373,234441601;942378,099689233;5670660;0,175;1,05;0,480458333333333;0,213226137233256
"F_314";468163,2855;946569,6599;3238228;1,46916666666667;4,14166666666667;2,37804166666667;0,664876009359368
"F_315";468428,2855;940104,6599;6994446;2,85;5,3325;3,829875;0,662955805630584
"F_316";462997,759778089;947238,876398511;2847925;4,02;9,1;6,72779166666667;1,50693410127962
"F_317";464127,643806248;939092,574691294;7580396;1,17166666666667;3,68;2,658375;0,692322478935345
"F_318";471491,887936678;945133,539984307;4072629;2,295;5,74;4,15508333333333;0,898984437577119
"F_319";466372,413402014;951899,621144444;141140;0,5;1,36666666666667;0,986208333333333;0,237156102975156
"F_320";470961,942330551;946258,719778121;3418898;2,12333333333333;6,8975;4,54066666666667;1,26765299779041
"F_321";458323,239573098;939667,666585911;7245160;0,520833333333333;1,4;0,832458333333333;0,250122261770785
"F_322";462947,764909587;950669,424569874;855085;3,52;6,74916666666667;4,966375;0,72558059405204
"F_323";458048,267796334;949174,185643872;1722700;1,16666666666667;2,945;2,06966666666667;0,542717832947131
"F_324";469743,2855;939089,6599;7584424;1,65;4,32;2,46241666666667;0,805829405458596
"F_325";460573,008655714;949774,281533906;1374605;0,63;1,72333333333333;1,15225;0,311910742686924
"F_326";463377,720778709;948134,019434479;2328006;1,2025;3,1;1,99875;0,570905553121351
"F_327";459813,086654475;941607,976630355;6118318;0,366666666666667;1,26;0,66475;0,227686062336842
"F_328";469658,2855;939254,6599;7488542;1,435;5;2,59345833333333;0,916835721053987
"F_329";467123,2855;951494,6599;376595;2,385;5,005;3,65495833333333;0,760660227756548
"F_330";461738,2855;940744,6599;6621268;0,385;1,725;0,669166666666667;0,291531673020735
"F_331";461027,961959088;951674,585185682;270796;0,333333333333333;1,14;0,744541666666667;0,202666701833734
"F_332";466492,40108642;945273,562358648;3990289;6,45333333333333;10,83;8,43341666666666;1,24562685022441
"F_333";462797,780304079;948379,058589576;2185545;4,38;9,71666666666667;6,23791666666667;1,26455793133249
"F_334";469958,2855;939964,6599;7076092;2,04;4,86;3,07325;0,821211926227194
"F_335";463392,71923926;950124,337469759;1171819;3,25;7,5175;5,37970833333333;1,11299084956411
"F_336";467613,2855;941074,6599;6430713;2,85;5,95;4,49104166666667;0,866098408294853
"F_337";466412,409296816;941107,896721993;6410138;3,96666666666667;8,24833333333333;5,37325;1,01325624778938
"F_338";466817,367731687;951404,542035166;428824;2,99916666666667;5,00333333333333;3,949875;0,599927278426797
"F_339";460593,2855;950739,6599;813944;0,46;1,235;0,793791666666667;0,271912825055797
"F_340";471663,2855;947069,6599;2948428;1,65;6,30666666666667;3,46325;0,892981932883382
"F_341";471038,2855;944129,6599;4656443;2,43;5;3,79133333333333;0,719557632948538
"F_342";466828,2855;946079,6599;3522651;1,365;3,46666666666667;2,325875;0,599179292195505
"F_343";458558,2855;949834,6599;1339342;1,365;3,15;2,20658333333333;0,453329132784976
"F_344";458973,172863632;939047,567499542;7605510;0,283333333333333;1,435;0,846708333333333;0,32604134507579
"F_345";458188,2855;944464,6599;4459238;1,505;3,795;2,33916666666667;0,638585734076547
"F_346";459853,082549277;939247,599462887;7489486;0,72;2,125;1,15154166666667;0,341238635930996
"F_347";464803,2855;942189,6599;5782336;4,50166666666667;7,99;6,16308333333333;1,07547609816272
"F_348";471536,88331833;947698,949914204;2582373;2,04;4,62;3,30079166666667;0,790313593238719
"F_349";472351,799674923;940267,762475945;6899366;0,8525;2,47;1,63766666666667;0,467290669899837
"F_350";460108,05637864;945568,609504582;3817617;0,403333333333333;1,57666666666667;1,019875;0,341653965852939
"F_351";464392,616609312;942073,050945132;5849069;3,74;7,52083333333333;5,67245833333333;1,05298123400499
"F_352";458853,185179225;950934,466921306;700301;1,17;3,35833333333333;2,16416666666667;0,513284202479113
"F_353";464793,2855;950124,6599;1172099;0,853333333333333;2,6125;1,53066666666667;0,418330153059834
"F_354";465793,2855;941884,6599;5959739;3,91;7,20416666666667;5,63241666666667;1,06503249614097
"F_355";458973,172863632;940192,750489691;6940265;0,186666666666667;0,676666666666667;0,398541666666667;0,134279775521242
"F_356";462342,827000706;951974,633130699;96759;1,47;4,37833333333333;3,10279166666667;0,792892830444428
"F_357";467773,2855;944344,6599;4530875;4,8125;10,07;7,480125;1,33307624371764
"F_358";472096,825845559;951199,509272738;548985;0,963333333333333;2,85166666666667;1,696;0,544461588225131
"F_359";469417,100893821;943058,208364605;5277789;0,563333333333333;2,52;1,498375;0,458204645011949
"F_360";468718,2855;942269,6599;5736639;3,30416666666667;7,20666666666667;5,06225;0,956272387269951
"F_361";463952,661766489;939832,69295567;7150421;0,226666666666667;1,92;0,854833333333333;0,37219374945652
"F_362";459653,103075267;939087,573892211;7582406;0,498333333333333;1,725;1,003125;0,318392902826328
"F_363";467743,2855;951349,6599;460964;2,75;5,395;3,91066666666667;0,804820891047608
"F_364";467913,2855;950779,6599;792168;0,48;2,25333333333333;1,18391666666667;0,437545411177063
"F_365";471226,915133614;946613,776513058;3212696;2,755;7,0525;4,18275;1,06694020958005
"F_366";466037,447783046;942263,081310309;5739008;0,991666666666667;3,15166666666667;1,860375;0,513277400333371
"F_367";468342,211221015;941467,954256014;6201364;3,04833333333333;6,82;4,99895833333333;0,988704475852201
"F_368";461058,2855;949884,6599;1310792;0,5;2,1675;1,01595833333333;0,435180129657292
"F_369";461747,888065525;945048,526399885;4120065;0,878333333333333;2,00083333333333;1,41904166666667;0,346731635591393
"F_370";465008,2855;945334,6599;3955132;1,54;3,85333333333333;2,62975;0,613937125330965
"F_371";469112,132195955;940982,876744903;6483303;2,42916666666667;5,81;3,83;0,86346528321736
"F_372";465143,2855;948709,6599;1994284;1,08;3,255;2,11504166666667;0,49965795866562
"F_373";463107,748488795;943738,317039977;4881447;0,99;3,79166666666667;1,723625;0,627854317094462
"F_374";468332,212247315;941517,96224685;6172312;3,4125;7,285;5,22979166666667;1,03628303088603
"F_375";469462,096275473;941132,900717411;6396223;2,52083333333333;5,20083333333333;3,949375;0,744925271724094
"F_376";458313,2855;939159,6599;7541468;0,2;0,991666666666667;0,568875;0,206439864762497
"F_377";460948,2855;942544,6599;5575310;0,421666666666667;1,725;0,951;0,419328741642225
"F_378";468037,24252315;942788,165214089;5434383;0,8;2,42916666666667;1,5405;0,478279644275872
"F_379";467987,247654647;945143,541582474;4066118;5,26666666666667;10,92;7,944;1,64471887873231
"F_380";470921,946435749;942288,085305727;5725460;1,80166666666667;5,4;3,28016666666667;0,879133869014908
"F_381";461433,2855;951744,6599;230207;0,541666666666667;1,47;0,903958333333333;0,289803179201745
"F_382";466502,40006012;941537,965443184;6160326;3,52;6,45;5,21779166666667;0,764230792570454
"F_383";461167,947590895;944558,448089691;4404639;4,14166666666667;6,825;5,31191666666667;0,737776962564722
"F_384";464833,2855;950089,6599;1192442;0,88;2,70666666666667;1,643875;0,532747984359568
"F_385";470187,021868761;946868,817266323;3064333;3,15166666666667;7,0525;5,33158333333333;1,09761250405793
"F_386";464077,648937745;941963,033365292;5912916;3,35833333333333;8,33;5,217125;1,20537415859458
"F_387";460993,2855;942394,6599;5662469;1,88;6,09166666666667;3,54;1,06103726282323
"F_388";461373,2855;946314,6599;3385025;3,30666666666667;8,085;6,01683333333333;1,13616968350137
"F_389";468492,195826523;939462,633823482;7366299;2,125;4,31666666666667;3,23454166666667;0,639600882666829
"F_390";470232,017250413;948209,031420733;2285802;0,746666666666667;1,955;1,185625;0,338047355047168
"F_391";467812,265614888;941197,911105498;6358128;3,46666666666667;7,285;5,14029166666667;1,13632565095338
"F_392";458493,222126007;949994,316693585;1246369;1,23333333333333;3,255;2,21454166666667;0,480010848668217
"F_393";463202,73873895;943688,309049141;4910516;0,725;3,10083333333333;1,72983333333333;0,538761887428045
"F_394";465462,506795267;942673,146835166;5500683;3,52083333333333;9,095;6,34029166666667;1,40453971761142
"F_395";471386,898712823;951779,601966438;211863;1,17;2,38333333333333;1,73729166666667;0,391998727751099
"F_396";460323,034313201;948859,135301604;1906170;2,66;6,09;4,03229166666667;0,926444457573057
"F_397";471973,2855;945584,6599;3811275;2,24583333333333;5,4;3,432625;0,815778888879172
"F_398";460423,024050207;944148,382564834;4642700;2,9;5,535;3,832;0,722607334344955
"F_399";466208,2855;948039,6599;2383767;1,43333333333333;3,2;2,33583333333333;0,474564589605674
"F_400";461682,894736472;951444,548427835;404557;1,80166666666667;4,02333333333333;2,99;0,597395480104363
"F_401";461717,891144423;945933,667837686;3605874;4,56;7,6725;5,90904166666667;1,03193465311011
"F_402";463162,742844148;948784,123315349;1950313;3,8525;8,91666666666667;6,41729166666667;1,51041309739445
"F_403";457943,278572479;944138,380966667;4648014;0,27;0,853333333333333;0,538708333333333;0,168212453341197
"F_404";464422,613530413;943243,237930699;5169305;0,800833333333333;2,52;1,86875;0,430250377602275
"F_405";460503,2855;943434,6599;5058131;0,403333333333333;1,61333333333333;1,08295833333333;0,285709268635461
"F_406";465932,458559191;945043,525600802;4123807;1,26416666666667;3;2,16433333333333;0,471967125800365
"F_407";459033,166705835;945428,587130241;3898742;1,91916666666667;4,995;3,07008333333333;0,709077210017415
"F_408";461657,89730222;951424,545231501;416172;0,541666666666667;1,53333333333333;1,01191666666667;0,294356283005866
"F_409";459403,128732754;945193,54957331;4035351;2,29666666666667;4,75;3,49179166666667;0,663402991306392
"F_410";457988,273954131;943923,346606071;4772938;0,300833333333333;0,75;0,48875;0,112869115060334
"F_411";469168,2855;941389,6599;6248009;3,575;6,52666666666667;4,88016666666667;0,847346330666256
"F_412";460962,968630034;945208,551970561;4026948;3,0975;6,4525;5,09345833333333;0,887031413031511
"F_413";470043,2855;941629,6599;6108744;1,9125;4,74833333333333;3,466375;0,946506205320665
"F_414";467613,2855;950439,6599;989648;0,65;2,07583333333333;1,259;0,402178424806847
"F_415";463467,711542014;939782,684964834;7179374;0,421666666666667;1,47;0,729875;0,321030672392778
"F_416";458223,2855;942139,6599;5810070;0,676666666666667;3,23;1,65275;0,567385128905335
"F_417";470466,993132375;942328,091698396;5702129;1,88;5,87916666666667;3,71783333333333;0,777550528622677
"F_418";467093,2855;939354,6599;7429929;1,57666666666667;4,38;3,2175;0,815643065998302
"F_419";469478,2855;950779,6599;792481;2,0825;5,1975;3,29895833333333;0,732474371096262
"F_420";460018,065615336;941893,022178121;5952774;0,316666666666667;0,991666666666667;0,652083333333333;0,187744285310277
"F_421";466482,402112719;952014,639523368;74347;2,21;6,23333333333333;3,70554166666667;0,970880948120817
"F_422";462262,835211102;951719,592377434;244898;2,475;4,74833333333333;3,712875;0,642398732263265
"F_423";461492,914236162;944643,461674112;4355319;3,575;8,84;6,21716666666667;1,15745218915316
"F_424";465377,515518812;941417,946265178;6229821;4,02333333333333;7,595;5,11883333333333;0,973965915863157
"F_425";459203,149258744;948524,081763001;2100581;1,9975;4,87166666666667;3,25775;0,67623468948521
"F_426";469752,066512788;940282,764873196;6890131;1,95833333333333;4,5625;3,25470833333333;0,653466648309779
"F_427";472141,821227212;944853,495235624;4235439;2,20833333333333;4,68416666666667;3,17075;0,623810616832156
"F_428";466857,363626489;943803,327428064;4844432;1,05;3,05;2,033875;0,659836019579045
"F_429";458888,181587177;942303,087702978;5714338;0,151666666666667;1,08;0,601625;0,250693697654846
"F_430";464907,563754888;942958,192382932;5334987;0,9625;4,025;1,87125;0,707418578581053
"F_431";466502,40006012;951624,577194845;300941;0,46;2,12333333333333;1,12704166666667;0,398822781126672
"F_432";468408,2855;947844,6599;2497502;0,88;2,9;1,76991666666667;0,54369854397924
"F_433";468458,2855;942569,6599;5562287;0,800833333333333;2,16666666666667;1,462875;0,357061745749636
"F_434";461692,893710172;947618,937128866;2626884;3,465;7,52;5,79645833333333;1,07370484590772
"F_435";465802,471901084;940587,813617297;6712136;2,90083333333333;6,75;4,89825;0,961585287231394
"F_436";458718,199034269;941292,926288087;6301114;0,1875;0,7;0,391458333333333;0,154520072647139
"F_437";471363,2855;942264,6599;5740073;2,29666666666667;4,62333333333333;3,247625;0,616107218670306
"F_438";466662,383639329;940517,802430126;6752978;2,385;6,30666666666667;4,13479166666667;0,843719611755134
"F_439";470933,2855;941574,6599;6140877;1,68416666666667;4,025;3,23775;0,565086037282964
"F_440";459773,090759673;941332,932680756;6278085;0,240833333333333;1,07916666666667;0,48225;0,21858982857831
"F_441";469157,127577608;940117,738503436;6985877;2,34;5,005;3,52583333333333;0,693115160511581
"F_442";464338,2855;947639,6599;2615793;4,995;11,7016666666667;7,86829166666667;1,75969014074847
"F_443";470801,958751342;950964,471715808;685261;1,91666666666667;4,08;2,5635;0,528449444875736
"F_444";470591,980303632;943983,356195074;4740599;3,255;8,16416666666667;4,76366666666667;1,09768960583593
"F_445";466298,2855;944794,6599;4269130;5,535;10,9083333333333;8,472625;1,36561213795514
"F_446";468522,192747625;940657,824804467;6672010;1,61;6,02083333333333;4,184375;1,32814480807382
"F_447";459228,146692995;948759,119319931;1964051;1,6125;6,09166666666667;3,57933333333333;0,968637759013727
"F_448";471688,2855;941874,6599;5966728;1,3975;4,25833333333333;2,78783333333333;0,660551083503863
"F_449";465557,497045422;939777,68416575;7182697;2,475;5,2;3,64541666666667;0,719420784117252
"F_450";471861,849963597;941597,975032188;6126538;1,61333333333333;3,795;2,860375;0,595476581641651
"F_451";463093,2855;946984,6599;2996099;0,826666666666667;2,95;1,89316666666667;0,571424338695685
"F_452";470778,2855;939989,6599;7061731;1,23333333333333;5,005;2,56245833333333;0,865764732900295
"F_453";469737,068052238;939792,686563001;7174818;2,00083333333333;4,81;3,11608333333333;0,829558736539145
"F_454";463932,663819088;951419,544432417;419532;2,90083333333333;5,87916666666667;4,527125;0,816245795373497
"F_455";470563,2855;945574,6599;3816803;3,96666666666667;7,6;5,07558333333333;1,03165363268699
"F_456";462062,855737091;945943,669435853;3600133;4,37833333333333;8,085;6,22833333333333;0,997063378184636
"F_457";464918,2855;941884,6599;5959564;2,2525;7,5175;5,61775;1,32157250333796
"F_458";465143,2855;945784,6599;3693709;6,1625;12,8058333333333;8,64916666666667;1,77189517184284
"F_459";467197,328732306;939622,659394158;7273080;2;4,44083333333333;3,25295833333333;0,748929863975907
"F_460";462922,767475336;947493,917151775;2699755;4,62333333333333;8,84083333333333;6,42116666666667;1,01891688709483
"F_461";462182,843421497;939127,58028488;7559672;0,9625;3,15166666666667;1,92141666666667;0,495818487172697
"F_462";471158,2855;951139,6599;583657;1,3975;3,20333333333333;2,180375;0,480491986761595
"F_463";461332,930656954;942333,09249748;5697397;2,34;5,125;3,787;0,859802285854274
"F_464";461732,889604974;941082,892726575;6423727;2,21;5,87916666666667;3,54620833333333;1,0502484903333
"F_465";465642,488321876;947188,868407675;2877504;6,23;11,305;8,65270833333333;1,24868240133374
"F_466";464347,621227659;948019,001055556;2395015;1,3325;4,31916666666667;2,16404166666667;0,823260228083001
"F_467";463788,2855;948349,6599;2203173;1,05;2,8975;1,69291666666667;0,387550836129656
"F_468";458168,25548074;944508,440098854;4433089;1,17;3,15;2,128125;0,490851083511293
"F_469";470761,96285654;949569,248771478;1495748;2,0825;4,44083333333333;3,16133333333333;0,634377567116633
"F_470";470708,2855;939904,6599;7111102;0,226666666666667;1,64833333333333;0,671916666666667;0,331781376178572
"F_471";466848,2855;951454,6599;399780;0,75;1,645;1,12066666666667;0,252741633557539
"F_472";461618,2855;945979,6599;3579709;4,4375;7,67666666666667;6,02729166666667;1,13268382688255
"F_473";466532,396981222;951719,592377434;245752;0,628333333333333;1,40083333333333;1,02441666666667;0,203380441048714
"F_474";458568,214428761;951204,510071821;543374;1,10833333333333;2,90083333333333;1,856375;0,495572375306238
"F_475";467317,316416713;941732,996607446;6047194;3,79166666666667;7,67916666666667;5,61579166666667;1,1481557317846
"F_476";471101,927962358;941933,02857079;5931751;1,76333333333333;4,81333333333333;3,423875;0,867884446176566
"F_477";459198,2855;951849,6599;168755;1,08;2,56666666666667;1,88770833333333;0,463448795644363
"F_478";459173,152337642;940957,872749484;6495840;1,04833333333333;2,42666666666667;1,786;0,401884777354165
"F_479";462102,851631893;947283,883590263;2821601;4,14166666666667;8,41666666666667;5,84295833333333;1,02946650135509
"F_480";470546,984921979;939737,677773081;7206935;1,88;3,74083333333333;2,60454166666667;0,453003901442606
"F_481";463237,735146902;950634,418976289;875478;0,63;1,76333333333333;1,30858333333333;0,316052393594916
"F_482";465828,2855;944219,6599;4603111;5,87916666666667;13,125;9,10670833333334;1,5411715296634
"F_483";466007,450861945;942588,133250745;5550177;1,17166666666667;2,56666666666667;1,79395833333333;0,346779341823017
"F_484";464472,608398916;944028,363386827;4713230;0,935;3,14666666666667;2,19120833333333;0,531609362459303
"F_485";462507,810066764;952009,638724284;76457;1,91916666666667;5,53333333333333;3,57304166666667;0,932629327022696
"F_486";461097,954774991;942563,129255326;5563720;2,2525;6,23;3,70725;0,902413880325158
"F_487";465537,499098021;950354,374227606;1038618;3,1;7,92166666666667;5,49466666666667;1,29908259915034
"F_488";459223,147206145;942353,095693814;5685355;0,175;1,4;0,644333333333333;0,263164863942805
"F_489";459438,2855;941024,6599;6458128;1,20333333333333;2,84166666666667;1,76979166666667;0,455700562385521
"F_490";461512,912183563;943078,211560939;5264588;2,755;7,82;4,863;1,21433594949899
"F_491";469318,2855;946334,6599;3374994;4,255;7,76;5,971625;1,04715485719933
"F_492";466703,2855;943604,6599;4960601;4,25833333333333;10,4533333333333;7,55195833333333;1,25948759872037
"F_493";471131,92488346;947918,985073883;2454472;2,00083333333333;5,4675;3,93454166666667;0,950334677697549
"F_494";467962,250220396;940202,752087858;6936253;2,475;6,01333333333333;4,00104166666667;0,771215143705124
"F_495";471941,841753201;951204,510071821;546049;0,800833333333333;2,56166666666667;1,46795833333333;0,534265938650176
"F_496";469437,098841222;941487,957452348;6189963;2,745;5,66666666666667;4,17308333333333;0,857256823650829
"F_497";468122,233799604;940917,866356816;6520870;3,35833333333333;5,80833333333333;4,85941666666667;0,697835055453567
"F_498";457983,274467281;947268,881193013;2829492;1,505;3,30666666666667;2,336375;0,469869668612964
"F_499";470648,2855;941959,6599;5917135;2,34083333333333;5,94833333333333;3,5665;0,824705494129136
"F_500";461223,2855;945494,6599;3861415;0,723333333333333;2,115;1,34004166666667;0,400660043421773
"F_501";460133,2855;950479,6599;964912;0,300833333333333;1,43333333333333;0,899333333333333;0,328773038016069
"F_502";468588,2855;947024,6599;2973958;1,02;2,25333333333333;1,70170833333333;0,37515654383609
"F_503";468172,228668107;940192,750489691;6942105;2,52083333333333;5,87916666666667;3,737875;0,88188396797302
"F_504";466372,413402014;939667,666585911;7246770;1,84;4,68666666666667;3,68404166666667;0,687403171012139
"F_505";471423,2855;940829,6599;6573820;1,68416666666667;3,52;2,48658333333333;0,403384430212683
"F_506";466972,351824045;944373,418523597;4513285;1,07666666666667;3,20333333333333;2,096625;0,560954014217967
"F_507";465962,455480293;940212,753686025;6930043;2,8025;5,87916666666667;4,16333333333333;0,876280808619906
"F_508";469028,2855;950299,6599;1071271;2,65833333333333;7,3625;4,15554166666667;1,15912642529188
"F_509";467918,2855;950764,6599;800884;0,5;2,08333333333333;1,100875;0,377516456691757
"F_510";461188,2855;941199,6599;6356803;2,21;3,9675;2,95854166666667;0,499605975958505
"F_511";466072,444190998;951564,567605842;335715;0,56;2,85;1,221;0,476272349477894
"F_512";464057,650990344;941652,983822108;6093022;2,8;6,525;4,64383333333333;0,963146433639028
"F_513";463068,2855;950204,6599;1125274;3,7375;7,44166666666667;5,27033333333333;1,19009614334698
"F_514";470713,2855;940514,6599;6756693;1,68666666666667;4,25833333333333;3,03841666666667;0,636189766964734
"F_515";470973,2855;942069,6599;5853290;0,46;1,33;0,917708333333333;0,220211035643762
"F_516";458868,183639776;945108,535988889;4084629;1,84;5,535;3,24233333333333;0,949249033747297
"F_517";471906,84534525;944433,4281126;4479412;2,125;4,81;3,43108333333333;0,764863492579364
"F_518";465298,2855;939049,6599;7606775;2;4,025;3,04058333333333;0,582418524533087
"F_519";471351,902304871;951354,53404433;458781;1,02;2,66;1,68575;0,468831359411091
"F_520";468962,147590448;946133,699801031;3491123;4,14166666666667;8,415;6,32091666666667;1,15165244551607
"F_521";466513,2855;939979,6599;7066688;2,25333333333333;5,80833333333333;3,93870833333333;0,99034374662367
"F_522";460233,043549897;945318,569550401;3962892;0,606666666666667;1,54083333333333;1,11916666666667;0,263556007341605
"F_523";472366,798135473;945008,520007216;4145429;1,80166666666667;4,94;2,81416666666667;0,792929555951696
"F_524";471026,935659604;942433,108479152;5641236;2,34;4,44;3,460875;0,627849264127078
"F_525";465292,524242358;939062,569896793;7598059;1,61333333333333;3,62666666666667;2,7575;0,599275207941894
"F_526";462273,2855;945494,6599;3861625;1,235;2,8025;1,82666666666667;0,40531988666523
"F_527";472173,2855;944844,6599;4241255;1,88;4,25833333333333;3,161125;0,684199401689251
"F_528";458188,2855;944119,6599;4659683;1,36666666666667;3,9675;2,09766666666667;0,67829650962596
"F_529";461663,2855;944374,6599;4512223;3,46666666666667;7,3625;5,22083333333333;0,986281782446561
"F_530";461808,2855;941934,6599;5929892;0,498333333333333;1,88;1,06908333333333;0,425697990645676
"F_531";469938,2855;939224,6599;7506028;1,33;3,3;2,32779166666667;0,606542019860722
"F_532";465077,546307797;941712,993411111;6058366;3,795;7,52083333333333;5,57533333333333;1,00003554030412
"F_533";459683,099996368;939687,669782245;7233812;0,800833333333333;1,88;1,33054166666667;0,375177080509679
"F_534";459643,2855;941359,6599;6263534;0,240833333333333;1,235;0,61875;0,273466016683429
"F_535";461867,875749931;946913,824458076;3036524;3,96666666666667;8,00333333333333;6,00208333333333;1,13967554311183
"F_536";468742,170169036;944938,508820046;4185374;4,5;10,8266666666667;6,9295;1,54716483772342
"F_537";459513,11744346;948784,123315349;1949583;2,16666666666667;4,75;3,34554166666667;0,703568040731382
"F_538";468453,2855;944944,6599;4182411;4,0825;8,5;6,38520833333333;1,0360129332591
"F_539";466747,374915783;948559,087356586;2081755;3,57333333333333;11,6025;6,64070833333333;1,95256532554271
"F_540";469882,053170895;940712,833594387;6640327;2,475;5,135;3,67445833333333;0,68147008891854
"F_541";458243,2855;942404,6599;5656109;0,826666666666667;2,42666666666667;1,57141666666667;0,430462071533881
"F_542";458398,2855;940934,6599;6510210;0,13;0,604166666666667;0,354;0,117234083821032
"F_543";461417,921933408;944523,442496105;4425024;2,61;6,89333333333333;5,30275;1,05761396673436
"F_544";459368,132324802;940197,751288774;6937439;0,7;2,385;1,445875;0,414902094683209
"F_545";469132,130143356;940067,7305126;7014922;1,80166666666667;4,875;3,726;0,919715686744792
"F_546";470711,967988038;941527,963845017;6166978;1,92;5,26666666666667;3,44645833333333;0,909367224047862
"F_547";463597,69820012;939912,705741008;7103870;0,44;1,575;0,909291666666666;0,327571838801847
"F_548";471201,917699363;945553,607107331;3828551;3,575;5,7375;4,40108333333333;0,612589359754321
"F_549";459748,2855;949164,6599;1728850;1,54;4,6875;3,10470833333333;0,838230840016621
"F_550";467242,324113959;951739,595573769;234274;0,563333333333333;1,645;1,10975;0,276442667194509
"F_551";465468,2855;941794,6599;6011964;3,57;8,33333333333333;5,78445833333333;1,13033563415179
"F_552";469613,2855;950029,6599;1228258;0,8;2,29666666666667;1,19620833333333;0,328246880037551
"F_553";469102,133222255;948629,098543757;2041556;4,25833333333333;8,1675;5,66954166666667;0,925465367171206
"F_554";462058,2855;948409,6599;2167967;1,0725;3,15166666666667;1,86920833333333;0,537892551812462
"F_555";459293,140022048;940377,780055785;6832844;0,0833333333333333;1,0175;0,489583333333333;0,20137729347542
"F_556";466203,2855;940814,6599;6581491;2,8025;6,45;4,54820833333333;1,04842722904609
"F_557";464937,56067599;945508,599915578;3853443;5,4675;12,3825;7,89845833333334;1,63703727168146
"F_558";460048,2855;949594,6599;1479080;2,34;5,38333333333333;3,875875;0,740712942628379
"F_559";468558,2855;945344,6599;3950032;4,745;9,095;6,60983333333333;1,14655001829159
"F_560";468913,2855;947729,6599;2564418;0,773333333333333;2,29666666666667;1,62775;0,342583291191367
"F_561";466457,404678468;945628,619093585;3784027;6,30666666666667;10,0833333333333;8,07945833333333;1,12791757075512
"F_562";461277,936301601;950889,459729553;726931;2,61333333333333;4,68666666666667;3,72954166666667;0,622598043842018
"F_563";469038,2855;941874,6599;5966198;2,9;6,4525;4,8315;1,06509679570006
"F_564";462607,799803769;945663,624687171;3762922;1,08;2,84666666666667;1,710375;0,523342166298796
"F_565";460682,99736642;943398,262702291;5078502;0,585;2,04;1,13104166666667;0,415782735644753
"F_566";464078,2855;952079,6599;36101;3,19583333333333;4,74833333333333;3,97420833333333;0,464656028456214
"F_567";458508,220586558;949604,254365063;1472962;1,67416666666667;3,15166666666667;2,42125;0,403759335343708
"F_568";467752,271772685;951384,538838832;440631;2,70416666666667;5,2;3,76079166666667;0,689976240956742
"F_569";458103,262151687;943403,263501375;5075081;0,9625;3,05;1,84425;0,605666764427572
"F_570";462912,768501635;948164,024228981;2310483;1,02083333333333;3,35833333333333;1,80425;0,519603699357467
"F_571";467632,284088279;951159,502880069;571332;2,75;5,4;3,955125;0,852917990811372
"F_572";467097,338995301;946343,733362543;3368740;5,4675;12,2;8,438375;1,7185642823639
"F_573";472151,820200912;942623,13884433;5531071;1,92;3,795;2,7145;0,566690169791228
"F_574";464572,598135921;951699,5891811;256980;2,99916666666667;7,59833333333333;4,48204166666667;1,03438095857898
"F_575";460702,995313821;951824,60915819;183581;0,269166666666667;0,963333333333333;0,625125;0,214113034277151
"F_576";460058,061510138;949644,260757732;1450032;2,0825;4,68666666666667;3,36116666666667;0,684669446858839
"F_577";472116,82379296;945853,655052348;3654434;2,03166666666667;4,94;3,24445833333333;0,697143360530371
"F_578";463177,741304699;940327,772064948;6862671;1,65;5,67166666666667;3,19258333333333;1,09049364123728
"F_579";471241,913594165;947278,88279118;2826334;0,676666666666667;1,87833333333333;1,078625;0,289491926757715
"F_580";466367,413915163;951744,596372852;231194;0,6075;1,91916666666667;1,00670833333333;0,380046499444168
"F_581";466463,2855;944809,6599;4260448;5,805;10,9233333333333;8,71583333333333;1,49916421647303
"F_582";457978,27498043;944058,368181329;4694501;0,285;0,991666666666667;0,656333333333333;0,209988756312755
"F_583";462052,856763391;946048,686216609;3539126;3,90833333333333;9,1875;6,19383333333333;1,20244273185537
"F_584";470801,958751342;943443,269894044;5054381;2,3275;6,6;4,200375;1,19423176494617
"F_585";468908,2855;940439,6599;6799907;2,56666666666667;4,6875;3,48791666666667;0,591463363885467
"F_586";468862,157853442;940477,796037457;6776658;2,42666666666667;5,67;3,87845833333333;0,733156740848809
"F_587";458258,2855;942409,6599;5653207;0,749166666666667;3,355;1,83870833333333;0,591177365937732
"F_588";465273,2855;945899,6599;3626920;0,963333333333333;2,99916666666667;2,01470833333333;0,501032944356366
"F_589";464978,2855;939544,6599;7319116;2,20833333333333;4,81333333333333;3,35108333333333;0,645969346175831
"F_590";458963,173889931;948259,039411569;2254498;1,68666666666667;4,8125;2,966875;0,798824422948391
"F_591";462117,850092444;952059,64671512;47329;1,33333333333333;4,0825;2,86345833333333;0,800145330138285
"F_592";462002,861894888;947103,854823253;2926161;4,19333333333333;9,45;6,3245;1,34906859249316
"F_593";464153,2855;946019,6599;3556976;6,30666666666667;10,6375;8,562875;1,4698871757982
"F_594";461767,886012926;940832,852772394;6568984;1,8;4,625;2,94220833333333;0,753679438183724
"F_595";460488,2855;948719,6599;1987543;2,385;5,66166666666667;3,82708333333333;0,88135281532864
"F_596";471046,933607005;949089,17205945;1774685;1,91916666666667;5,805;3,229375;0,941246951759157
"F_597";467663,2855;943794,6599;4850403;4,995;9,99;7,24904166666667;1,52561207338724
"F_598";458933,17696883;949689,267949485;1423662;1,365;3,7375;2,55695833333333;0,585394246308512
"F_599";467252,323087659;948564,08815567;2078951;4,6875;10,92;6,83070833333333;1,43005314369311
"F_600";461847,87780253;946713,792494731;3152720;4,1975;8,925;6,51366666666667;1,43283703157907
"F_601";470633,2855;939814,6599;7163377;1,6125;3,66;2,45495833333333;0,605370849258188
"F_602";465523,2855;941904,6599;5948065;3,46666666666667;6,82;5,601875;0,818606935851374
"F_603";462853,2855;943499,6599;5020836;3,96666666666667;7,285;5,57725;0,889982386152005
"F_604";469537,088578227;945968,673431271;3587103;0,816666666666667;2,52;1,477;0,457371830383191
"F_605";461383,2855;946439,6599;3312402;4,75;8,1675;5,67320833333333;0,771481177500036
"F_606";463427,715647212;948304,046603322;2229246;0,6075;2,1675;1,59379166666667;0,426417268375714
"F_607";468267,218918262;944958,51201638;4173659;3,9675;9,54083333333333;7,07558333333333;1,37333370858877
"F_608";458493,2855;944429,6599;4479634;1,26666666666667;3,3075;2,27983333333333;0,535057014505865
"F_609";462022,859842289;951134,498884651;584735;0,385;1,92;0,943166666666667;0,358925927786538
"F_610";466122,439059501;940742,838388889;6622145;2,70666666666667;6,95166666666667;4,63545833333333;1,19541929915996
"F_611";467178,2855;951754,6599;225546;1,80166666666667;5,3325;3,42866666666667;0,949862617028415
"F_612";470831,955672444;949084,171260367;1777547;0,563333333333333;1,91916666666667;1,053125;0,33340370693537
"F_613";465023,2855;939524,6599;7330745;2,00083333333333;5,6025;3,0195;0,795751254148891
"F_614";457968,27600673;947623,93792795;2623234;1,235;3,255;2,35408333333333;0,573550798975861
"F_615";470488,2855;947994,6599;2410768;0,88;2,60583333333333;1,45658333333333;0,432403514911248
"F_616";461632,899867969;941963,033365292;5912427;2,16416666666667;5,13;3,74675;0,787506284204017
"F_617";461702,892683873;943998,358592325;4730106;2,8975;6,675;4,92808333333333;0,86967191921783
"F_618";459393,129759053;948804,126511684;1937939;1,96;4,4375;3,197125;0,739971820379764
"F_619";459923,075365181;950664,42377079;857385;1,575;3,96;2,93179166666667;0,713418550974299
"F_620";467667,280496231;951809,606760939;193689;1,84;4,56333333333333;3,478375;0,787933880985006
"F_621";464518,2855;943064,6599;5273904;0,8525;2,52;1,67925;0,444535855913763
"F_622";472176,817635163;940712,833594387;6640786;0,9075;2,99916666666667;2,03041666666667;0,602465481527987
"F_623";471621,874594785;941903,023776289;5949285;1,8;5,53;3,18970833333333;0,996945491238112
"F_624";466558,2855;947894,6599;2468082;1,36666666666667;2,99916666666667;2,11695833333333;0,510137456751318
"F_625";468972,146564148;941052,887932073;6442605;2,47333333333333;5,94833333333333;4,33254166666667;0,972410246125063
"F_626";458278,244191446;949214,192036541;1699506;0,935;3,2025;2,162625;0,621026625685197
"F_627";461427,920907108;949729,274342153;1400921;2,66;6,5975;4,22470833333333;1,02587098477941
"F_628";458063,266256885;950644,420574456;868633;1,02;2,75;1,92954166666667;0,396216432802587
"F_629";471238,2855;949864,6599;1324448;2,04166666666667;4,20083333333333;2,82979166666667;0,552610820499154
"F_630";471938,2855;945514,6599;3851938;2,475;5,0625;3,61541666666667;0,664287503590802
"F_631";468252,220457711;942523,122862658;5588391;0,75;2,8;1,65558333333333;0,449949241776713
"F_632";466078,2855;940619,6599;6694761;2,42666666666667;6,97666666666667;4,51629166666667;1,30048153685651
"F_633";472003,2855;943839,6599;4825126;1,80166666666667;4,94;3,18266666666667;0,832227186916694
"F_634";469268,2855;950584,6599;905734;2,52;4,94083333333333;3,54791666666667;0,688215842103069
"F_635";459773,090759673;949434,22719622;1571985;2,25333333333333;5,33;3,50145833333333;0,843072643424423
"F_636";458453,226231205;948194,029023482;2292161;1,02;3,46666666666667;2,40554166666667;0,638547572666658
"F_637";458808,189797573;951909,622742612;133817;1,07666666666667;2,52;1,61675;0,449461170255286
"F_638";470007,040342151;939277,604257388;7474087;1,20333333333333;3,3;2,24591666666667;0,592274946771429
"F_639";459393,129759053;950224,353451432;1112919;1,435;3,96;2,716875;0,638573650139158
"F_640";457888,2855;949404,6599;1589038;1,2675;3,465;2,01558333333333;0,559170366291
"F_641";470983,2855;951259,6599;513902;0,991666666666667;3,57;2,01608333333333;0,622907731849316
"F_642";463253,2855;943659,6599;4927956;4,31916666666667;9,54;6,44004166666667;1,39046372200342
"F_643";468723,2855;941019,6599;6462890;3,10083333333333;6,15;4,29708333333333;0,761804639313475
"F_644";464857,568886386;941322,931082589;6284912;2,755;7,2075;4,85733333333333;1,29636941300339
"F_645";469243,2855;939114,6599;7569799;1,26666666666667;3,7275;2,73454166666667;0,653025374687216
"F_646";465248,2855;947184,6599;2880330;5,125;12,3;8,59183333333333;1,88298433732728
"F_647";460712,994287522;942248,078913058;5746658;2,565;4,7925;3,36870833333333;0,623058180839098
"F_648";458153,257020189;942753,159620504;5452741;0,140833333333333;1,2025;0,4705;0,24827451322705
"F_649";461072,95734074;944873,498431959;4221605;2,5175;6,74666666666667;4,32591666666667;1,10463837656604
"F_650";462687,791593373;951629,577993929;297273;0,700833333333333;1,64833333333333;0,992083333333333;0,274417711544566
"F_651";461547,908591515;945773,64226701;3698800;3,35833333333333;7,59833333333333;5,405875;0,946853147365228
"F_652";461018,2855;941584,6599;6133084;1,575;4,38;2,98158333333333;0,718504370690781
"F_653";466652,384665628;951289,523656243;495606;3,10083333333333;6,815;4,78675;0,918248591148498
"F_654";459058,164140086;946083,691810195;3518192;1,40083333333333;5,13333333333333;3,36916666666667;0,931929552089899
"F_655";460278,2855;948669,6599;2016551;2,655;6,225;4,11425;1,02659656359544
"F_656";461557,907565215;945568,609504582;3817907;3,7375;9,27;5,36241666666667;1,22441515159291
"F_657";465678,2855;942119,6599;5823181;0,8525;3,30666666666667;1,74208333333333;0,561143067673175
"F_658";470506,989027177;946603,774914891;3218362;3,255;6,89333333333333;5,05658333333333;0,909845670834807
"F_659";459688,099483219;939837,693754754;7146663;0,15;0,6075;0,355041666666667;0,150836962009274
"F_660";465963,2855;941924,6599;5936533;0,65;2,6125;1,47716666666667;0,523444674712983
"F_661";461482,915262461;945448,590326575;3887612;3,04833333333333;9,63;5,79591666666667;1,60367589667581
"F_662";459333,2855;940349,6599;6850282;0,163333333333333;0,8;0,432416666666667;0,163317869837281
"F_663";470876,951054096;941642,98222394;6100196;1,84;5,3325;3,32191666666667;0,870537035129559
"F_664";469647,077288933;940687,829598969;6654805;2,29666666666667;4,8125;3,4275;0,764464801510533
"F_665";466227,428283356;945193,54957331;4036716;5,95;11,4;8,44704166666667;1,43895415834207
"F_666";469682,073696885;941217,914301833;6346882;2,70666666666667;5,45416666666667;4,178875;0,727815127133
"F_667";471023,2855;946594,6599;3224275;3,0975;6,89333333333333;4,384125;1,04551165721167
"F_668";469297,113209415;940152,744097022;6965570;2,1675;4,6875;3,32220833333333;0,75993710665242
"F_669";459173,152337642;951719,592377434;244280;1,235;2,8;2,08095833333333;0,457303729909224
"F_670";470646,974658984;945818,649458763;3674475;2,755;7,75833333333333;5,25258333333333;1,42559703046648
"F_671";464473,2855;942869,6599;5387190;0,800833333333333;3,04;1,72875;0,591372888518618
"F_672";468248,2855;940259,6599;6904355;1,9975;5,135;3,90054166666667;0,881423260724826
"F_673";465643,2855;940334,6599;6860259;2,52083333333333;5,125;3,939875;0,764497373149596
"F_674";458023,270362083;947173,866010424;2884695;1,47;3,74;2,33054166666667;0,649245247535451
"F_675";471066,931554406;939307,60905189;7456869;0,775;2,99666666666667;1,86870833333333;0,567669937137101
"F_676";464603,2855;949789,6599;1366696;0,541666666666667;2,16;1,555875;0,433414927793798
"F_677";468928,2855;939599,6599;7287951;1,80166666666667;3,62916666666667;2,9045;0,513680917297227
"F_678";465287,524755508;942298,086903895;5718523;4,25833333333333;8,66666666666667;6,20916666666667;1,17423491328565
"F_679";467217,326679707;943813,329026231;4838694;5,53333333333333;11,5;7,710375;1,48977844017293
"F_680";457938,279085628;947718,953110538;2568033;1,3975;3,465;2,19158333333333;0,513489588032264
"F_681";462082,853684492;946253,718979038;3420027;0,99;2,47;1,58216666666667;0,472973083813124
"F_682";465252,528347556;952119,656304124;13096;0,54;1,65;1,05933333333333;0,337698566235373
"F_683";465392,513979363;941442,950260596;6215299;0,725;2,12333333333333;1,4275;0,375892602398625
"F_684";460982,966577435;947283,883590263;2821377;3,79666666666667;7,67666666666667;5,51170833333333;1,11075850865379
"F_685";460573,2855;941964,6599;5912215;2,125;3,91;2,92279166666667;0,511785036525211
"F_686";471981,837648003;947378,898772852;2768382;1,96;4,5625;3,14479166666667;0,6348419747999
"F_687";466092,442138399;939902,704142841;7110179;2,85;6,16333333333333;4,122875;1,0502965146283
"F_688";461443,2855;942869,6599;5386584;2,6125;5,87916666666667;4,19695833333333;0,78310314250311
"F_689";464272,628924905;951934,62673803;120385;2,8025;5,33333333333333;4,11658333333333;0,633441293891562
"F_690";469678,2855;939769,6599;7189331;2,0825;4,025;2,77795833333333;0,599124146003616
"F_691";468053,2855;939199,6599;7520176;1,72333333333333;4,0825;2,6985;0,634080618686735
"F_692";471846,851503046;942568,13005441;5562965;1,505;4,75;2,71820833333333;0,761097875599906
"F_693";470758,2855;949934,6599;1283682;2,12;4,56333333333333;3,21066666666667;0,702566649977651
"F_694";466427,407757367;943838,33302165;4824011;5,20083333333333;10,0758333333333;7,28558333333333;1,23791698332414
"F_695";469027,140919501;951144,500482818;580326;2,34083333333333;4,42;3,28783333333333;0,619817130171312
"F_696";465078,2855;943254,6599;5163626;1,26666666666667;3,36;2,00004166666667;0,579751123441412
"F_697";464608,2855;947479,6599;2708807;5,88;10,5466666666667;7,883125;1,28666359520927
"F_698";469732,068565387;949089,17205945;1774422;2,755;5,805;4,57066666666667;0,749479185640004
"F_699";460578,2855;945289,6599;3980391;0,6525;1,80166666666667;1,2495;0,29736506104814
"F_700";459193,150285043;943188,229140779;5200214;1,80166666666667;4,44;2,68941666666667;0,632547244150087
"F_701";458363,2855;941294,6599;6301043;0,749166666666667;1,83333333333333;1,36283333333333;0,288565771841295
"F_702";470668,2855;940804,6599;6588194;2;4,02;3,03166666666667;0,566104791096952
"F_703";468212,224562909;945983,675828522;3578123;0,935;3,74;2,09116666666667;0,630224966795136
"F_704";468692,175300534;948469,072973081;2134434;4,14166666666667;7,0525;5,779875;0,879251420833661
"F_705";461383,2855;941939,6599;5926902;2,1675;4,875;3,41041666666667;0,784919889196433
"F_706";470491,990566626;947918,985073883;2454344;2,75;6,15;4,23145833333333;0,800997544868875
"F_707";468197,226102358;939567,650604238;7305235;2,29666666666667;5,3325;3,37179166666667;0,775188822262562
"F_708";466023,2855;941439,6599;6218330;0,653333333333333;2,99916666666667;1,43779166666667;0,585767432531563
"F_709";463922,664845387;951119,4964874;593830;0,7;1,9975;1,22591666666667;0,341621509638888
"F_710";461763,2855;951509,6599;366808;2,12333333333333;4,55583333333333;3,30604166666667;0,590107153702509
"F_711";469992,041881601;945558,607906415;3825404;0,906666666666667;2,0825;1,583375;0,370575898717829
"F_712";466903,2855;948164,6599;2311281;0,906666666666667;2,65;1,85820833333333;0,437737761208374
"F_713";469577,084473029;941953,031767125;5919826;3,35833333333333;7,12833333333333;4,67216666666667;1,08936322539459
"F_714";460882,97684043;949289,204022795;1656452;0,585;1,96;1,22625;0,40321582854095
"F_715";460598,006089966;941007,880740321;6467075;1,20333333333333;3,91;2,50458333333333;0,631054852297475
"F_716";472088,2855;939744,6599;7204338;0,213333333333333;0,904166666666667;0,500958333333333;0,201671791112216
"F_717";460877,97735358;941047,88713299;6443891;1,84;4,00833333333333;2,592875;0,527985764458437
"F_718";465197,533992203;939497,639417068;7345305;2,16416666666667;5,20083333333333;3,229375;0,764526851491853
"F_719";458183,253941291;940642,822407217;6678657;0,63;1,61;1,13566666666667;0,269100407357117
"F_720";469193,2855;940789,6599;6596614;2,2525;5,53;3,85779166666667;0,76663054238883
"F_721";467707,276391033;940892,862361397;6535312;3,36;6,97666666666667;4,63491666666667;1,00046987864212
"F_722";466758,2855;943894,6599;4792122;1,08;3,40583333333333;2,06120833333333;0,584230980705225
"F_723";465887,463177539;943373,258706873;5094068;1,26666666666667;3,10083333333333;2,14133333333333;0,471483629477733
"F_724";469188,2855;950819,6599;769183;0,440833333333333;1,36666666666667;0,907375;0,273492849661174
"F_725";464207,635595852;942163,065328637;5796742;3,0975;8,16416666666667;5,912125;1,27371011679377
"F_726";467533,2855;951744,6599;231427;1,87833333333333;4,875;3,48341666666667;0,913505670288436
"F_727";470347,005447969;939677,668184078;7241755;1,88;3,575;2,576875;0,432346453408437
"F_728";458528,218533959;951969,632331615;98901;0,628333333333333;3,0975;1,42041666666667;0,518612176082751
"F_729";471941,841753201;940892,862361397;6536159;1,88;3,74083333333333;2,632;0,514126281504197
"F_730";464608,2855;944409,6599;4492477;1,23333333333333;3,685;2,27333333333333;0,621776364903987
"F_731";466672,382613029;944928,507221879;4190770;1,54;2,8025;2,060375;0,347799838563331
"F_732";461003,2855;949719,6599;1406646;2,8025;5,74083333333333;4,10270833333333;0,977761230069138
"F_733";469552,087038778;945988,676627606;3575486;1,14;2,56666666666667;1,83016666666667;0,453945149583525
"F_734";465677,484729828;940287,76567228;6886411;3,41;7,2;4,46679166666667;1,1047074073142
"F_735";462762,783896127;945408,583933906;3911108;1,2675;2,90083333333333;2,02608333333333;0,489733271179919
"F_736";467777,269206936;941978,035762543;5904941;0,9625;2,565;1,6185;0,382914779122163
"F_737";458513,220073408;949469,232789805;1551398;1,2025;3,96416666666667;2,446375;0,687139127776212
"F_738";470708,2855;939344,6599;7436462;1,365;3,255;2,342125;0,550969538525536
"F_739";467797,267154337;944933,508020962;4188090;5,67166666666667;9,80833333333333;7,71704166666667;1,14103608129445
"F_740";464942,56016284;950319,368634021;1058834;4,44;8,16416666666667;5,66929166666667;1,09975327094055
"F_741";465567,496019122;950359,375026689;1035719;4,025;7,52083333333333;5,84058333333333;1,24798208758606
"F_742";470392,000829621;949589,251967812;1484054;2,475;6,1425;3,71125;1,00424339082301
"F_743";469422,100380671;940902,863959565;6529845;2,20833333333333;5,07;3,37445833333333;0,746400782615797
"F_744";469082,135274854;942388,1012874;5666992;0,5;2,29666666666667;1,31145833333333;0,438153678329115
"F_745";471338,2855;939704,6599;7227428;0,366666666666667;0,991666666666667;0,552125;0,162643430852326
"F_746";470993,2855;948929,6599;1867634;1,955;4,75;3,50891666666667;0,737968163428422
"F_747";461707,892170723;947688,948316037;2586217;3,46166666666667;7,92;5,737;1,18797051005003
"F_748";470297,010579466;951524,561213173;359800;0,3675;0,9625;0,642875;0,165120121745544
"F_749";468987,145024699;942068,050146048;5852893;3,04833333333333;8,1675;5,030125;1,44127342966202
"F_750";462278,2855;942934,6599;5348986;2,755;6,75;4,81775;1,19873807002461
"F_751";468122,233799604;939282,605056472;7470805;1,36666666666667;4,81;3,18454166666667;0,798644707022813
"F_752";462917,767988485;947728,954708706;2563219;0,9075;3,20333333333333;1,78366666666667;0,642237067049541
"F_753";468068,2855;942654,6599;5512824;0,853333333333333;2,34;1,65404166666667;0,376122906979847
"F_754";470117,029052857;939322,611449141;7447964;1,54083333333333;3,78;2,4345;0,575685480040817
"F_755";458168,2855;947134,6599;2907964;1,435;3,30416666666667;2,55483333333333;0,493472494004662
"F_756";465392,513979363;939867,698549255;7130374;2,85;5,60333333333333;3,61204166666667;0,777929122049527
"F_757";461533,2855;946054,6599;3536117;2,75333333333333;7,6;5,572125;1,26457631287973
"F_758";463682,689476575;941282,92468992;6307917;1,68666666666667;5,26666666666667;3,817;0,848061618499464
"F_759";465583,2855;950864,6599;742317;3,3075;6,675;5,26479166666667;1,02819441877127
"F_760";469997,041368451;941242,918297251;6332420;1,91916666666667;5,2;3,75525;0,938038815921515
"F_761";471753,2855;944614,6599;4374801;2,385;6,375;3,54725;0,887838359023976
"F_762";466508,2855;945439,6599;3894427;4,74833333333333;12,6041666666667;8,41583333333334;1,90633063533798
"F_763";467643,2855;940134,6599;6976859;3,04833333333333;4,81;3,86925;0,586688527553227
"F_764";471991,836621704;940412,78564937;6815049;1,46666666666667;2,80333333333333;2,11766666666667;0,340365150496513
"F_765";461392,924499157;950464,391807446;973879;2,25333333333333;6,825;4,12983333333333;1,06564831459978
"F_766";467837,263049139;944603,455281443;4379828;4,75;11,7016666666667;7,45583333333333;1,64020740647557
"F_767";464612,594030723;949479,234387973;1546808;4,56;8,415;6,51116666666667;1,27602239136892
"F_768";458398,2855;951484,6599;380660;0,88;2,295;1,64466666666667;0,348245749922639
"F_769";462798,2855;947824,6599;2508000;5,33;9,9;7,255875;1,26325450718646
"F_770";469007,1429721;950434,387012944;992832;0,3675;1,76333333333333;1,20075;0,374743274695924
"F_771";459393,2855;945539,6599;3834904;1,68416666666667;4,8125;3,45733333333333;0,842781292517544
"F_772";472308,2855;943209,6599;5191217;2,00083333333333;4,31916666666667;2,848875;0,55434740325373
"F_773";460108,2855;943724,6599;4889562;0,403333333333333;1,65;1,07929166666667;0,348316783267542
"F_774";466323,2855;939649,6599;7258380;2,04166666666667;5,25666666666667;3,66083333333333;0,909949752805933
"F_775";459083,161574337;944288,404939175;4561092;1,76;4,625;3,028375;0,74865603145615
"F_776";458688,202113167;939547,647407904;7314953;0,46;2,12333333333333;0,910166666666666;0,351020608848337
"F_777";464843,2855;944319,6599;4544814;1,23333333333333;3,30666666666667;2,21620833333333;0,579996311933728
"F_778";466238,2855;945789,6599;3691023;6,67333333333333;11,2125;8,653625;1,42793573339238
"F_779";458988,171324182;946328,730965292;3375833;2,29666666666667;4,81333333333333;3,20095833333333;0,565994846532341
"F_780";463647,693068623;950334,371031271;1049860;0,906666666666667;2,7075;1,618375;0,43143422202996
"F_781";461098,2855;942044,6599;5865840;2,95;6,38;3,67241666666667;0,890334588693801
"F_782";470443,2855;948119,6599;2338134;0,653333333333333;2,0825;1,15025;0,348928508151985
"F_783";461783,2855;948704,6599;1996517;0,775;1,91916666666667;1,3335;0,266815145067567
"F_784";458833,187231824;949914,303908247;1292917;1,61;3,25333333333333;2,23929166666667;0,417824118244207
"F_785";467263,2855;943589,6599;4969428;1,05;2,755;1,934125;0,505724429373262
"F_786";458033,2855;947594,6599;2640677;1,36166666666667;3,355;2,29620833333333;0,515879102283194
"F_787";468127,233286454;940732,836790722;6628356;2,8;5,535;4,3835;0,707482285439378
"F_788";458518,219560258;940442,790443872;6794924;0,63;1,54083333333333;1,14020833333333;0,249616500446828
"F_789";460473,018918709;941407,94466701;6234650;1,76;3,575;2,75283333333333;0,459325751726191
"F_790";469318,2855;940234,6599;6919094;2,295;6,36333333333333;3,43716666666667;1,01015883036931
"F_791";471076,930528107;950399,381419359;1013581;1,3325;4,07;2,74004166666667;0,813231518424169
"F_792";467662,28100938;941572,97103677;6140223;2,90083333333333;7,44166666666667;4,95866666666667;1,03920056853209
"F_793";460608,2855;941589,6599;6130097;2,04;4,025;2,78191666666667;0,660647227173421
"F_794";468297,215839363;942158,064529553;5800465;0,585;2,21;1,43133333333333;0,426751499241963
"F_795";472006,835082255;951534,56281134;354332;0,7;2,08333333333333;1,35154166666667;0,378432369273606
"F_796";471171,920778262;946253,718979038;3421845;2,75333333333333;5,4675;4,19483333333333;0,652168145092724
"F_797";463382,720265559;941808,0085937;6002832;2,43;6,09;4,55791666666667;1,01997074189777
"F_798";461007,964011687;947468,913156357;2713897;3,52;7,3625;5,33225;0,989645186432612
"F_799";467228,2855;941144,6599;6389966;3,19583333333333;7,20416666666667;5,10179166666667;1,26168947333323
"F_800";469868,2855;947224,6599;2858014;3,46166666666667;7,5175;5,54916666666667;1,07140409050283
"F_801";460623,003524217;942498,118867239;5601390;0,403333333333333;1,6125;0,94375;0,328305224106225
"F_802";467897,256891343;941732,996607446;6047310;3,68333333333333;7,3625;5,36358333333333;0,943646734406858
"F_803";462592,801343219;940382,780854868;6830599;0,385;1,84083333333333;0,753875;0,333916187242156
"F_804";458763,194415921;945898,662244101;3625618;0,333333333333333;1,4625;0,861583333333333;0,284654029774157
"F_805";465293,2855;939164,6599;7539959;1,72333333333333;5,135;3,027;0,797279016661894
"F_806";469148,2855;942479,6599;5614715;0,7;2,56666666666667;1,35379166666667;0,489289635683937
"F_807";469362,106538468;944993,517609966;4153543;3,685;7,92166666666667;6,10329166666667;1,20314291985591
"F_808";471623,2855;943044,6599;5286945;2,12;4,375;3,22516666666667;0,699577859345584
"F_809";463718,2855;942054,6599;5860554;0,8;2,16666666666667;1,41383333333333;0,366017507490385
"F_810";465167,537071102;942678,14763425;5497719;5,06916666666667;9,18666666666667;6,73145833333333;1,14055926170413
"F_811";459703,097943769;948809,127310767;1935096;1,76333333333333;5,53333333333333;3,711875;1,00263249532774
"F_812";460068,2855;939314,6599;7451764;0,878333333333333;2,125;1,46891666666667;0,319726799953002
"F_813";467113,2855;939594,6599;7290493;2,8;7,35;3,96304166666667;0,911021544213125
"F_814";463493,2855;952139,6599;1124;0,541666666666667;1,87833333333333;1,11533333333333;0,3655723702562
"F_815";466687,38107358;939047,567499542;7607053;1,46666666666667;3,79666666666667;2,63733333333333;0,581572693861751
"F_816";469782,06343389;941803,007794616;6007017;2,3375;5,46666666666667;4,23358333333333;0,7838514104253
"F_817";460068,060483838;943688,309049141;4909889;0,5;1,76333333333333;0,93525;0,337597408511851
"F_818";467843,2855;950919,6599;710814;3,1;6,0175;4,20933333333333;0,848938131015681
"F_819";470991,939251652;942058,048547881;5859104;2,755;5,265;3,66195833333333;0,747266523366626
"F_820";470363,2855;940919,6599;6521318;1,65;4,62333333333333;3,022375;0,838237729324189
"F_821";467378,2855;949189,6599;1715851;1,14083333333333;2,99666666666667;1,73245833333333;0,5685625839916
"F_822";471241,913594165;939227,596266552;7503384;1,17166666666667;3,30666666666667;1,91895833333333;0,507255823421217
"F_823";462982,761317539;949004,158475029;1822457;0,88;2,8025;1,69479166666667;0,509511280786341
"F_824";465202,533479053;949559,24717331;1500446;1,14083333333333;2,755;1,86066666666667;0,423149531862898
"F_825";466253,2855;941729,6599;6049886;0,826666666666667;2,34083333333333;1,559625;0,3669638423916
"F_826";469973,2855;941429,6599;6224930;2,42916666666667;6,02083333333333;3,629625;0,906519413472719
"F_827";466428,2855;950389,6599;1018461;0,963333333333333;2,03666666666667;1,46504166666667;0,337584132355371
"F_828";462902,769527935;948684,107333677;2008361;2,70416666666667;8,925;6,50008333333333;1,59655028098322
"F_829";470986,939764802;949264,200027377;1672998;2,04166666666667;5,51;3,58395833333333;0,915578336185923
"F_830";463558,2855;941309,6599;6293367;2,43;5,39833333333333;3,83133333333333;0,733768282097873
"F_831";459313,2855;940999,6599;6472628;1,07916666666667;2,85;1,788875;0,425066925845058
"F_832";458853,2855;952034,6599;61201;0,35;0,88;0,563708333333333;0,152384908876228
"F_833";462303,2855;940024,6599;7039701;0,35;1,43333333333333;0,7205;0,293265093737182
"F_834";459483,120522358;940607,816813631;6699252;0,140833333333333;1,26416666666667;0,458916666666667;0,270655623208293
"F_835";460193,047655095;948364,056192325;2193739;2,29666666666667;6,2775;4,33954166666667;0,946717145421837
"F_836";467687,278443632;943588,293067468;4969513;4,25833333333333;10,355;6,69725;1,56256296013504
"F_837";470826,956185594;943998,358592325;4731931;2,94833333333333;9,18666666666667;4,644625;1,27803032488686
"F_838";470998,2855;941434,6599;6222230;2,21;4,81333333333333;3,22204166666667;0,716350678757366
"F_839";461068,2855;942104,6599;5830974;2,295;4,55583333333333;3,22341666666667;0,754240153442077
"F_840";471671,869463287;942613,137246163;5536785;2,125;4,31916666666667;3,288125;0,601816565073674
"F_841";471938,2855;945779,6599;3697973;2,385;6,16333333333333;3,75208333333333;0,89812904538476
"F_842";457953,277546179;949879,298314662;1313076;1,1375;3,09333333333333;1,91420833333333;0,523715532229884
"F_843";468183,2855;939219,6599;7508582;1,91666666666667;4,44;2,94358333333333;0,751846902380985
"F_844";468328,2855;945864,6599;3647866;1,05;2,75333333333333;1,83429166666667;0,522020945993123
"F_845";461727,890118124;951494,556418671;375516;2,25333333333333;6,44;3,53470833333333;1,09802175501595
"F_846";459008,2855;943024,6599;5296042;1,50333333333333;3,30666666666667;2,29358333333333;0,526406782704396
"F_847";461642,89884167;944203,391354754;4610989;3,46166666666667;6,9;5,05733333333333;0,830630247575379
"F_848";465208,2855;947119,6599;2918087;4,7925;11,7016666666667;8,08870833333334;1,80448886906567
"F_849";458238,2855;950814,6599;769898;0,991666666666667;3,46166666666667;1,93425;0,678976854328224
"F_850";458193,252914991;939747,679371249;7198654;0,541666666666667;1,43;0,947583333333333;0,235048505010354
"F_851";460058,061510138;944023,362587743;4715252;0,440833333333333;1,65;0,868708333333333;0,278205070115574
"F_852";466547,395441773;950574,409387285;911000;0,6075;2,0825;1,28529166666667;0,419184696256941
"F_853";469642,077802083;940292,766471363;6884299;1,84;4,75;3,334875;0,752936613198051
"F_854";458878,2855;940459,6599;6786281;0,821666666666667;2,38333333333333;1,44208333333333;0,495348059744254
"F_855";468638,2855;950419,6599;1001473;0,749166666666667;1,84083333333333;1,1635;0,333292607161191
"F_856";462208,2855;947329,6599;2795477;0,9075;2,34083333333333;1,625;0,428457641188015
"F_857";468082,237904802;940962,873548568;6494717;2,29666666666667;6,52166666666667;4,62279166666667;1,07946950214781
"F_858";465793,2855;950999,6599;663924;3,2025;6,75;4,86491666666667;0,973070136098155
"F_859";470756,96336969;942363,097291982;5681852;2,25;5,80833333333333;3,56079166666667;0,866151351310607
"F_860";466292,42161241;941672,987018442;6081849;0,606666666666667;2,56666666666667;1,56591666666667;0,514407049497866
"F_861";461253,2855;951254,6599;514861;0,385;1,3325;0,81725;0,25576769259056
"F_862";458488,2855;951289,6599;493973;0,99;2,655;1,631125;0,510176646036272
"F_863";468223,2855;945009,6599;4144600;4,02333333333333;10,5466666666667;7,25741666666667;2,03910641297856
"F_864";467297,318469312;939417,62663173;7392205;2,79583333333333;5,135;3,70075;0,806402872083962
"F_865";458188,253428141;942563,129255326;5563138;0,63;3,045;1,85775;0,579337384911034
"F_866";460918,2855;940279,6599;6891269;0,12;0,991666666666667;0,561916666666667;0,211412006635639
"F_867";469827,058815542;950899,46132772;722831;1,95833333333333;4,38;2,96970833333333;0,653110767843479
"F_868";470068,2855;939984,6599;7064494;1,61333333333333;4,5625;2,72575;0,684035737626973
"F_869";462703,2855;947749,6599;2551556;3,96;8,91666666666667;6,541;1,24618988326266
"F_870";460677,99787957;944033,364185911;4709566;2,94833333333333;6,09;4,05870833333333;0,728746143149294
"F_871";467977,248680947;940617,818411798;6695141;3,1;5,7375;4,28816666666667;0,769367316209535
"F_872";468693,2855;942184,6599;5786019;0,933333333333333;1,96;1,40175;0,282806256392907
"F_873";471526,88434463;946898,822060825;3047171;0,285;1,72333333333333;0,945208333333333;0,387603492593604
"F_874";471136,92437031;941222,915100916;6344268;1,68416666666667;5,07;3,04858333333333;0,771895456023184
"F_875";466433,2855;945654,6599;3769497;5,95;10,7333333333333;7,88591666666666;1,51107918379798
"F_876";464867,567860086;950439,387812027;989099;3,57333333333333;8,24;5,58116666666667;1,21751551739094
"F_877";471208,2855;949219,6599;1699187;2,0825;4,87666666666667;3,04420833333333;0,771690371116726
"F_878";464177,63867475;947858,97548488;2487941;5,26666666666667;9,01333333333333;7,19166666666667;1,0929859444905
"F_879";465157,538097401;948989,156077778;1831607;1,26666666666667;2,42916666666667;1,91708333333333;0,327275491101951
"F_880";459398,2855;950164,6599;1147780;1,88;3,79666666666667;2,76141666666667;0,599878953433048
"F_881";468377,207628967;940117,738503436;6985721;2,47;5,26666666666667;3,80229166666667;0,661374657989701
"F_882";466527,397494372;943998,358592325;4731071;1,33;2,75333333333333;2,12979166666667;0,417971804622111
"F_883";461977,864460637;951154,502080985;573106;0,458333333333333;1,80166666666667;0,967416666666667;0,321909155486397
"F_884";464817,572991583;943268,241926117;5154859;0,9075;2,6125;1,82170833333333;0,453725197878692
"F_885";469908,2855;939424,6599;7389822;1,84;3,96416666666667;2,79458333333333;0,603155596821092
"F_886";468993,2855;942019,6599;5881944;0,826666666666667;2,38333333333333;1,34375;0,453442122846929
"F_887";472098,2855;945624,6599;3788060;2,38;5,135;3,9355;0,864467368041938
"F_888";470456,994158675;945758,639869759;3709297;3,96416666666667;7,36;5,103125;0,984576187321403
"F_889";465597,492940224;939482,637019817;7354100;2,34;4,38;3,14995833333333;0,581082718178314
"F_890";458073,2855;940834,6599;6568245;0,63;1,64833333333333;1,07304166666667;0,328927603061153
"F_891";464537,601727969;944758,480053036;4289113;5,805;10,915;8,00708333333333;1,32768899878148
"F_892";470866,952080396;949844,292721077;1335994;1,92;4,02;2,82291666666667;0,664588069883578
"F_893";460053,2855;939394,6599;7405281;0,935;2,125;1,39775;0,377514484056592
"F_894";469802,061381291;940572,811220046;6721651;2,38333333333333;5,005;3,53095833333333;0,710574178659198
"F_895";458938,17645568;948439,06817858;2149913;1,61333333333333;4,49666666666667;2,95454166666667;0,684879694209821
"F_896";468597,185050379;941863,01738362;5971920;3,05;6,975;4,84133333333333;1,20729775345483
"F_897";462142,847526695;946548,766124971;3248644;4,5;8,5;6,48716666666667;1,08081970192543
"F_898";457918,281138227;950059,327081672;1208489;1,02083333333333;2,47333333333333;1,76058333333333;0,438777966403475
"F_899";470901,948488348;944018,36178866;4720326;2,84666666666667;6,1625;4,55129166666667;0,839938449560269
"F_900";460568,2855;942794,6599;5429984;0,541666666666667;1,36666666666667;0,855333333333334;0,233767359489244
"F_901";471038,2855;942534,6599;5583138;0,333333333333333;1,65;1,01095833333333;0,31588028802008
"F_902";465487,504229518;949174,185643872;1724188;1,235;2,755;2,003625;0,418746150807132
"F_903";470896,949001497;949574,249570561;1492870;2,2525;5,13;3,05491666666667;0,704632794958477
"F_904";468513,2855;940204,6599;6936363;2,29166666666667;5,3325;3,65816666666667;0,825543485701162
"F_905";458063,2855;940649,6599;6675728;0,7;1,91666666666667;1,08095833333333;0,339965413079983
"F_906";468213,2855;941234,6599;6337873;2,61;7,20666666666667;4,69158333333333;1,13718250822704
"F_907";468602,184537229;939392,622636312;7406991;1,65;4,19333333333333;2,94304166666667;0,646762420282343
"F_908";469968,2855;951044,6599;638614;0,421666666666667;1,43333333333333;0,899291666666666;0,304590281198505
"F_909";465542,498584871;943668,305852806;4922604;5,81;9,90083333333333;8,03891666666667;1,16776286533231
"F_910";463032,756186041;951914,623541695;131757;2,56666666666667;5,87666666666667;3,67058333333333;0,79087481635604
"F_911";472011,834569105;942223,07491764;5763443;1,68666666666667;4,56333333333333;3,008125;0,677267950539138
"F_912";464487,606859466;940912,865557732;6523048;0,628333333333333;2,04166666666667;1,156;0,435024332182286
"F_913";468442,200958021;950344,372629439;1045009;0,676666666666667;2,21;1,18933333333333;0,391446802790883
"F_914";462627,79775117;943028,203570103;5293861;3,1;10,26;5,00870833333333;1,57090674068787
"F_915";462963,2855;940429,6599;6804528;2,21;4,3125;3,00895833333333;0,499247158009639
"F_916";460928,2855;945089,6599;4096661;0,700833333333333;2,20833333333333;1,282;0,412981014955228
"F_917";463733,2855;939774,6599;7185237;0,285;1,10833333333333;0,800833333333333;0,205763803158034
"F_918";459373,2855;939869,6599;7129170;0,725;2,16666666666667;1,32258333333333;0,364926582778939
"F_919";458193,2855;940099,6599;6995304;0,498333333333333;1,5375;0,951791666666667;0,298155302535147
"F_920";460468,019431859;941998,038958877;5891859;0,46;1,14083333333333;0,791833333333333;0,184804424835003
"F_921";467542,293324974;944488,43690252;4446584;5,87666666666667;11,1066666666667;8,423875;1,47162800397745
"F_922";467018,2855;941054,6599;6442214;2;7,05;4,783875;1,14784849194187
"F_923";466903,2855;939064,6599;7598381;2,385;4,74;2,98420833333333;0,671416003627334
"F_924";460543,011734613;946383,739755212;3344189;2,98666666666667;6,65833333333333;4,73733333333333;0,872886026133929
"F_925";466827,366705387;941843,014187285;5983186;0,75;2,29666666666667;1,54025;0,385973185218355
"F_926";458093,2855;939969,6599;7070814;0,35;1,47;0,917458333333333;0,312394716182637
"F_927";466182,432901704;945553,607107331;3827547;1,19583333333333;3,62916666666667;2,23579166666667;0,716266232223729
"F_928";457953,277546179;941347,935078007;6269006;0,676666666666667;2,25333333333333;1,32045833333333;0,386091855245787
"F_929";459993,068181084;942553,127657159;5569309;2;4,37833333333333;2,723875;0,643350903939222
"F_930";470382,001855921;940787,845580641;6596852;1,88;4,9375;3,22520833333333;0,855667204660538
"F_931";466557,394415473;948064,008247308;2369312;6,0075;11,31;7,63245833333333;1,38249111634361
"F_932";461593,2855;946589,6599;3225294;0,935;2,21;1,49891666666667;0,329465287596424
"F_933";469322,110643666;941933,02857079;5931395;2,205;6,975;4,44520833333333;1,12778929312748
"F_934";466558,2855;951869,6599;158607;2,70666666666667;5,67;3,87308333333333;0,760196434101773
"F_935";469463,2855;949349,6599;1623308;0,585;2,125;1,11470833333333;0,347177874068452
"F_936";461943,2855;945789,6599;3690164;0,88;2,85166666666667;1,629375;0,49592262022269
"F_937";471708,2855;945604,6599;3799602;2,295;6,0175;4,00720833333333;0,919331385051623
"F_938";460203,2855;943164,6599;5214941;0,46;1,7625;0,888;0,328744221482135
"F_939";459803,087680775;942738,157223253;5461786;0,403333333333333;1,235;0,773166666666667;0,229121542606865
"F_940";457888,284217126;940672,827201718;6661168;0,2125;1,95833333333333;1,05916666666667;0,410276436547317
"F_941";459063,163626936;940492,798434708;6765983;0,96;2,51333333333333;1,71104166666667;0,392127097320775
"F_942";469498,2855;948814,6599;1934150;3,15166666666667;7,05;4,6515;1,10972296474369
"F_943";466662,383639329;940627,820009966;6689068;3,30416666666667;6,235;4,93295833333333;0,881860965681324
"F_944";469317,111156816;940387,781653952;6829039;2,08333333333333;4,8125;3,47120833333333;0,720923580954337
"F_945";462817,77825148;949459,231191638;1558069;3,575;8,5;5,59491666666667;1,38607124161859
"F_946";467042,344639948;951414,543633333;423059;1,84;6,23333333333333;3,94370833333333;1,10841097455925
"F_947";470951,94335685;945828,65105693;3668726;2,94833333333333;7,0525;4,87991666666667;1,12203771462502
"F_948";461728,2855;941294,6599;6301716;1,8;4,62;3,33466666666667;0,75886097895472
"F_949";460548,011221463;943468,273889462;5037805;0,5625;1,96;1,10779166666667;0,380646598523928
"F_950";465637,488835026;941818,010191867;5997473;0,88;2,66;1,60816666666667;0,431778807488847
"F_951";463152,743870448;948814,128109851;1932881;4,56;7,75833333333333;6,09054166666667;0,782331025185526
"F_952";468888,2855;939289,6599;7468053;2,16666666666667;4,74833333333333;3,13195833333333;0,641926313097825
"F_953";470761,96285654;946093,693408362;3514723;3,15166666666667;5,44666666666667;4,47595833333333;0,551622359685209
"F_954";467003,2855;947074,6599;2944591;0,9625;2,85166666666667;2,00491666666667;0,510721661472348
"F_955";470661,973119535;946563,768522222;3241633;2,8025;7,13;4,83554166666667;1,11112398557965
"F_956";457953,277546179;947528,922745361;2678426;1,36666666666667;3,25333333333333;2,23391666666667;0,524648664117458
"F_957";469262,116801463;943018,201971936;5300998;0,725;2,52083333333333;1,4275;0,497929411493646
"F_958";472196,815582565;945103,535189805;4090200;1,9125;4,50166666666667;3,19941666666667;0,840935025930219
"F_959";472366,798135473;947538,924343528;2675499;1,54083333333333;4,68;2,83825;0,866071949288874
"F_960";472191,816095714;944213,392952921;4607289;1,91666666666667;4,625;3,14508333333333;0,790980954184765
"F_961";469967,044447349;939772,683366667;7186484;1,54;3,73333333333333;2,585125;0,596377298926978
"F_962";464447,610964664;941097,895123826;6415555;3,15;6,975;4,43954166666667;1,06075474051146
"F_963";465168,2855;939674,6599;7243624;2,75333333333333;6,88;3,69033333333333;0,879549052121438
"F_964";470888,2855;946314,6599;3386928;3,0975;6,8975;5,04529166666667;1,00507372496596
"F_965";469217,121419811;940972,875146735;6489134;2,16666666666667;5,88;3,90691666666667;0,975667866175636
"F_966";461673,2855;945144,6599;4064855;0,675;2,7075;1,53404166666667;0,479268164307534
"F_967";467222,326166558;939767,682567583;7188840;2,21;5,1975;3,4985;0,693927008396745
"F_968";459733,094864871;941853,015785452;5975957;0,35;1,3325;0,721375;0,269924219791082
"F_969";463948,2855;939939,6599;7089415;0,479166666666667;1,54083333333333;0,943666666666667;0,286211184451731
"F_970";461273,2855;947729,6599;2562890;0,88;2,20833333333333;1,407125;0,368203068475132
"F_971";464022,654582392;939972,715330011;7069095;0,520833333333333;1,11;0,7495;0,180918990950507
"F_972";471446,892555026;947058,847631501;2954195;2,6125;5,33;3,924125;0,87769753258103
"F_973";468042,24201;940912,865557732;6523759;2,85;6,23;4,63716666666667;0,899616812513375
"F_974";463047,754646592;950179,346259679;1139795;0,700833333333333;1,91916666666667;1,316;0,328938861878316
"F_975";464333,2855;945969,6599;3586062;1,3325;3,68;2,12154166666667;0,747815447873971
"F_976";463173,2855;951504,6599;369995;3,2025;5,3125;4,09879166666667;0,593773705282404
"F_977";463383,2855;950679,6599;849362;3,41333333333333;6,23333333333333;4,7125;0,901696054584805
"F_978";460458,020458158;944013,360989576;4721142;2,75333333333333;5,4675;4,09558333333333;0,879745365372696
"F_979";468517,193260774;948569,088954754;2076299;0,700833333333333;2,25333333333333;1,32816666666667;0,379162820493313
"F_980";461403,2855;947684,6599;2589061;0,541666666666667;1,80166666666667;1,27416666666667;0,328603504482065
"F_981";464917,562728589;939407,625033562;7397539;1,43333333333333;4,75;3,09141666666667;0,820132018505422
"F_982";464837,570938985;944343,413729095;4530288;6,30666666666667;10,925;8,12229166666667;1,40174760063708
"F_983";458668,204165766;944728,475258534;4305369;0,421666666666667;1,60583333333333;0,852083333333333;0,325927657186834
"F_984";469457,096788623;940147,743297938;6968507;2,00083333333333;4,62;3,42216666666667;0,715511380124537
"F_985";458088,263691136;950369,376624857;1028413;1,3325;2,945;1,92795833333333;0,465637059284945
"F_986";471458,2855;944369,6599;4517087;2,65;5,13;3,795625;0,68648065713242
"F_987";468598,2855;941154,6599;6384430;3,25333333333333;5,87666666666667;4,49283333333333;0,695995773664657
"F_988";470926,945922599;944563,448888774;4403686;1,68666666666667;6,58;4,52395833333333;1,14929430658264
"F_989";459043,2855;950074,6599;1199999;1,76;4,31666666666667;2,75991666666667;0,668588179306793
"F_990";471476,889476127;942963,193182016;5333396;2,21;4,56;3,21795833333333;0,642675015130587
"F_991";471596,877160534;943063,209163688;5275320;1,88;5,60333333333333;3,51245833333333;0,79087931645843
"F_992";461387,925012306;946578,770919473;3231063;3,74;8,84;6,44308333333333;1,57638287707847
"F_993";465017,552465594;939177,588275716;7531189;2;5,33;3,048625;0,764390943336187
"F_994";465637,488835026;939122,579485796;7563268;2,205;4,62333333333333;3,073375;0,654810889344468
"F_995";466182,432901704;943083,212360023;5262617;5,395;13,2225;7,422;1,79031289940551
"F_996";459193,2855;945844,6599;3657659;1,87833333333333;5,1975;3,04375;0,758711998190902
"F_997";465457,507308417;950644,420574456;870112;3,685;6,67333333333333;5,25366666666667;0,881299313248435
"F_998";464272,628924905;951809,606760939;193010;2,7075;6,235;4,179;0,901433661562974
"F_999";471556,881265731;945598,614299084;3802477;2,38333333333333;7,20416666666667;4,10304166666667;1,06738343773139
"F_1000";461828,2855;940694,6599;6650336;0,46;1,3;0,857916666666666;0,236755373170591
