"Foraging";"In";"Out";"InLink";"OutLink";"Betweeness";"Closeness"
"F_1";79;70;78;68;1376,90058294636;0,67847642764164
"F_2";50;55;53;55;468,821365190715;0,598591900933738
"F_3";70;62;76;74;1839,88881981619;0,655655217676661
"F_4";37;40;41;39;313,172740087061;0,590076786769048
"F_5";69;62;69;66;1312,59295239016;0,652159721466654
"F_6";38;41;40;39;650,278535517078;0,664044757104089
"F_7";44;54;45;56;451,599215236819;0,597696564790346
"F_8";89;100;92;95;4620,2207616365;0,737995567594192
"F_9";47;58;51;58;734,13139608484;0,626626940567666
"F_10";69;63;75;69;1223,94839597426;0,656301324865873
"F_11";41;44;40;41;308,457998236038;0,595795437602503
"F_12";98;95;84;94;5245,9981309683;0,747008973080761
"F_13";99;104;101;107;2872,7502508442;0,715487914055511
"F_14";82;92;87;95;1994,1768075265;0,68051771117167
"F_15";37;33;35;33;212,672594948384;0,613982074263764
"F_16";71;73;73;75;1441,88649797981;0,688530239503764
"F_17";39;40;40;40;277,695997625538;0,604752055692881
"F_18";32;26;33;25;140,371482719911;0,558204507357049
"F_19";59;63;58;63;1173,25068721073;0,678015949324139
"F_20";38;47;41;46;382,244791866408;0,593818109768178
"F_21";48;55;49;56;622,926035721859;0,663126452041161
"F_22";86;80;84;85;2166,95098754556;0,693950795947905
"F_23";69;68;71;67;986,349199421383;0,653831469866378
"F_24";72;64;77;64;1158,97426475302;0,657669519420675
"F_25";82;73;84;76;3282,68276027058;0,729197080291974
"F_26";66;61;67;60;1497,46199268926;0,658066641049573
"F_27";56;54;54;52;1043,43787068817;0,642478160673136
"F_28";95;106;94;105;2704,23885506959;0,703356019713684
"F_29";50;46;52;47;339,439317117799;0,6020792526744
"F_30";54;55;57;58;774,248665780201;0,645140458508237
"F_31";83;83;82;85;1967,95472822739;0,681911262798638
"F_32";96;93;102;96;2228,08816273752;0,675799086757992
"F_33";65;75;70;74;2085,19776540303;0,683817238035482
"F_34";91;118;92;115;4388,42218391396;0,743211407315565
"F_35";32;36;32;37;269,643756714296;0,584495368113114
"F_36";84;83;86;84;2803,81211906662;0,704430602891058
"F_37";69;59;68;60;963,608796595188;0,624114952103289
"F_38";64;61;68;66;734,540423183642;0,62859839546956
"F_39";57;64;60;64;653,280387279514;0,621075536213863
"F_40";39;39;40;44;315,779145814736;0,592614563250778
"F_41";26;31;27;32;79,5399959402088;0,557944708182071
"F_42";66;54;65;51;709,389753035944;0,618224949718941
"F_43";93;87;84;86;1351,52668556764;0,678706901432376
"F_44";37;36;39;34;286,279890487787;0,58324413739418
"F_45";54;59;52;59;835,755348082261;0,658428077113203
"F_46";51;49;50;49;581,609634426591;0,654402532889354
"F_47";55;60;53;60;784,269908539353;0,621816484257481
"F_48";55;53;56;56;864,727341006604;0,654081187254476
"F_49";29;23;27;24;190,447258604289;0,604965684295523
"F_50";65;64;66;65;840,237347145936;0,645939975214184
"F_51";78;72;74;69;1335,00213256016;0,681639847614718
"F_52";44;41;46;45;193,724163148396;0,580279781209157
"F_53";60;61;61;66;893,109750768427;0,65205330432418
"F_54";28;33;26;32;200,082029504369;0,59922023392982
"F_55";68;66;67;61;1341,97196628336;0,681717372760878
"F_56";77;76;78;71;2199,24610801149;0,699702328839089
"F_57";86;81;87;75;3086,56170846592;0,715487914055508
"F_58";58;58;59;58;526,525926137515;0,609208252871225
"F_59";71;82;68;81;1355,36193354624;0,670732389638005
"F_60";61;63;67;66;495,856634616665;0,61991932981694
"F_61";42;49;43;48;275,387206227876;0,588975140021616
"F_62";46;53;46;55;640,934779023795;0,632678910702978
"F_63";54;57;55;62;1180,12641965471;0,658030519266662
"F_64";50;67;49;59;886,780237515916;0,657020716869455
"F_65";42;48;43;50;393,866732086752;0,627545411715438
"F_66";79;73;84;74;1289,1899359196;0,655440131219248
"F_67";85;93;85;89;4398,24261191021;0,717157214644655
"F_68";24;26;24;27;249,49443499792;0,581067325868837
"F_69";78;67;76;62;2215,30360713078;0,698357217756036
"F_70";42;43;47;46;322,62565396312;0,611601448905667
"F_71";58;60;55;58;782,148928499178;0,629456550275664
"F_72";45;45;41;45;410,647659174898;0,637083488335018
"F_73";62;67;60;66;1430,54143462988;0,67679105741546
"F_74";65;71;73;79;1131,60991593498;0,64792995351854
"F_75";86;68;92;72;1306,5447769635;0,680826896865063
"F_76";54;53;53;56;657,199355243783;0,623044540304558
"F_77";42;49;45;47;452,738244733902;0,632845906139476
"F_78";40;45;41;43;255,030851539052;0,603412694417877
"F_79";45;30;41;31;409,352519528499;0,633581734580627
"F_80";30;33;30;35;235,114759532915;0,60862060212215
"F_81";76;68;81;74;799,864505668652;0,639428205675272
"F_82";55;57;57;57;504,652496031934;0,621945525291829
"F_83";121;116;121;119;5298,44422942811;0,732538955087079
"F_84";112;98;116;101;2578,41506693518;0,697422770376406
"F_85";57;55;57;56;331,667208972559;0,592761075949366
"F_86";53;44;52;44;667,842216642036;0,633380884450786
"F_87";63;52;61;51;517,013589242031;0,631678785962694
"F_88";56;65;57;63;826,676393291856;0,640384615384617
"F_89";103;101;97;100;3258,55938856371;0,718016291327267
"F_90";76;83;75;84;2475,85739817996;0,703768932722795
"F_91";71;72;71;71;2676,43875140032;0,694634372464949
"F_92";37;38;35;34;299,403453096141;0,613416568592334
"F_93";69;65;66;64;971,852873483223;0,664928725941541
"F_94";31;36;31;37;236,616789851959;0,553794983138541
"F_95";51;53;52;54;347,412709094462;0,610946896340841
"F_96";23;31;24;32;117,225128446441;0,567667392745524
"F_97";97;91;98;91;1943,42297538276;0,693589446887297
"F_98";88;90;85;97;3423,82632767037;0,726413379385569
"F_99";55;57;56;58;507,332671546306;0,627414036740461
"F_100";100;100;98;97;3102,66735533302;0,708552514924052
"F_101";70;81;71;84;2452,97870936267;0,711242954612878
"F_102";107;97;111;96;4132,06809475394;0,721820809248559
"F_103";53;41;51;40;1306,62782717236;0,677517802644974
"F_104";88;94;91;97;2734,94511531746;0,692147806004621
"F_105";90;82;90;78;2065,04801109193;0,689559965487492
"F_106";41;40;42;38;369,557234587909;0,618384401114209
"F_107";43;49;41;54;660,30355885668;0,642891617954635
"F_108";26;27;27;25;222,216235629546;0,614170807930738
"F_109";46;51;46;50;342,626781029506;0,598442492012778
"F_110";49;48;51;47;984,996273290076;0,648631100530252
"F_111";55;65;58;62;895,334033136501;0,67492399504561
"F_112";45;44;46;44;421,570750245381;0,614737705758678
"F_113";68;72;72;77;1084,4427193127;0,656337257049005
"F_114";65;68;65;66;1954,21709910538;0,658500411974734
"F_115";67;65;71;62;1531,40706257162;0,680324612678057
"F_116";77;67;76;71;1691,61852165438;0,692867876546068
"F_117";39;37;40;37;425,806272470386;0,60081190798376
"F_118";46;46;46;48;676,352034877302;0,638236703402017
"F_119";72;62;75;65;597,046615800454;0,638542665388304
"F_120";34;41;37;46;282,387606398078;0,567022987418408
"F_121";33;32;35;32;119,131269430038;0,554768846314035
"F_122";67;70;63;66;1649,53088450306;0,708678174509345
"F_123";80;78;75;76;3151,49255502031;0,720952610055332
"F_124";61;64;56;63;1223,58669975772;0,683271587346826
"F_125";37;33;39;34;207,010364202047;0,585094440919517
"F_126";67;59;73;63;526,879899754108;0,617938144329895
"F_127";73;69;74;74;1638,64099344704;0,69507740476605
"F_128";54;51;55;52;1692,93434243035;0,658536585365855
"F_129";61;49;65;49;878,905543211278;0,629159231657395
"F_130";71;67;68;67;954,430408604387;0,642237222757956
"F_131";68;72;67;74;1768,74118081454;0,676065869614259
"F_132";73;81;75;88;2152,63722922238;0,67774762550882
"F_133";63;82;64;82;1395,11853064547;0,661333921774152
"F_134";72;77;70;81;1278,15994130938;0,640966689835857
"F_135";24;26;26;28;115,142747495453;0,569041629088145
"F_136";95;83;99;88;3017,1736184746;0,716899892357377
"F_137";103;107;101;113;3940,26650714772;0,730708277459468
"F_138";64;72;67;68;922,830278270924;0,664596961969182
"F_139";45;41;45;40;208,31737674168;0,590309237738821
"F_140";48;39;52;42;1034,36672584394;0,638202725724022
"F_141";77;79;78;82;1170,59437515513;0,647440051847052
"F_142";53;52;48;53;583,368316690212;0,648806624452025
"F_143";60;61;60;64;1190,73411976244;0,660277594183743
"F_144";62;68;66;72;886,947549934327;0,630880959898958
"F_145";51;59;50;65;946,955588006125;0,651026392961879
"F_146";38;42;34;42;350,215805008929;0,602472610312593
"F_147";96;100;92;99;3254,76109066103;0,72888672706269
"F_148";53;54;54;54;311,552122951413;0,613604954701335
"F_149";67;59;71;62;813,977291244491;0,630283911671924
"F_150";42;40;41;38;509,244333224015;0,641412520064209
"F_151";72;59;74;63;571,921757181899;0,650991039913116
"F_152";92;98;92;91;3476,7182247816;0,721690446089943
"F_153";76;82;83;86;1949,86872271158;0,69314830875976
"F_154";74;82;77;81;1250,35258948145;0,677632694590474
"F_155";99;94;101;97;4927,00283101961;0,735595508375779
"F_156";78;82;77;82;2882,11964864961;0,71213021266485
"F_157";99;99;98;97;2861,3016591101;0,702284710017577
"F_158";92;91;100;93;2648,39450034597;0,728975372453636
"F_159";34;28;34;34;268,551287836372;0,579690522243712
"F_160";55;63;60;64;761,199653095664;0,638338658146966
"F_161";119;103;115;100;4047,80603045814;0,728620920196929
"F_162";40;41;42;42;474,611561037921;0,593935790725325
"F_163";51;50;55;55;635,052217657964;0,60576048509348
"F_164";47;49;45;45;699,811819240046;0,613667775787048
"F_165";44;45;49;43;356,729989532696;0,604416658263587
"F_166";57;68;57;66;915,14122301354;0,664081542211391
"F_167";58;54;58;55;966,308502352648;0,612632869991822
"F_168";21;28;19;25;73,1662490102963;0,543008560945781
"F_169";30;19;32;20;75,7682417777964;0,545305676855895
"F_170";41;37;40;36;236,995908978985;0,56839410174956
"F_171";85;87;79;81;2896,76290175834;0,712257144554692
"F_172";36;38;35;36;179,793903691565;0,606373292867981
"F_173";61;61;62;59;581,237789044905;0,619086965502994
"F_174";70;65;65;63;1269,17118980348;0,648315396679467
"F_175";92;115;91;119;3424,83890886977;0,723083418782799
"F_176";41;48;40;48;428,980852387616;0,590949423247559
"F_177";88;86;94;87;2332,259854317;0,687582449096647
"F_178";41;40;41;41;214,63819101516;0,575295133890007
"F_179";37;35;37;38;443,021567733594;0,600240336471058
"F_180";25;23;26;23;128,476268357888;0,532445036642239
"F_181";49;52;49;51;378,29760965207;0,61206984580823
"F_182";74;69;79;65;930,6285884667;0,671559016301608
"F_183";40;39;34;36;562,077313593879;0,642443729903535
"F_184";77;62;79;66;1244,72705816232;0,646079223928862
"F_185";47;51;50;50;507,822656954265;0,620304253337474
"F_186";60;70;57;67;1717,27202928936;0,675342234240327
"F_187";20;27;20;27;84,0079756320707;0,53970826580227
"F_188";44;47;46;42;918,696249158091;0,670995186387558
"F_189";47;42;49;43;286,664485755848;0,583045571713437
"F_190";62;67;62;68;976,341541436499;0,659224635688757
"F_191";22;27;26;29;68,269126076564;0,552162498272765
"F_192";67;62;64;65;999,718831523592;0,653760157059501
"F_193";34;31;33;30;131,068248407495;0,581405499781752
"F_194";33;30;31;30;347,520585826176;0,589235684443351
"F_195";58;62;60;59;1502,37254969902;0,682726806765768
"F_196";101;93;96;88;4270,16749060349;0,726809748999639
"F_197";63;83;60;80;1365,83471923976;0,658826115629811
"F_198";37;38;38;41;219,541883618395;0,563955402926094
"F_199";99;117;102;107;3712,8124440376;0,728798103228165
"F_200";35;36;36;36;235,219566710312;0,5656050955414
"F_201";65;51;66;51;1241,48202580295;0,649439297903466
"F_202";44;40;46;41;333,593720586551;0,596180624627013
"F_203";81;92;80;97;2158,54199237361;0,677479513987004
"F_204";47;49;50;43;727,225524452969;0,637727417810408
"F_205";98;95;101;94;2956,82677622511;0,701093631206507
"F_206";76;81;79;75;1417,01929224773;0,689440993788823
"F_207";76;81;78;82;2080,51102234327;0,697017268445843
"F_208";68;65;63;68;1352,20323879382;0,654581194714431
"F_209";91;87;84;84;2270,52961809948;0,688174512055111
"F_210";30;30;33;32;102,322348810814;0,553283795633913
"F_211";39;33;38;29;250,464004365066;0,612946109009101
"F_212";66;59;61;59;2087,28106168023;0,693870463622161
"F_213";36;32;37;32;158,053618137934;0,583017216224101
"F_214";39;37;40;38;492,214412108161;0,617079322592268
"F_215";48;33;46;33;292,770101540442;0,618033716554106
"F_216";20;21;19;21;61,1389191553665;0,566487099518003
"F_217";96;95;96;93;3693,63571758884;0,7231706581408
"F_218";39;41;38;42;237,579438840476;0,587272816342526
"F_219";25;28;25;30;143,344829917533;0,576290741274876
"F_220";44;50;45;55;384,317124963696;0,606158669161146
"F_221";87;81;82;79;3040,44977227642;0,720822560279002
"F_222";68;72;59;71;1665,7355275591;0,697503927386982
"F_223";69;69;70;67;1152,55947338173;0,654867256637169
"F_224";54;50;52;51;735,87443713981;0,659805162639663
"F_225";24;29;24;29;100,291756228172;0,565338363593491
"F_226";106;105;103;104;3976,24405175913;0,723869331562107
"F_227";64;73;69;78;1956,16343336364;0,695642082051879
"F_228";115;102;109;95;4277,88385999307;0,738222796970259
"F_229";74;80;73;82;2485,20155673913;0,699457377910032
"F_230";60;58;62;58;850,467711409709;0,662686567164182
"F_231";82;92;77;88;1973,25278170963;0,673899600876948
"F_232";60;56;60;57;817,575865693219;0,652159721466655
"F_233";63;66;61;63;1987,47901863917;0,690751944684535
"F_234";74;65;73;66;1713,39936236837;0,692387663162761
"F_235";86;91;89;91;2291,57447734104;0,678975985500682
"F_236";58;53;61;50;953,944425103307;0,643581897245935
"F_237";47;55;51;54;631,569293577489;0,634218601206223
"F_238";56;62;59;64;916,759958853216;0,642134018961917
"F_239";52;40;55;43;634,052263537433;0,628664324295981
"F_240";47;49;49;54;418,04790784276;0,616032887975333
"F_241";36;37;33;39;688,536164776687;0,593641675745269
"F_242";38;40;40;39;190,145309764403;0,603899047906905
"F_243";53;67;55;68;856,657186290373;0,643236572409725
"F_244";75;68;83;69;1372,7211742205;0,66342003320421
"F_245";43;40;45;40;347,539355456753;0,627414036740463
"F_246";56;54;59;51;432,164833702296;0,619823173569101
"F_247";54;50;56;54;623,590535836889;0,628104369695065
"F_248";78;74;79;78;1407,58659938949;0,663713874432513
"F_249";67;71;73;69;1395,72386094378;0,673520984324965
"F_250";55;62;49;65;778,236594405668;0,639121394679321
"F_251";40;43;46;42;321,815796893288;0,614076426595635
"F_252";39;35;39;37;332,717970372997;0,574110435323978
"F_253";81;85;76;82;2122,72642078336;0,695521002552798
"F_254";68;69;68;67;1271,56375630138;0,653190214133932
"F_255";71;62;69;71;1028,78678750482;0,67534223424033
"F_256";54;52;57;52;454,076996403722;0,613228298122665
"F_257";74;73;76;77;975,604138431806;0,648000000000003
"F_258";84;77;86;77;2575,81418046025;0,694513643473728
"F_259";92;87;91;85;2208,47866551385;0,666963391565596
"F_260";30;43;32;41;236,223353509656;0,619727047146403
"F_261";83;85;85;87;1888,06522544937;0,679168319075408
"F_262";38;34;41;34;166,284813617593;0,598651685393257
"F_263";70;67;75;69;2242,26749059065;0,681872475968377
"F_264";47;47;50;48;281,730123335966;0,609332113449221
"F_265";31;32;30;33;262,947005762005;0,598681582101477
"F_266";75;74;78;79;2464,78997406368;0,698642112011196
"F_267";39;31;37;29;440,705246137119;0,626692456479692
"F_268";28;29;28;31;82,5234521158495;0,5572185553593
"F_269";90;89;89;90;2217,20368672766;0,70654800495079
"F_270";115;98;109;94;2195,42363343361;0,698357217756033
"F_271";93;89;100;91;3658,91270851314;0,700520072459537
"F_272";79;72;82;73;1885,42562554378;0,687148916657116
"F_273";109;112;110;113;4715,47479878224;0,745336980850539
"F_274";58;46;57;44;1116,91084512851;0,652230685527751
"F_275";104;111;105;113;3116,04553505319;0,709349112426038
"F_276";59;63;56;62;1640,89998128185;0,68036322360954
"F_277";89;98;90;93;3545,24355122835;0,715359828141788
"F_278";101;108;105;112;2469,75818408037;0,705840791333023
"F_279";80;86;80;85;1567,57039671496;0,684090390321845
"F_280";44;45;43;42;321,729476645789;0,578264434904248
"F_281";80;78;76;73;2656,19176995325;0,71514645349878
"F_282";98;89;95;88;2687,79435422638;0,716000716717439
"F_283";18;22;19;23;110,955506200749;0,564832265359969
"F_284";83;80;81;81;2224,20174744537;0,706589649888015
"F_285";47;56;49;56;645,144791346196;0,633983817229893
"F_286";33;29;37;31;121,493266990148;0,571837435603891
"F_287";68;70;64;67;1311,73494371401;0,670319838962203
"F_288";98;98;101;96;3989,12709267484;0,714549681111047
"F_289";81;86;79;85;2406,46553276627;0,703190990145474
"F_290";58;63;60;62;696,453118207709;0,639053254437871
"F_291";79;83;84;83;1658,86504175069;0,679399263247381
"F_292";76;89;79;87;2829,16319543251;0,717028530414504
"F_293";30;30;31;32;163,080000807805;0,583130654732949
"F_294";37;37;39;38;179,365695150083;0,580448361012927
"F_295";71;67;75;67;604,302655586958;0,638100814392932
"F_296";50;48;54;45;507,491651619821;0,634957627118645
"F_297";42;43;44;45;1117,33684393939;0,674468324518966
"F_298";67;66;66;66;420,643232912802;0,611351930236115
"F_299";68;79;66;76;2095,69112636284;0,695965166908568
"F_300";33;22;31;22;196,810446553221;0,603655773201068
"F_301";10;11;11;12;31,1020583543195;0,50365515502899
"F_302";72;71;75;73;1602,56352408789;0,701093631206508
"F_303";85;82;82;79;2713,75117899834;0,714038954077079
"F_304";70;62;63;60;961,737824631222;0,654152570118959
"F_305";76;79;75;87;1479,41613995911;0,689203173508109
"F_306";18;19;17;18;32,3421989560147;0,529061300145638
"F_307";102;106;102;104;4267,26445082573;0,746079163554895
"F_308";35;33;35;34;171,005010566237;0,608713313699603
"F_309";65;67;65;66;2533,57990033459;0,705217953997299
"F_310";45;39;47;40;326,266764918958;0,595588235294116
"F_311";44;43;49;44;621,925716752159;0,620496894409938
"F_312";66;76;67;74;1306,87042570956;0,664118331394387
"F_313";26;22;25;19;118,37353513549;0,551654318715199
"F_314";53;59;57;60;692,929415772365;0,622236063531609
"F_315";91;109;94;106;3682,76658923078;0,71348648970361
"F_316";89;94;87;88;2761,56784853845;0,709139307897074
"F_317";57;52;58;50;766,43804571543;0,646636819677439
"F_318";94;81;86;84;1940,64045430452;0,700356370859383
"F_319";48;41;52;44;365,418601168755;0,597249900358707
"F_320";75;80;82;82;1279,71712844953;0,658717511951208
"F_321";32;31;33;34;258,550656967483;0,595262922687322
"F_322";70;75;71;71;1275,94757607561;0,66393442622951
"F_323";37;32;39;31;168,102886250348;0,558204507357049
"F_324";58;46;56;46;692,783707331853;0,646392753154321
"F_325";26;29;26;31;139,822389902994;0,557762992602242
"F_326";42;48;42;47;382,987618952873;0,615843008322203
"F_327";25;24;24;24;117,309871869696;0,561893602062338
"F_328";45;42;45;40;857,911280689709;0,658789910424802
"F_329";64;61;66;66;1067,26687692632;0,646218532693657
"F_330";24;34;24;36;102,000675109528;0,556158663883089
"F_331";25;29;25;29;164,29311773509;0,560344021688322
"F_332";109;113;107;106;3562,68833147883;0,725973475443592
"F_333";85;88;87;87;3696,65412776869;0,722560424326447
"F_334";25;29;22;24;175,002348281261;0,567963234945752
"F_335";67;67;66;67;1169,78362385209;0,652941176470592
"F_336";34;29;36;31;84,1224121241361;0,559977578475336
"F_337";88;83;85;85;1915,44601549262;0,685694674826978
"F_338";77;68;76;71;3023,8554433313;0,729285801192363
"F_339";101;100;105;97;2453,35839345421;0,702449314426347
"F_340";89;90;90;93;3881,89313271121;0,719308772350899
"F_341";16;22;17;21;56,9069967795458;0,533155436957973
"F_342";100;94;93;94;2947,96894427831;0,710905532823343
"F_343";89;70;93;72;1117,68000881129;0,65536846708944
"F_344";38;41;40;38;255,12200097122;0,60858970453853
"F_345";110;117;107;110;7071,62120576628;0,765175209038107
"F_346";45;38;43;37;462,860838782294;0,601505268439537
"F_347";55;54;59;59;863,588294394874;0,652443670403836
"F_348";70;68;69;70;2407,91503256641;0,689044717783658
"F_349";56;62;54;58;709,523070764435;0,653368214519296
"F_350";34;32;35;32;218,959612164259;0,551172413793104
"F_351";87;77;90;77;1626,95801594934;0,658175030196553
"F_352";41;34;45;36;317,468814058434;0,600330512294055
"F_353";37;41;40;42;288,615106895222;0,564194277108433
"F_354";61;67;60;63;1295,86480946174;0,657020716869453
"F_355";24;24;25;26;108,784069279425;0,542443438914028
"F_356";52;55;53;59;585,123805211324;0,621623023074928
"F_357";43;39;45;38;323,862207898633;0,579550398839738
"F_358";50;45;51;47;527,234563313466;0,650637720488471
"F_359";51;41;50;40;455,658883482644;0,6267252195734
"F_360";105;107;101;105;4141,27106341133;0,739726027397263
"F_361";33;39;34;40;179,556066300759;0,564247387743574
"F_362";31;40;32;43;326,437439458388;0,580617038794981
"F_363";34;37;36;40;348,828730764404;0,612038597028642
"F_364";26;27;24;27;149,785604807263;0,607202552803524
"F_365";82;79;86;81;1268,91939433316;0,658898537979555
"F_366";57;47;56;47;732,863422610431;0,6385086551265
"F_367";73;75;77;75;895,740233992572;0,638508655126498
"F_368";29;34;30;32;190,615523790631;0,605332256109876
"F_369";40;40;42;41;443,4515784742;0,608342636760376
"F_370";74;85;72;86;1098,86658285689;0,6589709762533
"F_371";75;77;76;79;1714,27536604997;0,685263518920778
"F_372";54;60;53;59;844,994965149102;0,608651502843216
"F_373";45;42;43;46;508,879735915439;0,591620194443072
"F_374";98;91;95;92;4360,97842995149;0,722429793901413
"F_375";78;72;78;74;1992,05835575826;0,683583281062899
"F_376";106;95;109;95;2121,14377771522;0,699171818499945
"F_377";47;53;46;51;1223,1587694896;0,658500411974739
"F_378";44;56;45;59;563,084259014104;0,630250775458705
"F_379";126;120;135;123;3566,85630389472;0,722168674698798
"F_380";57;66;59;73;567,000919761763;0,622139187295655
"F_381";108;115;110;115;7372,15121649772;0,75662711436506
"F_382";86;87;82;80;4964,34883636649;0,743395758402582
"F_383";74;77;76;75;1342,48084012171;0,660823548867209
"F_384";57;49;55;47;522,46612220077;0,587992937021776
"F_385";95;91;102;90;2635,76041123795;0,697503927386982
"F_386";82;72;78;65;745,063790982965;0,624602719741571
"F_387";45;56;47;56;1174,3447443853;0,692547660311963
"F_388";41;33;44;34;214,849723937798;0,587042750110179
"F_389";58;54;55;53;970,978183902584;0,646148870802568
"F_390";45;42;46;43;257,799781214404;0,60423387096774
"F_391";100;83;103;79;2532,53382899042;0,711538461538466
"F_392";47;45;44;48;487,682448121798;0,614958448753462
"F_393";40;37;42;40;204,163405371427;0,57112910909957
"F_394";107;99;104;97;4620,13814834496;0,740000000000004
"F_395";57;57;56;60;424,770545948748;0,625449992174048
"F_396";54;49;53;47;684,476993165545;0,646079223928863
"F_397";96;97;93;89;2902,72938333383;0,716899892357378
"F_398";68;62;70;64;2251,58106662165;0,675532514369437
"F_399";77;79;80;75;2004,03914896746;0,691788331698312
"F_400";68;57;70;59;1341,25134076535;0,636880412261595
"F_401";85;73;89;66;2804,43921324222;0,689639302767073
"F_402";93;98;99;99;3420,37426203386;0,703768932722791
"F_403";34;31;33;31;188,802416569162;0,563849301538026
"F_404";43;43;46;44;323,578602739831;0,605546294893165
"F_405";32;26;33;25;154,59362775071;0,58857030636292
"F_406";51;39;49;37;230,728434793091;0,601022761455929
"F_407";43;39;48;39;723,732265329198;0,623109309215657
"F_408";33;37;30;37;661,490535408374;0,629390455189795
"F_409";69;64;73;64;980,771061217985;0,637252817350629
"F_410";23;23;25;23;73,354709815707;0,544735765892671
"F_411";28;32;28;35;138,088199082014;0,553181671358036
"F_412";67;67;67;66;2293,38245576142;0,698805013115714
"F_413";21;26;21;27;328,880565446126;0,577428832907854
"F_414";50;44;49;47;492,455465667537;0,628466579292268
"F_415";33;32;30;29;110,083479206148;0,57670659546832
"F_416";75;75;74;79;839,448078926627;0,663456749128343
"F_417";66;64;70;63;992,653668624955;0,677288135593226
"F_418";76;70;76;70;1832,19349170289;0,676485525647541
"F_419";46;42;47;48;356,460439583147;0,604996214988644
"F_420";27;34;27;31;130,660621725907;0,551197756218677
"F_421";64;64;64;62;722,87678807934;0,650073206442169
"F_422";64;64;67;68;1155,20485341187;0,66393442622951
"F_423";78;84;79;78;2557,08658916095;0,691748413156382
"F_424";87;85;89;86;2685,78209113629;0,705549997057269
"F_425";53;46;55;48;680,573986639104;0,608157467532466
"F_426";56;55;56;59;783,616220585138;0,626136007521153
"F_427";63;67;63;71;897,855382030812;0,660750702750375
"F_428";41;43;41;43;297,793538843526;0,578041371329378
"F_429";21;23;21;23;97,6571422138772;0,544711014176663
"F_430";45;39;43;38;278,71224549005;0,617587965586524
"F_431";49;45;50;45;389,634608647199;0,627512562814072
"F_432";37;25;38;25;180,629007032998;0,578906702723584
"F_433";87;90;97;91;2919,71767042497;0,708510638297877
"F_434";72;76;72;77;1528,22902677492;0,667669172932333
"F_435";79;80;80;80;2643,22445288898;0,702943590946408
"F_436";27;24;27;24;172,828117497306;0,585465911310801
"F_437";41;45;41;45;270,793351606254;0,565471698113207
"F_438";75;85;76;81;3464,74578193556;0,724919876640264
"F_439";61;56;59;56;633,220121599275;0,637863147813133
"F_440";31;31;31;30;200,156005206896;0,564300508378835
"F_441";55;61;60;65;567,508311056214;0,608867895779367
"F_442";52;59;57;62;549,336305582324;0,639496425904195
"F_443";61;66;59;70;836,932685791187;0,641343890434412
"F_444";76;74;82;75;872,619052451186;0,6725763016158
"F_445";21;19;21;20;30,75444180003;0,534296028880867
"F_446";56;49;58;52;319,06893029577;0,595026554822056
"F_447";44;46;45;46;371,573678573891;0,59641791044776
"F_448";23;18;23;18;50,8402582496623;0,545107311749727
"F_449";75;74;79;77;2114,33035170098;0,682765690853175
"F_450";60;46;56;47;757,729959242317;0,643893006767646
"F_451";41;38;40;35;393,225055003275;0,587992937021776
"F_452";67;61;67;53;1390,17706028621;0,678476427641639
"F_453";53;57;49;62;574,331028164213;0,639769452449569
"F_454";71;70;71;77;1519,35387811267;0,682144076476615
"F_455";47;44;47;47;219,385932078502;0,600030031533109
"F_456";82;96;84;95;3527,50647544199;0,699334966748339
"F_457";80;63;82;64;1076,00561809476;0,640350408632019
"F_458";53;59;54;61;492,744505102671;0,622656209421908
"F_459";56;69;56;67;1361,90574945823;0,660641463683459
"F_460";88;88;88;88;2769,76290519333;0,702655178477233
"F_461";46;45;45;44;651,516721561735;0,617174629324546
"F_462";97;98;96;96;4087,69615423617;0,727250667313762
"F_463";72;75;78;74;2184,8824396794;0,66162591754512
"F_464";77;76;79;80;3036,45962529523;0,693830304433386
"F_465";115;100;119;101;4915,25286920416;0,750046924857664
"F_466";49;42;49;42;299,750476648477;0,589033018867923
"F_467";28;33;29;34;172,210714250921;0,584352912503046
"F_468";43;58;45;59;687,302766254803;0,634453559142633
"F_469";60;64;62;70;669,835585986532;0,625449992174048
"F_470";92;90;89;90;2385,06859197475;0,695117708454138
"F_471";63;59;68;62;1089,51869533693;0,636069400965671
"F_472";45;45;46;48;195,938273606729;0,581208183845631
"F_473";40;28;41;27;228,736615721808;0,591707798617965
"F_474";41;37;42;38;253,049447477463;0,587157760689621
"F_475";88;79;90;84;1360,0588439763;0,648666197716574
"F_476";68;68;69;68;1101,21842289242;0,666185051403173
"F_477";45;43;44;40;251,320314221059;0,629588782101782
"F_478";46;55;43;52;475,49407302788;0,602866482273068
"F_479";78;79;82;84;2095,5362239698;0,674696082845567
"F_480";49;53;48;57;736,694125756265;0,639189549453481
"F_481";39;41;43;43;310,305473216783;0,61132075471698
"F_482";65;60;65;55;1084,51400008766;0,673445312061122
"F_483";52;56;49;57;497,516986930542;0,624179943767573
"F_484";43;51;46;53;466,246251908388;0,6262341325811
"F_485";57;59;61;62;817,121109479293;0,635024896705161
"F_486";72;71;69;70;3648,94812597652;0,70775770456961
"F_487";72;72;74;69;829,974002330836;0,636677465611557
"F_488";32;28;33;29;170,235901234373;0,55325826103009
"F_489";25;23;26;24;64,8873627753317;0,546125461254613
"F_490";81;74;82;69;1980,66259599173;0,680247403960736
"F_491";50;42;49;42;412,898835075677;0,606403965805048
"F_492";49;43;52;48;439,278448837234;0,605974826871555
"F_493";75;87;70;84;2330,94412072318;0,710947693037604
"F_494";65;57;66;61;663,544809725382;0,606680161943319
"F_495";60;63;59;66;2048,02902089007;0,706173421300665
"F_496";63;74;69;77;1828,11165757137;0,687464158733804
"F_497";70;76;68;76;1822,31867690461;0,688648897058826
"F_498";40;40;42;39;319,672950737838;0,571782886578268
"F_499";62;65;64;71;675,449026954707;0,621590791247536
"F_500";38;33;37;32;194,31029644507;0,569826029090217
"F_501";90;71;92;69;1334,53488662656;0,693950795947904
"F_502";20;36;22;37;90,8004021772358;0,5559265442404
"F_503";61;56;63;52;837,608630337015;0,668525540932415
"F_504";69;60;68;57;1417,93111693413;0,678399637824686
"F_505";88;89;83;92;3186,37495793481;0,733884297520665
"F_506";38;48;39;48;526,137960174027;0,628499528153509
"F_507";84;90;82;89;1889,9655710767;0,678553234844628
"F_508";47;42;50;41;270,044331508135;0,605362823814572
"F_509";54;65;56;66;940,31390506102;0,638985128724482
"F_510";55;66;61;72;824,326983342174;0,626299566375841
"F_511";39;39;39;37;607,775515765724;0,633548250713457
"F_512";70;73;68;75;1821,43900018665;0,702037947997193
"F_513";60;76;56;73;1651,51211165658;0,693589446887297
"F_514";43;53;44;54;1160,04815869184;0,679283771532187
"F_515";27;31;28;34;173,317494552767;0,554563537956238
"F_516";60;61;56;59;1538,45016617826;0,665704131497119
"F_517";70;69;71;73;1838,31826321879;0,693228473949003
"F_518";86;85;83;84;2512,22205415068;0,713783864245315
"F_519";52;53;54;47;512,772981224378;0,638610696782444
"F_520";96;98;92;91;1585,79472767165;0,659659935068509
"F_521";34;46;36;48;288,070690706204;0,593201049037555
"F_522";34;29;36;30;345,278162469166;0,630350194552535
"F_523";64;64;66;62;473,048919795608;0,613699191153884
"F_524";65;65;66;67;1207,57267113992;0,675684815691582
"F_525";58;53;59;55;582,490825641832;0,610635696821515
"F_526";29;32;32;35;181,316993065796;0,558802964620332
"F_527";38;35;38;36;455,592963422394;0,615684864670535
"F_528";11;13;12;16;9,39501321691724;0,528361761205872
"F_529";28;24;27;25;81,6599169669499;0,558568632932624
"F_530";32;36;32;36;147,606318074258;0,588166028848983
"F_531";106;87;101;79;3549,47866780895;0,713911386374469
"F_532";84;86;87;88;2169,91889943202;0,693188389036662
"F_533";43;44;48;47;784,040785857784;0,64265036989386
"F_534";66;63;66;67;1493,20322172042;0,695158016816472
"F_535";95;90;88;83;3314,78077847357;0,725182989534817
"F_536";103;88;100;90;2524,90892946854;0,709517045454549
"F_537";47;45;48;45;438,498802377716;0,614611638041529
"F_538";39;38;39;39;219,783813470527;0,584267472463202
"F_539";92;86;90;86;4132,78935710812;0,724350453172209
"F_540";61;68;59;65;1442,62277836661;0,687503584332168
"F_541";85;100;82;104;3458,2158180867;0,730708277459468
"F_542";48;55;46;52;832,319117644299;0,642547033285097
"F_543";72;85;76;88;2382,4149928867;0,697463346520831
"F_544";41;40;41;41;509,966889060021;0,590920293784196
"F_545";75;71;76;71;891,148249225354;0,643789270178832
"F_546";53;54;57;55;427,824261844769;0,625482625482626
"F_547";32;24;32;26;117,579696231546;0,556339335437163
"F_548";84;81;81;79;3223,89320384175;0,701298701298706
"F_549";81;86;89;92;1449,82663484361;0,662503453992818
"F_550";39;34;38;35;292,967871913151;0,596091691114314
"F_551";38;43;38;45;333,29913239544;0,591620194443072
"F_552";36;38;36;39;84,2556567414498;0,561814603055581
"F_553";90;86;93;87;1546,83092070532;0,680517711171666
"F_554";43;49;46;52;660,500687672297;0,632845906139475
"F_555";25;27;27;27;90,0135857083474;0,544810034539175
"F_556";104;109;105;114;3737,18648849875;0,719093035810693
"F_557";111;115;107;120;4118,77563631559;0,73253895508708
"F_558";92;83;85;83;3636,50591705108;0,723170658140802
"F_559";28;28;26;31;161,894716847007;0,554691837867851
"F_560";37;29;36;28;466,006015151873;0,621333056908883
"F_561";118;119;108;117;6103,61289755419;0,755530346001137
"F_562";48;42;50;45;716,369462355476;0,633113282281491
"F_563";84;70;81;65;1443,08725324677;0,674392439243929
"F_564";45;45;45;50;378,965732573747;0,591153409931455
"F_565";43;33;44;31;645,851774099839;0,629093198992445
"F_566";42;39;37;36;142,50011571365;0,598293157658331
"F_567";41;49;42;48;683,986066280276;0,613040143185885
"F_568";64;70;72;75;817,037603628352;0,637897089341777
"F_569";50;45;52;49;917,140787561607;0,620496894409938
"F_570";37;33;40;35;255,327999991016;0,569826029090217
"F_571";80;82;84;79;2173,10927038441;0,692467652495385
"F_572";120;113;118;112;5117,19239144082;0,745244311823948
"F_573";56;46;65;47;288,087841926025;0,60395989722404
"F_574";61;69;60;71;920,017912329858;0,653083460448902
"F_575";32;24;34;26;165,291557366218;0,576124567474047
"F_576";55;51;57;55;764,362302827716;0,639974375400386
"F_577";67;81;63;79;842,396542874472;0,659877800407337
"F_578";51;56;51;59;495,989612777969;0,627972760607648
"F_579";44;50;45;47;477,580215350244;0,631845253781691
"F_580";34;32;33;31;256,301320407375;0,602018781700395
"F_581";35;42;35;43;257,042475181013;0,603291228423329
"F_582";15;17;15;18;50,2622348841389;0,532043316172556
"F_583";83;80;85;81;2515,42685947476;0,685185185185187
"F_584";77;71;80;73;1022,9601811707;0,675799086757993
"F_585";108;100;107;101;3819,14463949194;0,739224270826914
"F_586";67;71;73;76;1288,46806062678;0,667743552609595
"F_587";39;49;36;50;901,246079113783;0,653154625694678
"F_588";74;83;70;84;2090,80270859053;0,675760992108233
"F_589";47;46;50;43;468,493051815695;0,635900700190964
"F_590";43;57;43;54;627,857094095158;0,649932230956902
"F_591";50;53;54;59;536,031742012032;0,597785977859778
"F_592";99;81;95;76;3125,52047672002;0,709265175718852
"F_593";34;27;36;29;95,563005855402;0,561052089670987
"F_594";68;64;67;60;1374,59480062991;0,653653217012
"F_595";40;37;40;39;256,013835868603;0,587819947043247
"F_596";73;73;69;70;1570,97952710209;0,678975985500682
"F_597";50;43;52;47;324,938284060926;0,623271290423209
"F_598";43;43;43;40;534,857811057725;0,606158669161145
"F_599";122;112;131;114;5393,80079963431;0,73124313773332
"F_600";79;87;80;86;1902,72113249795;0,684441906936914
"F_601";51;51;50;52;722,73590721965;0,652656794425091
"F_602";34;26;32;24;136,353918779604;0,583641674780913
"F_603";76;85;81;88;1544,10372980723;0,674544226873736
"F_604";58;56;56;55;789,038162049161;0,61285210367568
"F_605";54;49;55;50;432,271772098408;0,584182057404608
"F_606";46;44;45;45;285,496992413931;0,598741384477073
"F_607";112;107;109;103;4595,04259941171;0,738313727905405
"F_608";55;60;59;65;1172,23198238167;0,64048725757333
"F_609";28;31;26;31;98,9739962617682;0,576235339357815
"F_610";78;84;77;81;2501,39510277873;0,685498627630378
"F_611";72;83;72;83;2270,51969983478;0,694755143436693
"F_612";41;39;40;36;196,121948488527;0,57208303507516
"F_613";92;102;93;108;2691,74558450025;0,702943590946411
"F_614";43;40;43;40;363,935987271901;0,610542398777693
"F_615";21;22;23;22;77,7877929912734;0,538447718289616
"F_616";75;71;80;76;1944,99163382076;0,681872475968377
"F_617";76;82;79;85;1282,16514509883;0,652479181407502
"F_618";45;53;45;56;560,359459797382;0,626528692380057
"F_619";52;48;47;48;682,995245256028;0,61953488372093
"F_620";59;57;61;57;593,714166610794;0,627414036740463
"F_621";33;42;35;41;161,838393922143;0,57896261953057
"F_622";48;45;54;47;866,252712140477;0,657669519420674
"F_623";53;54;56;56;590,162966571668;0,64891198441053
"F_624";40;42;44;43;448,239029053204;0,621397470454076
"F_625";66;80;61;78;3549,42127150825;0,726545454545458
"F_626";35;36;38;36;199,876425851638;0,594495412844036
"F_627";54;50;55;52;811,176734514757;0,617079322592267
"F_628";35;28;35;29;182,759649651685;0,578320227700321
"F_629";77;72;75;79;1408,80375501185;0,656840721056382
"F_630";71;77;70;80;1107,19451797969;0,662064394985367
"F_631";47;48;47;46;645,187483843218;0,641962086323232
"F_632";107;99;102;101;4236,11351543628;0,720432692307695
"F_633";31;31;36;31;496,228847576836;0,623141698721285
"F_634";48;50;47;48;620,635840602507;0,608527918781724
"F_635";48;52;53;56;565,497990994482;0,602351522460053
"F_636";53;55;61;55;1331,11390554485;0,64541832669323
"F_637";36;36;36;37;183,134522164116;0,569149693775814
"F_638";56;53;61;57;503,806446001498;0,608775137111516
"F_639";57;44;58;47;1068,78999839662;0,646846166297958
"F_640";95;104;92;95;4493,55803953636;0,738450166317609
"F_641";51;50;52;52;444,502730075111;0,634017347154645
"F_642";84;99;83;100;3657,75670563794;0,721864274101286
"F_643";39;40;44;42;416,162925969565;0,615053101431432
"F_644";69;80;68;84;1205,1902001851;0,650567102621156
"F_645";35;34;34;35;273,265626966673;0,598024543549834
"F_646";56;54;56;53;470,312619361717;0,618416301263863
"F_647";86;81;83;74;4240,70287797107;0,701298701298705
"F_648";27;23;26;24;132,615208126497;0,571483052867425
"F_649";76;79;75;77;2867,48286646555;0,711961040503626
"F_650";27;24;28;23;113,336186151136;0,539683968847072
"F_651";78;81;76;80;1377,39672872973;0,646288209606989
"F_652";56;52;56;54;591,067700779376;0,627184262843988
"F_653";84;83;84;88;1799,55137742692;0,679861623093067
"F_654";72;56;72;50;744,764222319299;0,636474648261217
"F_655";69;62;74;67;1921,80934910891;0,661224489795922
"F_656";78;91;72;82;3344,86909317369;0,733211009174316
"F_657";38;39;38;41;307,655666327755;0,58715776068962
"F_658";87;83;89;83;2675,76019891152;0,711538461538466
"F_659";17;21;17;20;58,692031261889;0,542051003798156
"F_660";42;45;40;45;772,870810239387;0,673558826834481
"F_661";79;77;75;78;1660,04579159631;0,675608656447253
"F_662";52;54;54;58;601,689690028446;0,622010065895293
"F_663";63;62;64;64;912,017051588539;0,639394101018722
"F_664";57;63;52;59;708,277006851598;0,640076886112448
"F_665";110;107;104;111;3539,83934049325;0,724744574088633
"F_666";73;77;80;83;1129,6405608326;0,648140138408306
"F_667";93;100;95;100;3938,39638395112;0,746869353934337
"F_668";67;63;63;62;1331,69715271241;0,682610181072777
"F_669";43;42;46;42;642,393397285572;0,615147783251231
"F_670";74;84;73;83;1046,75895468719;0,658608944072082
"F_671";30;41;33;41;293,94945068705;0,601324237560191
"F_672";94;103;89;101;2342,54486541696;0,695843974924545
"F_673";25;23;27;21;166,093361232004;0,567801828257471
"F_674";32;35;33;37;311,387158303419;0,595144715285706
"F_675";50;52;53;55;290,698655704375;0,588310349904303
"F_676";77;65;79;70;1590,99425249942;0,670920080591003
"F_677";40;37;42;42;441,708286838971;0,62033635187581
"F_678";91;95;85;94;2909,10207456956;0,694594124804452
"F_679";103;103;105;103;3927,86715317313;0,728753799392101
"F_680";39;41;40;41;397,172117870429;0,599489923488521
"F_681";38;36;40;36;239,035689813758;0,561577739260785
"F_682";27;29;25;27;176,810625187543;0,566353285775026
"F_683";48;46;48;49;273,602681278567;0,602351522460052
"F_684";81;69;84;72;1561,33650411637;0,666740823136821
"F_685";110;102;106;96;4328,23082261143;0,734874026849755
"F_686";68;64;71;64;2174,32399582037;0,706797948234189
"F_687";59;58;61;63;932,430440866493;0,63782920989625
"F_688";41;53;41;51;751,395634424202;0,659333406665938
"F_689";63;56;67;57;1256,08542631416;0,660277594183743
"F_690";62;56;58;55;1290,68255856487;0,656445077209509
"F_691";115;118;115;110;5504,953151051;0,748922346473421
"F_692";61;51;58;55;573,59558677611;0,647929953518542
"F_693";49;45;53;46;345,847823875734;0,625123846274183
"F_694";98;101;97;98;2274,10130588189;0,709559041136434
"F_695";68;73;66;72;1617,31725888269;0,668637403089971
"F_696";43;32;45;32;343,299621136357;0,574468085106382
"F_697";95;98;90;95;2765,10178955544;0,706631299734752
"F_698";89;86;90;91;2896,17875804171;0,711961040503628
"F_699";26;25;29;27;105,242017693674;0,549681324223944
"F_700";47;47;49;45;477,461835817358;0,593347851910511
"F_701";35;44;30;44;557,526857298677;0,625254263808483
"F_702";44;44;47;43;963,60219801994;0,647509992438158
"F_703";55;49;55;50;595,082313138382;0,628005657708629
"F_704";94;95;96;90;5138,30776552128;0,746776303494677
"F_705";57;60;58;59;971,727790477205;0,621558562762481
"F_706";80;87;80;89;2671,63404056527;0,699743170674765
"F_707";66;57;70;57;912,864605088232;0,644620100016133
"F_708";40;45;41;44;346,285975330714;0,593876944416921
"F_709";40;41;40;42;152,952674873848;0,573753230592513
"F_710";34;35;36;38;115,78472295887;0,567479289940827
"F_711";52;56;50;54;365,98272565826;0,607879924953094
"F_712";57;57;57;59;900,718549958273;0,636508442179039
"F_713";78;82;75;82;1994,66251652078;0,685459431642749
"F_714";36;33;37;33;155,257581621534;0,568232450111389
"F_715";66;59;61;62;1689,51562426504;0,671220604703251
"F_716";35;33;33;33;582,153438270252;0,618735483870969
"F_717";51;59;51;54;541,827984956505;0,598771290145346
"F_718";43;48;46;50;397,132283637772;0,602139735797879
"F_719";41;37;41;38;463,904992149161;0,574881312041432
"F_720";42;30;41;30;171,528970614499;0,562764059712702
"F_721";74;81;71;80;1258,35543235277;0,683115847056815
"F_722";67;64;66;66;1316,04146466215;0,660677872692204
"F_723";49;42;51;41;730,289631828512;0,668525540932415
"F_724";38;35;42;38;198,856529354801;0,56512515910055
"F_725";89;90;85;93;2653,62889564243;0,70742358078603
"F_726";51;46;55;47;360,165606392133;0,589786480369968
"F_727";57;58;57;55;722,772041142275;0,640453039854686
"F_728";44;41;49;43;279,318824295298;0,591707798617965
"F_729";45;39;45;41;301,59025154951;0,614422633386294
"F_730";82;86;84;85;1969,67155832978;0,680904237191868
"F_731";49;52;44;51;417,926009792786;0,615937933514873
"F_732";87;89;84;87;1833,71905216509;0,674278643343271
"F_733";47;46;50;46;373,980824583701;0,590949423247558
"F_734";72;78;70;79;2163,60254440531;0,68495029139527
"F_735";43;39;46;40;280,160963253601;0,591270036991368
"F_736";40;39;40;41;215,487925100134;0,565231741241924
"F_737";42;40;48;46;380,550069774972;0,616857054646496
"F_738";38;46;38;47;643,968532127163;0,639803597160703
"F_739";106;90;103;88;2296,49059666953;0,716899892357377
"F_740";72;73;68;66;1656,04725182301;0,680131623737661
"F_741";75;87;77;89;3489,47990099198;0,723781923564575
"F_742";80;83;82;78;2618,67482881775;0,697585103287755
"F_743";66;64;68;67;1318,43071129529;0,650355340964576
"F_744";42;41;43;48;148,140327900248;0,575377969762418
"F_745";72;73;71;70;1336,01996566967;0,644932214331829
"F_746";97;88;92;84;3173,73008277015;0,703521126760569
"F_747";89;80;91;76;2435,82526798723;0,695117708454138
"F_748";33;36;34;37;85,1913678717472;0,563266456796503
"F_749";79;72;77;69;724,26328342584;0,633313962702731
"F_750";70;74;65;71;1572,63564642967;0,673180592991915
"F_751";56;60;58;63;1027,20523661853;0,667408974501729
"F_752";44;58;44;57;555,683939381697;0,620015515903801
"F_753";85;90;81;86;2720,50869865245;0,712553495007136
"F_754";51;48;56;48;362,428468994908;0,624635264693622
"F_755";72;71;71;68;1308,04294457385;0,642478160673135
"F_756";59;65;62;64;877,785302331179;0,644308287649147
"F_757";47;43;49;42;298,033483457816;0,603594985146768
"F_758";79;70;73;74;2341,93756747374;0,694875956410856
"F_759";45;42;46;42;256,411329320688;0,56257919189075
"F_760";76;81;74;80;1760,39613860855;0,671596638655465
"F_761";37;44;34;43;690,796621612295;0,645001614118155
"F_762";75;71;72;70;1609,30103892566;0,678322865387882
"F_763";31;36;30;34;176,670383239116;0,578208652872231
"F_764";44;45;46;45;385,253942453028;0,631146677898285
"F_765";55;56;54;49;1810,49466253199;0,696612237782559
"F_766";106;115;108;116;3950,41853977046;0,729463307776565
"F_767";81;76;81;72;2526,11034408692;0,705674593830944
"F_768";24;26;24;24;116,463243882187;0,55254424778761
"F_769";30;29;32;30;145,082648275154;0,54950495049505
"F_770";43;45;45;45;943,399918273489;0,635563566960029
"F_771";38;42;36;42;308,176965788783;0,59077468953282
"F_772";44;55;43;52;626,532634496852;0,64137820341341
"F_773";42;35;39;31;411,210466033712;0,587100249767372
"F_774";38;33;40;35;171,875796358486;0,565285047390012
"F_775";54;54;53;53;773,887047185503;0,607756653992394
"F_776";41;40;42;44;383,914120710614;0,62382265702243
"F_777";63;62;67;66;913,433234518632;0,645105741807029
"F_778";36;32;37;31;186,672819155504;0,573808156232049
"F_779";68;60;68;60;1363,4951051381;0,625482625482625
"F_780";38;43;37;42;151,130811895649;0,563849301538026
"F_781";75;68;76;72;2385,67344632784;0,699253383107799
"F_782";28;22;30;22;54,910061985396;0,550539609644087
"F_783";56;43;51;43;425,730546990658;0,619118938181067
"F_784";50;44;52;43;1474,55343496923;0,649333766655839
"F_785";42;38;40;39;312,059645941306;0,610418045725342
"F_786";102;95;99;93;4355,33033287994;0,744457554492954
"F_787";71;74;73;77;2195,15608918119;0,667594809823472
"F_788";41;54;42;51;1500,94699086649;0,681446111869035
"F_789";57;61;65;66;1190,57363649647;0,665963002055443
"F_790";59;69;65;76;833,334451912024;0,647789905976441
"F_791";80;73;73;69;2035,20551353178;0,710400000000004
"F_792";80;101;78;98;2914,11165264866;0,709559041136435
"F_793";36;34;36;35;299,400139708975;0,600360576923076
"F_794";44;41;41;37;296,682738031652;0,607756653992394
"F_795";53;56;52;56;788,66328713538;0,637422236401341
"F_796";70;60;70;62;1762,30141142724;0,680749574105629
"F_797";78;93;83;90;3066,50744376161;0,7120033260082
"F_798";68;65;70;68;1181,38135404523;0,647125506072877
"F_799";32;29;31;33;236,207722525732;0,592936986843406
"F_800";59;62;65;68;866,773544323797;0,628895184135977
"F_801";27;32;28;33;221,995347193554;0,613793456556247
"F_802";61;70;65;70;766,846248706589;0,646811265781808
"F_803";38;34;39;34;147,012309898299;0,565925506302222
"F_804";26;18;25;17;59,9651991069253;0,529856353591161
"F_805";83;92;81;86;2169,45642393457;0,698316537542961
"F_806";39;44;43;45;502,596367417331;0,592673159638106
"F_807";103;87;103;89;4700,54962668309;0,743903195780331
"F_808";32;36;33;38;177,846748358871;0,574523147704398
"F_809";52;59;54;58;1153,25199733417;0,659950454170113
"F_810";100;91;89;86;2955,00696051873;0,711791948699681
"F_811";55;57;54;56;1667,39603379034;0,671521398162677
"F_812";56;74;60;79;1126,7555351296;0,660932848164078
"F_813";43;39;44;42;353,943380168013;0,576651113569675
"F_814";44;35;45;35;327,128260074882;0,618001855861429
"F_815";59;53;58;52;817,876772490195;0,649439297903466
"F_816";50;64;47;60;795,574108297544;0,666407248874313
"F_817";35;39;35;37;554,38560252419;0,614548623571027
"F_818";33;40;37;44;217,565512431113;0,568987612131566
"F_819";63;63;59;64;1268,58259375769;0,680479082704212
"F_820";68;69;67;69;1702,76771522277;0,676218411552348
"F_821";47;54;48;54;700,434817625917;0,638848920863311
"F_822";45;43;49;44;535,307842207252;0,602442333785616
"F_823";39;38;39;38;205,634077846474;0,574275449101795
"F_824";41;40;40;40;441,282134643896;0,645418326693229
"F_825";43;35;46;36;598,296700430811;0,644412191582009
"F_826";93;85;95;87;2442,19277685583;0,681484850207495
"F_827";73;66;74;70;1094,14570330915;0,659696235967426
"F_828";81;72;83;73;2031,00618684387;0,688372093023258
"F_829";69;67;67;64;1660,9465947157;0,694151708164453
"F_830";44;45;44;46;381,520317365834;0,598054377650285
"F_831";47;50;47;50;539,422472965284;0,634185049992066
"F_832";45;39;44;38;1234,9846002405;0,668600111544904
"F_833";38;42;34;39;544,663094576666;0,656301324865874
"F_834";25;29;26;31;138,054934311194;0,560160740152329
"F_835";64;64;63;62;1408,41776073762;0,65007320644217
"F_836";88;85;89;78;2592,50933057122;0,725534103976281
"F_837";89;93;88;96;3805,09044319373;0,717028530414503
"F_838";47;44;46;46;274,632884082729;0,59922023392982
"F_839";22;24;24;27;309,542733577762;0,635934433186579
"F_840";64;65;60;62;540,133885798381;0,650567102621157
"F_841";48;54;45;55;498,11447757035;0,616888797406473
"F_842";30;30;31;29;206,59675914734;0,57543320693131
"F_843";58;60;59;61;827,179883359761;0,643236572409725
"F_844";35;44;37;46;240,252524874743;0,586009678838538
"F_845";54;64;54;66;620,55275296962;0,629423500997586
"F_846";100;103;100;106;3245,39114765684;0,719395103216518
"F_847";73;78;71;77;2148,2023509486;0,685381053113032
"F_848";79;63;77;66;1628,61426809861;0,670882533997431
"F_849";46;59;48;60;376,019347385319;0,60892975059684
"F_850";39;36;39;36;261,608779086232;0,59423019728363
"F_851";37;35;36;36;316,932424820008;0,588628105666306
"F_852";31;34;30;34;124,665698886133;0,582988863492679
"F_853";67;61;68;63;824,579968361033;0,632011809363138
"F_854";56;51;57;53;1339,01978597632;0,636271960087046
"F_855";71;84;71;85;1590,99825480559;0,682182894212717
"F_856";75;83;77;83;2489,25016302493;0,688174512055113
"F_857";80;74;83;73;1839,72839237175;0,687621888264314
"F_858";44;41;45;43;353,908479484394;0,588685916322921
"F_859";66;65;65;62;1174,47523151055;0,66856282415928
"F_860";30;37;30;38;116,695841160638;0,578794901506372
"F_861";46;60;51;63;1284,49135201562;0,654724194429275
"F_862";63;67;62;64;813,518093489415;0,663566921288612
"F_863";85;85;86;81;2386,08386527424;0,682493595217766
"F_864";63;56;62;57;579,918790526755;0,635698377346486
"F_865";41;46;43;50;441,363018544983;0,604782564826959
"F_866";11;14;11;15;25,8888639138639;0,512789802378305
"F_867";81;71;81;75;1657,00228594415;0,676638257041263
"F_868";46;57;48;60;736,047547103912;0,633046417067118
"F_869";56;53;56;53;781,178969400592;0,641721535249722
"F_870";65;60;69;63;905,823332655109;0,634117958212114
"F_871";59;61;63;65;861,658306202021;0,651698831204136
"F_872";24;31;26;31;161,250097996418;0,553922927640698
"F_873";44;37;42;38;342,837854397037;0,620496894409938
"F_874";61;66;61;60;974,697460224338;0,67005757084568
"F_875";66;49;65;52;840,989164897957;0,641172380595819
"F_876";74;79;74;83;1728,43482620694;0,687227700068797
"F_877";67;58;69;62;1255,84137850354;0,655081967213117
"F_878";104;99;106;101;4079,87013242527;0,720475990143643
"F_879";37;38;38;39;171,366284217036;0,571728347958793
"F_880";41;38;40;38;379,960715511782;0,618639694498922
"F_881";61;72;62;72;819,072075016818;0,630449645017091
"F_882";52;59;55;61;556,926790720368;0,61819306930693
"F_883";27;35;28;34;172,592731988649;0,559820678061081
"F_884";53;56;53;58;602,761556109459;0,609797039523881
"F_885";77;69;76;73;1704,7959704209;0,688807170765344
"F_886";22;12;22;13;69,674657432482;0,557659208261617
"F_887";10;10;10;10;16,8909821458734;0,503063365505667
"F_888";94;80;92;81;1350,23739900842;0,681911262798637
"F_889";71;69;77;75;929,001082824366;0,654223968565818
"F_890";82;81;83;78;2426,76173244912;0,690234914785819
"F_891";108;115;103;107;5546,45973743582;0,741602227033719
"F_892";66;80;65;77;1794,88003838219;0,68315477547299
"F_893";111;110;105;106;5882,75280108547;0,756483877074527
"F_894";69;58;63;59;942,733889338251;0,673748103186653
"F_895";50;51;50;51;623,346946283294;0,603048443080636
"F_896";82;81;81;86;3018,1366766523;0,717801329261725
"F_897";82;80;82;77;2671,66271525071;0,720086496876506
"F_898";41;35;41;37;264,90016560096;0,582677165354329
"F_899";80;74;82;74;2132,43348033572;0,692787794729549
"F_900";97;90;101;91;2199,6848196423;0,686755270394138
"F_901";27;25;31;25;67,5984090449454;0,5459513616905
"F_902";40;41;40;41;316,816498064072;0,619823173569102
"F_903";77;84;79;86;1355,31248547793;0,664265528896771
"F_904";80;86;83;84;1910,60057650936;0,692787794729545
"F_905";52;56;49;55;1729,4257678816;0,664596961969183
"F_906";32;32;36;35;164,175595693312;0,561341075107697
"F_907";43;53;46;59;466,333493673915;0,604264327839103
"F_908";81;95;78;96;3270,57394076634;0,697341632249435
"F_909";103;106;100;104;3061,68064112374;0,701627063092592
"F_910";61;64;58;66;974,540466608082;0,645071028842017
"F_911";60;63;65;67;596,331390105611;0,619951388529761
"F_912";31;27;28;25;70,297202809903;0,547547273225541
"F_913";33;31;33;33;396,470016674533;0,628928177954991
"F_914";82;85;78;85;2531,37455586676;0,681020280633988
"F_915";88;79;92;78;1515,26968608808;0,673445312061124
"F_916";80;105;79;101;2851,08736059511;0,692947976878618
"F_917";74;57;74;58;1422,99390918662;0,666444296197467
"F_918";55;61;54;63;764,428123774293;0,646497330529042
"F_919";75;68;67;62;1580,97571956135;0,663787375415286
"F_920";32;34;32;35;198,139056778362;0,58423899800185
"F_921";95;103;92;105;4711,1339425175;0,748314606741575
"F_922";76;86;82;84;3005,82212879437;0,706173421300661
"F_923";48;52;49;56;477,430787382581;0,603139464681021
"F_924";53;69;51;65;1080,09620022124;0,66144338998014
"F_925";42;34;45;34;287,173781886842;0,624179943767575
"F_926";26;30;26;32;142,957434923632;0,560475010519425
"F_927";59;58;56;58;501,248872436559;0,623076923076922
"F_928";44;38;44;42;262,550138405091;0,583159021257964
"F_929";78;72;79;77;2687,01409385043;0,696976744186053
"F_930";63;58;61;55;1174,17232531523;0,648280337443221
"F_931";104;112;97;107;2945,76568559775;0,705591524426135
"F_932";38;41;39;40;275,900440769897;0,604416658263587
"F_933";71;66;76;68;972,114044245978;0,654688438643441
"F_934";106;98;100;97;3911,3194026143;0,737677681373458
"F_935";41;42;38;41;596,674102991176;0,645765998707179
"F_936";28;31;30;34;209,448775187661;0,584210526315787
"F_937";32;37;33;36;244,747671656681;0,612852103675681
"F_938";88;92;90;90;1693,26464165506;0,678668478260871
"F_939";38;39;38;41;438,254074665165;0,59984988741556
"F_940";33;35;33;39;316,445148064092;0,588454741802473
"F_941";37;46;39;46;678,928123807104;0,601867657395319
"F_942";32;27;35;28;70,9418248345594;0,557685150725716
"F_943";69;73;67;71;1973,55365993341;0,687582449096649
"F_944";62;64;61;66;935,12516804684;0,643927593060107
"F_945";65;75;68;81;1108,1028602954;0,62906018785748
"F_946";80;76;71;70;4377,57176097839;0,731020184157574
"F_947";84;76;85;82;1877,05898824784;0,696288552012548
"F_948";61;75;57;71;1787,78140982889;0,695521002552798
"F_949";31;36;32;37;145,345668858391;0,571619301926377
"F_950";29;36;27;36;76,193978195294;0,559559372666168
"F_951";77;83;76;85;3344,84901087617;0,703975571084624
"F_952";68;63;73;61;1378,88530599017;0,685420240137224
"F_953";80;74;77;65;1754,99108390056;0,679283771532187
"F_954";52;52;56;54;528,345948521522;0,621494115817304
"F_955";75;74;79;80;2046,26584940737;0,703562415634724
"F_956";34;42;37;41;304,818455362627;0,606373292867982
"F_957";42;47;45;48;347,88388535721;0,621687496758803
"F_958";64;60;61;64;871,07166501562;0,656157635467984
"F_959";70;60;72;61;1009,34533205524;0,634655090264175
"F_960";72;71;73;70;969,635568882517;0,683778234086245
"F_961";48;57;47;57;1004,79354986195;0,662686567164181
"F_962";85;69;79;64;1456,79288874585;0,672765026095742
"F_963";62;64;59;64;851,351640476853;0,639837745516654
"F_964";40;42;42;45;532,57918096252;0,623109309215657
"F_965";68;56;69;58;1286,29964341057;0,648350459707952
"F_966";45;46;43;47;637,073157398421;0,626561438352586
"F_967";62;53;62;53;1177,61453983122;0,658464242557401
"F_968";35;39;35;40;162,938717977586;0,563081258806951
"F_969";24;26;27;26;101,623305461757;0,57189199503864
"F_970";15;21;15;21;106,476819801;0,5460259621954
"F_971";35;37;38;39;332,864811989816;0,630416491375687
"F_972";76;69;79;72;1547,10755371551;0,67465811244302
"F_973";73;70;75;72;1010,09886337796;0,670582312468539
"F_974";46;45;45;46;615,1483109529;0,631845253781691
"F_975";67;59;72;57;1761,03549998187;0,677288135593224
"F_976";82;69;82;74;2204,66394085006;0,68738532110092
"F_977";68;77;65;78;3032,1022805675;0,705508474576273
"F_978";74;77;78;75;2443,53655264018;0,677977604343405
"F_979";45;42;44;41;399,456578579012;0,62692187009727
"F_980";40;33;40;32;226,220438653937;0,571673819742488
"F_981";67;64;75;66;1657,63341000157;0,677326402621619
"F_982";98;94;96;93;3424,9053245596;0,717371791035848
"F_983";28;29;31;29;142,523910982129;0,570802780687553
"F_984";57;63;63;64;750,322486496621;0,644065975393544
"F_985";37;29;38;30;156,515275950747;0,562790479320218
"F_986";40;35;41;35;172,042594842386;0,578348128135854
"F_987";76;82;74;79;2063,56157765871;0,686440677966106
"F_988";66;67;64;65;1367,95565571501;0,676829268292687
"F_989";40;34;44;37;304,790728095263;0,584068209500608
"F_990";56;65;55;61;945,840870099753;0,662613309750169
"F_991";69;69;71;71;1455,91084840392;0,681678607983626
"F_992";87;73;82;74;1474,10594431171;0,653581943081456
"F_993";49;63;51;69;743,810430367943;0,626921870097271
"F_994";59;63;63;66;632,555965748372;0,625580545843552
"F_995";84;96;83;95;2008,88462632647;0,691668589891532
"F_996";25;26;27;27;119,895101364845;0,559742260820843
"F_997";84;89;92;87;3472,8470433672;0,709223214813942
"F_998";64;71;60;71;875,456841609667;0,626397742710837
"F_999";80;84;80;84;2475,82678046424;0,705342433513773
"F_1000";66;78;68;77;1719,55342297735;0,670619825464312
