"Foraging";"In";"Out";"InLink";"OutLink";"Betweeness";"Closeness"
"F_1";90;94;95;101;3433,09088760905;0,708803878673215
"F_2";47;54;50;55;618,27808180828;0,636981934112651
"F_3";67;75;65;79;2628,2699832671;0,717414721723523
"F_4";35;33;33;31;110,587705960685;0,583726931879047
"F_5";66;61;71;68;1328,30418931231;0,659696235967425
"F_6";40;32;40;31;124,826293389343;0,596180624627012
"F_7";45;49;45;57;553,903190906681;0,614233744940307
"F_8";90;84;89;84;2012,27230031368;0,671220604703249
"F_9";51;52;51;56;581,319067155856;0,616793578925704
"F_10";70;75;73;72;1444,27050602898;0,674734057522379
"F_11";41;45;39;46;537,22128028281;0,628994175979853
"F_12";92;99;93;99;2235,31945045354;0,676561882724761
"F_13";88;90;85;92;3666,91083894659;0,705217953997295
"F_14";92;86;93;91;3115,03268249608;0,711454005934719
"F_15";37;43;41;47;243,236842027998;0,573204551974753
"F_16";77;74;79;78;1797,56267458499;0,67939926324738
"F_17";28;35;27;39;76,2415781178519;0,579102458818413
"F_18";24;20;25;22;70,4927972139659;0,542149059334299
"F_19";72;63;69;61;1038,35795121908;0,646497330529043
"F_20";42;43;45;46;386,850565940184;0,583840646763745
"F_21";51;53;51;54;594,149199570629;0,607725844063671
"F_22";65;70;61;69;1315,45762311158;0,640863893937775
"F_23";62;69;64;67;1245,20151697434;0,667855153203348
"F_24";73;69;76;64;1685,86793470812;0,693108233117486
"F_25";91;89;91;86;3084,77385028214;0,698967990204656
"F_26";65;66;67;61;1230,7636734204;0,651876019575858
"F_27";66;70;66;70;2505,78809394388;0,701175644849979
"F_28";92;94;92;91;3939,90145730458;0,700806734479134
"F_29";49;52;46;48;397,741690593135;0,621075536213864
"F_30";69;72;74;76;1182,61197688978;0,666481347639965
"F_31";74;64;78;67;825,086914828451;0,626561438352584
"F_32";102;95;104;95;4268,38847057887;0,713911386374466
"F_33";80;89;81;85;3322,08950527202;0,698642112011197
"F_34";109;105;105;99;4122,75589659096;0,715487914055507
"F_35";39;32;42;37;248,883491550185;0,579606440071555
"F_36";93;89;88;88;2524,68996199616;0,705840791333025
"F_37";65;60;65;61;1084,34386943157;0,652550215012795
"F_38";60;66;59;66;742,89417702051;0,633816220788833
"F_39";63;56;63;55;598,603994794178;0,623985009369143
"F_40";46;50;49;48;569,758965231638;0,633347421808963
"F_41";34;18;32;16;135,718674378976;0,596685082872927
"F_42";68;71;66;66;1460,51660760807;0,653225806451615
"F_43";110;112;102;106;7307,43886960578;0,767477592829706
"F_44";39;31;33;31;329,561040077072;0,622882676919881
"F_45";49;50;48;46;833,703130382214;0,638168751663563
"F_46";37;45;38;46;258,713446391379;0,606987341772151
"F_47";64;70;66;68;1281,52540302286;0,652976741652598
"F_48";47;45;44;49;819,272929292595;0,667520463277474
"F_49";35;25;36;30;206,726168365427;0,599040575654607
"F_50";60;68;63;67;827,042463271991;0,618097447795823
"F_51";61;72;62;69;2073,0152658084;0,698560689936489
"F_52";50;41;52;42;606,69629226238;0,626626940567665
"F_53";52;50;53;51;896,450887514086;0,64775490355001
"F_54";20;23;20;27;47,9037366316826;0,545206476259778
"F_55";57;67;58;68;831,080638703357;0,636609845467581
"F_56";77;82;75;81;3028,45301095557;0,717414721723524
"F_57";93;85;94;86;1985,27013931043;0,696328996282531
"F_58";42;38;40;38;334,124526112948;0,606219974715549
"F_59";60;79;58;78;988,930597675723;0,667074731511883
"F_60";58;56;59;57;452,226051902427;0,634823130692651
"F_61";39;28;39;27;280,924620382172;0,576845346934846
"F_62";45;54;48;56;1178,76371325435;0,662137531068772
"F_63";58;58;58;56;1286,20088834853;0,65770560158008
"F_64";67;67;61;65;1798,73327095432;0,680054458815527
"F_65";44;55;44;59;315,637285247571;0,58638231265897
"F_66";61;62;61;60;832,917572240718;0,635664669388621
"F_67";82;74;83;78;2517,24164205245;0,70117564484998
"F_68";21;17;21;17;57,0314120557074;0,526366630076839
"F_69";74;72;69;74;1858,56734761792;0,674696082845566
"F_70";35;36;36;38;266,536434097869;0,620111731843576
"F_71";88;66;87;66;3420,15249449165;0,723650851140894
"F_72";46;46;45;46;337,318486093227;0,622106901920084
"F_73";63;65;64;66;767,495220212632;0,631778656126482
"F_74";62;68;66;70;1575,02890162418;0,669159921853198
"F_75";80;80;80;83;2933,4659348769;0,721777349629722
"F_76";45;39;40;38;789,44712006692;0,645905172413797
"F_77";45;43;42;44;296,618324442197;0,625743814594427
"F_78";46;49;42;52;441,8979012733;0,62017589239524
"F_79";37;35;36;35;350,124588479714;0,588079470198674
"F_80";31;32;31;32;152,993338248832;0,575157127093027
"F_81";90;87;87;89;3877,20492283183;0,702490477585707
"F_82";41;42;43;44;422,022495591355;0,62392005829083
"F_83";107;102;105;108;5156,24080512554;0,746032733835339
"F_84";96;99;91;89;5211,54881285265;0,74431888737117
"F_85";78;70;75;69;1392,133184486;0,675304191077064
"F_86";58;52;56;54;856,140678479135;0,638882967384354
"F_87";53;54;53;55;435,139270159077;0,600601202404808
"F_88";77;76;82;79;1940,5736554121;0,670169946332738
"F_89";125;110;120;113;3585,39124951801;0,720086496876503
"F_90";100;98;103;98;3701,1659421209;0,714421930870086
"F_91";78;70;74;68;1336,72565985368;0,649932230956901
"F_92";48;43;47;46;335,632050943766;0,610946896340841
"F_93";63;63;59;60;2583,35495943294;0,703026038001413
"F_94";24;30;24;30;244,372904469028;0,583073929961088
"F_95";45;41;44;42;473,600605914413;0,629621848739497
"F_96";27;35;30;40;196,764471332284;0,580279781209157
"F_97";105;107;106;103;3221,72559181598;0,710357904716761
"F_98";99;96;96;87;4931,94923288587;0,740457072266836
"F_99";40;48;45;51;294,19511538091;0,588252612983953
"F_100";96;83;98;86;1465,30547619594;0,666518403202494
"F_101";85;78;85;83;2432,70839587723;0,697301070265245
"F_102";83;108;77;109;2773,33709223373;0,703232240276884
"F_103";54;38;56;39;298,171705358533;0,595203813117521
"F_104";95;94;99;94;2528,79724814487;0,684676452110349
"F_105";85;79;86;80;2153,22744947749;0,694674624789941
"F_106";29;28;29;28;147,189044578737;0,556158663883089
"F_107";55;56;57;56;358,98381025201;0,607202552803524
"F_108";25;18;27;18;108,450778029649;0,543550215370665
"F_109";37;52;43;52;381,296657028539;0,587100249767373
"F_110";60;53;62;53;1993,11404582196;0,686479986256661
"F_111";47;46;48;46;290,246323688323;0,600030031533108
"F_112";40;48;41;47;382,951308067467;0,621945525291828
"F_113";75;67;69;70;1917,68204336761;0,703273495248157
"F_114";62;71;60;75;1859,14515334159;0,686991404011464
"F_115";62;77;67;78;2218,60046052453;0,679052905857031
"F_116";66;81;71;76;1867,90425446967;0,680131623737662
"F_117";31;30;33;30;116,074432673355;0,555591602168976
"F_118";66;52;66;55;1256,19477457636;0,651982378854628
"F_119";77;71;82;79;2577,67447767722;0,705674593830945
"F_120";58;60;57;61;889,70799125659;0,648666197716575
"F_121";24;38;22;37;178,68827945803;0,580448361012926
"F_122";47;49;52;51;309,607495539599;0,588946204863669
"F_123";50;59;51;62;862,500702108564;0,627315541601255
"F_124";53;68;55;69;715,947671904456;0,595085629188383
"F_125";32;37;33;40;290,823817019084;0,589786480369969
"F_126";69;72;71;76;1468,02847483798;0,651876019575858
"F_127";72;62;68;60;1593,15784835433;0,681058970571527
"F_128";57;60;59;54;1825,08529659043;0,699171818499947
"F_129";47;53;47;54;1388,59941370515;0,655261000273302
"F_130";86;92;89;97;3605,60235547892;0,701709201592134
"F_131";66;65;66;66;987,969911367818;0,641172380595819
"F_132";93;83;97;86;2597,33197573581;0,684441906936917
"F_133";68;74;72;75;1291,55124802309;0,664155124653741
"F_134";75;67;77;65;1743,16674803541;0,654724194429276
"F_135";34;33;36;36;123,854601352506;0,577123050259964
"F_136";94;91;92;88;3342,16079018566;0,710147503110007
"F_137";108;106;106;104;4529,50416860553;0,728399562522789
"F_138";58;45;64;47;478,607882142421;0,60692588092345
"F_139";54;49;53;48;400,96275096579;0,607510261997668
"F_140";49;48;47;46;565,47214066465;0,615242494226327
"F_141";81;71;84;76;1497,86824327277;0,667892361691462
"F_142";46;50;48;47;620,576970874551;0,616539806624151
"F_143";41;58;41;57;333,365914875126;0,626365013846075
"F_144";70;57;70;58;1425,54625045005;0,67598962445021
"F_145";49;42;49;43;307,469718677547;0,608095769503905
"F_146";46;42;45;45;420,836074064803;0,636981934112648
"F_147";89;87;92;85;1578,68562846013;0,663713874432512
"F_148";46;50;45;52;407,665718665593;0,618799359933928
"F_149";82;89;82;88;2191,65714597321;0,686047842508871
"F_150";41;42;39;42;351,220269115225;0,601384569077956
"F_151";71;77;69;71;1956,08178341887;0,702655178477231
"F_152";97;90;93;95;3912,26935131976;0,721864274101285
"F_153";79;105;70;102;2903,19931021463;0,703521126760565
"F_154";83;64;80;63;1864,42858445839;0,683856246434686
"F_155";99;84;98;78;2127,42456933831;0,687306501547988
"F_156";103;88;101;91;2607,49398761201;0,697341632249435
"F_157";80;77;80;77;2135,11419959785;0,695359628770306
"F_158";89;83;87;85;3677,06792440535;0,719308772350898
"F_159";33;30;33;31;201,005928289375;0,561498829039812
"F_160";56;55;58;64;561,152323831845;0,627020241644438
"F_161";103;98;100;103;3291,99761891823;0,709559041136434
"F_162";39;53;38;54;385,275841548827;0,580560801975882
"F_163";41;46;39;45;266,151442800345;0,576373864128082
"F_164";41;41;44;41;357,52331584671;0,601928098011648
"F_165";35;42;37;39;237,825982489444;0,603291228423329
"F_166";59;76;66;74;1658,24099292998;0,660495867768599
"F_167";59;50;69;59;756,986454408682;0,629555718937087
"F_168";33;23;37;27;172,567949477611;0,578264434904248
"F_169";26;21;23;18;38,2722001710113;0,533368926855313
"F_170";42;41;45;43;414,035572672373;0,628796223446107
"F_171";101;105;102;105;4480,52089284727;0,736137549892541
"F_172";39;47;39;46;449,503610483935;0,620143810459882
"F_173";61;56;64;59;589,895640671612;0,628829206882082
"F_174";62;50;70;53;707,084165011934;0,633380884450785
"F_175";109;112;105;106;3674,43426336849;0,711961040503624
"F_176";47;37;45;37;200,074332466507;0,587848771637326
"F_177";92;91;91;87;2095,89255228588;0,688095511422342
"F_178";33;38;32;36;321,619491634784;0,600300450676013
"F_179";38;33;39;34;184,487667063533;0,574523147704398
"F_180";16;19;15;19;51,8197098011495;0,547297297297297
"F_181";67;55;72;61;478,36397520074;0,626005221932115
"F_182";74;64;72;65;938,246333009145;0,630449645017091
"F_183";43;34;44;33;278,177098241353;0,603899047906905
"F_184";79;79;80;83;2377,74747048269;0,696571760604302
"F_185";51;48;52;47;435,624909099759;0,61638130495141
"F_186";48;62;48;64;875,982995711867;0,642443729903539
"F_187";32;28;32;29;114,913470772452;0,548850837835363
"F_188";43;49;47;47;819,189139036971;0,652692328632877
"F_189";41;39;42;42;206,57385909872;0,570476824973826
"F_190";66;63;74;71;843,416385314141;0,632745698300432
"F_191";29;28;32;31;113,708840062303;0,558724832214764
"F_192";64;76;67;79;2776,46299005951;0,703975571084624
"F_193";28;26;30;27;97,4893807841981;0,555694618272841
"F_194";27;27;27;27;157,191885927396;0,559089637160712
"F_195";66;73;66;74;2469,99049785528;0,71608625530136
"F_196";113;103;110;108;4151,48894403835;0,716471431986616
"F_197";77;83;77;81;2731,0357945273;0,681988849698488
"F_198";38;31;40;30;243,103508440584;0,590280171352601
"F_199";110;97;117;102;4922,11156385549;0,72906403940887
"F_200";26;23;28;24;108,454880904842;0,569176716361218
"F_201";69;68;64;71;1070,45668262337;0,657633441220039
"F_202";48;50;46;52;771,514120406601;0,63254537779654
"F_203";100;91;100;101;2327,32993874385;0,699294172548564
"F_204";50;56;52;57;791,255419635476;0,647020725388603
"F_205";103;96;109;98;3675,61605695304;0,720389399675504
"F_206";71;71;68;71;2506,21841248679;0,690195175312345
"F_207";71;68;72;66;1584,7264876503;0,668264674731038
"F_208";93;102;101;97;3012,45136688773;0,713613905589622
"F_209";88;80;87;78;1814,4278660057;0,681020280633986
"F_210";33;32;33;32;118,078111296009;0,593377221204771
"F_211";29;28;30;28;154,194178468195;0,59487892020643
"F_212";51;56;55;55;523,193148598417;0,614958448753462
"F_213";34;33;35;36;175,675939686719;0,588050622976551
"F_214";35;33;38;34;156,370204713198;0,589004078022894
"F_215";30;24;29;23;93,1055319026262;0,569717707442257
"F_216";28;28;27;28;169,283074803042;0,580223609699433
"F_217";84;95;83;97;2541,66737371334;0,705674593830942
"F_218";39;38;41;42;236,444371413779;0,564885496183205
"F_219";34;21;38;24;154,731637186026;0,55992526856609
"F_220";57;59;55;59;905,712938569304;0,65666082383874
"F_221";89;96;83;92;2861,00719542523;0,689639302767073
"F_222";57;61;59;61;706,938663814125;0,649157957437593
"F_223";58;50;58;51;659,922420437145;0,62646321070234
"F_224";42;36;43;35;381,831769718278;0,629555718937087
"F_225";36;25;37;24;227,163132260856;0,577428832907855
"F_226";97;87;88;84;4244,11882513221;0,718489661372494
"F_227";62;58;66;59;1637,39222259338;0,663236514522828
"F_228";102;114;99;111;3987,46742672684;0,713231794383628
"F_229";75;92;75;87;2557,44352305287;0,696895709801189
"F_230";60;57;57;56;860,680330401;0,639428205675274
"F_231";88;100;94;94;2974,80369047924;0,711961040503625
"F_232";66;66;64;66;1204,99346958528;0,665445462114906
"F_233";67;66;72;68;1944,50233184942;0,651663405088064
"F_234";55;51;59;53;599,87109987159;0,612351228482402
"F_235";94;77;91;82;2353,17561969879;0,703727619606698
"F_236";53;62;48;61;1037,96523825113;0,659623638164414
"F_237";61;58;61;59;1477,63974145626;0,670132483649177
"F_238";51;51;54;53;672,410392128625;0,637049633329792
"F_239";33;27;33;29;107,446800859573;0,568717681104416
"F_240";41;51;45;50;241,313126845628;0,595469898668784
"F_241";30;23;29;24;192,674040654587;0,543846118949327
"F_242";41;42;44;43;208,751148999372;0,589960629921258
"F_243";49;52;46;52;600,595696542155;0,606465320989527
"F_244";68;66;68;65;2975,63188416397;0,703934233705231
"F_245";45;46;41;45;631,866087460475;0,626266847769305
"F_246";69;68;71;73;1004,1397602354;0,652479181407503
"F_247";49;45;47;38;439,115119230601;0,630416491375685
"F_248";66;81;67;78;1428,48886412897;0,659152141639635
"F_249";86;83;85;86;2098,8830177324;0,694312521718988
"F_250";60;52;62;53;520,124292995082;0,627742577368173
"F_251";50;40;46;36;467,647293263173;0,613259668508286
"F_252";33;23;32;23;86,9872315113971;0,548348732961303
"F_253";75;63;73;68;1370,61978044774;0,662979758876236
"F_254";54;54;55;57;618,541439442945;0,634923997669616
"F_255";64;68;63;66;760,107943815543;0,654081187254476
"F_256";44;52;49;54;227,426403003346;0,595056090539063
"F_257";61;65;53;65;961,932678865625;0,663420033204211
"F_258";81;76;78;74;1702,41500159171;0,679052905857032
"F_259";83;83;85;83;2374,19568404725;0,685655456417298
"F_260";28;28;28;29;113,608838113087;0,554127761856337
"F_261";78;81;73;78;2224,19476897247;0,694916236739904
"F_262";43;51;45;53;465,685952368053;0,608898821617227
"F_263";69;85;65;81;1462,48109706782;0,658211167847144
"F_264";42;39;44;40;299,123517953637;0,611726284635403
"F_265";33;29;34;29;150,653402352266;0,568232450111389
"F_266";90;93;88;98;3464,39364186158;0,709559041136436
"F_267";42;41;39;39;327,146218430685;0,604843592330978
"F_268";30;29;31;29;176,532625731414;0,591415885545139
"F_269";88;97;88;92;2105,80098337873;0,692947976878614
"F_270";93;93;91;98;3236,05391824347;0,703686311340691
"F_271";72;79;72;76;942,531614200965;0,631911865478888
"F_272";63;70;70;69;1570,92750384062;0,677632694590473
"F_273";103;96;100;91;3156,91341143114;0,710694806734649
"F_274";50;48;49;53;875,736595111324;0,623887587822014
"F_275";112;109;106;108;3993,89080506457;0,72295259920396
"F_276";48;49;49;53;579,102571234963;0,612820774971883
"F_277";88;98;87;96;4477,20697339608;0,722038185870028
"F_278";80;88;82;88;1739,9029012412;0,687070151306743
"F_279";81;86;86;93;2587,89883313513;0,708468766621362
"F_280";34;33;35;33;317,659988272703;0,599789863411216
"F_281";70;73;71;76;1739,04323650425;0,659732540861814
"F_282";40;43;43;44;325,465667972087;0,599939945951355
"F_283";25;25;26;24;121,529409046654;0,574936453887102
"F_284";95;86;91;87;2849,82906215944;0,700888681010292
"F_285";70;68;69;68;976,998658917078;0,639462313970236
"F_286";27;31;29;34;125,894149823921;0,573314203730271
"F_287";85;69;81;67;2095,01206468818;0,667780748663103
"F_288";78;76;72;73;1671,97067369939;0,656229472301294
"F_289";76;82;75;79;1322,42039119695;0,659043430456297
"F_290";57;59;60;62;635,406513729822;0,654652686762781
"F_291";82;102;82;111;3620,22509474522;0,71788729864064
"F_292";75;76;71;77;1729,13279068258;0,68237704918033
"F_293";19;22;20;26;87,2963807235327;0,537795522856759
"F_294";33;34;29;29;107,26585744544;0,569582363282177
"F_295";67;68;66;65;1387,79611023408;0,683076923076925
"F_296";77;86;77;87;2311,83126861525;0,702079062957542
"F_297";41;38;37;35;380,77746992968;0,597935059105191
"F_298";68;63;70;62;778,566638036992;0,647405087217154
"F_299";86;82;86;83;1267,27036742204;0,640145244833663
"F_300";21;19;21;19;82,8218436910444;0,558074577533633
"F_301";53;45;53;43;556,374449762406;0,627151451739476
"F_302";70;69;70;73;1500,31793565773;0,668413716197383
"F_303";84;83;81;80;1907,65256194531;0,688174512055111
"F_304";63;62;62;62;673,101721595254;0,623303696771174
"F_305";74;66;78;67;1840,68188089912;0,693910627460064
"F_306";24;29;25;29;82,0823349041718;0,54222262427066
"F_307";112;111;109;105;3224,68922929552;0,726853816770756
"F_308";37;42;39;41;554,988433173778;0,636069400965674
"F_309";64;67;66;71;1690,33919022466;0,677556095631045
"F_310";39;40;40;42;690,971953777835;0,604355716878402
"F_311";39;40;38;42;365,139488197013;0,608775137111516
"F_312";78;79;80;82;2003,36165185701;0,680981595092026
"F_313";29;26;29;27;140,772813047048;0,567022987418408
"F_314";41;50;39;52;449,12612635613;0,621268656716417
"F_315";74;86;72;85;2533,79705336367;0,671145448438026
"F_316";87;101;90;103;3116,84500436658;0,703026038001409
"F_317";58;56;57;52;711,290841484467;0,628697293895532
"F_318";72;72;72;71;1231,03273931315;0,661772012144633
"F_319";31;32;30;32;117,658552381298;0,552875524604529
"F_320";100;93;100;95;2266,49493319858;0,692988033990407
"F_321";41;38;40;38;592,77412388998;0,607171799027551
"F_322";62;73;60;75;1312,69186068327;0,675608656447254
"F_323";38;35;40;36;388,80304595423;0,598173743825157
"F_324";29;35;29;36;204,937643206387;0,567345007098911
"F_325";30;30;31;32;93,3965017580634;0,55213706705969
"F_326";41;40;42;42;278,331049409293;0,60992113965912
"F_327";26;22;26;23;124,422797583676;0,537072711796067
"F_328";45;42;43;42;289,800475422556;0,611632653061225
"F_329";54;71;54;71;722,443648352905;0,61720640477784
"F_330";37;25;37;27;175,568098751701;0,584096667316311
"F_331";24;35;23;37;130,030655577329;0,57112910909957
"F_332";101;102;99;100;3386,47095685125;0,714038954077076
"F_333";84;93;87;90;2964,08353928107;0,689877424181392
"F_334";27;20;29;20;118,150775936542;0,577373211963588
"F_335";77;88;82;85;3011,20635014996;0,704182330827072
"F_336";23;29;24;29;87,1450251855134;0,564247387743574
"F_337";82;89;86;94;1650,06624485771;0,668600111544899
"F_338";82;70;88;78;2129,75965124979;0,707674144037783
"F_339";97;109;92;105;3943,23560145756;0,725973475443594
"F_340";74;70;71;70;1026,19826068334;0,660386712940012
"F_341";27;28;27;31;172,896773613613;0,553105102888253
"F_342";115;101;111;104;3998,44648454743;0,712722948870394
"F_343";81;70;84;73;2144,66741984128;0,678361249434135
"F_344";35;36;37;37;274,602565779418;0,551197756218677
"F_345";98;87;103;91;2461,10356640673;0,69515801681647
"F_346";38;38;37;40;279,604783434849;0,562447217791123
"F_347";69;64;66;62;989,552502543471;0,65777777777778
"F_348";78;78;79;78;2890,21627077336;0,718963655991368
"F_349";36;38;36;39;897,142212712262;0,641549823397202
"F_350";41;39;42;41;239,375488461963;0,579914860681113
"F_351";83;84;82;80;1900,28859932818;0,688807170765346
"F_352";44;47;45;50;814,392142748696;0,612288676643341
"F_353";47;57;44;54;769,391056146851;0,630748184783754
"F_354";80;74;82;79;1815,34106390475;0,688648897058825
"F_355";19;18;18;19;72,3204756428592;0,554384017758046
"F_356";63;58;66;57;712,660340926973;0,636103151862465
"F_357";35;45;35;42;363,54601360528;0,595056090539064
"F_358";52;61;50;61;1209,28692269743;0,688530239503767
"F_359";41;34;47;37;257,270557669789;0,584809015073905
"F_360";106;99;108;105;3504,16415268654;0,723388848660393
"F_361";32;34;32;34;435,865177229275;0,6020792526744
"F_362";46;40;43;40;434,877983518782;0,587762306334574
"F_363";27;29;26;32;103,584992538547;0,550817864363169
"F_364";29;30;28;31;78,1737308647831;0,584894613583136
"F_365";72;74;70;76;1244,58617182257;0,677632694590472
"F_366";44;41;45;40;469,536365686787;0,619791128114985
"F_367";87;78;91;85;1441,68165091468;0,671747170234228
"F_368";29;34;29;32;128,511928202007;0,566353285775026
"F_369";47;51;52;52;414,055294026481;0,592702462177394
"F_370";70;61;69;63;757,828853012499;0,619662979427271
"F_371";65;56;67;58;639,38182697368;0,639462313970236
"F_372";64;64;64;65;1518,26190854067;0,672916081953412
"F_373";42;52;43;52;350,479436517647;0,59922023392982
"F_374";75;80;76;82;2102,41328236162;0,691229891022316
"F_375";59;57;55;57;611,010017552194;0,633280507131537
"F_376";103;112;99;102;2354,06538749271;0,700438212094655
"F_377";45;53;41;54;708,77279383994;0,638406646075196
"F_378";55;55;55;55;723,640874000823;0,643685567010312
"F_379";97;93;103;94;2902,04388635168;0,703810250689839
"F_380";78;79;75;76;2766,17154373473;0,700847705349315
"F_381";102;107;98;107;2469,94742806613;0,690155440414511
"F_382";75;77;77;75;1854,86377727625;0,666518403202492
"F_383";78;80;82;79;2214,85909488081;0,685224349814234
"F_384";51;49;51;50;928,952766353628;0,63254537779654
"F_385";80;74;80;72;1815,8423943779;0,684090390321846
"F_386";83;79;83;80;2530,86625465412;0,688807170765343
"F_387";49;56;44;58;407,581351762031;0,608466145568977
"F_388";41;39;42;39;296,422053824666;0,590076786769048
"F_389";62;60;62;59;751,141542240647;0,630217642729471
"F_390";33;36;35;37;191,266927788984;0,611726284635403
"F_391";76;80;72;75;2273,58604445608;0,686479986256662
"F_392";32;40;36;43;181,736759733674;0,561761949390815
"F_393";39;40;39;42;325,502073364423;0,586095629216778
"F_394";99;96;96;88;3477,10236353212;0,708008504606665
"F_395";54;48;54;50;703,212519834195;0,648666197716577
"F_396";51;54;52;53;612,13486850177;0,630383341221014
"F_397";108;100;115;105;2437,25995508044;0,708175803402649
"F_398";70;69;68;74;1706,67561093939;0,667408974501728
"F_399";74;73;75;76;1858,41929185812;0,668339187155045
"F_400";50;44;51;41;380,313560326729;0,600090103619161
"F_401";91;87;95;90;1943,97046375428;0,676180269614758
"F_402";92;81;89;80;1827,92748985696;0,665039387551316
"F_403";29;22;31;22;116,396548620867;0,566567418119948
"F_404";57;55;53;53;690,062586577335;0,628598395469561
"F_405";37;48;33;49;355,670203408277;0,618065580532069
"F_406";64;63;65;62;690,824665060501;0,631911865478889
"F_407";54;53;55;62;695,225405959753;0,624537640010419
"F_408";33;24;32;24;170,751554581339;0,587733490219148
"F_409";72;61;75;63;1603,2639721132;0,673975375274078
"F_410";12;18;13;19;32,6366516690352;0,526389742689032
"F_411";19;18;20;19;58,1417474861622;0,532161406312426
"F_412";69;67;74;68;944,304514418644;0,634688691232529
"F_413";25;27;26;27;192,445804347507;0,578124999999999
"F_414";43;37;44;37;332,515771523857;0,591853863243643
"F_415";32;28;31;29;134,396052379268;0,568528881722469
"F_416";61;67;62;71;1497,91352876214;0,677671000565294
"F_417";67;64;61;61;1378,26585144016;0,658862324814512
"F_418";88;82;87;81;2189,03415884076;0,674734057522375
"F_419";44;43;43;39;226,008630710635;0,600420715215865
"F_420";24;25;26;23;110,149086928365;0,597428485996211
"F_421";86;84;90;87;3004,9956051256;0,702202436738521
"F_422";60;43;57;42;1143,22570156772;0,671483784237951
"F_423";81;71;82;78;2643,32488979254;0,704761904761908
"F_424";95;87;94;90;3628,69646346895;0,715317143027628
"F_425";43;48;43;50;438,021822091484;0,58848362868784
"F_426";54;58;53;58;579,717921896006;0,627545411715437
"F_427";60;69;60;70;993,079521411702;0,653439441840185
"F_428";43;47;47;47;484,685271178958;0,624244948968966
"F_429";28;19;28;20;82,0636235791044;0,559794536539808
"F_430";47;47;48;50;497,411104303232;0,595647421246147
"F_431";34;34;33;36;185,624564517557;0,573643410852712
"F_432";40;42;40;42;348,300507620795;0,58575197889182
"F_433";96;97;93;89;2625,98954446058;0,698194525334888
"F_434";78;79;79;75;2176,33895474424;0,665076282940363
"F_435";83;76;79;77;4104,04642591852;0,713741366992146
"F_436";16;10;16;12;76,8274040342173;0,544364726182908
"F_437";45;47;44;47;387,755635493141;0,611976109040787
"F_438";60;65;65;67;838,826035638882;0,628236033958704
"F_439";65;59;68;65;907,769226643872;0,648420597144096
"F_440";25;21;26;21;175,869359399646;0,554409656384405
"F_441";72;70;71;68;1818,58218909884;0,667892361691461
"F_442";69;77;66;79;929,3883935706;0,668339187155046
"F_443";65;59;63;62;2209,86753546892;0,701627063092597
"F_444";67;63;64;62;1005,88763244211;0,67321839725951
"F_445";27;27;28;27;86,569093287156;0,577790630422209
"F_446";53;65;57;63;672,435855841867;0,658102766798421
"F_447";50;55;53;56;764,272050206136;0,628203112718125
"F_448";35;33;33;31;162,639070441074;0,59739871430707
"F_449";84;89;82;88;1524,8859039952;0,66360365347357
"F_450";62;54;63;56;717,618191537468;0,643547348078164
"F_451";46;54;47;57;386,94324844039;0,627249895353705
"F_452";56;64;57;59;650,574790794768;0,63078137332281
"F_453";57;56;61;61;563,215532526938;0,627874089980621
"F_454";53;62;54;63;770,559421678698;0,638610696782443
"F_455";68;57;67;59;1179,03814884539;0,656409133220173
"F_456";92;84;86;81;2697,66714087379;0,687345909064848
"F_457";88;82;90;88;2815,91168136393;0,704182330827072
"F_458";60;53;56;51;916,219169858885;0,638917017534512
"F_459";64;72;71;77;970,067103844026;0,627841206661777
"F_460";109;101;110;101;5892,45142984229;0,747288368033914
"F_461";59;46;62;54;530,898963415509;0,617238183503243
"F_462";46;42;44;45;357,04791333394;0,609146341463414
"F_463";71;80;73;81;2588,57255307169;0,69819452533489
"F_464";69;77;71;82;1436,02265782701;0,661589403973512
"F_465";97;108;95;108;3290,48344989853;0,706048648330293
"F_466";38;39;38;44;235,606314184975;0,58112366086577
"F_467";37;36;39;38;156,318724729376;0,585637518319491
"F_468";51;56;51;58;577,335141277125;0,621880998080614
"F_469";69;83;74;87;2614,68607736504;0,690314407462861
"F_470";98;104;96;107;4337,50771854513;0,741006304858453
"F_471";67;82;66;75;1488,97053762539;0,654903031958484
"F_472";34;36;29;32;91,8559393111298;0,588714825909737
"F_473";37;49;38;51;616,237676645848;0,639462313970237
"F_474";37;37;41;40;286,392078222877;0,59106596982546
"F_475";63;71;70;75;943,433807295171;0,646915978630405
"F_476";65;60;65;64;1105,64787659224;0,662979758876233
"F_477";44;58;45;56;448,932290038757;0,604477611940298
"F_478";43;37;47;39;335,571578073428;0,596299243931554
"F_479";70;70;72;66;1820,60527116731;0,672614038040738
"F_480";44;59;54;64;500,898301122982;0,618639694498915
"F_481";40;42;43;44;220,877441724644;0,593024981449417
"F_482";74;62;79;63;874,818202424477;0,659007201363313
"F_483";50;43;51;42;513,175431267384;0,63813478122006
"F_484";48;49;52;52;547,606163387366;0,615716486902927
"F_485";55;46;56;49;418,525998832247;0,615463599958927
"F_486";69;72;70;70;1831,00558759711;0,682338209346008
"F_487";82;87;83;88;2443,28816377215;0,702284710017578
"F_488";31;27;32;30;116,406520278798;0,553488157347984
"F_489";26;18;28;18;104,581902366337;0,564779044567981
"F_490";69;79;69;78;1360,30244177155;0,675875288944017
"F_491";43;44;43;43;445,656182663813;0,58833922261484
"F_492";36;42;36;42;655,405419489973;0,607171799027551
"F_493";79;84;85;87;1251,63427637511;0,658391915641478
"F_494";73;63;77;66;1277,83502616892;0,683973298339708
"F_495";64;50;67;52;850,888275620726;0,653902798232699
"F_496";84;82;89;83;1210,81844666783;0,663016426082631
"F_497";71;78;74;82;1669,74115159257;0,666666666666668
"F_498";42;39;42;42;419,378008500976;0,577428832907855
"F_499";56;58;60;58;547,169244063074;0,630184513483677
"F_500";47;43;46;44;937,365428368649;0,637218944346998
"F_501";83;76;82;74;3599,21309650551;0,71259585091839
"F_502";39;34;44;34;863,528928259467;0,627775450356097
"F_503";67;65;64;63;1264,19489815517;0,663383321343591
"F_504";81;73;82;74;1472,72997472397;0,676752850852435
"F_505";97;102;95;102;3343,15576297539;0,704637630047614
"F_506";59;51;59;54;794,538464789047;0,655081967213116
"F_507";82;71;87;73;1949,32389434052;0,702490477585706
"F_508";47;50;47;52;422,220036766595;0,596536624203821
"F_509";60;65;61;64;895,000016467089;0,652941176470592
"F_510";53;67;49;67;1291,83169169942;0,663897657418179
"F_511";42;40;42;38;281,428042389016;0,590105833128229
"F_512";70;71;70;70;1442,52672603866;0,665297741273102
"F_513";68;54;71;52;720,335060935483;0,629555718937087
"F_514";56;49;59;50;412,767400165587;0,598054377650286
"F_515";34;37;35;37;337,946016546538;0,60368617181992
"F_516";51;54;52;54;762,765021867623;0,636170664402466
"F_517";61;65;60;65;874,745508697489;0,651309355644901
"F_518";85;95;82;92;3394,60706678793;0,728798103228165
"F_519";47;46;47;47;530,744936796044;0,632712302739223
"F_520";87;99;90;100;2730,42372335925;0,706381474279656
"F_521";47;46;46;46;429,325768509787;0,607110300820418
"F_522";38;32;41;31;246,472251901317;0,585008783915673
"F_523";68;68;68;68;1924,67204957839;0,722603978300183
"F_524";65;60;66;61;547,382423884595;0,618161192182745
"F_525";50;47;48;47;551,347022341775;0,636305732484078
"F_526";40;43;45;46;441,582238429861;0,578292329956584
"F_527";42;47;46;52;281,302757339794;0,586296278182617
"F_528";21;19;22;19;41,6474997350288;0,539028776978418
"F_529";32;31;33;34;135,210986916796;0,595469898668784
"F_530";35;37;37;39;153,289310282972;0,571237968169255
"F_531";106;96;105;101;3232,11009482795;0,7129772808374
"F_532";101;95;102;92;2247,58556614471;0,688174512055111
"F_533";39;34;37;35;528,850925564623;0,60514891468955
"F_534";66;71;66;72;841,324978474703;0,637964983236656
"F_535";74;89;74;88;2083,63469468935;0,696248112440472
"F_536";96;102;95;99;2941,13892586376;0,721516701775507
"F_537";53;55;53;57;906,450044613127;0,630184513483678
"F_538";91;83;96;80;3816,63027847078;0,723650851140895
"F_539";97;103;90;95;2499,87190258436;0,70846876662136
"F_540";52;55;52;59;586,321578575901;0,623012160898035
"F_541";100;97;106;99;2755,15611375281;0,701996837852083
"F_542";61;56;59;50;623,593720800976;0,632712302739221
"F_543";73;79;70;81;2297,85899382029;0,68401232454639
"F_544";30;41;33;46;282,918394107989;0,579158413449924
"F_545";46;44;43;41;326,589195827158;0,632311830792766
"F_546";73;78;78;78;3209,37001228352;0,695117708454136
"F_547";34;35;36;32;259,105772260788;0,620111731843576
"F_548";58;51;58;55;499,870403736327;0,634151502327551
"F_549";73;78;76;75;1545,8246129364;0,689639302767076
"F_550";43;47;38;43;1346,23480348188;0,689401345678306
"F_551";30;36;29;37;248,473524082227;0,579999032367312
"F_552";31;28;29;32;258,770275810363;0,61562162994916
"F_553";73;88;77;84;1861,87982166197;0,703356019713685
"F_554";50;46;53;51;254,887747076397;0,588396976538725
"F_555";26;25;26;24;174,222837310264;0,569934391936863
"F_556";94;116;93;110;3895,58274270438;0,726105390672321
"F_557";98;96;95;98;1898,50202464995;0,680363223609537
"F_558";84;83;82;81;2700,23543104564;0,703149744853073
"F_559";30;28;29;28;237,833820220768;0,586841589974543
"F_560";31;33;34;35;111,35436638251;0,564699232182391
"F_561";115;102;117;100;4101,86431436021;0,724175425878944
"F_562";62;62;63;58;602,868931778163;0,642478160673136
"F_563";63;67;63;64;1193,6427721149;0,673520984324964
"F_564";49;47;48;48;333,733161073584;0,58067328651005
"F_565";29;39;28;42;251,736815240133;0,596714783474364
"F_566";36;46;39;48;348,34795014638;0,624635264693623
"F_567";37;36;36;37;625,126666426757;0,613887750921752
"F_568";67;66;70;64;1982,45644214636;0,670469798657722
"F_569";44;41;47;44;293,921224870399;0,572192258126103
"F_570";42;44;44;44;333,869909775252;0,607171799027551
"F_571";82;83;83;83;2617,73614178721;0,70451339915374
"F_572";84;94;88;92;2057,72615793551;0,701955732521377
"F_573";63;50;61;55;750,296140419568;0,649263431542462
"F_574";61;76;63;77;1431,43881806671;0,678207739307541
"F_575";23;24;23;25;236,996409422836;0,598323018566579
"F_576";50;57;51;58;479,335599702187;0,632245134750278
"F_577";68;59;71;58;621,990563740079;0,624472573839661
"F_578";73;61;74;66;1345,08747074415;0,660423093873955
"F_579";29;32;29;35;100,035670307041;0,574771060075753
"F_580";55;43;53;46;308,960545272031;0,590425531914893
"F_581";34;39;35;39;232,471791430137;0,58403975445776
"F_582";22;23;21;22;115,351855234458;0,579102458818414
"F_583";102;109;104;116;4516,73325146398;0,729463307776562
"F_584";74;65;74;66;1010,34092292977;0,660277594183743
"F_585";115;104;118;106;4085,35127601931;0,71506113927826
"F_586";75;77;74;78;1510,38318135792;0,673937485945586
"F_587";62;58;65;63;934,753302441057;0,648420597144095
"F_588";79;80;82;85;2223,09584602568;0,686204922724673
"F_589";42;47;40;42;311,165903657061;0,590367379099772
"F_590";59;55;66;55;635,110784724992;0,617397126229592
"F_591";42;47;43;45;501,253221794891;0,642512595133458
"F_592";78;66;76;66;1672,13248651868;0,676256557793199
"F_593";31;29;30;31;108,348517085106;0,574110435323978
"F_594";52;56;52;58;844,468602175158;0,646253369272238
"F_595";43;50;46;52;400,553594593694;0,597458260652877
"F_596";75;77;78;77;1986,01000148689;0,693188389036665
"F_597";52;44;52;43;469,87101844017;0,633883248730966
"F_598";39;39;37;41;232,570316940296;0,595115170770452
"F_599";92;93;87;95;2523,50161782479;0,707674144037784
"F_600";93;81;91;79;1098,77152222963;0,663603653473571
"F_601";62;52;64;52;836,50165310938;0,646811265781809
"F_602";24;28;25;30;114,823200537106;0,571537544696066
"F_603";90;84;88;89;2810,99630236596;0,70290237467019
"F_604";49;51;49;51;556,025504373146;0,645105741807031
"F_605";60;51;61;53;742,445196757104;0,642995065436603
"F_606";46;42;46;44;393,122704141288;0,613887750921752
"F_607";89;88;87;91;2339,03097972358;0,697625698324024
"F_608";42;44;43;50;788,394276374725;0,635833244934764
"F_609";27;30;28;30;133,755121207729;0,572274202787854
"F_610";85;77;87;78;1950,47423731562;0,689798032107723
"F_611";79;79;77;80;2273,19432965419;0,695198329853867
"F_612";49;50;50;48;510,770889232129;0,651840574193902
"F_613";86;68;88;71;1314,46776564833;0,648876860622464
"F_614";43;45;41;45;367,095841573649;0,592146208940478
"F_615";33;30;33;28;280,033647505156;0,599010643081996
"F_616";71;62;74;74;1363,02516977477;0,663860892679151
"F_617";76;82;70;78;1779,62974161551;0,679823069071114
"F_618";47;49;44;50;694,377184365458;0,638678742674484
"F_619";47;37;46;37;258,532670094483;0,613291042103647
"F_620";67;70;65;68;2194,51827422936;0,710400000000004
"F_621";37;44;34;42;308,832649094011;0,613040143185886
"F_622";45;40;42;39;448,202910226704;0,618129318345881
"F_623";35;51;42;52;445,628956369434;0,611695070925604
"F_624";39;35;43;37;419,096456564494;0,613887750921754
"F_625";64;68;60;68;1833,00280456588;0,690513219284608
"F_626";37;34;34;38;416,189522137545;0,617906293490027
"F_627";76;75;76;78;3642,36790375796;0,715658766640803
"F_628";30;31;30;33;204,079015645561;0,594289113622842
"F_629";91;88;93;87;2841,26650178778;0,715274463007164
"F_630";72;71;70;65;1278,81421567115;0,682260542940076
"F_631";44;43;47;44;284,250492275263;0,614296694850114
"F_632";109;113;110;114;4016,98719824063;0,720259552992071
"F_633";35;33;35;31;507,09528439606;0,617906293490026
"F_634";50;42;52;42;244,091301385548;0,573945516349882
"F_635";50;53;51;55;577,799175544318;0,636609845467581
"F_636";49;51;46;54;409,533519304727;0,593494727461755
"F_637";20;28;20;29;117,203967260461;0,556520124413908
"F_638";41;36;46;37;509,27151053849;0,612758127172357
"F_639";52;47;50;45;525,616667400497;0,595588235294117
"F_640";89;94;88;95;2779,90157330085;0,704886223319811
"F_641";56;54;55;55;1134,31311253986;0,659986787051311
"F_642";94;95;98;102;2530,67709658493;0,698479286837967
"F_643";49;47;51;50;278,217175600616;0,604599556183174
"F_644";76;82;77;80;1250,38486956738;0,673710239406543
"F_645";55;62;54;59;934,178067119909;0,644100580270795
"F_646";53;49;59;54;855,291286854771;0,621526337619244
"F_647";66;74;66;75;1376,27799405999;0,661188020517349
"F_648";26;19;25;19;95,7417935573768;0,549555331438526
"F_649";76;77;77;76;1562,17066397387;0,684090390321846
"F_650";30;41;31;40;134,175124067634;0,559846822024003
"F_651";74;73;74;78;1633,11146692231;0,679514794241018
"F_652";57;61;57;59;564,356782669853;0,628697293895531
"F_653";81;77;79;72;2757,52368064183;0,70717319490326
"F_654";46;40;43;36;1143,58139463353;0,655404297195349
"F_655";84;88;88;91;4333,95814602871;0,712087912087915
"F_656";74;73;77;71;1691,70125185938;0,664155124653741
"F_657";43;46;42;48;550,18219029223;0,62091469415238
"F_658";98;98;101;96;3467,56557823832;0,712807706029258
"F_659";25;26;22;25;141,742934711948;0,555900765128679
"F_660";50;59;50;60;1330,95457936272;0,66107863681483
"F_661";73;65;78;68;1061,10141542922;0,630317051369682
"F_662";57;48;54;47;751,012347996448;0,656121722948939
"F_663";58;64;56;67;1173,74022462914;0,657344958052317
"F_664";63;60;67;62;1297,39455961089;0,663897657418179
"F_665";111;106;105;103;5294,28900831982;0,745105351482382
"F_666";72;77;75;79;1552,46797123231;0,673067205659427
"F_667";65;79;67;80;1528,05724716358;0,66540852575489
"F_668";75;68;78;65;1542,50778183785;0,673294018534121
"F_669";36;29;37;27;162,491422496219;0,588628105666305
"F_670";85;84;79;77;3244,60993054546;0,725797663013869
"F_671";31;30;31;30;361,012679638282;0,582422387407082
"F_672";38;40;41;44;298,740346231686;0,566567418119948
"F_673";24;19;25;19;55,0713681789954;0,5404869251578
"F_674";65;58;65;58;1092,49002829325;0,652727866710227
"F_675";56;46;55;54;650,312499829643;0,636981934112648
"F_676";71;61;72;61;754,469823184731;0,633313962702731
"F_677";36;45;37;45;212,003050589554;0,600902255639097
"F_678";90;91;91;90;2467,46624272134;0,70859439650077
"F_679";99;104;98;108;3883,96576571482;0,717157214644656
"F_680";49;44;48;45;598,927737240392;0,634621492853364
"F_681";39;41;43;41;422,932194677606;0,608034083992696
"F_682";33;30;35;31;120,622208439094;0,556959672923248
"F_683";49;52;51;51;387,319430443435;0,628334818386709
"F_684";73;71;73;66;2360,33384762028;0,682687927107065
"F_685";107;118;105;119;5841,54728400269;0,736001964636546
"F_686";69;78;68;77;1507,04511323118;0,690871369294608
"F_687";81;68;80;69;1366,72411909592;0,651203215818351
"F_688";55;49;52;43;883,338457953025;0,664339152119702
"F_689";63;59;67;62;799,311887730069;0,619630950534965
"F_690";47;43;49;45;292,733197518297;0,581574734390917
"F_691";117;117;117;113;6037,86224750843;0,73854115327748
"F_692";57;53;60;55;404,586475422412;0,614013521819298
"F_693";44;40;43;42;362,041090370973;0,599999999999998
"F_694";105;100;99;99;4029,34120989371;0,726149373069238
"F_695";70;75;67;77;1782,68526871839;0,68401232454639
"F_696";39;45;40;45;457,047960235303;0,578822847762058
"F_697";99;89;106;89;2365,33921303764;0,678361249434135
"F_698";79;99;86;99;2647,95604076824;0,705466956982294
"F_699";35;29;37;29;151,250191753048;0,555797672585655
"F_700";66;62;70;64;1792,82333105792;0,656229472301293
"F_701";49;56;50;56;497,62064542666;0,644204417217479
"F_702";31;29;33;27;181,133600247764;0,551273797479996
"F_703";47;55;47;51;456,899039429754;0,613353798925555
"F_704";85;82;82;78;2759,87724109473;0,702449314426347
"F_705";56;45;55;44;550,809975646342;0,622429906542057
"F_706";73;75;71;80;1492,01640884499;0,673748103186649
"F_707";66;76;67;75;1910,20570145724;0,683739234586214
"F_708";31;36;30;35;147,374853039835;0,574192930357313
"F_709";36;32;38;32;132,349102225644;0,563769751693001
"F_710";41;32;40;30;274,747015752526;0,593818109768179
"F_711";46;45;46;44;250,905474827003;0,598143897814588
"F_712";51;51;53;58;532,60880640353;0,640829635965149
"F_713";72;71;73;71;1711,16584454048;0,681368648402868
"F_714";30;32;30;33;207,026656528081;0,57378069209783
"F_715";62;60;63;59;988,158498653025;0,645348837209305
"F_716";35;28;31;25;114,651410179395;0,573615962486242
"F_717";59;67;54;62;941,246032797;0,647125506072878
"F_718";69;72;66;74;1167,04106715294;0,655547656805383
"F_719";43;38;44;43;790,815503165663;0,64761493166226
"F_720";49;40;46;40;577,069084268406;0,626528692380058
"F_721";63;76;65;76;1047,77542419975;0,650355340964576
"F_722";57;69;54;65;842,870687752738;0,624863174354965
"F_723";56;55;56;61;554,10523398219;0,621655258245177
"F_724";30;24;30;24;226,959653708433;0,587618254007155
"F_725";82;72;84;74;2229,9941280981;0,696045985020035
"F_726";49;47;49;49;405,746611609429;0,600601202404808
"F_727";51;62;51;61;780,408456177251;0,645522588982824
"F_728";26;30;28;31;111,703088965187;0,548072966671239
"F_729";38;44;40;48;224,323600877029;0,584153591267907
"F_730";62;71;62;74;1052,05637764035;0,644204417217477
"F_731";41;38;40;39;299,579480785346;0,609610983981692
"F_732";85;82;89;84;3160,43662771672;0,721299638989174
"F_733";52;47;51;52;462,270259418393;0,648666197716576
"F_734";66;57;64;56;979,502023643316;0,641549823397197
"F_735";46;44;46;45;626,194880436313;0,603838210849744
"F_736";38;49;38;49;284,203953539467;0,588685916322922
"F_737";41;40;41;41;482,518519562945;0,644135188866803
"F_738";51;43;55;44;272,735419789445;0,617842601659538
"F_739";81;89;86;85;3191,5057222403;0,709643047416091
"F_740";93;91;98;94;2475,74648918421;0,687819151988067
"F_741";90;92;91;98;3355,04652732358;0,696895709801188
"F_742";72;72;71;70;1037,88733158368;0,661918171277128
"F_743";60;64;59;62;1290,67014163482;0,656121722948941
"F_744";37;34;38;33;92,8989458738254;0,565685164212909
"F_745";75;74;72;74;2282,11605416764;0,671634265224946
"F_746";84;95;86;93;2567,95143358724;0,691788331698312
"F_747";80;80;78;82;3484,08940388112;0,70480333940855
"F_748";31;25;30;25;97,2474388075691;0,5705854355069
"F_749";51;57;49;54;626,973010328604;0,630980577925155
"F_750";72;82;72;86;2253,63486574839;0,678706901432374
"F_751";65;58;66;54;942,971226117375;0,664228723404262
"F_752";48;49;49;50;419,675499822037;0,602321258101793
"F_753";95;82;98;84;2286,36684915957;0,687227700068793
"F_754";61;62;65;61;1140,25181537211;0,652088772845955
"F_755";110;105;107;100;6700,44365689137;0,753630477148427
"F_756";78;76;78;75;1512,77318526358;0,663677130044845
"F_757";30;35;31;38;119,071770110717;0,559376603984881
"F_758";69;67;72;67;1184,3746379239;0,651273971858534
"F_759";30;39;30;40;305,109004412032;0,598771290145346
"F_760";65;59;69;64;983,884318411747;0,658500411974733
"F_761";35;35;36;33;422,15702800886;0,608836973082782
"F_762";77;64;76;67;1368,82791085067;0,673899600876948
"F_763";35;35;36;35;252,255117251706;0,576041516505692
"F_764";47;45;51;50;347,713299450724;0,610200549730224
"F_765";59;54;59;53;1378,20972810892;0,646357901547423
"F_766";92;89;95;91;2683,93641905801;0,716899892357379
"F_767";75;93;73;92;1855,95566383677;0,700561009817677
"F_768";27;30;29;31;160,587349388782;0,564858879517503
"F_769";36;33;35;36;338,466354750306;0,597517818870557
"F_770";29;35;29;35;88,0570640495612;0,555282782898698
"F_771";40;38;42;37;116,537402841374;0,582818804997811
"F_772";51;45;53;44;321,971215589192;0,578487670704047
"F_773";57;54;54;46;1320,82068856233;0,678860637635201
"F_774";44;43;45;43;472,497071472839;0,621043361135575
"F_775";60;62;57;63;1443,63124216855;0,659224635688755
"F_776";39;48;38;46;911,266514151407;0,65205330432418
"F_777";64;59;63;54;802,730196056283;0,654581194714428
"F_778";32;41;29;45;163,367556765953;0,586583157997748
"F_779";61;56;60;56;848,006839078276;0,623400936037442
"F_780";43;38;45;39;335,366412133189;0,618161192182747
"F_781";75;52;81;54;953,459388842555;0,643996776792911
"F_782";31;41;31;38;316,931266282896;0,572547521253223
"F_783";42;52;42;50;367,229745283048;0,616412998765939
"F_784";44;33;46;33;600,00665785374;0,611351930236115
"F_785";48;48;45;44;666,860981580851;0,613479351107926
"F_786";96;106;98;109;4689,44774385625;0,745290643456639
"F_787";81;74;81;71;1628,20153014962;0,649896996638839
"F_788";40;42;41;44;369,176203965834;0,584837545126353
"F_789";57;60;58;55;1382,93146130541;0,670469798657726
"F_790";76;75;78;75;1881,35291218066;0,673067205659425
"F_791";61;62;63;59;1130,74273539956;0,66467065868264
"F_792";84;78;82;82;3108,73287730777;0,695884367562551
"F_793";40;38;40;37;241,876697536786;0,592702462177394
"F_794";32;37;31;36;278,056924443459;0,617587965586524
"F_795";45;43;50;47;299,425947245108;0,607725844063671
"F_796";85;79;85;75;3090,13790128534;0,707465329005608
"F_797";85;92;83;92;1838,61141405205;0,679745974143798
"F_798";74;80;73;79;1264,83696912048;0,651167843563283
"F_799";34;34;35;34;180,249697898921;0,576152256452154
"F_800";62;71;69;76;1188,17165831302;0,659007201363314
"F_801";28;31;31;32;97,4164108387164;0,555565854110668
"F_802";94;91;95;91;2459,41541180903;0,685773125107266
"F_803";32;36;33;34;347,091284944015;0,623433355868744
"F_804";24;28;23;29;146,648392411124;0,55505139364756
"F_805";90;96;84;91;4494,27572908906;0,727868852459021
"F_806";41;37;45;38;338,119227583425;0,593788696815096
"F_807";83;87;82;83;2053,33291295737;0,677977604343402
"F_808";41;39;41;40;269,621296646185;0,616317927098864
"F_809";67;66;64;61;1060,6913323714;0,649017378593475
"F_810";98;94;95;90;4287,16814518199;0,734874026849755
"F_811";63;55;63;55;1614,87327468807;0,685890834191559
"F_812";86;75;93;78;1634,81623215643;0,676523702031605
"F_813";39;39;40;42;250,403099454621;0,589728453364815
"F_814";35;34;35;33;122,281415071531;0,585837853687141
"F_815";70;62;66;61;1747,13304058298;0,669047884808578
"F_816";67;62;68;63;857,610348156778;0,666333166583294
"F_817";29;27;32;29;124,040672999191;0,552875524604529
"F_818";46;43;47;45;482,35736923677;0,63976945244957
"F_819";61;58;59;58;914,067751567646;0,641240973522334
"F_820";82;85;75;73;3162,31478247636;0,688332567753794
"F_821";47;44;49;44;510,606104481312;0,64486282947822
"F_822";48;42;47;41;385,893104268827;0,615843008322202
"F_823";33;31;36;31;198,344966910435;0,601083032490974
"F_824";43;42;42;42;152,71000234576;0,597428485996211
"F_825";39;31;38;30;254,173123267728;0,624732919902028
"F_826";97;89;99;92;2590,03402265685;0,711074203689429
"F_827";84;71;86;76;1973,92441811648;0,682182894212714
"F_828";77;72;78;73;1524,8147742263;0,666703742839666
"F_829";75;67;72;69;3105,68136051143;0,72160356347439
"F_830";42;46;43;45;314,257867332249;0,619054996127032
"F_831";60;57;60;55;485,278287280906;0,632245134750277
"F_832";41;37;41;36;255,725919287432;0,6140135218193
"F_833";54;43;51;44;265,981969239438;0,632812500000001
"F_834";23;29;25;27;160,647297556019;0,564247387743574
"F_835";55;60;58;61;814,978307996404;0,63973531138268
"F_836";85;94;83;88;2732,06231836933;0,720216281165518
"F_837";77;86;77;86;2722,25075582548;0,708385038113815
"F_838";43;40;43;40;346,751242110397;0,602139735797879
"F_839";26;30;28;32;138,67282555081;0,574027963991571
"F_840";60;55;62;56;732,319251405266;0,66195472114854
"F_841";49;54;48;54;723,405572631509;0,640932420872543
"F_842";44;37;47;39;387,959377490873;0,597130902570232
"F_843";58;54;60;56;923,313827637798;0,660787123801126
"F_844";38;49;41;49;275,565801105456;0,60368617181992
"F_845";40;49;43;49;397,507968015927;0,623400936037441
"F_846";102;88;101;95;2930,83925351493;0,709223214813941
"F_847";95;93;97;91;3431,02917335379;0,707298365685293
"F_848";69;75;72;74;2034,75654207531;0,680865564832171
"F_849";46;51;46;51;690,144366983281;0,634554308702098
"F_850";29;28;32;28;181,624500925171;0,560684720078574
"F_851";32;30;33;33;182,72435438422;0,550160624139514
"F_852";57;62;59;68;597,078086938369;0,618991067279391
"F_853";73;66;70;62;907,618995267817;0,651982378854628
"F_854";60;50;60;49;1312,62880898619;0,645800786510805
"F_855";83;80;74;78;1451,21996867279;0,689837725860285
"F_856";76;79;74;74;1998,3035464924;0,695763203714454
"F_857";59;76;61;73;1303,61631087993;0,677556095631042
"F_858";40;41;43;45;322,528645560607;0,582563903197589
"F_859";64;69;63;65;872,988365970978;0,643685567010311
"F_860";36;41;38;43;155,366062167159;0,57006990346664
"F_861";45;61;40;59;518,674487960555;0,644239036973347
"F_862";77;80;79;86;1718,59907001289;0,68971865830505
"F_863";77;89;81;88;1986,02985755355;0,680015882920193
"F_864";51;57;46;53;951,033363133975;0,630914162412505
"F_865";51;58;53;56;860,81057754702;0,620496894409938
"F_866";49;52;50;59;494,328658103975;0,588021778584391
"F_867";64;62;67;65;1773,72328826007;0,687819151988071
"F_868";40;37;40;38;293,957205707867;0,593435968516409
"F_869";60;56;59;55;540,380457759587;0,626430474996081
"F_870";72;80;70;77;2018,27919978896;0,684989429175478
"F_871";75;68;70;65;1473,29516768956;0,680749574105622
"F_872";26;20;26;22;91,0809215213635;0,541414506367989
"F_873";43;39;42;40;171,093189759322;0,58313065473295
"F_874";60;61;65;63;844,933693594291;0,641240973522334
"F_875";64;59;64;62;612,223080256775;0,613762031537988
"F_876";76;74;80;75;1739,07244455543;0,672576301615801
"F_877";65;55;69;58;1019,54480561463;0,644758780186094
"F_878";76;88;79;85;1561,51527202411;0,69178833169831
"F_879";50;37;51;39;234,017431661496;0,592585269401877
"F_880";40;45;39;45;284,270927808448;0,592966315477073
"F_881";65;60;65;58;1747,1163313645;0,682493595217766
"F_882";45;51;45;47;955,059127878522;0,666037002055677
"F_883";31;34;32;35;271,397634067502;0,595499478416371
"F_884";45;49;46;48;309,552713596684;0,604599556183174
"F_885";49;48;48;47;439,728377731879;0,625841816758027
"F_886";28;30;27;26;177,114206365127;0,580813953488371
"F_887";21;17;22;17;83,6471480063024;0,562051666744807
"F_888";67;69;70;71;1066,90938988092;0,667743552609594
"F_889";64;54;59;50;1750,49926185163;0,673256205773336
"F_890";80;76;76;71;2800,34384431292;0,720519293184281
"F_891";98;96;97;98;4169,82828421673;0,734019103600297
"F_892";62;63;62;67;624,054449332333;0,633447820343461
"F_893";99;109;98;107;3843,90519040534;0,721429860985739
"F_894";59;62;58;64;797,470042104566;0,636238191274812
"F_895";44;42;45;42;479,719315591791;0,607972410995029
"F_896";81;83;81;83;2110,61126749277;0,685381053113034
"F_897";70;71;69;69;1884,81810486998;0,680440458621867
"F_898";30;32;30;33;174,933765017123;0,596863330843911
"F_899";69;78;72;77;1225,7143492245;0,683661248930712
"F_900";102;91;107;92;2874,71128792404;0,705549997057268
"F_901";34;31;36;33;117,6973875644;0,559977578475336
"F_902";41;46;44;47;387,249203863821;0,615937933514874
"F_903";76;66;82;68;1147,41462796553;0,647020725388603
"F_904";96;94;92;89;2441,70987639631;0,69443318079129
"F_905";55;52;55;55;663,177211856995;0,632245134750278
"F_906";31;25;31;27;124,949698144405;0,581659388646287
"F_907";47;59;53;59;967,776487743079;0,653688859806971
"F_908";117;114;114;108;4765,1443746695;0,728089887640451
"F_909";119;114;118;116;3493,45268073948;0,718877428639963
"F_910";57;61;57;61;803,985411712527;0,637354457972248
"F_911";67;56;61;53;832,338650608444;0,631612223393046
"F_912";49;51;48;52;229,729459994851;0,585465911310802
"F_913";41;41;39;37;212,733342346835;0,571564794507485
"F_914";77;83;78;80;2178,32587094307;0,702943590946407
"F_915";84;91;86;88;1673,49756726411;0,673748103186647
"F_916";83;87;84;87;2374,99539190396;0,698397902709003
"F_917";95;102;97;102;3315,48573301575;0,708720070942951
"F_918";61;54;61;60;337,000352168772;0,601052895462521
"F_919";55;61;48;57;544,70721405274;0,648280337443221
"F_920";32;33;34;34;340,650391845012;0,570884327825134
"F_921";103;110;103;106;4047,91186675296;0,71926561468771
"F_922";79;71;77;71;1705,63525014145;0,682571314695672
"F_923";41;51;40;52;428,587557164691;0,61023161109697
"F_924";60;71;62;71;654,547159671287;0,628104369695065
"F_925";41;42;40;42;173,590174333973;0,572629567709576
"F_926";36;42;36;42;456,716470220791;0,628829206882083
"F_927";39;42;39;43;225,294367667787;0,592233968975397
"F_928";38;53;42;54;775,276826801805;0,618352504255428
"F_929";75;77;76;78;1985,37946373547;0,697017268445842
"F_930";55;54;57;57;759,514211095189;0,650496500081396
"F_931";100;99;98;98;2258,46290581203;0,699131043331197
"F_932";47;39;48;40;316,616744138425;0,600390644563529
"F_933";84;73;81;74;1100,42527109494;0,6637506228891
"F_934";81;84;88;86;1947,68785957722;0,67633286318759
"F_935";35;32;35;30;214,230954273112;0,60585232728559
"F_936";44;43;45;44;359,22353154217;0,613040143185884
"F_937";51;60;50;57;700,439283203742;0,663420033204212
"F_938";85;89;87;93;2720,49209718028;0,689044717783655
"F_939";27;32;28;32;176,269600360552;0,557555462536626
"F_940";36;32;37;34;325,213773605471;0,587819947043246
"F_941";40;40;36;38;255,223113791168;0,570531125071387
"F_942";51;43;52;45;467,203751689444;0,625189048239896
"F_943";66;77;64;74;1263,39791798396;0,672349971957378
"F_944";67;71;62;75;1776,01041075696;0,673558826834479
"F_945";87;84;86;83;2439,64004583274;0,69588436756255
"F_946";72;83;70;78;2677,79317755051;0,708468766621363
"F_947";68;68;70;73;1245,10400694415;0,671408569028285
"F_948";92;91;89;92;4393,08759321276;0,716899892357378
"F_949";35;31;32;29;182,25328406515;0,581744067549861
"F_950";52;54;56;53;418,741147151298;0,612695492180312
"F_951";80;87;85;89;1978,2395688463;0,69266770670827
"F_952";72;83;75;90;1325,62388119074;0,67564673392324
"F_953";67;67;69;65;787,826561318163;0,644550782300125
"F_954";50;53;46;52;603,508586635319;0,623595505617977
"F_955";88;94;88;85;3546,12365257547;0,711411785650706
"F_956";35;37;37;37;313,57963898665;0,613667775787048
"F_957";43;40;41;42;484,265677710139;0,638780838706246
"F_958";82;73;89;71;1585,95236648631;0,673445312061122
"F_959";56;49;55;47;340,760029021807;0,633046417067118
"F_960";62;55;64;57;732,421899617874;0,654366812227075
"F_961";64;51;70;52;766,688808322871;0,633414350628765
"F_962";65;77;71;78;1149,82552427895;0,660641463683458
"F_963";61;56;63;59;825,264217042378;0,650320060757299
"F_964";44;40;49;38;453,435162448603;0,623044540304557
"F_965";65;67;63;67;1807,0287552974;0,677096865292291
"F_966";48;55;46;50;1589,20740651766;0,640795381654909
"F_967";84;85;80;82;1752,10149380432;0,668861239747811
"F_968";32;31;33;31;148,77142372684;0,55405093127513
"F_969";33;26;35;28;166,849844767824;0,572110336928509
"F_970";23;18;24;18;60,6586073450214;0,534343659460665
"F_971";41;47;45;47;495,608318207512;0,571210749511601
"F_972";84;73;83;70;2543,4887899775;0,715744223535737
"F_973";62;72;68;75;939,027813415465;0,653546311944613
"F_974";30;30;29;31;197,104517151718;0,571101900814634
"F_975";82;70;81;71;1647,65677864713;0,659043430456296
"F_976";85;81;82;78;2033,4849345437;0,697706902572461
"F_977";68;56;67;55;1748,87389068031;0,687464158733804
"F_978";66;72;66;66;1541,46201337328;0,670544803669321
"F_979";40;50;40;49;499,117340924187;0,632111784866861
"F_980";38;44;37;43;235,436564423387;0,582903821841874
"F_981";47;63;48;68;838,589079437343;0,649650463339298
"F_982";116;125;111;117;5702,96971548768;0,732404692082112
"F_983";24;28;24;30;126,928442756822;0,562183455261676
"F_984";48;56;46;58;506,511876138066;0,612257405515832
"F_985";39;37;37;36;313,125022903642;0,584011302187362
"F_986";39;41;37;37;372,214735081059;0,612946109009101
"F_987";73;74;72;69;821,24144900745;0,639940212459298
"F_988";81;72;84;78;1519,20052344569;0,682687927107068
"F_989";36;31;36;32;206,329620174551;0,589119858469701
"F_990";70;76;69;77;2056,09873510134;0,691190036900372
"F_991";65;62;66;59;827,525382465378;0,642237222757957
"F_992";74;67;80;71;1155,03178178494;0,646636819677438
"F_993";58;62;60;61;673,942326929359;0,637252817350629
"F_994";61;62;63;68;1283,66312819265;0,649474482609168
"F_995";84;83;87;84;1895,32047768804;0,674848007205586
"F_996";20;24;19;26;104,216462070543;0,564088085827215
"F_997";93;84;91;88;4389,02715369854;0,737632291410291
"F_998";68;66;72;66;1098,83645843221;0,649896996638839
"F_999";52;61;55;60;726,911867799807;0,658319604612852
"F_1000";52;61;53;59;1000,43183151717;0,659805162639664
