"Foraging";"In";"Out";"InLink";"OutLink";"Betweeness";"Closeness"
"F_1";100;106;95;102;4174,47083565317;0,715189118243648
"F_2";51;41;53;43;578,320963994566;0,605271129960616
"F_3";72;71;75;70;1869,79491196258;0,661552894431877
"F_4";38;36;38;36;225,522160122336;0,567103458063294
"F_5";63;56;66;60;607,982093138998;0,623012160898035
"F_6";38;47;36;42;221,691742345648;0,605118368583109
"F_7";43;44;44;45;750,643291095778;0,643789270178832
"F_8";75;75;76;72;1320,90039078227;0,670995186387553
"F_9";46;46;48;48;469,530942366365;0,600480865558003
"F_10";74;63;75;60;610,249849174724;0,622494547720427
"F_11";47;45;48;48;468,258020506443;0,608064925183869
"F_12";109;89;111;85;3472,93171755747;0,701175644849975
"F_13";99;101;96;103;4363,33932514812;0,716086255301357
"F_14";89;92;83;91;2796,27085041312;0,703190990145477
"F_15";40;35;41;38;194,824415856478;0,576734340421437
"F_16";83;83;87;81;3125,95180674507;0,7136563876652
"F_17";34;32;39;37;83,5509942033397;0,57449561508602
"F_18";26;23;29;24;256,174203897129;0,584295949700248
"F_19";53;60;56;63;1179,52140410861;0,659696235967427
"F_20";33;36;32;34;435,97752997697;0,5972201464654
"F_21";44;43;42;42;246,152479556474;0,583471235276939
"F_22";82;70;79;70;1421,25501599991;0,666222074024678
"F_23";66;63;65;64;935,969853571351;0,635462496686986
"F_24";67;72;70;78;1425,47625491829;0,678514829069505
"F_25";70;75;69;73;1497,36045499848;0,670282359519151
"F_26";66;56;64;59;1593,78169563862;0,673067205659429
"F_27";67;69;70;71;1141,98159763229;0,619855222337124
"F_28";75;79;70;84;1779,75592221819;0,670582312468538
"F_29";49;47;48;47;842,249772816952;0,633380884450786
"F_30";76;57;77;56;1407,81686800578;0,645905172413795
"F_31";103;98;103;92;3963,12545622778;0,706756278740717
"F_32";90;72;88;65;2065,87887441261;0,697463346520831
"F_33";89;85;85;84;3890,25567386796;0,707298365685296
"F_34";105;100;108;97;4077,46293053205;0,720822560278999
"F_35";25;28;25;27;302,860721783642;0,573835622995547
"F_36";88;89;90;86;2322,71418857863;0,695843974924546
"F_37";32;26;36;28;181,524377537651;0,599190283400809
"F_38";75;64;81;66;1180,45482320176;0,647335169285599
"F_39";62;53;61;53;892,41379527261;0,628466579292268
"F_40";41;50;38;48;597,216769360244;0,632779097387174
"F_41";16;14;18;16;51,124736132424;0,520131898646303
"F_42";59;67;57;74;1171,57703898448;0,64185897092681
"F_43";31;32;32;30;259,128257256942;0,611507855539686
"F_44";36;34;39;36;278,18873480085;0,570069903466641
"F_45";49;46;43;50;756,94112207453;0,658608944072082
"F_46";50;44;49;45;342,635801927629;0,589583435794028
"F_47";68;70;69;72;2643,39271046481;0,674772036474171
"F_48";59;60;58;59;1049,94035059954;0,633983817229892
"F_49";25;30;27;32;93,0552481493662;0,551908291515124
"F_50";63;70;59;68;1034,2740355915;0,632645522191145
"F_51";77;68;78;65;1883,79550098562;0,692867876546066
"F_52";52;41;54;45;359,982306789848;0,608034083992695
"F_53";59;69;63;75;1027,33775127655;0,640658401026081
"F_54";97;99;94;97;3162,08087464349;0,701421800947869
"F_55";81;75;80;68;2321,61344307996;0,688293047023029
"F_56";57;67;59;62;1220,06895824012;0,649087660403922
"F_57";79;78;80;76;1265,38453944578;0,672802783701877
"F_58";83;102;89;98;1940,33763440724;0,664854971992681
"F_59";87;71;90;71;3277,75907719438;0,705757682797604
"F_60";66;60;65;57;669,159538840585;0,63184525378169
"F_61";35;28;33;28;114,514467467231;0,57762359063313
"F_62";60;61;65;59;866,605002284741;0,633247055094818
"F_63";82;83;86;90;3161,17528363466;0,697382198952881
"F_64";75;76;75;79;1641,15718501855;0,667186108637581
"F_65";92;95;91;86;3662,25598479463;0,724175425878944
"F_66";69;74;72;71;2007,48064480651;0,691389353480597
"F_67";90;85;89;83;1554,01708666031;0,679437769213334
"F_68";23;21;25;21;78,1810482002558;0,536231884057972
"F_69";51;63;53;63;854,035708328457;0,626561438352584
"F_70";38;38;39;38;340,387417536109;0,632078456184755
"F_71";66;68;71;72;1487,79175938648;0,646881070580619
"F_72";44;46;45;44;391,830788443995;0,610511305764921
"F_73";60;49;63;50;641,586628697853;0,645696434342349
"F_74";52;47;55;49;713,93005934076;0,626561438352585
"F_75";96;87;99;85;4341,55533725735;0,725753723211046
"F_76";44;40;41;42;532,394924093729;0,643754698743425
"F_77";39;39;39;39;245,925976696939;0,60186765739532
"F_78";49;43;52;43;513,4246350649;0,627282716759981
"F_79";34;27;35;29;162,212617371598;0,552544247787611
"F_80";32;31;35;33;91,9933924310364;0,58211129455181
"F_81";82;76;82;84;2216,15732770465;0,686479986256659
"F_82";49;49;47;49;256,729523867143;0,575571346264643
"F_83";112;101;102;88;6581,54518151163;0,742889012827665
"F_84";65;61;70;61;1234,66128234557;0,657308915451258
"F_85";58;61;54;58;1036,41841806635;0,653974142163551
"F_86";42;40;44;40;584,399752862324;0,601777019225941
"F_87";61;57;60;58;419,667467798701;0,614926904334443
"F_88";70;73;73;71;1545,67818023908;0,642340459733163
"F_89";105;105;106;101;3694,1005781518;0,721082706766921
"F_90";72;77;70;80;1140,18420141971;0,653546311944613
"F_91";87;70;83;65;2446,6751962198;0,672236864240454
"F_92";43;38;47;40;789,283137212525;0,633380884450787
"F_93";77;71;77;69;1910,24964618897;0,68687331690827
"F_94";35;38;33;38;407,07834029486;0,586956521739129
"F_95";41;49;41;48;304,334405085981;0,612852103675681
"F_96";23;27;24;26;73,9033351889611;0,542443438914028
"F_97";75;90;71;90;2021,26057236932;0,700479139885476
"F_98";96;85;98;85;2186,96101201419;0,695924764890288
"F_99";37;33;38;34;176,868827572355;0,571510297482837
"F_100";95;81;90;83;2774,11602184612;0,699253383107794
"F_101";78;76;74;78;1254,07577103723;0,666259100761408
"F_102";45;45;47;46;271,802642726843;0,607910750507099
"F_103";36;34;36;39;513,15141926748;0,603838210849745
"F_104";46;41;52;43;205,945994119375;0,574578220858895
"F_105";91;94;83;86;2924,20350951727;0,724087943947817
"F_106";61;69;59;69;1389,43657913119;0,654402532889353
"F_107";84;86;79;84;2024,10367538447;0,676294708338038
"F_108";36;29;41;30;277,744626744435;0,579746590579359
"F_109";48;50;48;53;392,098212546705;0,594141844674629
"F_110";45;60;47;63;879,698132450118;0,657886071781366
"F_111";52;66;58;65;1121,36689452129;0,660859977949285
"F_112";54;58;59;59;485,469195399355;0,622332969942376
"F_113";66;70;65;70;1832,0898630531;0,670432302443937
"F_114";75;77;75;78;1281,04633089478;0,637557836515449
"F_115";89;79;92;78;2042,03473039976;0,694071329319131
"F_116";68;73;66;75;1364,70467162367;0,649439297903463
"F_117";40;42;38;42;570,514137771634;0,616191210485736
"F_118";76;74;75;79;1702,48624070047;0,654938811188812
"F_119";81;74;83;75;1780,55152062691;0,66574110068307
"F_120";79;85;80;82;1665,65560404276;0,694835680751175
"F_121";37;30;37;31;290,496694687253;0,584580874823229
"F_122";51;63;53;60;465,177095088846;0,622915042868277
"F_123";51;73;51;74;1099,44982104159;0,652656794425088
"F_124";58;64;54;62;1299,55227539498;0,623725286160249
"F_125";17;19;18;19;35,0317136817717;0,52662098049552
"F_126";73;68;78;68;1339,46775701895;0,667371819851919
"F_127";61;74;59;70;3464,36007833859;0,735776100165718
"F_128";62;62;65;64;1215,53358665989;0,662759840778421
"F_129";49;50;48;53;623,707429121878;0,628928177954987
"F_130";60;61;60;66;1090,56070200477;0,661151555261418
"F_131";74;58;76;60;1408,04105676639;0,646253369272239
"F_132";93;106;95;95;2487,54271063867;0,697057797418307
"F_133";78;82;77;77;1760,85578377618;0,659442213543101
"F_134";67;70;69;72;1796,98427230868;0,663236514522825
"F_135";34;29;33;29;100,250247833478;0,555077094040839
"F_136";108;97;104;94;3035,06089284444;0,702408156090702
"F_137";90;86;89;84;2365,04114505601;0,699661491770756
"F_138";73;87;75;86;1644,74268370925;0,685028571428577
"F_139";59;62;57;64;1390,79102263631;0,673975375274082
"F_140";46;39;48;41;592,654369429334;0,582620528771383
"F_141";89;86;93;85;3120,31623583066;0,687543014452859
"F_142";61;58;62;60;1291,95802357735;0,654652686762783
"F_143";53;58;55;61;520,785256610216;0,61351074718526
"F_144";74;73;77;73;1660,81424396052;0,662027833001991
"F_145";49;57;49;60;389,21716108315;0,62097902097902
"F_146";49;49;51;46;396,926154755179;0,568690702087286
"F_147";96;103;98;103;2903,85457446982;0,688965517241384
"F_148";51;56;47;53;1119,19919792925;0,650708353688329
"F_149";60;77;66;73;1424,06059532956;0,65486725663717
"F_150";43;41;44;40;403,02840390881;0,597696564790346
"F_151";83;79;77;79;2577,44524961568;0,708468766621363
"F_152";76;66;76;67;1203,08558099534;0,671935429628387
"F_153";85;72;82;74;2094,01675497014;0,697503927386984
"F_154";80;74;80;73;2464,35440360678;0,685733897723377
"F_155";80;72;73;63;1340,39048498556;0,65223068552775
"F_156";85;76;81;75;2092,31473440075;0,692627686618907
"F_157";88;90;96;93;2701,6223485827;0,705799234618785
"F_158";96;94;96;92;2427,14442685808;0,693950795947903
"F_159";39;39;38;41;219,597472648609;0,583528037383177
"F_160";46;59;46;60;604,706358290319;0,619534883720929
"F_161";81;86;77;87;4328,59512852007;0,718705035971226
"F_162";41;38;38;36;203,32261677654;0,575764852792852
"F_163";33;41;38;42;328,775617433925;0,578487670704047
"F_164";46;51;42;50;433,938972918909;0,605913570887035
"F_165";46;41;48;40;412,147967262711;0,592263228101377
"F_166";71;76;70;76;2668,11941109527;0,689282428702853
"F_167";60;75;64;75;1535,62946597049;0,665482402575777
"F_168";30;24;30;24;81,8843831457037;0,573177145589288
"F_169";37;36;33;32;133,257751578347;0,567559890161916
"F_170";61;59;63;58;631,983407761725;0,616539806624151
"F_171";88;83;89;83;1506,77306110448;0,655332640900893
"F_172";38;41;36;39;180,107953973417;0,596952494771435
"F_173";44;41;43;40;368,775569741849;0,607849102525098
"F_174";61;55;57;55;387,895862848592;0,625026068821689
"F_175";105;95;106;94;3644,79763414994;0,708971553610505
"F_176";31;27;29;29;251,646994270357;0,598831110445076
"F_177";85;85;78;76;2347,22711913455;0,694232105628911
"F_178";53;42;55;45;280,55333415615;0,585122998828582
"F_179";40;46;45;46;471,105012595744;0,593435968516409
"F_180";32;36;36;39;485,286253435164;0,613416568592335
"F_181";56;58;54;55;596,78334888683;0,617683429513602
"F_182";68;75;67;73;1052,75866755082;0,649791316602527
"F_183";39;36;40;35;195,085056645298;0,598054377650285
"F_184";68;77;69;81;1171,32257620779;0,63489037178265
"F_185";41;36;40;38;263,750800708;0,589525448733709
"F_186";54;49;56;54;467,595968786793;0,605882947538662
"F_187";33;24;27;21;149,940784280699;0,57896261953057
"F_188";40;54;40;53;356,936711467297;0,61216361129551
"F_189";38;35;40;39;225,019323511094;0,594141844674629
"F_190";51;54;52;61;616,873142903425;0,654081187254477
"F_191";25;28;28;29;92,9682539795352;0,577679259830377
"F_192";75;64;73;65;1036,91365447425;0,644620100016133
"F_193";37;33;40;32;565,394936392376;0,591270036991368
"F_194";26;25;30;28;150,943412801945;0,568501920614596
"F_195";56;59;63;62;594,102662805534;0,635226791013141
"F_196";98;96;97;90;4166,25073168836;0,731823454001591
"F_197";78;82;79;80;2772,17889058809;0,699702328839086
"F_198";41;49;39;49;481,035459515016;0,603868627846059
"F_199";86;99;82;93;1679,71850002169;0,67310499719259
"F_200";29;30;28;29;175,249101878716;0,569041629088146
"F_201";55;59;58;56;1210,02424286525;0,631778656126483
"F_202";37;40;39;40;319,485288277459;0,57397299626544
"F_203";105;98;98;88;3427,99846289626;0,713104514900961
"F_204";64;56;66;57;1340,42114556377;0,641652839479744
"F_205";94;96;89;98;2863,64241755943;0,699579831932774
"F_206";85;70;81;73;2597,48741704707;0,687858618315358
"F_207";86;80;86;87;1857,23983099421;0,656481025135537
"F_208";75;87;77;90;2538,41848619443;0,695278969957087
"F_209";71;81;80;83;2051,15274473649;0,684090390321852
"F_210";33;29;36;32;135,450225692471;0,562288930581613
"F_211";27;19;28;19;109,352430314135;0,529575473781862
"F_212";40;42;37;38;508,7098469147;0,63134611333474
"F_213";25;21;25;20;43,5103757674876;0,541218961625283
"F_214";42;33;44;34;140,136244072384;0,568017057569295
"F_215";47;44;46;43;342,243762773376;0,625026068821689
"F_216";68;73;70;82;1261,52105559911;0,67284054554639
"F_217";85;85;87;83;2406,09264326231;0,698560689936485
"F_218";29;32;28;34;179,792412189925;0,564965361232856
"F_219";26;32;29;31;120,762760143465;0,569284832367745
"F_220";58;59;56;57;1502,92034899035;0,669159921853197
"F_221";84;79;87;79;2446,84000307659;0,691948051948053
"F_222";85;72;83;69;3831,3878954933;0,734378828718455
"F_223";51;51;54;56;784,465711241301;0,630582294461103
"F_224";85;78;83;76;1928,65233565319;0,675951508316889
"F_225";29;33;32;35;147,651868331315;0,550817864363169
"F_226";92;89;95;85;1761,95619512667;0,657020716869452
"F_227";66;67;63;68;1663,97506874854;0,693709854753778
"F_228";103;93;100;90;3725,00304080614;0,709475054743447
"F_229";65;73;66;76;1172,79056139207;0,657056727870651
"F_230";52;47;50;52;753,267080717062;0,635024896705161
"F_231";91;83;87;85;1756,38845776458;0,676905702992662
"F_232";63;57;68;63;740,804199618171;0,621751983818265
"F_233";73;72;76;76;1106,93493402415;0,637931034482759
"F_234";58;51;60;50;837,971776849491;0,638168751663563
"F_235";85;74;83;73;1895,05949388637;0,679091372571241
"F_236";57;58;57;56;801,399959102545;0,654116876739239
"F_237";51;46;53;46;338,525962579021;0,601777019225942
"F_238";70;65;68;63;880,031642987845;0,635563566960027
"F_239";47;45;49;46;659,106736574638;0,636542239685659
"F_240";35;40;34;37;261,037984392238;0,615116219405818
"F_241";38;39;42;43;298,594251398859;0,570558278996715
"F_242";82;75;83;75;2523,59842332722;0,6851068693565
"F_243";40;45;39;49;374,507053633907;0,587445484392609
"F_244";65;75;67;76;1066,13889391163;0,650178978197203
"F_245";39;45;42;45;261,771079692462;0,598861025077429
"F_246";57;54;58;51;929,277531862954;0,643927593060108
"F_247";44;54;41;53;293,431996723775;0,580279781209157
"F_248";99;101;102;103;4636,31338931764;0,7227782467141
"F_249";76;75;80;82;938,271089586651;0,648490749756575
"F_250";58;61;59;63;799,222080280042;0,644724104549857
"F_251";46;39;47;40;267,299209279242;0,585437319919909
"F_252";29;33;33;36;212,384017545549;0,588079470198675
"F_253";79;73;73;72;1449,1440996469;0,657308915451257
"F_254";67;62;64;63;1110,38518510678;0,654795717719033
"F_255";115;117;112;130;5433,17199668882;0,750798521951526
"F_256";57;64;58;65;1341,20575509521;0,637897089341779
"F_257";69;73;71;74;1360,0574159126;0,663897657418177
"F_258";90;85;91;82;2399,76591211782;0,688293047023025
"F_259";83;90;77;91;3800,36112876273;0,712045616535997
"F_260";52;50;49;51;1306,91946611613;0,667557634480461
"F_261";80;75;86;74;1505,53613382609;0,651026392961878
"F_262";43;36;42;36;127,320480290523;0,556907925299637
"F_263";79;71;76;72;2213,13596448312;0,684559159433533
"F_264";40;42;41;45;308,048245725533;0,606250632143218
"F_265";28;27;27;27;127,538997808652;0,582478985472035
"F_266";66;69;66;68;2113,9727174741;0,689996546563837
"F_267";94;99;92;95;2277,66880117662;0,688056017907365
"F_268";46;38;46;40;568,366283313447;0,616286243059839
"F_269";97;106;101;106;3781,96090883851;0,717629452259807
"F_270";66;73;75;77;1195,28628618275;0,656049909702841
"F_271";76;79;76;79;2310,3947881633;0,704058260409939
"F_272";78;72;81;73;1750,64874491636;0,681988849698492
"F_273";90;86;85;88;2976,74070640204;0,699375765707956
"F_274";41;41;43;43;438,637266955874;0,574275449101795
"F_275";106;113;104;105;5301,08638417664;0,747987770637053
"F_276";56;60;58;59;1493,01807906078;0,646776369031563
"F_277";91;90;86;90;2381,76108344671;0,676065869614259
"F_278";105;109;103;111;3343,08104664954;0,705965490842708
"F_279";84;83;87;82;2077,13056501016;0,6935894468873
"F_280";37;31;39;31;172,939452788767;0,554435297382295
"F_281";81;71;80;67;1285,90673871499;0,662613309750167
"F_282";105;101;108;99;4405,1614168871;0,729418923030122
"F_283";16;14;17;16;50,4054655418659;0,522603426478923
"F_284";87;83;88;84;2120,96738083428;0,695561357702351
"F_285";54;55;56;54;965,667311842616;0,634688691232529
"F_286";34;31;35;30;98,871496999084;0,563451776649745
"F_287";58;66;62;67;1355,8350858836;0,653831469866378
"F_288";83;85;82;83;3058,29681901266;0,689678978253367
"F_289";66;74;68;69;993,897531584905;0,658102766798421
"F_290";76;73;76;70;3349,66146940888;0,725929514351464
"F_291";86;84;83;83;2287,70237180492;0,695843974924547
"F_292";85;80;90;82;1339,91395096543;0,662247265495529
"F_293";25;31;25;29;267,981246941881;0,582875480138083
"F_294";40;42;42;41;626,959977143978;0,618320610687024
"F_295";85;88;87;93;2423,66163693796;0,699947451392543
"F_296";67;75;67;75;2280,72386873797;0,705799234618786
"F_297";36;45;37;42;599,524297671619;0,614611638041527
"F_298";61;64;56;60;833,833877174429;0,642374879434146
"F_299";74;83;86;88;1592,14212173851;0,653332606681565
"F_300";23;18;23;18;142,809498069707;0,578962619530569
"F_301";72;76;72;78;1554,1962712731;0,648210230344978
"F_302";79;75;84;81;1939,82265890575;0,673710239406543
"F_303";95;93;100;98;3347,33290032647;0,718360498561843
"F_304";56;55;58;56;665,064504135304;0,615653245686113
"F_305";67;67;67;70;598,168600745381;0,635866970773883
"F_306";17;23;22;24;92,7957992260214;0,538859172023195
"F_307";98;97;94;95;3432,46316861349;0,726457399103142
"F_308";39;44;41;47;176,700104322557;0,592819701315398
"F_309";62;67;62;67;1349,41739737399;0,671973094170407
"F_310";46;45;48;48;480,990052673751;0,614737705758678
"F_311";28;29;29;31;217,241484538954;0,582620528771383
"F_312";52;59;58;64;1248,02137386075;0,638066851181606
"F_313";33;27;36;29;233,439438602124;0,557089084065244
"F_314";43;45;45;50;301,914923811681;0,586583157997749
"F_315";98;79;91;79;1833,90255838636;0,688451157181418
"F_316";82;104;78;102;1594,01458373037;0,670095025153719
"F_317";56;54;58;54;883,209638408316;0,63593443318657
"F_318";62;63;65;66;1593,93542473949;0,677402949652486
"F_319";32;43;33;43;334,164481704481;0,605240571515119
"F_320";95;96;88;96;2760,35493779138;0,696490820357892
"F_321";38;34;39;36;284,535737237032;0,564433353736051
"F_322";69;66;69;66;2240,02429678861;0,69274776076279
"F_323";38;43;40;50;476,331395853832;0,586066976289415
"F_324";46;53;46;53;532,761458771207;0,624277456647398
"F_325";19;23;22;27;80,8619592712662;0,541708088567556
"F_326";35;42;34;42;549,430249922387;0,618767420253948
"F_327";33;28;34;32;178,252930065418;0,567963234945752
"F_328";50;48;50;47;418,217892765264;0,609332113449221
"F_329";72;65;75;73;1007,11027353906;0,632578755738483
"F_330";24;26;25;27;103,761944938123;0,53990272023059
"F_331";29;25;28;25;275,8179394602;0,587906429307046
"F_332";73;84;79;88;2761,49250974429;0,705716135868609
"F_333";83;77;81;72;1476,89493316671;0,689718658305052
"F_334";27;25;29;24;128,703080153001;0,536688006446703
"F_335";82;80;75;76;3358,02560774901;0,711665182546754
"F_336";57;51;57;54;543,802229546132;0,642099625066954
"F_337";83;82;83;85;1496,76817499801;0,656373193166887
"F_338";66;72;67;68;1098,85775929171;0,645071028842016
"F_339";83;87;82;86;2005,65343292713;0,679938744257276
"F_340";35;34;33;31;176,510587548416;0,579354339841484
"F_341";11;12;11;12;18,7377980070364;0,518086347724621
"F_342";92;87;88;86;1688,16026641694;0,680981595092026
"F_343";77;82;79;79;1951,79295727396;0,665963002055442
"F_344";23;33;24;35;159,552425827315;0,547572283378249
"F_345";94;95;98;89;2450,91066152991;0,706797948234188
"F_346";25;29;26;33;229,352218632382;0,566219535235215
"F_347";61;65;60;67;834,140573591768;0,652266173350021
"F_348";85;95;87;91;4927,39374739961;0,729907452508528
"F_349";53;65;54;66;895,616598855659;0,654724194429275
"F_350";33;31;35;32;142,664151666086;0,57129241326725
"F_351";87;78;86;85;2515,15896169831;0,690115710091533
"F_352";40;41;37;38;453,30041981249;0,602987777274784
"F_353";57;59;56;62;1127,24784597655;0,648947112001301
"F_354";74;67;71;69;1758,85440668357;0,65301231070923
"F_355";24;18;26;18;43,3019919370724;0,530818278427206
"F_356";39;38;43;39;546,728643702776;0,633883248730968
"F_357";44;35;45;38;276,372697220073;0,567076631977294
"F_358";51;47;49;44;432,57821181042;0,631678785962696
"F_359";48;43;49;43;455,794644982811;0,619470855725507
"F_360";100;101;97;99;4188,6949394735;0,733839373163567
"F_361";67;71;70;71;1843,71614496484;0,65368885980697
"F_362";39;40;38;42;551,988108284484;0,613071494323412
"F_363";28;27;30;29;127,151804034799;0,545777373093558
"F_364";122;116;113;108;5490,86829335272;0,74505904288378
"F_365";85;82;88;86;2354,30597401112;0,700029197080297
"F_366";51;42;51;40;340,513139231992;0,603351955307261
"F_367";62;79;64;79;1481,26523817329;0,663897657418177
"F_368";29;35;34;35;167,33563004209;0,580251694094868
"F_369";37;41;37;44;144,59486950652;0,567237626573293
"F_370";47;56;47;56;602,469682232801;0,607756653992394
"F_371";60;55;62;55;983,873037997945;0,631911865478889
"F_372";53;62;52;63;1312,40593613193;0,660568657703332
"F_373";37;43;39;43;206,488434531481;0,57137410037653
"F_374";59;61;62;62;810,944390706468;0,645001614118154
"F_375";54;56;46;57;1351,4292022946;0,659297145685532
"F_376";92;97;98;97;2627,17394980933;0,703232240276884
"F_377";75;79;78;79;2213,79525975039;0,662540068531007
"F_378";50;50;48;49;439,695639707123;0,600781798135711
"F_379";92;91;89;84;3117,1936357503;0,709937226104467
"F_380";73;71;79;76;1789,15668381853;0,687227700068793
"F_381";112;100;108;99;4202,12662067053;0,709979271542791
"F_382";65;70;68;73;812,71587759159;0,643478260869566
"F_383";55;60;57;62;1042,16185945828;0,638270684698116
"F_384";45;53;49;56;511,275698566244;0,617365331136059
"F_385";94;109;97;112;3270,99706320473;0,714592274678116
"F_386";79;71;79;74;1886,83824935856;0,667966791107151
"F_387";45;50;47;51;503,847233270887;0,607633433017384
"F_388";32;21;33;22;111,186150071003;0,546698285297337
"F_389";55;60;59;64;416,311577962294;0,605423968486439
"F_390";45;47;45;43;300,666962062031;0,630714999736939
"F_391";71;70;73;72;1571,55075375463;0,670807453416151
"F_392";42;31;43;34;236,93763513182;0,570368255780758
"F_393";40;42;38;42;431,709142219144;0,61812931834588
"F_394";97;93;97;84;3896,4643490979;0,725490196078435
"F_395";42;52;46;54;512,534445826372;0,621075536213864
"F_396";44;52;48;58;657,502715066616;0,603412694417877
"F_397";75;90;78;91;1910,68359660854;0,689758342922902
"F_398";92;75;100;83;2417,6601636121;0,70191463200422
"F_399";68;66;69;63;1084,9170826367;0,621043361135574
"F_400";57;58;56;59;877,544802319373;0,643962183068331
"F_401";88;75;87;85;2544,68930474532;0,699457377910036
"F_402";76;78;75;75;2220,48941285011;0,680594981264906
"F_403";21;21;25;23;81,389192278822;0,535250256730813
"F_404";52;55;53;57;734,298481049632;0,625058657907085
"F_405";41;38;38;39;440,006786970366;0,637761344895464
"F_406";44;45;47;47;334,803082322069;0,60395989722404
"F_407";66;58;65;57;824,804803585497;0,598263299730511
"F_408";22;22;23;22;65,1835601905262;0,554409656384405
"F_409";54;49;55;49;806,511674041327;0,615969581749048
"F_410";25;22;25;24;131,125354080485;0,548449080428219
"F_411";16;14;15;14;32,2967039623711;0,510410014050327
"F_412";73;82;71;89;1504,77840981907;0,63929180887372
"F_413";24;22;24;23;79,7408934854808;0,536231884057972
"F_414";32;30;33;31;52,4178656385405;0,558282494295161
"F_415";32;26;29;25;143,969222995786;0,578069244864499
"F_416";56;48;55;49;1070,84155467759;0,676371022342593
"F_417";66;76;69;75;1847,5136263409;0,670207413205126
"F_418";89;98;88;91;4802,47703311076;0,712850092168641
"F_419";50;48;47;48;447,335760951103;0,627020241644437
"F_420";24;27;26;27;90,9026629543484;0,54557866472489
"F_421";64;58;62;59;1783,60934947492;0,685694674826981
"F_422";85;101;84;99;4659,15042915862;0,739133115481844
"F_423";86;82;86;77;3137,33357206529;0,694433180791291
"F_424";63;79;61;80;1887,68044597776;0,680826896865062
"F_425";50;55;45;56;1323,02186147695;0,6487012987013
"F_426";52;55;47;52;584,984313407174;0,632478632478634
"F_427";63;69;60;69;1320,08547056483;0,66662959461714
"F_428";45;50;47;48;515,169834150862;0,61514778325123
"F_429";26;25;24;26;91,2676531139535;0,541512331737285
"F_430";39;31;41;32;190,712700111496;0,564858879517504
"F_431";29;30;30;30;190,569423763;0,57304015296367
"F_432";39;44;39;42;510,035539597615;0,619983450558545
"F_433";94;105;96;108;3865,62098755262;0,717543544622016
"F_434";81;67;84;65;1771,79830549774;0,675304191077064
"F_435";63;60;59;60;953,586777833795;0,635664669388622
"F_436";26;33;27;33;273,328872650235;0,59153261620448
"F_437";30;39;29;39;195,507941261678;0,582648845686512
"F_438";64;68;68;70;1252,68652576308;0,658355758141581
"F_439";69;72;71;73;1280,09128955861;0,663383321343592
"F_440";32;35;33;34;174,905265592365;0,550514327700221
"F_441";61;63;64;66;1749,39453137233;0,695924764890286
"F_442";52;49;52;48;440,657884702214;0,621945525291828
"F_443";52;55;52;55;571,311044503198;0,627841206661778
"F_444";69;71;70;72;1748,60598859296;0,686283489809942
"F_445";68;75;69;75;2346,74966336972;0,698194525334892
"F_446";70;60;70;66;1102,12197660378;0,648210230344979
"F_447";60;42;60;44;980,343140542039;0,623790196690602
"F_448";31;25;33;30;163,190888106706;0,588310349904302
"F_449";91;104;95;110;2441,98804993722;0,695480652085631
"F_450";62;51;60;58;504,26066815947;0,636103151862466
"F_451";45;41;45;44;809,203430797586;0,654009819967275
"F_452";60;52;57;50;995,44021940489;0,645731214651227
"F_453";54;58;53;57;783,504530519958;0,635664669388623
"F_454";91;84;89;74;2903,43860711979;0,711242954612879
"F_455";51;45;53;42;543,932817113977;0,66151638891955
"F_456";89;80;88;82;1931,98688835477;0,644169801182161
"F_457";69;71;71;74;1461,85825869496;0,672086113135618
"F_458";49;47;50;46;365,012824144712;0,597547602432459
"F_459";82;81;84;74;1906,58044117547;0,695601717535107
"F_460";83;86;89;86;1369,10606452995;0,649263431542463
"F_461";48;47;44;45;522,373150101134;0,604294787781025
"F_462";100;89;96;86;3494,51467091748;0,726809748999641
"F_463";51;48;54;48;408,762938915491;0,605760485093481
"F_464";52;51;51;50;842,393210821617;0,619598924953483
"F_465";109;125;103;118;5403,06048574328;0,742336986810331
"F_466";38;39;38;37;357,900524822369;0,59567701863354
"F_467";42;43;43;41;217,359871342624;0,593171697179613
"F_468";51;48;50;49;464,437815941952;0,589061962557121
"F_469";69;73;69;79;1951,683894312;0,694916236739903
"F_470";97;93;91;89;2061,8745855938;0,684207522401691
"F_471";74;70;72;76;1927,22101035687;0,664670658682636
"F_472";31;41;34;41;212,836097683839;0,586468372388824
"F_473";39;42;39;41;337,94986725994;0,599310103484476
"F_474";35;31;33;32;296,845596253647;0,586497064579256
"F_475";70;74;70;73;1085,57252379735;0,656301324865872
"F_476";54;61;53;64;696,538015390787;0,63918954945348
"F_477";46;42;46;44;232,280289890376;0,624667813037362
"F_478";50;50;50;52;1205,33603009634;0,642891617954633
"F_479";87;75;92;71;1319,38452100986;0,649685670929982
"F_480";44;44;41;47;707,897828537006;0,629654918850781
"F_481";32;24;33;26;257,276981122309;0,614895363151415
"F_482";63;68;69;67;1353,13835988531;0,684520070804551
"F_483";42;41;41;41;288,878367352734;0,605210016155088
"F_484";35;43;33;42;391,423561795744;0,582507288629736
"F_485";60;52;58;54;822,884749444202;0,657922177707043
"F_486";72;65;69;64;1464,74204065708;0,672048435923311
"F_487";79;72;78;75;1804,47418596435;0,659732540861814
"F_488";69;70;71;73;2259,68044658323;0,680749574105629
"F_489";23;26;22;25;258,387444865422;0,577679259830377
"F_490";79;66;79;65;1711,37028169912;0,654974594328801
"F_491";41;50;43;51;772,739312565396;0,608342636760377
"F_492";39;41;38;43;348,84060095955;0,602169981916817
"F_493";83;86;85;86;3304,04488225996;0,70447199858965
"F_494";53;53;54;58;549,684914476952;0,633414350628764
"F_495";52;45;53;44;228,452139421099;0,578850796716561
"F_496";62;73;59;68;1671,21945329622;0,675380281690145
"F_497";77;88;78;96;1007,60219420215;0,624830605649952
"F_498";50;45;50;44;580,905073180386;0,595499478416372
"F_499";57;56;57;54;515,993613439565;0,617079322592267
"F_500";45;35;50;36;366,613081288248;0,594672354779502
"F_501";72;73;71;73;4026,94250333297;0,719567827130857
"F_502";42;43;42;41;285,409746379283;0,573588516746411
"F_503";54;53;55;55;518,628191342851;0,611695070925603
"F_504";57;56;59;56;533,751921962379;0,613762031537988
"F_505";104;98;101;93;1928,69730107874;0,686126373626376
"F_506";55;53;53;50;1271,63705115373;0,684363760917972
"F_507";66;62;63;60;1273,77085384096;0,643478260869568
"F_508";50;51;51;52;446,853075867572;0,613856316247631
"F_509";62;57;61;62;1076,58382349966;0,648560917550316
"F_510";56;65;55;64;1161,70036280224;0,654366812227076
"F_511";28;29;28;26;106,96655648719;0,570612594602313
"F_512";84;59;87;63;1239,39950080484;0,644654764465477
"F_513";59;62;60;66;747,657742231849;0,656445077209507
"F_514";40;44;37;47;796,593359109406;0,650531799435646
"F_515";33;31;36;34;290,595283543099;0,588512518409425
"F_516";41;43;42;45;504,591176276091;0,607417916497769
"F_517";83;78;79;76;2114,26286855839;0,686794614723579
"F_518";91;100;99;108;1889,46110482022;0,676752850852435
"F_519";56;41;55;42;812,139818359416;0,65223068552775
"F_520";96;97;92;93;3069,14813056389;0,70663129973475
"F_521";52;49;52;54;559,391785864627;0,628367753433274
"F_522";35;25;38;26;137,189353067737;0,571919278660368
"F_523";70;75;65;75;3168,85184713437;0,714251668255486
"F_524";61;59;62;55;514,393906761418;0,622753246753246
"F_525";59;57;60;60;862,484387124803;0,618671620993961
"F_526";32;30;29;29;90,8783707676025;0,55489724125162
"F_527";31;33;32;33;103,024828722762;0,556184466920293
"F_528";15;22;16;23;42,509475689367;0,527780223650613
"F_529";24;25;23;27;53,2074252892746;0,571619301926376
"F_530";30;25;31;26;59,3906824123706;0,570395394204691
"F_531";87;90;91;91;2346,65532521292;0,69459412480445
"F_532";68;73;70;76;2001,0999286948;0,675570583262893
"F_533";35;47;36;47;266,565319467065;0,563028367461957
"F_534";66;64;66;64;617,67059683965;0,640692640692642
"F_535";79;81;79;80;1688,93708494783;0,666444296197467
"F_536";77;87;77;87;2377,71293560316;0,682843472317165
"F_537";48;45;58;48;473,369787220943;0,576567910734897
"F_538";41;35;41;38;204,915835261285;0,583102290967458
"F_539";103;88;99;81;2241,09436069636;0,693790149892936
"F_540";56;67;57;66;925,592244126094;0,626201420810697
"F_541";101;96;99;96;2664,01218916922;0,698316537542967
"F_542";70;60;76;59;880,157615739958;0,623044540304557
"F_543";73;80;73;80;1561,4659285476;0,665371593495035
"F_544";34;33;33;31;188,262284341077;0,588628105666306
"F_545";60;64;61;68;1090,45098584645;0,661954721148538
"F_546";67;65;67;62;2072,94139334973;0,694674624789945
"F_547";35;40;33;37;230,548978400835;0,578403937083855
"F_548";75;76;76;72;1705,02015968726;0,703975571084622
"F_549";87;72;84;67;2353,17786718805;0,695158016816472
"F_550";35;28;35;30;101,622940472191;0,552620661042733
"F_551";40;39;39;35;331,251385145063;0,611726284635403
"F_552";40;37;46;34;575,004888042977;0,641412520064211
"F_553";91;84;88;78;1998,42136480901;0,690036263166986
"F_554";48;57;49;59;503,71644046086;0,63184525378169
"F_555";18;18;21;20;45,8403050921238;0,536880290205563
"F_556";98;91;100;97;5087,00212149132;0,731020184157573
"F_557";102;84;96;87;2783,68726743692;0,709517045454549
"F_558";70;65;76;69;1107,25670992707;0,643927593060108
"F_559";29;26;29;27;218,613390145646;0,597517818870556
"F_560";46;48;47;45;757,617333299874;0,636238191274814
"F_561";107;115;108;111;4232,51673471395;0,722734671730876
"F_562";51;61;53;60;953,67143447168;0,637185074944193
"F_563";72;69;79;71;2342,74584172813;0,704099612357575
"F_564";47;45;48;41;402,579053160114;0,581913499344691
"F_565";43;43;42;43;352,716195211429;0,609735008392247
"F_566";36;32;33;34;144,857924023575;0,593171697179612
"F_567";47;37;45;40;325,154265860057;0,577373211963588
"F_568";65;65;63;67;2598,97748807177;0,709895185645766
"F_569";49;59;50;58;573,71217547458;0,604996214988644
"F_570";42;39;44;40;208,590989027576;0,579382340147889
"F_571";80;80;80;81;1800,72460710955;0,667037614066327
"F_572";106;102;107;96;2757,23126368732;0,693589446887296
"F_573";76;67;73;67;1779,44052275347;0,687070151306745
"F_574";61;64;59;60;912,821963511823;0,647195378718353
"F_575";15;16;18;19;46,9079505929341;0,526921893543142
"F_576";57;44;59;45;751,808485159423;0,594318576173714
"F_577";74;82;79;87;1685,79989892196;0,68373923458621
"F_578";61;54;61;56;929,089979093464;0,644065975393544
"F_579";43;42;44;44;284,512756877201;0,597428485996211
"F_580";36;36;38;40;236,781526398503;0,583812213889159
"F_581";47;40;50;40;583,271640409135;0,606403965805047
"F_582";18;21;18;20;44,566505958445;0,558698792934705
"F_583";68;76;64;79;1526,72653861962;0,661479887435857
"F_584";81;87;80;83;3041,90636521397;0,704099612357574
"F_585";106;105;102;113;3066,4371662872;0,694956521739132
"F_586";75;64;77;64;2023,30335364396;0,674961995383145
"F_587";41;40;41;43;526,766868776093;0,62757826405612
"F_588";77;67;74;69;1356,34890097639;0,664560119740566
"F_589";35;41;36;43;186,226004679072;0,59086204347183
"F_590";41;35;42;38;317,944451776805;0,619086965502996
"F_591";43;46;45;48;628,949324421453;0,625058657907086
"F_592";84;84;87;87;2629,27613164384;0,686833963561362
"F_593";38;33;37;33;586,350810352033;0,646601941747575
"F_594";83;95;88;97;1896,91727762167;0,671935429628386
"F_595";45;45;46;46;344,057846703538;0,602563458155314
"F_596";87;74;85;72;2513,0439600899;0,703562415634726
"F_597";62;48;69;51;572,612486489934;0,641824606488918
"F_598";49;45;49;44;289,472632084371;0,568582811610699
"F_599";93;83;93;88;1893,40853410451;0,677211614506837
"F_600";74;87;77;86;1824,47008026603;0,665630205441427
"F_601";47;58;43;59;556,846766358324;0,633950290851401
"F_602";30;38;30;40;175,534383143907;0,567640513281878
"F_603";83;82;86;82;1653,07330105649;0,692187770656506
"F_604";59;56;58;51;869,831502197234;0,656265396616853
"F_605";55;58;55;57;552,091839053697;0,626594187748274
"F_606";40;45;42;45;911,190909671159;0,634285714285717
"F_607";86;85;92;82;2476,27019795864;0,690791748300107
"F_608";63;63;61;64;710,469356094931;0,620143810459882
"F_609";27;29;27;31;284,112363463125;0,606097376004853
"F_610";68;75;71;75;698,92960727419;0,604386186034786
"F_611";52;47;52;48;404,761819260947;0,619118938181066
"F_612";81;86;75;86;2536,81739015731;0,710400000000002
"F_613";105;103;104;108;3538,7589855002;0,712595850918388
"F_614";44;49;46;53;634,465180624647;0,597249900358707
"F_615";28;22;29;22;109,952226940231;0,546001093095282
"F_616";84;83;80;86;2554,08759681007;0,704140969163001
"F_617";80;87;78;86;2013,501925424;0,679514794241017
"F_618";98;94;95;95;2903,68585876813;0,691429230591765
"F_619";40;41;43;40;425,457107295628;0,609703997558741
"F_620";69;68;68;63;1714,81812910438;0,68389525928462
"F_621";40;47;40;48;375,429854411132;0,61555840821566
"F_622";57;55;59;59;299,1921589131;0,604691046658258
"F_623";59;63;57;58;1420,33631779687;0,660095809702112
"F_624";49;48;50;45;357,161385642774;0,584238998001851
"F_625";84;97;76;91;1490,68735301846;0,683544303797471
"F_626";48;47;51;49;442,996706887594;0,590367379099772
"F_627";63;63;64;66;2049,66221821746;0,66430233846836
"F_628";36;32;35;30;278,596188430975;0,553590394827984
"F_629";84;76;85;72;1754,90521742469;0,671521398162673
"F_630";42;44;44;44;319,10323040534;0,605974826871555
"F_631";52;49;52;47;320,951097857459;0,596506941334527
"F_632";81;85;80;86;1959,93946100092;0,665963002055443
"F_633";65;77;66;78;1531,65316299944;0,67568481569158
"F_634";54;50;50;48;1258,98212174146;0,654581194714434
"F_635";61;57;53;51;1101,03233049198;0,664449617559031
"F_636";34;34;35;33;229,562891965623;0,565898791540785
"F_637";31;32;34;35;391,834534167065;0,633883248730969
"F_638";51;49;54;51;631,01438111804;0,639496425904196
"F_639";79;81;79;80;2977,59697976348;0,715786959636976
"F_640";117;104;114;99;2782,35105617917;0,688451157181417
"F_641";35;34;35;33;184,168359788571;0,591678594343812
"F_642";86;98;93;98;3551,7540952849;0,699171818499946
"F_643";51;48;50;44;651,641632148034;0,639735311382679
"F_644";73;70;72;66;2076,66920407145;0,690871369294606
"F_645";40;37;40;36;275,302813765777;0,587992937021776
"F_646";52;50;50;49;999,967270036116;0,656337257049002
"F_647";69;63;68;61;1160,83446866334;0,642168416541677
"F_648";26;30;25;30;121,17955441356;0,55474317445627
"F_649";81;77;80;80;2693,6136298831;0,68001588292019
"F_650";29;29;29;32;186,757636330924;0,574715949949661
"F_651";79;78;77;78;2220,67773263761;0,680093039087765
"F_652";57;59;54;60;697,504818783832;0,626070607896386
"F_653";71;73;73;69;4278,26691915528;0,714038954077077
"F_654";61;53;59;50;716,372048767428;0,631179908387301
"F_655";65;67;67;67;1545,69018617778;0,656193551918555
"F_656";64;73;64;74;1230,02948379288;0,653974142163549
"F_657";39;45;41;48;404,757069718148;0,60637329286798
"F_658";87;84;88;84;2103,9256580976;0,689917127071829
"F_659";19;19;19;19;26,1683255875551;0,532043316172555
"F_660";53;46;53;48;644,029719317589;0,61988727441957
"F_661";84;72;82;71;1998,31940253268;0,663897657418177
"F_662";35;41;32;41;558,639207908021;0,630681818181819
"F_663";72;66;71;68;1311,17918066516;0,684480986639265
"F_664";65;51;70;50;514,181382721888;0,635900700190963
"F_665";86;95;91;91;3815,79613483027;0,702490477585705
"F_666";77;71;76;65;1220,16592121716;0,657705601580075
"F_667";38;46;38;48;452,425436722676;0,593612280267392
"F_668";54;45;54;45;436,078131071256;0,609456024402642
"F_669";31;30;33;33;112,184829205772;0,557425834650795
"F_670";90;78;88;81;3646,52377714017;0,7163858013625
"F_671";23;22;23;24;106,789238116287;0,566353285775025
"F_672";88;89;87;90;1915,17602070525;0,672614038040735
"F_673";35;25;37;27;246,971043273471;0,591182562382877
"F_674";52;44;57;49;859,914377006211;0,624179943767572
"F_675";46;42;45;43;302,725308926802;0,607818283222633
"F_676";68;59;69;61;711,657942506239;0,620914694152379
"F_677";54;52;57;50;1443,8690155798;0,644481479490354
"F_678";88;89;90;91;3355,42508729446;0,701832445407181
"F_679";108;99;99;99;4371,94164012029;0,712807706029256
"F_680";56;65;61;67;1219,12757425403;0,635833244934764
"F_681";38;48;44;50;326,15176376263;0,614485622020606
"F_682";37;34;36;37;132,27279254852;0,562104374736249
"F_683";88;94;80;90;3143,38800071094;0,709517045454549
"F_684";76;68;77;70;2440,35028524456;0,685537828100877
"F_685";84;80;88;76;1801,57198904903;0,707089772325119
"F_686";71;64;73;63;386,312850300356;0,619150914161759
"F_687";72;62;74;61;1417,15608654456;0,663640389725424
"F_688";54;55;55;56;597,840884727246;0,627020241644438
"F_689";55;58;61;58;1034,23030641134;0,635765803988121
"F_690";40;44;41;43;300,232734282427;0,586870318695843
"F_691";93;95;88;90;2101,77548772336;0,683934276586035
"F_692";62;61;63;65;1054,83101616091;0,645036319612591
"F_693";55;60;50;56;537,409217522854;0,626136007521153
"F_694";102;102;103;101;2323,73392399379;0,682415893436558
"F_695";54;72;56;71;1561,64745943227;0,682415893436563
"F_696";26;37;31;37;218,640438950739;0,59567701863354
"F_697";53;45;54;45;785,895562642096;0,652124245226571
"F_698";58;63;61;63;1207,59277443108;0,611196084429488
"F_699";30;27;30;25;149,385852358998;0,558829013611784
"F_700";74;65;79;67;1799,99766598166;0,678860637635202
"F_701";45;46;44;43;363,755432844055;0,59772636617471
"F_702";56;55;54;52;410,309081452948;0,598084214727599
"F_703";51;54;51;54;297,884186139261;0,60395989722404
"F_704";83;74;85;79;1779,39332873344;0,670319838962203
"F_705";60;56;59;51;1008,99121154506;0,64451612903226
"F_706";81;79;79;78;1085,69004201874;0,656552932800264
"F_707";53;49;54;50;788,407509604221;0,643754698743424
"F_708";37;43;41;46;152,964676325872;0,576346153846152
"F_709";25;26;24;25;183,982981995967;0,59532204399861
"F_710";39;35;40;37;183,195008297225;0,561446234544773
"F_711";41;50;43;48;315,196833170679;0,621075536213864
"F_712";61;63;64;67;556,857614544947;0,605638072143073
"F_713";82;79;82;82;1347,01613070248;0,66759480982347
"F_714";23;23;23;23;71,9805999187976;0,542173578761703
"F_715";56;61;53;59;1258,66517219586;0,62541736227045
"F_716";31;32;31;36;358,873423088922;0,5861816048115
"F_717";54;59;59;65;1132,45113228009;0,641755888650965
"F_718";63;53;63;51;789,143158554409;0,608527918781725
"F_719";38;39;39;37;436,691943123525;0,586726703210649
"F_720";35;43;35;43;371,217784366429;0,601022761455929
"F_721";81;91;73;85;1695,72062126312;0,675114039533707
"F_722";73;72;75;71;1544,46449941313;0,642995065436602
"F_723";53;55;57;56;401,847522940176;0,605699272433305
"F_724";34;31;34;31;323,858523274215;0,610231611096971
"F_725";94;76;93;74;2138,53675635322;0,693549320219845
"F_726";29;43;30;40;285,742988722632;0,606403965805048
"F_727";49;53;55;54;376,116421440238;0,606588068613064
"F_728";28;26;29;27;89,7867492652681;0,547122449911004
"F_729";51;46;49;49;424,419978673459;0,633447820343463
"F_730";80;82;77;79;2276,73433029756;0,676409185803759
"F_731";50;53;49;52;421,864863013776;0,619182893445586
"F_732";80;101;85;99;2993,48044653537;0,704927672586153
"F_733";49;48;49;54;327,686319585579;0,600872136735
"F_734";77;74;72;76;1690,4628063459;0,674885998986659
"F_735";39;46;40;45;283,738665102384;0,586296278182617
"F_736";93;88;90;85;2474,97025505494;0,700192745750834
"F_737";35;44;35;42;432,792951540579;0,581461900373477
"F_738";33;44;35;47;153,883744169602;0,569311867787433
"F_739";111;98;114;95;3065,36692586701;0,706131825410853
"F_740";70;85;69;81;1706,8410843939;0,681872475968377
"F_741";70;90;70;90;1593,98963045202;0,678668478260872
"F_742";73;74;74;79;1474,01364861568;0,671860113209665
"F_743";59;52;63;53;484,113024718931;0,60301810865191
"F_744";93;97;95;95;4233,73965714928;0,728532360984506
"F_745";70;75;71;76;1624,84227884622;0,668674698795183
"F_746";86;83;90;86;1743,97888876892;0,668562824159279
"F_747";80;77;78;75;2946,84400963857;0,689401345678304
"F_748";36;29;34;27;117,236130355294;0,580055160400636
"F_749";82;77;84;74;1079,24067937004;0,647125506072875
"F_750";55;49;54;49;514,766212480587;0,597875417684903
"F_751";46;57;50;61;1018,75247614901;0,645244631035042
"F_752";39;48;39;51;591,629115062221;0,615021547301457
"F_753";94;90;90;83;3875,9511366627;0,724832214765104
"F_754";60;57;59;59;729,379468631191;0,648350459707951
"F_755";99;84;104;92;2355,77422395489;0,683661248930713
"F_756";55;62;57;64;831,334634793782;0,640111063648016
"F_757";79;97;80;90;4171,34141927473;0,734378828718455
"F_758";86;80;84;79;2361,89607635594;0,691948051948056
"F_759";33;31;33;28;400,21852380585;0,597279657216879
"F_760";62;67;60;66;2025,05815040926;0,682999088422974
"F_761";28;31;28;32;134,046677819523;0,544265867611006
"F_762";72;71;68;68;1679,60453752136;0,649932230956902
"F_763";27;34;27;35;168,081238329662;0,554717504974318
"F_764";43;54;50;61;324,911038224588;0,596388239391074
"F_765";57;52;58;57;674,37908895004;0,623465779072186
"F_766";98;103;99;109;4399,58541754954;0,721082706766921
"F_767";76;72;76;72;1493,63042967052;0,676294708338036
"F_768";28;25;26;24;137,513096884515;0,568286323773405
"F_769";27;34;27;33;192,478241329919;0,583272514961318
"F_770";52;49;53;54;495,492429829288;0,631346113334738
"F_771";44;40;48;42;337,410756567958;0,615021547301456
"F_772";41;48;41;49;401,834467400797;0,593994648696856
"F_773";52;50;53;48;539,811859132332;0,593259761468797
"F_774";32;26;30;23;176,249056982685;0,587762306334574
"F_775";62;65;55;65;1439,44985246494;0,640076886112448
"F_776";42;41;44;42;325,121219272478;0,576013838170285
"F_777";69;60;72;63;1989,60970889358;0,667186108637584
"F_778";33;33;33;34;220,448752638492;0,556985550341495
"F_779";57;58;61;56;1780,72458091431;0,661370407149955
"F_780";32;36;30;35;263,69945532614;0,600120144173007
"F_781";35;37;33;37;291,129560662207;0,607849102525098
"F_782";17;17;18;17;41,6264937747674;0,528524821444318
"F_783";43;51;43;53;775,926488509209;0,655153568696034
"F_784";60;52;59;53;1012,27885557968;0,640418825791979
"F_785";35;28;35;29;126,428576198981;0,556210272351876
"F_786";97;101;98;106;5194,04742699165;0,715402518350541
"F_787";80;80;83;82;1810,77722612896;0,676982154958213
"F_788";82;85;83;79;1972,12467938666;0,678476427641639
"F_789";49;47;52;50;570,067922712276;0,597458260652877
"F_790";70;62;76;70;2009,4304833422;0,686047842508873
"F_791";74;70;78;72;1245,4014796492;0,671897769308377
"F_792";78;74;75;71;1531,25802789634;0,666037002055672
"F_793";30;44;33;47;235,094599351766;0,564938737040527
"F_794";66;72;61;71;2392,81482827481;0,696612237782558
"F_795";51;49;49;45;447,775091952022;0,61720640477784
"F_796";64;73;72;74;915,553514335397;0,649333766655834
"F_797";69;80;71;87;1771,91510716972;0,663493469116672
"F_798";80;73;78;71;1439,44153350224;0,65226617335002
"F_799";36;33;35;35;219,276557983571;0,596744487032703
"F_800";52;72;51;75;1779,85800866371;0,662723201945937
"F_801";26;26;27;26;140,756776783318;0,557114973510549
"F_802";74;82;73;80;1511,16768025247;0,682377049180329
"F_803";35;39;38;40;217,642715593839;0,579914860681114
"F_804";38;29;40;33;195,776601518705;0,574468085106382
"F_805";101;116;93;112;5445,59412999555;0,726853816770755
"F_806";43;37;48;39;360,218437262484;0,571701082550431
"F_807";87;96;82;92;2796,58149668379;0,699743170674763
"F_808";37;30;37;29;77,2978638805102;0,561078348778432
"F_809";72;67;75;68;1115,69931095394;0,665741100683073
"F_810";71;97;70;94;3278,03755062158;0,710105437744349
"F_811";54;50;55;52;605,843709622762;0,626626940567666
"F_812";85;88;87;88;2171,90953127185;0,694714881780255
"F_813";37;31;39;35;182,131928212087;0,571455810849461
"F_814";35;33;37;33;180,445925430476;0,590425531914892
"F_815";52;53;52;53;1069,7581963303;0,621494115817306
"F_816";63;59;62;62;609,05478538948;0,635934433186568
"F_817";24;25;26;24;260,537839761742;0,550110132158591
"F_818";24;31;27;33;69,7067060342594;0,559089637160712
"F_819";52;48;50;44;381,730559017014;0,599729851418279
"F_820";43;48;45;48;191,302559529587;0,577428832907855
"F_821";71;74;74;82;1952,05047872288;0,652656794425089
"F_822";49;57;53;53;1332,73864989081;0,656948706707589
"F_823";43;34;46;39;418,961732088067;0,569690633464809
"F_824";50;50;45;47;796,493015839569;0,644100580270795
"F_825";40;35;44;36;247,699141553823;0,600150187734666
"F_826";59;72;57;77;1724,00398614044;0,661151555261419
"F_827";80;78;81;79;1996,26516645257;0,68785861831536
"F_828";76;90;72;86;2053,42519691796;0,675228117607302
"F_829";75;88;83;91;1274,29530888393;0,662759840778419
"F_830";40;43;40;42;237,036670163097;0,584894613583137
"F_831";55;55;51;52;506,388844726812;0,633816220788835
"F_832";38;33;41;36;219,300605270089;0,565738555922604
"F_833";41;43;41;44;351,368833586622;0,603625377643503
"F_834";21;23;21;26;105,552565387817;0,533939070016035
"F_835";62;57;61;64;1710,45705362563;0,662540068531007
"F_836";94;96;96;101;3340,38396647729;0,707048068416401
"F_837";65;69;64;66;460,732510573427;0,633481293595434
"F_838";42;50;42;48;504,135407044614;0,635428813739004
"F_839";46;40;52;43;642,705434354802;0,62593984962406
"F_840";64;73;58;68;1826,84318073238;0,680594981264911
"F_841";53;59;52;58;556,56431337486;0,631412619825136
"F_842";35;41;38;44;440,281540402523;0,599819873911737
"F_843";56;67;57;67;1045,94261664426;0,648701298701302
"F_844";74;64;77;64;1052,01879343639;0,643512802619573
"F_845";50;46;52;47;625,499439760726;0,63201180936314
"F_846";89;90;84;89;4505,5603644679;0,721169463995672
"F_847";68;63;67;64;1496,28680679114;0,641172380595821
"F_848";80;68;76;67;1896,4176952638;0,648596007141701
"F_849";43;49;42;48;396,363173017933;0,61097803373936
"F_850";36;30;38;32;173,900156285487;0,560947077815731
"F_851";26;25;28;26;108,177267051823;0,545603495357728
"F_852";35;35;35;34;194,563832576789;0,606864432519995
"F_853";61;72;61;71;1305,81447995105;0,657381004606277
"F_854";56;57;55;60;767,444123613271;0,608836973082782
"F_855";71;67;75;67;773,834890097918;0,617460726242595
"F_856";58;70;67;75;1588,78887439992;0,647824912185898
"F_857";89;83;90;85;1911,06250895547;0,69254766031196
"F_858";43;48;42;51;295,025087211746;0,591474245115452
"F_859";83;77;82;72;3939,71629965116;0,727294788570046
"F_860";59;69;59;72;991,183772392661;0,630781373322809
"F_861";50;47;53;44;789,137286217833;0,637151209141643
"F_862";63;74;68;72;1116,7776916944;0,679091372571233
"F_863";86;82;89;85;1955,35485981124;0,65673277089953
"F_864";59;69;63;66;1224,6788540567;0,668301928866096
"F_865";42;38;41;36;200,319763290962;0,560947077815731
"F_866";64;64;64;65;1249,19918648784;0,646846166297958
"F_867";72;67;68;63;1952,69019682421;0,693750000000006
"F_868";39;45;37;42;367,112095016806;0,580476467170249
"F_869";60;58;60;59;645,377448087292;0,636001909915647
"F_870";76;68;77;68;1792,40376841092;0,671295777802668
"F_871";76;86;75;84;2448,37194361136;0,691389353480594
"F_872";41;46;43;48;260,945705630076;0,584096667316312
"F_873";34;30;35;30;128,843090910912;0,59077468953282
"F_874";66;57;70;58;987,694595362753;0,674848007205586
"F_875";55;56;56;59;722,338360432238;0,617142857142856
"F_876";75;71;74;76;1401,3621104328;0,665297741273102
"F_877";72;68;75;68;1235,30827070036;0,630383341221012
"F_878";91;105;94;105;5509,41143825162;0,729330169739007
"F_879";47;54;46;50;324,395654602246;0,593318485523385
"F_880";37;46;39;45;240,55707839167;0,574798619102416
"F_881";58;57;57;55;756,589291540162;0,655153568696034
"F_882";48;47;50;47;584,094229905986;0,613479351107926
"F_883";17;17;17;17;23,3018706081786;0,52801268498943
"F_884";52;49;53;50;511,941930638172;0,593994648696857
"F_885";60;55;64;58;795,595563451696;0,621333056908883
"F_886";21;22;21;21;54,9467234417207;0,531972487242068
"F_887";13;21;13;21;78,8064393856469;0,547772446881426
"F_888";76;90;78;90;2333,09249742351;0,697463346520831
"F_889";68;62;68;60;1005,0035850569;0,640179429669979
"F_890";79;88;78;87;2794,03964704229;0,712384121701929
"F_891";87;77;86;78;1421,6801430908;0,666666666666668
"F_892";65;70;68;72;1740,43259165255;0,68837209302326
"F_893";93;95;97;98;2949,67903167819;0,710694806734648
"F_894";66;62;70;62;934,038812720652;0,643962183068329
"F_895";62;51;60;49;688,155184185926;0,613636363636363
"F_896";78;85;80;87;1507,25394016264;0,673294018534121
"F_897";70;94;66;83;3425,74912703557;0,712850092168643
"F_898";42;38;42;38;507,231890790735;0,610045290316014
"F_899";65;62;69;65;818,347385487306;0,65021424309812
"F_900";87;96;85;89;3081,17875374452;0,718274415817859
"F_901";41;48;40;43;807,056258938559;0,635732088879462
"F_902";48;49;48;50;987,00533757844;0,658970976253301
"F_903";58;64;60;65;637,143683651588;0,634655090264175
"F_904";71;79;75;87;2034,86482139213;0,684832904884321
"F_905";52;44;50;46;335,794242514854;0,630914162412504
"F_906";39;39;40;43;235,706619867897;0,5972201464654
"F_907";51;54;53;53;842,082247011687;0,636745100122166
"F_908";75;95;66;89;1902,77394509862;0,66122448979592
"F_909";93;115;90;113;5214,9662196798;0,729418923030122
"F_910";68;59;75;63;1458,52888796239;0,648070061628286
"F_911";37;42;40;44;389,442511917704;0,636035653650257
"F_912";39;36;42;37;211,506211116626;0,58112366086577
"F_913";36;35;38;34;137,683701094467;0,574523147704399
"F_914";77;66;75;66;1070,51520610725;0,643202060306902
"F_915";101;98;96;102;3489,08399531585;0,716385801362498
"F_916";88;91;78;88;4513,33560568097;0,736906810917138
"F_917";77;76;78;80;1143,91578571985;0,641618497109828
"F_918";48;47;46;43;798,330397322681;0,648210230344978
"F_919";48;64;48;64;437,262901231019;0,613542146476277
"F_920";20;23;21;24;72,738980908556;0,534248406791747
"F_921";101;92;91;81;3370,04433081424;0,704430602891058
"F_922";30;22;29;23;145,105330949841;0,568313264435383
"F_923";43;35;43;32;221,149007898808;0,596774193548386
"F_924";64;72;66;72;986,075759428244;0,629787234042553
"F_925";36;36;36;34;214,959120305609;0,581772299330291
"F_926";46;59;45;61;411,13882240561;0,629258306650569
"F_927";43;45;46;46;274,44708186865;0,604782564826959
"F_928";42;40;44;44;250,711821691392;0,56977186311787
"F_929";69;61;66;62;1787,59996240539;0,659696235967424
"F_930";57;67;55;66;2842,90291193367;0,720562601430548
"F_931";74;86;76;88;1272,74940481729;0,66419192199014
"F_932";34;34;36;35;368,831331044647;0,615843008322202
"F_933";59;63;64;65;659,381622340046;0,624895746455379
"F_934";88;90;87;90;2193,6748032449;0,697544512975683
"F_935";27;34;30;32;191,782307380641;0,592643859996044
"F_936";29;31;28;32;133,173733065099;0,549102235251008
"F_937";48;55;47;53;461,254474400281;0,623400936037441
"F_938";74;82;69;78;1127,06787951189;0,657128761716824
"F_939";27;22;27;22;122,991291800542;0,573231960981206
"F_940";32;37;34;39;527,260256944864;0,615716486902927
"F_941";47;50;48;52;1155,67358438237;0,631778656126485
"F_942";36;42;38;42;407,796435290005;0,606526688590942
"F_943";83;68;84;66;1446,91849742882;0,673596673596675
"F_944";76;72;74;68;1682,85228625601;0,672802783701876
"F_945";93;72;93;70;3702,31715407135;0,711665182546753
"F_946";75;82;78;85;2037,207405908;0,678514829069509
"F_947";72;81;73;77;2664,8256765221;0,7052179539973
"F_948";47;36;48;37;369,643178236574;0,615495199466037
"F_949";27;33;30;35;423,437362833281;0,586238935889285
"F_950";45;36;44;38;444,232231933974;0,593818109768177
"F_951";91;76;94;77;1549,83134535507;0,662979758876233
"F_952";76;84;77;82;1505,64407248342;0,665150086001222
"F_953";86;87;79;81;3443,46631097222;0,714209115281506
"F_954";40;50;39;48;483,97620268997;0,624407521225065
"F_955";96;93;99;100;3163,87319893291;0,707214913574423
"F_956";39;40;39;44;951,171814812998;0,662466843501333
"F_957";28;41;30;45;191,095511494343;0,595469898668785
"F_958";71;60;73;62;1300,34631360827;0,694392956441156
"F_959";62;48;59;52;637,600207075946;0,631745362563238
"F_960";68;68;67;68;1102,32831768304;0,65835575814158
"F_961";46;43;48;45;509,176028183379;0,630317051369683
"F_962";65;68;63;67;1881,54571988301;0,660714285714287
"F_963";67;58;67;62;601,486314512536;0,640863893937776
"F_964";31;31;32;33;87,2040044419991;0,552646136824636
"F_965";59;70;59;68;1784,17074796956;0,681058970571532
"F_966";56;57;57;58;1163,33584189987;0,631412619825134
"F_967";62;66;64;69;718,287714589833;0,647090575407538
"F_968";33;31;33;32;393,461752377159;0,590280171352601
"F_969";29;32;29;32;153,149930337285;0,558438533563143
"F_970";14;20;15;21;35,9037967127935;0,533796419983971
"F_971";25;28;26;28;114,074244692242;0,56734500709891
"F_972";70;74;69;75;1423,45535211251;0,677173360447387
"F_973";65;60;69;62;1211,90012765822;0,655117765998144
"F_974";34;35;34;35;152,612735152421;0,561288510160126
"F_975";83;75;90;81;2109,74210748684;0,667817948860789
"F_976";82;73;80;78;1994,65365593709;0,665260821309658
"F_977";64;66;67;67;1973,42616732208;0,676905702992662
"F_978";69;68;66;67;2585,14815007525;0,66574110068307
"F_979";45;44;43;44;303,210536908004;0,598472367829863
"F_980";33;36;31;33;191,744889955683;0,558464548588465
"F_981";61;61;59;53;1088,47380016377;0,664339152119704
"F_982";104;112;98;119;4228,99448456207;0,726941968346374
"F_983";31;33;34;34;283,760301424534;0,564220831176165
"F_984";52;58;53;57;686,353024189389;0,64510574180703
"F_985";33;33;31;32;288,734938810244;0,623076923076925
"F_986";72;71;70;68;1169,48757810317;0,643512802619572
"F_987";70;78;72;80;1903,6355081336;0,675570583262893
"F_988";78;84;81;87;1212,70715675529;0,669720670391063
"F_989";32;33;33;35;244,208937275195;0,568474962063732
"F_990";68;76;68;71;1434,68249756333;0,676638257041262
"F_991";66;65;62;62;1379,08242342436;0,673180592991917
"F_992";76;80;77;81;1755,01456610647;0,67640918580376
"F_993";66;59;63;58;840,114751424445;0,632278481012659
"F_994";47;43;47;46;465,235396858301;0,62094685589972
"F_995";100;96;99;89;3553,47851109781;0,697909995924786
"F_996";33;31;35;32;254,272779633136;0,570829960478071
"F_997";81;85;78;81;2367,33864767654;0,682882369695248
"F_998";64;66;62;67;790,496345450853;0,634957627118645
"F_999";75;65;78;64;1311,95731994752;0,672576301615805
"F_1000";47;57;50;55;683,736952034955;0,611976109040787
