"ID";"index"
"R_1";0,175
"R_2";0,16
"R_3";0,15
"R_4";0,183333333333333
"R_5";0,113333333333333
"R_6";0,28
"R_7";0,0666666666666667
"R_8";0,06
"R_9";0,105
"R_10";0,045
"R_11";0,25
"R_12";0,26
"R_13";0,1725
"R_14";0,24
"R_15";0,315
"R_16";0,095
"R_17";0,373333333333333
"R_18";0,183333333333333
"R_19";0,110833333333333
"R_20";0,249166666666667
"R_21";0,25
"R_22";0,133333333333333
"R_23";0,210833333333333
"R_24";0,14
"R_25";0,04
"R_26";0,24
"R_27";0,191666666666667
"R_28";0,1275
"R_29";0,1
"R_30";0,281666666666667
"R_31";0,1225
"R_32";0,346666666666667
"R_33";0,0875
"R_34";0,09
"R_35";0,315
"R_36";0,0566666666666667
"R_37";0,21
"R_38";0,1
"R_39";0,075
"R_40";0,165
"R_41";0,1225
"R_42";0,116666666666667
"R_43";0,0283333333333333
"R_44";0,0633333333333333
"R_45";0,128333333333333
"R_46";0,183333333333333
"R_47";0,0633333333333333
"R_48";0,165
"R_49";0,134166666666667
"R_50";0,1925
"R_51";0,095
"R_52";0,15
"R_53";0,1875
"R_54";0,191666666666667
"R_55";0,0475
"R_56";0,1875
"R_57";0,175
"R_58";0,2
"R_59";0,165
"R_60";0,128333333333333
"R_61";0,175
"R_62";0,16
"R_63";0,075
"R_64";0,191666666666667
"R_65";0,0283333333333333
"R_66";0,249166666666667
"R_67";0,2
"R_68";0,1575
"R_69";0,0708333333333333
"R_70";0,153333333333333
"R_71";0,191666666666667
"R_72";0,105
"R_73";0,25
"R_74";0,06
"R_75";0,1575
"R_76";0,075
"R_77";0,270833333333333
"R_78";0,133333333333333
"R_79";0,1
"R_80";0,216666666666667
