"Foraging";"In";"Out";"InLink";"OutLink";"Betweeness";"Closeness"
"F_1";90;98;94;96;2288,55651235478;0,705716135868607
"F_2";80;79;78;79;1907,81050728002;0,673445312061123
"F_3";85;95;84;99;3052,41449285462;0,70133972971392
"F_4";34;34;39;35;213,706049859643;0,59425965399296
"F_5";72;70;76;73;1267,6275279668;0,662393634655767
"F_6";58;53;60;56;566,581102651626;0,6020792526744
"F_7";45;44;44;42;366,211385493832;0,594760865251041
"F_8";78;70;80;70;1149,6879383672;0,637931034482759
"F_9";47;53;53;54;420,283391921812;0,601475089057246
"F_10";72;62;67;66;935,935997642641;0,65304788364112
"F_11";48;45;49;48;833,730907766516;0,617587965586523
"F_12";69;92;72;95;1710,14026734858;0,667334669338679
"F_13";78;95;81;97;1750,80823915843;0,674240719910015
"F_14";49;42;51;45;497,147264611115;0,599849887415561
"F_15";34;39;34;42;362,183481945957;0,601565636290647
"F_16";98;99;92;105;3655,64454096906;0,703479842732236
"F_17";71;69;73;70;2555,34010181922;0,691828254847652
"F_18";14;20;16;21;58,6896858888238;0,524638949671773
"F_19";59;55;64;57;718,257335143996;0,626495949830154
"F_20";26;25;26;26;74,06957404517;0,555540108438759
"F_21";87;85;86;89;2517,89729161237;0,700724807107787
"F_22";80;81;88;81;3817,93523761031;0,690831556503202
"F_23";54;53;55;52;818,446833000066;0,636542239685659
"F_24";45;41;42;39;326,479314449772;0,592409567108123
"F_25";87;89;83;87;2664,52045072304;0,677326402621619
"F_26";76;76;81;78;1852,14041050786;0,669870362092089
"F_27";70;49;74;49;889,307048171566;0,653119041133208
"F_28";65;51;67;50;705,385811909829;0,630151387720773
"F_29";41;45;40;42;335,821696207633;0,601143315615283
"F_30";70;72;67;73;2568,91280234241;0,695198329853864
"F_31";83;76;81;77;1659,27998054832;0,665704131497114
"F_32";49;54;49;50;339,008258890989;0,595736222233264
"F_33";85;89;86;89;1940,92263929226;0,664375969851476
"F_34";48;55;50;54;576,456600963562;0,612758127172356
"F_35";30;32;32;35;136,108785192615;0,557970677216662
"F_36";97;105;102;103;5630,0526761988;0,72959649443126
"F_37";85;81;82;82;2691,29911139668;0,695440306300036
"F_38";74;79;73;77;1350,84707930131;0,66353019316987
"F_39";47;63;47;64;868,471385003156;0,654652686762781
"F_40";51;46;50;46;347,781202298005;0,638168751663565
"F_41";85;86;82;83;2249,4090976028;0,682687927107063
"F_42";75;70;84;73;841,515599625859;0,626954657183201
"F_43";97;98;96;97;3228,58908866683;0,699906585707616
"F_44";62;58;62;60;900,312951416885;0,630250775458704
"F_45";94;88;90;83;2828,53788187949;0,715744223535738
"F_46";35;39;39;41;392,398036625028;0,606680161943318
"F_47";56;65;53;69;1850,64486599168;0,674089068825913
"F_48";72;54;77;61;997,77290237552;0,630151387720773
"F_49";35;30;35;32;154,193224195042;0,574908881642048
"F_50";63;71;62;74;841,998260816041;0,629324373982886
"F_51";69;67;70;74;2147,99603646559;0,68608710582041
"F_52";55;54;60;53;364,924154638511;0,599669851433144
"F_53";65;66;71;65;2161,44601615231;0,673710239406544
"F_54";33;28;32;29;220,474367514338;0,604752055692881
"F_55";70;66;66;63;1675,15285906274;0,672614038040739
"F_56";57;60;59;61;1343,8385083184;0,659079663532912
"F_57";64;69;70;69;1863,67633970649;0,680208806173402
"F_58";46;50;48;54;480,721438646019;0,597428485996211
"F_59";64;54;66;53;1025,98188374199;0,658970976253301
"F_60";69;57;78;57;1656,57551518963;0,67189776930838
"F_61";51;47;56;49;475,310948730849;0,594819886871092
"F_62";67;56;68;59;1041,35805932341;0,670394810423895
"F_63";54;50;52;52;660,625753859513;0,625091250391073
"F_64";42;38;42;38;272,790334071318;0,596566310027369
"F_65";44;51;43;44;523,46987063474;0,640966689835857
"F_66";63;61;59;60;741,558595591816;0,633816220788835
"F_67";74;77;78;76;1735,26421352584;0,677709310871168
"F_68";28;32;29;34;149,53864310151;0,580420257577224
"F_69";57;63;57;62;553,321273170506;0,612820774971883
"F_70";36;40;34;40;468,165040277356;0,619438846690436
"F_71";39;38;39;41;483,883377512246;0,597041685342895
"F_72";42;37;42;42;279,855874594341;0,587416699333594
"F_73";66;64;71;64;1005,01422694259;0,6305822944611
"F_74";58;59;56;62;1121,03831845742;0,650037956837656
"F_75";67;63;70;65;2029,59260657212;0,668264674731035
"F_76";45;51;42;54;827,971922472455;0,654831485224233
"F_77";32;41;38;42;220,041538608939;0,574991606312053
"F_78";49;50;50;50;793,707824371973;0,646044406122013
"F_79";26;33;26;33;149,455157527225;0,561761949390814
"F_80";49;51;51;48;439,231084284415;0,602200231074495
"F_81";37;40;41;41;247,674773307452;0,597785977859778
"F_82";43;38;43;42;469,583140976389;0,613071494323411
"F_83";82;70;80;72;3218,39675664005;0,720735886490715
"F_84";78;79;79;79;1503,43295385505;0,67016994633274
"F_85";46;45;47;45;662,518015936554;0,636812749003986
"F_86";43;40;48;41;404,652591861967;0,592614563250778
"F_87";61;70;56;68;1234,22390094485;0,672010762935143
"F_88";48;48;51;48;643,925336050252;0,619374838543013
"F_89";107;104;100;104;3802,72680757013;0,729552093476146
"F_90";77;78;72;70;1843,31407174798;0,679707433236947
"F_91";60;61;63;65;958,818535399338;0,648245281998596
"F_92";116;103;115;103;3343,42438331235;0,707841284837034
"F_93";62;47;62;47;543,139220522303;0,628203112718126
"F_94";22;22;20;21;68,713699291646;0,529365009273162
"F_95";28;26;29;29;127,257683726191;0,551223100974802
"F_96";72;93;69;93;3039,39334265167;0,704223697350643
"F_97";31;43;33;44;402,332057138707;0,608497030607583
"F_98";68;84;72;84;2138,15125472882;0,705508474576275
"F_99";72;57;74;61;1142,5017877344;0,648982243395411
"F_100";92;88;91;87;3452,00293832239;0,710905532823342
"F_101";72;70;70;72;1251,69468168843;0,676867483484846
"F_102";60;62;59;54;943,069634587903;0,656768750342412
"F_103";55;50;53;58;901,389422508354;0,63532778631618
"F_104";83;74;81;75;2034,93285823644;0,685537828100879
"F_105";66;71;67;75;1403,28625738311;0,682921271505073
"F_106";42;40;40;38;168,119431924143;0,564459930313588
"F_107";26;28;28;30;141,994572252046;0,549202858713579
"F_108";41;35;43;37;326,476318585422;0,590367379099772
"F_109";38;41;36;40;179,038837298431;0,565631782579974
"F_110";35;45;40;48;300,832960433563;0,604203417166473
"F_111";95;95;94;92;2609,36836889848;0,703851573508691
"F_112";79;94;77;89;1525,89118958793;0,65536846708944
"F_113";59;75;61;75;1281,11333285649;0,646985806033787
"F_114";60;49;57;48;807,521583824532;0,656876712328771
"F_115";69;86;70;87;2987,86366671843;0,722647537524869
"F_116";65;56;61;58;1165,7769753543;0,643823845327607
"F_117";46;48;48;52;595,123438010236;0,600420715215866
"F_118";47;36;48;39;839,77128888232;0,651911468812885
"F_119";70;77;70;75;1924,33225406709;0,682532452744254
"F_120";38;43;40;47;384,944258472208;0,593406593406592
"F_121";36;44;38;41;826,420291375991;0,644758780186097
"F_122";58;49;56;50;849,115390006553;0,636474648261217
"F_123";85;83;85;79;2537,09319832142;0,698764280718119
"F_124";62;61;60;62;1320,23188295732;0,65294117647059
"F_125";40;36;44;37;336,344285284072;0,62281795511222
"F_126";55;52;60;59;521,620193302647;0,615906288532675
"F_127";54;56;59;58;1075,84624071545;0,646636819677438
"F_128";58;60;62;65;925,626448506808;0,623822657022427
"F_129";56;55;58;56;890,064782991985;0,624505105230257
"F_130";70;79;72;78;1951,83341463946;0,661370407149952
"F_131";65;69;64;72;956,231740667494;0,648000000000002
"F_132";21;23;21;23;83,1516262317346;0,559063563866996
"F_133";50;48;45;51;893,477507746415;0,668637403089969
"F_134";62;62;62;63;1034,64611288098;0,642202817806826
"F_135";67;71;74;77;879,885467373506;0,62876324347005
"F_136";66;71;68;70;1523,58106471403;0,652727866710229
"F_137";98;91;99;88;2751,72409437791;0,710315814421997
"F_138";68;70;67;75;2137,38602459817;0,688846750560254
"F_139";52;55;53;57;484,673218239014;0,608898821617227
"F_140";22;21;24;19;76,1121935078354;0,577150835299215
"F_141";109;103;107;99;5081,23203708834;0,74082313681869
"F_142";40;48;38;48;770,445173157061;0,615210920660987
"F_143";49;50;46;46;262,676672253024;0,595115170770452
"F_144";49;53;48;53;335,954939930239;0,611102615078757
"F_145";41;43;41;41;761,652667249959;0,640247810296951
"F_146";68;73;71;71;3017,27035441241;0,692707731422631
"F_147";87;86;84;86;1576,93025005348;0,674013268863156
"F_148";55;50;55;53;694,328439952785;0,62593984962406
"F_149";64;60;65;58;1414,78732770051;0,683466362599779
"F_150";40;33;38;32;174,413688312274;0,558698792934706
"F_151";70;51;70;52;871,31344448811;0,651946921905592
"F_152";85;87;84;89;3191,16123266869;0,711538461538463
"F_153";91;78;94;77;1835,27464662818;0,685616242493567
"F_154";65;71;63;70;1680,56376562664;0,677249872888543
"F_155";81;76;82;73;1661,80114970619;0,678476427641638
"F_156";74;81;76;77;2740,8721934262;0,701914632004221
"F_157";62;70;60;68;1495,31985325458;0,671596638655467
"F_158";31;37;35;40;113,713902557834;0,564566261655834
"F_159";32;30;32;31;120,581979196304;0,552595187609477
"F_160";61;53;60;56;1333,12628169428;0,657020716869455
"F_161";105;92;102;94;2477,86580343066;0,68884675056025
"F_162";24;25;23;25;88,5212196224257;0,569311867787433
"F_163";41;38;44;41;419,988417472793;0,587762306334574
"F_164";49;44;51;46;418,94149664925;0,60754105007095
"F_165";29;29;28;28;97,7374176448042;0,55533422893408
"F_166";62;76;64;78;697,198147431913;0,61895910780669
"F_167";66;73;67;79;1693,91302089731;0,663530193169869
"F_168";57;53;55;52;976,359684540414;0,655834564254067
"F_169";45;43;47;45;520,24791013815;0,623627945690059
"F_170";44;42;43;44;461,051704731275;0,606956609791909
"F_171";22;21;26;23;114,858071225691;0,539077255148845
"F_172";33;42;39;45;181,307245969085;0,574605761395771
"F_173";43;51;48;50;596,144195063284;0,639155470249522
"F_174";71;63;73;61;1911,34778623014;0,68202764976959
"F_175";110;121;113;122;6019,12057197628;0,735505245720598
"F_176";75;84;79;85;2953,35448257914;0,70286116322702
"F_177";49;35;49;36;210,470417401441;0,58638231265897
"F_178";62;60;60;57;1435,74446095011;0,667000500751129
"F_179";34;34;35;34;164,760127790859;0,554820197158328
"F_180";20;22;20;23;61,0271026838322;0,535632902908718
"F_181";80;76;82;74;1817,42711095522;0,66301642608263
"F_182";69;73;72;71;1410,31357366114;0,661625917545121
"F_183";68;68;67;70;857,636785534746;0,631612223393045
"F_184";82;76;79;75;2436,61333654239;0,678246110325322
"F_185";24;43;22;41;498,451380690365;0,621172081455001
"F_186";63;58;69;61;1698,30572113419;0,661918171277125
"F_187";107;115;104;108;5532,88204462012;0,743718592964827
"F_188";39;41;41;43;312,564730977722;0,590280171352601
"F_189";46;40;47;40;411,802773527401;0,597041685342895
"F_190";53;46;52;47;530,977025855008;0,631279620853081
"F_191";32;26;33;26;144,442797512453;0,581518311908804
"F_192";73;62;66;56;2019,44746603059;0,683076923076928
"F_193";48;39;49;38;304,449403629711;0,597101160531951
"F_194";24;27;25;27;161,350159554336;0,561235955056179
"F_195";49;54;49;54;771,947065343455;0,628697293895533
"F_196";80;83;77;82;2387,46326108842;0,713656387665203
"F_197";68;74;67;69;1336,64379431587;0,675799086757997
"F_198";43;43;46;49;422,073950586902;0,583925962006818
"F_199";49;45;53;47;317,42641016707;0,599429971498574
"F_200";24;17;26;20;53,5101592324501;0,545330482645681
"F_201";55;56;53;54;955,059562994261;0,615116219405818
"F_202";43;35;44;36;380,315100379922;0,62626684776931
"F_203";77;76;80;73;2241,35560294632;0,668562824159279
"F_204";51;49;49;50;627,325027996385;0,62985341249409
"F_205";28;27;29;27;50,4572367595196;0,553003044561306
"F_206";61;73;57;73;1330,88341418858;0,653332606681564
"F_207";90;89;87;94;2692,04686761119;0,70600706713781
"F_208";82;71;78;70;1311,08674790932;0,649439297903465
"F_209";89;97;92;94;2959,18868359932;0,713741366992141
"F_210";63;63;64;70;869,500454305916;0,628631358154168
"F_211";21;23;23;22;79,7817098845692;0,54747225647349
"F_212";57;50;58;48;669,114240335654;0,612226137582349
"F_213";82;88;82;87;3020,82080451738;0,698397902709003
"F_214";43;39;44;38;449,409031716108;0,59100769079077
"F_215";32;32;32;32;160,582919767;0,564141176470587
"F_216";40;37;43;41;323,687412149096;0,618033716554106
"F_217";97;100;96;102;2029,75824928213;0,685655456417298
"F_218";74;81;69;86;1578,72654792688;0,673180592991915
"F_219";79;86;75;87;1767,8014684974;0,693870463622158
"F_220";76;76;72;77;1612,88114926555;0,679245283018871
"F_221";86;81;91;88;2540,32643112465;0,705217953997296
"F_222";74;68;76;65;875,582721975814;0,653083460448903
"F_223";63;57;65;59;1054,55084141595;0,650073206442169
"F_224";26;29;27;30;124,888105980207;0,558386510782989
"F_225";30;26;30;28;132,898503128519;0,544537815126051
"F_226";81;94;79;87;5947,95050863596;0,737224032962305
"F_227";54;53;54;56;598,836276092544;0,62965491885078
"F_228";120;120;111;111;6458,06945054089;0,762352941176471
"F_229";72;59;72;59;1883,30929621738;0,692507654092781
"F_230";76;66;78;65;1613,22999003622;0,670544803669316
"F_231";88;106;80;106;3411,67485647491;0,708803878673211
"F_232";60;61;64;60;832,723324048069;0,624863174354965
"F_233";62;68;60;60;1220,15968679976;0,647579948141747
"F_234";62;56;61;59;917,539577683971;0,647964974866225
"F_235";98;103;84;92;4425,35626179716;0,731689453125003
"F_236";55;46;55;46;457,288853869936;0,603594985146769
"F_237";50;45;53;47;302,946731083559;0,595499478416372
"F_238";65;56;68;56;1072,6490294944;0,660750702750375
"F_239";53;59;57;58;910,615368819287;0,647964974866226
"F_240";60;56;61;54;641,360198048182;0,618352504255428
"F_241";38;43;40;45;332,823515180621;0,584666406554817
"F_242";29;31;29;30;144,359638432529;0,575239923224567
"F_243";41;45;42;47;615,255859516679;0,62094685589972
"F_244";72;58;76;60;1104,43691055729;0,656265396616852
"F_245";66;65;65;60;1157,45074019025;0,659224635688758
"F_246";70;80;71;79;1436,81230696042;0,672765026095744
"F_247";53;54;54;48;867,351579391957;0,654652686762781
"F_248";57;52;57;53;1304,80257060767;0,631312865343094
"F_249";85;92;87;94;4179,7600254895;0,732181029744093
"F_250";47;49;46;49;405,902628836332;0,600360576923076
"F_251";73;71;70;69;875,193336750314;0,656193551918555
"F_252";39;49;39;47;251,885759804921;0,600571113671659
"F_253";68;76;73;80;1064,129044065;0,638134781220058
"F_254";49;55;49;52;675,101635670958;0,671295777802668
"F_255";60;52;63;56;1045,60752434963;0,658102766798421
"F_256";70;65;74;75;1571,37179673121;0,665297741273105
"F_257";80;71;79;76;2017,51546099276;0,673104997192592
"F_258";93;84;87;80;2770,59046345188;0,697828744397233
"F_259";113;110;105;111;2564,11085118071;0,690791748300106
"F_260";34;33;36;34;148,661297608413;0,556649331352154
"F_261";85;84;84;80;2194,24029339417;0,684715558601784
"F_262";40;43;41;42;577,777041478985;0,604264327839104
"F_263";80;79;76;77;2869,27199242029;0,695399965195202
"F_264";57;65;59;66;1874,16112048172;0,655978112175108
"F_265";62;63;65;60;999,322636576772;0,651344743276288
"F_266";78;73;84;68;2205,84805469686;0,694956521739132
"F_267";65;62;59;59;1144,25074804072;0,64559211589208
"F_268";49;42;53;43;471,79332186612;0,612476370510396
"F_269";79;90;74;86;1950,32187098924;0,692747760762786
"F_270";92;83;86;83;3393,38352369784;0,717500598515686
"F_271";67;57;67;57;1778,35054806096;0,679129843643782
"F_272";83;75;75;75;1713,26118618443;0,681872475968377
"F_273";114;112;115;102;8637,72765560689;0,755435125086649
"F_274";48;51;49;48;548,430297251896;0,610697911360162
"F_275";64;61;64;62;691,250716228505;0,63512582781457
"F_276";98;114;94;108;3384,96011712649;0,712892483349192
"F_277";35;25;35;26;265,886671747399;0,576041516505692
"F_278";94;88;94;93;1672,18670840146;0,67465811244302
"F_279";87;83;89;85;2293,44145377503;0,681911262798637
"F_280";71;68;81;78;2203,43187887917;0,65212424522657
"F_281";91;99;91;97;3088,85271110755;0,711496231230341
"F_282";107;93;103;94;4120,60431382782;0,726325355952746
"F_283";22;22;22;22;86,7682101059932;0,532255916174577
"F_284";99;82;98;86;2719,18345422173;0,702902374670189
"F_285";70;74;68;75;1228,46083091806;0,646009592067686
"F_286";57;55;61;58;990,092986825776;0,630250775458703
"F_287";57;61;59;63;912,186677873926;0,638372650300869
"F_288";74;64;74;69;1259,63764431228;0,65955105633803
"F_289";79;83;85;87;1392,47779609277;0,663493469116673
"F_290";59;57;62;60;1102,99099388169;0,671333370666971
"F_291";101;88;99;88;2813,79994389507;0,691269749740516
"F_292";88;88;83;91;2166,86681699994;0,690951008645535
"F_293";24;21;25;22;94,1928612181907;0,567076631977292
"F_294";42;45;52;49;553,48601361122;0,616730116267105
"F_295";37;39;34;41;325,782018533976;0,606526688590943
"F_296";44;41;49;43;267,799148349015;0,584295949700248
"F_297";41;42;47;43;341,952331542581;0,587964098288292
"F_298";79;76;78;74;1127,58660721806;0,658717511951208
"F_299";71;84;75;79;1629,74194759183;0,665593248570321
"F_300";33;31;36;32;188,528758143688;0,613479351107927
"F_301";17;22;17;22;72,0723364981826;0,554537885095753
"F_302";40;39;42;37;216,064354319486;0,60395989722404
"F_303";71;69;69;70;1420,41000690278;0,671709531013618
"F_304";59;62;61;64;743,738253772245;0,619502868068832
"F_305";54;59;62;64;989,826713889739;0,64989699663884
"F_306";52;64;53;68;515,574466033715;0,617842601659536
"F_307";82;87;83;84;2090,57623588046;0,692747760762788
"F_308";26;31;29;35;144,827743998435;0,552035365629029
"F_309";54;57;56;61;736,380529729749;0,624798040339813
"F_310";49;51;48;51;329,678528915424;0,596002784130455
"F_311";26;28;31;33;287,49437293375;0,588946204863669
"F_312";61;67;62;68;974,620372504645;0,652656794425089
"F_313";26;19;28;19;93,5505806704733;0,552926525529265
"F_314";58;59;57;61;749,178190746952;0,634722295758988
"F_315";65;68;68;61;1756,9081292457;0,675114039533708
"F_316";104;103;101;104;4194,55019856176;0,705965490842711
"F_317";47;59;46;57;551,397531988432;0,610978033739359
"F_318";61;67;62;68;679,81854584891;0,652621264086236
"F_319";38;41;41;39;423,597126855233;0,60631195630184
"F_320";75;93;77;89;1450,72015365242;0,692347675425935
"F_321";25;30;25;30;177,345252178716;0,557685150725716
"F_322";77;78;82;74;1391,70042842766;0,665223905443651
"F_323";43;40;43;41;507,312349770785;0,628829206882085
"F_324";61;70;60;71;1179,86232689706;0,65691270754562
"F_325";41;37;43;35;349,452451658145;0,611539050145386
"F_326";55;58;51;56;559,911651477543;0,617715257381356
"F_327";35;31;35;30;150,821065576222;0,549983942744415
"F_328";39;47;39;49;264,183086639572;0,59665538522795
"F_329";55;60;60;63;607,241382048408;0,603716573500528
"F_330";25;22;27;24;115,561071702742;0,541830508474577
"F_331";28;30;29;29;156,861838672956;0,560684720078573
"F_332";108;109;104;102;3776,12185640859;0,714421930870084
"F_333";90;96;84;91;4042,45017116899;0,699824868651492
"F_334";55;51;55;57;587,146690938021;0,634957627118645
"F_335";74;88;77;88;3059,3336079818;0,685812356979409
"F_336";77;72;72;71;2172,89353090609;0,690234914785821
"F_337";90;87;89;81;2919,32639912039;0,697788125727594
"F_338";71;67;66;68;1286,5503469288;0,675000000000006
"F_339";27;23;28;24;191,087776040783;0,571210749511601
"F_340";63;66;62;64;931,873051395914;0,642857142857144
"F_341";54;55;60;63;661,59734782045;0,627972760607648
"F_342";54;56;52;56;645,181632278749;0,642409302824073
"F_343";50;44;51;46;706,274064646897;0,619118938181066
"F_344";42;39;46;41;352,721642471696;0,590687361419067
"F_345";42;49;44;49;473,304814632615;0,601052895462521
"F_346";34;29;36;31;196,298164643152;0,555025695634057
"F_347";93;102;100;94;3678,24806734605;0,73079736649598
"F_348";70;72;69;66;1111,58996539429;0,656229472301293
"F_349";53;52;57;54;552,107277403942;0,609146341463414
"F_350";36;39;35;40;560,105113577955;0,612445080208439
"F_351";92;87;98;87;1742,78814259893;0,681291202546036
"F_352";49;50;51;50;1233,80863376573;0,654545454545458
"F_353";43;39;45;41;172,062356243059;0,576623376623375
"F_354";93;91;91;95;2349,23376679567;0,680440458621866
"F_355";18;19;19;20;64,7697983129757;0,525259606537266
"F_356";68;52;75;64;776,036251398528;0,618416301263862
"F_357";100;84;96;83;3535,66919526016;0,72474457408863
"F_358";31;44;37;47;234,396526329984;0,592995647012265
"F_359";56;54;53;53;673,770746440234;0,644135188866802
"F_360";85;81;87;79;1733,61946875736;0,680324612678057
"F_361";31;32;31;34;186,445882856915;0,564832265359969
"F_362";36;35;37;37;404,665738082736;0,606434641845406
"F_363";82;72;84;79;1879,48898156345;0,678361249434135
"F_364";36;42;30;38;220,283524998972;0,598890942698705
"F_365";65;64;69;62;1833,71366184226;0,693028095733613
"F_366";40;45;37;43;653,816367776534;0,634823130692652
"F_367";78;80;74;86;1610,61831058886;0,673294018534122
"F_368";35;41;38;42;274,133142731286;0,613793456556243
"F_369";43;34;41;33;455,420129615656;0,632245134750279
"F_370";61;63;62;64;975,116372570107;0,643133047210302
"F_371";72;73;66;67;2211,31978800313;0,686794614723579
"F_372";42;46;43;46;299,657391866805;0,579830713422006
"F_373";47;36;45;33;605,834678206251;0,630482802145789
"F_374";72;81;73;80;1636,02376034905;0,674126975201039
"F_375";69;67;77;73;1171,42569773299;0,650002711055687
"F_376";29;28;28;27;196,853726578419;0,573231960981207
"F_377";25;26;26;28;153,146642552238;0,555797672585655
"F_378";46;49;45;49;328,341581590322;0,623206487835309
"F_379";106;95;107;99;2762,88356716049;0,686873316908269
"F_380";64;56;59;55;2121,46940935626;0,677211614506838
"F_381";23;31;24;34;121,382167292179;0,568286323773405
"F_382";87;79;85;82;2523,90102030111;0,691110342442063
"F_383";76;74;76;79;1945,15636072093;0,685341870569405
"F_384";60;58;60;56;1545,58618676493;0,649439297903465
"F_385";82;81;82;78;1500,78838542357;0,668674698795182
"F_386";70;68;74;68;2534,67398792921;0,684441906936916
"F_387";53;47;54;48;573,881135808754;0,620625388279146
"F_388";94;93;92;92;3280,29919292137;0,70302603800141
"F_389";65;66;57;61;1072,87407254806;0,649720882337004
"F_390";33;37;33;36;178,540628876977;0,576623376623376
"F_391";84;68;88;73;1833,28148661488;0,668973214285716
"F_392";62;48;68;54;1139,95260154876;0,642547033285096
"F_393";40;36;48;37;259,433600098124;0,575764852792852
"F_394";95;97;96;98;4874,30215050946;0,738404681244229
"F_395";36;36;37;40;241,815917700106;0,603503826016914
"F_396";75;69;77;69;3234,49184620961;0,710652676507204
"F_397";71;81;74;80;2098,345001022;0,671822461331542
"F_398";65;61;66;62;1150,98040870559;0,626070607896385
"F_399";47;49;50;50;622,274384552752;0,639394101018722
"F_400";54;55;57;55;1191,32848481139;0,658283455054643
"F_401";89;72;92;76;2023,0980137862;0,673256205773337
"F_402";84;94;82;90;2789,0056848219;0,696855199674478
"F_403";23;30;24;29;157,333329533786;0,590949423247558
"F_404";45;41;41;39;954,172920873079;0,659732540861814
"F_405";46;42;49;42;383,886975187375;0,597636970935739
"F_406";54;52;56;52;335,282290744223;0,589148810693925
"F_407";58;57;57;57;607,358105817677;0,623627945690059
"F_408";34;36;34;36;469,37566240459;0,622365278787252
"F_409";62;67;66;69;1529,89547424467;0,648420597144096
"F_410";20;22;19;22;101,104771907183;0,585180123010834
"F_411";74;68;77;71;1125,01565877907;0,635058536843778
"F_412";85;86;85;79;4304,14517352543;0,705176470588238
"F_413";68;74;77;75;1180,36855706593;0,667186108637582
"F_414";38;38;38;39;179,143562131272;0,573204551974753
"F_415";30;33;30;32;108,759290987964;0,552035365629029
"F_416";30;29;31;28;189,858436026831;0,588714825909736
"F_417";59;62;56;59;903,362821703806;0,659115900593801
"F_418";76;69;72;66;1717,55349755953;0,666481347639967
"F_419";62;60;62;59;1431,1618099029;0,655798687089718
"F_420";26;26;28;27;125,448645044431;0,563028367461957
"F_421";80;80;73;78;2252,74135799383;0,701586001053435
"F_422";67;72;67;73;2088,72207306997;0,694916236739902
"F_423";94;85;91;86;2588,98925811254;0,686322780099619
"F_424";92;87;91;82;3140,36512797967;0,709895185645766
"F_425";64;64;65;66;1249,40688215159;0,640589932670729
"F_426";63;65;66;68;835,837129302923;0,646462467644523
"F_427";56;66;58;66;815,844760913362;0,644377553214364
"F_428";48;41;48;43;377,304595850104;0,593259761468797
"F_429";24;28;26;31;160,617392918226;0,54229620917398
"F_430";51;46;51;48;399,041030492946;0,609332113449221
"F_431";44;45;44;44;366,328978522347;0,616222884753778
"F_432";44;47;44;48;208,789245766456;0,576179948091896
"F_433";45;37;45;39;280,329347909242;0,600992630470746
"F_434";83;89;79;90;2832,08866464407;0,693348756506652
"F_435";59;59;59;59;1301,96588375839;0,64451612903226
"F_436";18;15;18;16;33,8450552975943;0,531312325488632
"F_437";72;73;78;76;1809,44287299296;0,686755270394136
"F_438";51;61;52;63;1502,59288912045;0,649122807017547
"F_439";64;64;69;68;1045,26511608014;0,669085226321373
"F_440";27;29;25;28;121,996676771664;0,575239923224567
"F_441";60;73;64;75;2249,36144621636;0,675913396481736
"F_442";102;101;97;103;5832,98581046422;0,749671690325809
"F_443";51;61;52;63;1057,19898014674;0,653225806451617
"F_444";68;66;69;70;1425,19531613429;0,691548889529859
"F_445";101;114;93;105;4486,83030311973;0,735866429316805
"F_446";72;83;70;78;2288,09014619638;0,685263518920779
"F_447";67;58;68;61;1534,35114036916;0,66217410517013
"F_448";54;64;55;63;853,309814355109;0,63755783651545
"F_449";59;69;63;73;1218,61369570315;0,639291808873721
"F_450";52;44;52;44;718,308596748312;0,612883435582821
"F_451";40;44;41;43;197,924683041349;0,574302960620867
"F_452";53;39;56;38;633,927860188074;0,619983450558543
"F_453";56;61;57;64;847,935948350824;0,63732057416268
"F_454";80;72;88;77;2776,47105069248;0,691668589891534
"F_455";71;71;71;71;1499,79370770677;0,670319838962202
"F_456";73;97;73;97;2464,18655846744;0,695843974924543
"F_457";67;68;62;64;978,08298386941;0,650002711055687
"F_458";93;94;102;101;3281,80231808049;0,703479842732236
"F_459";61;52;60;52;535,981591340808;0,599879903923138
"F_460";89;91;88;94;2067,90619600549;0,66448644753617
"F_461";54;49;51;46;724,717698932688;0,603625377643504
"F_462";52;54;54;58;575,810195143153;0,610853503184712
"F_463";60;63;61;67;1261,25473130445;0,679977311401028
"F_464";64;69;64;72;1330,72307740153;0,647160440509612
"F_465";89;96;88;98;2745,13036198219;0,699702328839083
"F_466";49;42;50;40;1046,53061545654;0,666407248874314
"F_467";45;43;48;43;646,81022823593;0,612132352941175
"F_468";53;58;47;54;942,994727512834;0,626266847769303
"F_469";61;57;67;59;1153,91817862808;0,661991275056603
"F_470";33;37;34;41;329,465506169678;0,601565636290645
"F_471";49;39;49;42;396,979489516873;0,631645502924285
"F_472";80;84;80;92;3874,66512808568;0,731466227347613
"F_473";33;37;35;38;308,99382249274;0,601746812569018
"F_474";48;47;56;49;810,986826133881;0,653225806451619
"F_475";81;90;81;87;2349,81428629533;0,697341632249434
"F_476";67;69;72;65;1815,60452593425;0,680208806173403
"F_477";38;36;38;36;236,307594753728;0,606895155166303
"F_478";38;41;45;46;459,682185778182;0,599040575654606
"F_479";76;74;76;71;919,484179496028;0,624635264693621
"F_480";32;50;35;50;593,026261898679;0,619919329816941
"F_481";30;39;31;39;375,049726327503;0,611383108935128
"F_482";98;97;94;91;3040,06045347666;0,707298365685292
"F_483";36;41;38;42;323,335419924843;0,575212321865552
"F_484";50;49;49;48;561,808939732064;0,626070607896386
"F_485";71;56;72;59;1852,92068796399;0,674961995383146
"F_486";60;72;63;73;1214,13509000391;0,644377553214365
"F_487";68;68;66;66;1645,40480286235;0,678246110325321
"F_488";28;30;30;34;91,8542546228311;0,54912738765975
"F_489";50;51;48;48;937,279450775281;0,633380884450788
"F_490";82;78;73;75;2170,99023026783;0,66919727587362
"F_491";77;89;76;89;1816,53811359577;0,678745328954825
"F_492";100;98;102;96;3045,14337355143;0,698438592402707
"F_493";80;80;85;81;1580,10660744407;0,695238647567133
"F_494";59;66;60;65;1516,64284641563;0,679052905857033
"F_495";45;33;44;33;672,737347901687;0,641309581126627
"F_496";68;81;73;80;1073,72961923541;0,659986787051313
"F_497";82;76;73;75;2227,83631198512;0,675722901753002
"F_498";48;50;50;53;585,075571582442;0,614422633386297
"F_499";81;72;74;72;1560,59258123945;0,676867483484841
"F_500";40;34;40;34;226,836781309511;0,575875486381322
"F_501";30;37;31;38;148,517337925126;0,558100558659217
"F_502";41;45;46;46;279,325928666125;0,601354401805868
"F_503";61;66;66;66;1157,82791278341;0,663309909810217
"F_504";64;74;63;73;1270,22570735296;0,668823923231423
"F_505";55;57;59;61;630,646706772117;0,623206487835308
"F_506";48;53;48;51;452,76246812523;0,613542146476277
"F_507";59;56;59;62;670,798781515418;0,640111063648015
"F_508";70;68;67;63;1091,09765733273;0,668115699715769
"F_509";45;50;47;50;481,792226509446;0,61953488372093
"F_510";56;61;57;63;1309,79429648522;0,649544863459041
"F_511";48;40;49;44;345,12461642858;0,611539050145384
"F_512";79;83;77;84;3648,8132771461;0,715359828141787
"F_513";82;86;81;80;2370,78603764521;0,706964675355312
"F_514";66;66;69;64;1544,57658735085;0,67759439294597
"F_515";31;31;35;33;143,514937706498;0,595706618962431
"F_516";80;82;79;81;2480,56799960026;0,680633622892184
"F_517";71;75;70;76;1308,49318869839;0,656552932800266
"F_518";44;50;45;52;261,51974144585;0,589960629921259
"F_519";53;48;53;51;419,649558779635;0,615021547301456
"F_520";88;95;83;93;3996,19855291321;0,715957955088394
"F_521";58;73;62;75;822,685636644867;0,624602719741571
"F_522";35;26;37;28;279,872046033595;0,592409567108122
"F_523";55;61;55;63;644,357865191317;0,639155470249522
"F_524";51;61;52;61;918,020823942751;0,651911468812879
"F_525";63;60;63;60;765,416548134803;0,628829206882081
"F_526";46;44;45;45;331,220118606636;0,624212444675866
"F_527";69;58;63;53;1155,83508776829;0,667557634480456
"F_528";58;47;59;49;588,935266811666;0,619695011630912
"F_529";71;72;74;74;1611,01962654689;0,667520463277469
"F_530";39;38;39;38;284,238699254138;0,593347851910511
"F_531";51;60;49;60;590,625896713526;0,623271290423208
"F_532";89;74;89;71;2075,43043445975;0,688530239503764
"F_533";47;45;50;49;856,864394880863;0,634520721960517
"F_534";35;35;38;38;526,509511323457;0,597726366174709
"F_535";89;89;91;92;2479,65354609893;0,684793784988007
"F_536";82;93;82;88;2179,00423260669;0,69966149177075
"F_537";54;66;53;65;960,096353173282;0,657561296692449
"F_538";83;92;86;90;2757,76082671239;0,702490477585706
"F_539";102;87;96;89;3960,61833361277;0,7156587666408
"F_540";80;63;81;68;1533,19221095441;0,667408974501728
"F_541";50;44;51;47;753,998672675534;0,636373288034825
"F_542";18;19;19;22;90,2563997881583;0,527037720917964
"F_543";76;81;82;87;1501,91610904782;0,670057570845679
"F_544";41;38;44;38;461,879696798601;0,57449561508602
"F_545";65;72;68;74;2797,24660580445;0,689401345678308
"F_546";62;59;62;57;1316,35129256416;0,66886123974781
"F_547";39;39;40;40;442,96144149644;0,612538960707168
"F_548";71;73;76;76;1155,75872561646;0,657056727870651
"F_549";53;60;55;60;1801,71832880199;0,681136363636369
"F_550";44;45;44;42;296,193896875262;0,594672354779501
"F_551";76;72;79;73;1134,90975621948;0,637015781922525
"F_552";34;38;36;42;243,208669276318;0,586611861421021
"F_553";91;82;94;84;1591,41309190394;0,669496258237463
"F_554";45;42;46;45;462,893650782012;0,610355888193064
"F_555";25;24;27;25;81,3119335579992;0,546897810218978
"F_556";80;84;84;87;2135,02770306942;0,679668896700308
"F_557";91;100;87;97;5750,12286388799;0,722603978300183
"F_558";65;67;72;73;968,883131047162;0,639769452449569
"F_559";85;75;84;76;2119,23118269352;0,70052007245954
"F_560";49;45;51;47;410,261962484639;0,615748112383789
"F_561";105;93;102;90;4241,82103077221;0,734198922097015
"F_562";56;60;55;62;982,410803498694;0,658428077113201
"F_563";59;60;60;61;911,690191278664;0,635092180546726
"F_564";43;43;44;43;429,204382105396;0,60514891468955
"F_565";42;36;44;35;466,028380558947;0,632078456184754
"F_566";72;73;83;77;1540,50811886949;0,667929574325832
"F_567";48;49;47;50;366,330637215996;0,609332113449221
"F_568";70;74;67;75;2459,65422642397;0,713062098501074
"F_569";39;41;45;42;360,131295878162;0,597696564790347
"F_570";48;37;47;37;205,346652024827;0,588570306362921
"F_571";69;70;71;78;1807,78375716758;0,685537828100879
"F_572";83;91;86;93;1478,99591881509;0,666333166583294
"F_573";57;50;61;58;501,658555604635;0,615084658799384
"F_574";65;75;64;73;1417,08242481665;0,657453109575519
"F_575";23;32;26;36;89,812869124205;0,549253184275635
"F_576";51;53;52;58;629,443539525794;0,608157467532466
"F_577";68;57;75;63;1059,92297415681;0,656660823838742
"F_578";75;69;74;72;2199,15035297332;0,659043430456298
"F_579";49;46;52;49;317,155359122789;0,61435965766412
"F_580";38;37;37;40;235,553319822194;0,578878748370273
"F_581";91;86;86;81;1506,70598457241;0,676218411552348
"F_582";25;27;25;25;125,216464228454;0,550009175995596
"F_583";90;100;86;103;1750,52685013012;0,667148978796818
"F_584";63;59;63;59;1222,27576950732;0,648911984410524
"F_585";69;66;76;74;1271,20460512182;0,65021424309812
"F_586";67;67;71;70;1627,97821950211;0,662833130598258
"F_587";35;39;37;39;295,35494123584;0,593435968516409
"F_588";47;49;45;47;806,33206018105;0,656049909702843
"F_589";59;57;57;57;761,025264762531;0,624570178180681
"F_590";67;61;66;58;3552,09866438354;0,707298365685297
"F_591";45;58;48;60;743,327607524575;0,656049909702842
"F_592";92;89;93;91;2970,4782559681;0,69330865768319
"F_593";98;98;92;93;3197,30576888602;0,700561009817673
"F_594";60;58;57;56;737,20471973288;0,631479140328698
"F_595";70;56;70;59;1736,4482773094;0,678630059439571
"F_596";72;57;76;57;976,289672546997;0,633715705450124
"F_597";107;111;108;108;4471,94145304393;0,719006777424581
"F_598";53;64;53;62;1096,13756779769;0,647719904905993
"F_599";112;112;106;117;5701,99234333497;0,762983706720978
"F_600";75;77;78;75;1311,81442218314;0,656804733727814
"F_601";61;53;61;54;744,090887466192;0,63271230273922
"F_602";79;84;83;85;2163,16780199912;0,683115847056814
"F_603";89;83;90;78;2173,63050286514;0,685459431642753
"F_604";41;43;41;40;316,659094932202;0,593289122042956
"F_605";77;86;73;83;1153,27023904628;0,628796223446104
"F_606";47;47;47;48;439,879130319127;0,626266847769303
"F_607";96;102;98;100;2176,3855680262;0,685302692505575
"F_608";54;57;56;60;984,885411101949;0,640076886112447
"F_609";31;29;33;28;88,6534672953173;0,548800585973265
"F_610";77;76;84;78;1593,45251202899;0,645175178946237
"F_611";65;71;68;72;2686,77166689306;0,70150389139213
"F_612";28;38;31;39;163,870661806397;0,575157127093028
"F_613";51;54;46;48;755,282097314666;0,630052031323909
"F_614";49;60;54;63;963,617343805427;0,656049909702846
"F_615";52;48;47;44;506,482687822804;0,616825315153073
"F_616";75;73;75;75;2198,852413412;0,687385321100919
"F_617";93;78;98;77;2487,32202205632;0,702902374670189
"F_618";53;49;50;48;934,596822873317;0,642512595133457
"F_619";59;50;62;51;677,782246772579;0,608620602122149
"F_620";74;56;77;62;1695,02232963192;0,682804579370057
"F_621";49;41;53;44;372,593147448617;0,577484464569583
"F_622";44;34;40;34;498,785900586261;0,61647639617402
"F_623";50;55;48;56;553,70250449044;0,631080227416299
"F_624";51;57;54;55;916,599089184861;0,6655562958028
"F_625";84;86;83;83;1692,38059179405;0,668898560428525
"F_626";55;51;58;51;542,021557327317;0,598562013181544
"F_627";63;69;65;66;3144,60206240527;0,715872447151562
"F_628";54;50;54;54;859,220164505897;0,624960900844541
"F_629";54;51;55;55;902,772879054913;0,636542239685658
"F_630";52;55;54;54;565,91365487583;0,636373288034826
"F_631";45;46;43;45;765,755284713246;0,631978491222522
"F_632";76;60;76;61;843,123999109693;0,628071462251793
"F_633";52;49;52;51;487,980439972612;0,617174629324546
"F_634";50;59;53;58;440,593753673859;0,611757501530924
"F_635";69;76;65;80;3222,95249465571;0,68226054294008
"F_636";51;49;50;50;1358,90230818966;0,657525230364202
"F_637";43;56;41;54;704,474048230171;0,637931034482761
"F_638";51;52;51;54;317,144515697482;0,591124260355029
"F_639";63;54;62;60;890,113891444498;0,637964983236657
"F_640";43;38;45;42;232,479483827617;0,566594196048775
"F_641";44;43;48;43;389,803699106215;0,625972534071328
"F_642";81;82;81;79;3098,42607392568;0,718059299191378
"F_643";77;67;79;66;1460,76495569999;0,662833130598254
"F_644";79;83;80;82;1454,74491168628;0,653261402648359
"F_645";57;56;56;58;333,006293542248;0,596566310027369
"F_646";91;93;91;92;2261,7711076975;0,697138869504538
"F_647";58;60;62;66;1059,67262788541;0,602533172496983
"F_648";26;39;28;37;215,766960005166;0,588166028848983
"F_649";81;67;77;67;2258,12227235195;0,672123794572776
"F_650";37;43;35;42;271,863184228401;0,595381177054879
"F_651";79;77;82;79;1442,98469048496;0,63011826544021
"F_652";55;61;58;63;1178,01611609795;0,631080227416299
"F_653";78;72;80;69;2125,23581680026;0,677288135593223
"F_654";57;57;60;62;1036,92990582698;0,639462313970236
"F_655";67;66;69;62;1286,30791732482;0,656014008974501
"F_656";74;73;78;72;1213,29761289212;0,650991039913116
"F_657";46;48;46;48;491,356605482665;0,617079322592268
"F_658";88;81;89;85;1072,99534365697;0,665150086001224
"F_659";21;22;22;21;161,837573258847;0,559742260820842
"F_660";37;36;38;37;158,859463994681;0,57570955193776
"F_661";79;87;82;80;3210,26872407461;0,698479286837967
"F_662";26;15;27;15;71,0286704293047;0,528059201832438
"F_663";70;71;77;66;1363,69120489647;0,666481347639964
"F_664";77;71;79;75;1885,74939790881;0,686244204018552
"F_665";106;120;104;114;3161,4264573613;0,711665182546752
"F_666";62;69;68;70;1216,25591845082;0,658500411974734
"F_667";62;67;62;68;589,436981327948;0,625384735771298
"F_668";51;58;57;64;1124,73074485949;0,663163135476022
"F_669";62;51;62;51;1417,87963636632;0,669533649818487
"F_670";79;67;77;66;1002,99652051355;0,640863893937775
"F_671";49;44;52;46;486,097168656607;0,606342623033734
"F_672";58;47;62;51;704,618697657376;0,612226137582349
"F_673";55;64;55;68;1250,15025113832;0,644793459552497
"F_674";53;53;58;54;524,103817314598;0,607756653992395
"F_675";50;54;50;60;547,733410760003;0,625678496868476
"F_676";48;40;48;41;263,480110574513;0,594937965260544
"F_677";70;65;70;62;964,767939822899;0,627053039020817
"F_678";84;85;84;85;1416,60138469255;0,65795828759605
"F_679";94;87;93;91;2562,25199751671;0,688372093023261
"F_680";47;50;49;54;853,277748982347;0,622947412180419
"F_681";48;52;54;57;942,225485762411;0,641412520064208
"F_682";26;31;31;35;146,81931452859;0,589728453364814
"F_683";37;38;38;40;299,822995746358;0,590251107828654
"F_684";75;79;78;79;1908,5072175702;0,664228723404258
"F_685";62;64;64;68;1127,80120765179;0,664412791664364
"F_686";73;73;72;75;929,498779955732;0,648210230344978
"F_687";54;59;56;60;623,081846588583;0,623076923076922
"F_688";71;75;74;74;4069,35186754601;0,718575795720199
"F_689";78;76;78;72;2563,64223482602;0,694714881780257
"F_690";63;65;62;67;828,210723621987;0,643443722827547
"F_691";61;70;59;63;1243,83067714454;0,659333406665937
"F_692";57;60;59;62;805,009025756489;0,635866970773882
"F_693";52;63;53;65;1107,92848153112;0,654759954120927
"F_694";90;95;85;95;3671,51634825848;0,710610551274453
"F_695";46;53;48;53;526,767816650642;0,619759085974253
"F_696";48;57;48;58;400,379730789878;0,624244948968965
"F_697";100;93;106;94;2032,00351126039;0,672500841467521
"F_698";71;79;70;77;1732,78624782779;0,688767595518532
"F_699";28;27;31;29;89,9634640842503;0,555591602168976
"F_700";47;49;52;50;481,302945864021;0,576290741274876
"F_701";33;31;35;34;331,455511872893;0,582620528771382
"F_702";59;59;59;59;457,582646546628;0,633983817229891
"F_703";67;57;66;56;1067,67545037097;0,65123859191656
"F_704";98;86;105;94;2291,91263649971;0,692307692307693
"F_705";58;58;58;57;560,207493169483;0,610604594305505
"F_706";68;64;66;62;692,787155409494;0,627676841719461
"F_707";61;61;58;61;1500,79661645167;0,673899600876948
"F_708";39;40;38;41;452,249605197532;0,626921870097271
"F_709";31;35;33;37;183,509113338134;0,575737201037363
"F_710";58;58;59;59;1686,13301252952;0,654081187254477
"F_711";38;42;40;42;470,018767511059;0,613416568592334
"F_712";47;53;50;53;906,049271724849;0,67511403953371
"F_713";74;79;71;76;2337,76879772697;0,692427655518978
"F_714";33;38;33;40;212,188245269381;0,574385510996118
"F_715";56;50;55;53;656,36909810797;0,599010643081996
"F_716";22;20;22;22;45,2266952298878;0,533748886910063
"F_717";50;53;49;51;639,216553880099;0,610014247913697
"F_718";51;58;53;61;626,565644997278;0,606066734074822
"F_719";33;40;35;40;436,623897956596;0,615432003696288
"F_720";64;71;68;70;849,98961538563;0,630648640117838
"F_721";61;72;58;69;1029,90149225779;0,660495867768597
"F_722";50;57;51;53;793,049743901432;0,653795811518329
"F_723";53;49;54;51;502,518752972486;0,617874445933409
"F_724";21;23;22;25;61,4132313560842;0,536495860371448
"F_725";88;84;84;85;1823,40154087033;0,681562340098927
"F_726";69;67;70;71;1069,45298598393;0,658500411974734
"F_727";62;64;59;62;504,455712040858;0,618129318345879
"F_728";34;33;33;32;198,776713617736;0,580588919023633
"F_729";46;56;50;57;928,34249660442;0,660714285714291
"F_730";51;42;52;44;573,05774288933;0,606250632143217
"F_731";43;43;46;44;349,586972274935;0,611757501530924
"F_732";69;67;75;66;1413,54082013011;0,666629594617142
"F_733";44;51;48;53;732,157192303854;0,627939866953015
"F_734";73;68;74;67;886,316714767744;0,65576281385045
"F_735";53;54;49;53;941,387021924855;0,656696795398525
"F_736";44;41;43;42;259,446387683533;0,586870318695842
"F_737";58;53;67;59;818,855080067458;0,621945525291828
"F_738";50;45;55;46;383,831574716253;0,601928098011648
"F_739";102;95;102;108;2950,27375308988;0,714379357606819
"F_740";84;88;86;88;2250,23261717401;0,704347826086959
"F_741";80;77;79;78;1679,81270428937;0,688332567753794
"F_742";62;64;63;62;1592,22865049804;0,698438592402708
"F_743";62;56;58;56;770,56668964476;0,664965609052585
"F_744";50;40;51;40;223,764614479191;0,60828090115689
"F_745";22;24;21;23;57,8744730830409;0,534581939799332
"F_746";67;69;65;73;1430,82026649148;0,685381053113036
"F_747";75;74;73;73;1704,34384730968;0,67939926324738
"F_748";26;21;27;21;38,6307962615902;0,545032962036827
"F_749";68;62;70;61;912,933771237765;0,644308287649147
"F_750";94;87;90;86;4795,78842238269;0,714081486776272
"F_751";61;58;54;51;761,27264123746;0,63684657883553
"F_752";47;46;49;49;528,722855620004;0,622656209421909
"F_753";49;49;51;49;290,675764581586;0,618416301263863
"F_754";52;65;53;64;551,605863327795;0,63918954945348
"F_755";53;42;50;41;1008,30225356984;0,644758780186095
"F_756";68;68;66;64;1884,27897387466;0,703438563548883
"F_757";85;92;81;83;3267,23569063038;0,699212598425198
"F_758";58;60;59;60;883,227543998891;0,6655562958028
"F_759";82;89;79;90;3350,86408841402;0,728311057108145
"F_760";64;80;69;78;1760,39594672911;0,683427398665986
"F_761";78;59;77;66;1201,44496401658;0,661115094027467
"F_762";103;94;98;89;4979,50815554426;0,738359201773839
"F_763";69;63;74;66;1214,23302330671;0,654152570118958
"F_764";45;45;47;46;276,848773457756;0,583499634947675
"F_765";83;90;85;91;3066,43598072115;0,703026038001412
"F_766";93;75;93;76;2659,38829458533;0,714890571888608
"F_767";88;92;91;93;2704,57280664851;0,702984812056533
"F_768";40;42;43;40;752,974194595832;0,618512021463213
"F_769";93;88;96;91;4818,91714821051;0,72888672706269
"F_770";45;41;43;38;353,712298465789;0,612476370510396
"F_771";63;69;63;72;2188,21318119536;0,689599631845378
"F_772";57;49;58;49;899,736109236659;0,657777777777781
"F_773";32;32;32;31;235,844607090103;0,576318446228546
"F_774";75;73;78;77;1290,82535736919;0,644100580270794
"F_775";54;60;56;59;1009,05628151153;0,654724194429276
"F_776";36;34;35;35;192,97213350285;0,555385684503127
"F_777";60;61;58;59;529,428261994228;0,624863174354965
"F_778";89;94;87;90;3097,52574723866;0,696288552012546
"F_779";70;76;71;76;805,921218017192;0,628499528153506
"F_780";45;42;45;40;459,420599691728;0,622979784856832
"F_781";75;84;71;75;1490,34626810479;0,668935885274264
"F_782";33;29;35;32;299,476598782201;0,596447584456937
"F_783";27;40;28;41;631,305556891992;0,621977793919271
"F_784";49;49;50;52;615,229309774137;0,603260869565215
"F_785";53;41;51;40;325,912836352603;0,630085146641439
"F_786";54;50;61;55;662,044932843361;0,626365013846073
"F_787";90;76;91;76;1532,25255704788;0,647964974866225
"F_788";32;27;31;28;427,777779177315;0,597428485996211
"F_789";51;52;53;55;1212,1925328944;0,664818101153507
"F_790";72;78;70;79;1592,57343964448;0,637523931078494
"F_791";45;52;48;55;320,11723922162;0,612538960707168
"F_792";57;68;61;68;1174,77507810254;0,660023123933274
"F_793";54;48;58;51;973,040650266038;0,647370126363542
"F_794";42;51;42;52;427,978325685763;0,599160335865653
"F_795";35;28;35;30;103,414691005178;0,548624776898083
"F_796";70;74;77;78;983,560177174804;0,635125827814569
"F_797";77;68;79;75;1803,46567280658;0,666555462885741
"F_798";83;78;81;80;2210,05277063747;0,684950291395271
"F_799";67;67;68;65;1636,80403477131;0,664044757104084
"F_800";84;80;87;86;1488,0542496963;0,661552894431877
"F_801";31;34;34;35;121,36942373576;0,560291643297812
"F_802";68;77;70;75;1379,72983635538;0,655619360131256
"F_803";30;27;28;27;269,380126544616;0,594997022036926
"F_804";35;34;34;32;180,611895806556;0,570449678800856
"F_805";66;61;67;64;1333,78549544105;0,651734261172123
"F_806";36;38;37;38;294,286525411078;0,607571841265014
"F_807";96;95;93;93;3304,01204439738;0,701996837852084
"F_808";59;57;60;63;825,294030869843;0,639496425904196
"F_809";45;41;42;41;581,378992231642;0,637863147813134
"F_810";94;103;90;105;3880,05051276357;0,715530619553541
"F_811";58;54;61;53;1015,87042513498;0,649404117009755
"F_812";42;42;45;46;437,689535803403;0,584011302187362
"F_813";61;60;59;56;538,664413886341;0,616191210485735
"F_814";37;39;35;44;757,828339818334;0,629687992436182
"F_815";53;61;53;63;610,586824024668;0,630615465544451
"F_816";75;69;73;69;2310,97503531195;0,692387663162764
"F_817";34;28;33;30;203,6580840722;0,579382340147889
"F_818";63;83;62;87;1039,66104309228;0,622494547720427
"F_819";64;74;65;74;1232,31652674877;0,652692328632876
"F_820";52;54;49;58;874,592424316489;0,646671701370162
"F_821";35;41;38;44;326,012368600177;0,59001870262821
"F_822";41;47;43;46;419,438391213586;0,629985811130382
"F_823";34;38;34;37;378,04852654223;0,602321258101793
"F_824";43;38;41;42;671,210810950121;0,63953054147773
"F_825";41;44;36;41;323,258204816303;0,601746812569018
"F_826";76;85;72;85;1874,8526552758;0,68734590906485
"F_827";53;46;51;43;315,070027795834;0,606833712984053
"F_828";89;96;82;91;3729,98212095944;0,707298365685295
"F_829";63;53;63;51;920,450202001059;0,652195201566837
"F_830";73;67;80;67;1196,05048222719;0,649333766655835
"F_831";53;51;57;52;827,886102827787;0,622915042868278
"F_832";25;21;28;20;74,0945243251189;0,549077085146338
"F_833";33;31;34;33;182,148907125259;0,558568632932624
"F_834";23;25;23;24;131,049453420676;0,583812213889158
"F_835";72;62;67;64;1488,04688864473;0,676561882724761
"F_836";108;114;104;109;8038,06572494016;0,769942196531793
"F_837";72;77;76;80;1366,71789994969;0,670057570845679
"F_838";53;64;50;60;927,324113651153;0,646079223928862
"F_839";70;70;73;71;1417,66211835788;0,654116876739238
"F_840";68;71;69;73;1831,86878091966;0,670920080591003
"F_841";54;65;55;68;898,735392548628;0,629853412494089
"F_842";32;40;38;42;310,437086971215;0,606281292671824
"F_843";70;67;72;70;1608,63955141408;0,659914125289007
"F_844";47;41;46;39;370,280082209042;0,609735008392248
"F_845";67;56;69;53;872,114310058074;0,641549823397197
"F_846";51;53;54;51;1257,93208638195;0,643893006767647
"F_847";75;80;77;78;1161,47221538716;0,676638257041262
"F_848";117;118;120;119;4118,52551840856;0,727427184466023
"F_849";55;50;58;57;1092,90304403584;0,645870373363507
"F_850";32;31;32;34;217,078429961118;0,576457010963646
"F_851";32;30;32;29;222,527694310387;0,583783783783782
"F_852";36;44;42;46;224,50503018975;0,57466085039068
"F_853";70;75;76;76;1076,24185838255;0,629225278186016
"F_854";33;34;37;38;342,02886756945;0,555617352614015
"F_855";40;34;38;36;188,741519968424;0,575101942911968
"F_856";49;53;51;53;312,834385745684;0,595410747988476
"F_857";66;72;69;76;1161,12459986519;0,655046172340312
"F_858";79;71;90;79;1583,51385236218;0,679861623093066
"F_859";61;60;64;56;840,711224181637;0,654974594328801
"F_860";39;43;40;43;358,544154983562;0,601958322872205
"F_861";42;35;39;32;224,822601813883;0,60874422383588
"F_862";40;34;47;36;417,020054164126;0,600962502506515
"F_863";98;98;98;99;3134,42435780191;0,704969126727435
"F_864";67;68;70;69;1122,6918616006;0,649122807017546
"F_865";48;38;51;42;781,758644652357;0,650602409638561
"F_866";33;27;35;27;170,016216226397;0,573149741824439
"F_867";53;57;52;58;906,726298540361;0,649791316602528
"F_868";62;59;61;60;527,562120211095;0,627742577368172
"F_869";96;100;94;107;4522,81771338907;0,735550374279055
"F_870";81;71;75;68;1719,41870953621;0,677785944479003
"F_871";80;79;83;81;1012,27716945499;0,659478490483003
"F_872";44;48;43;48;433,810443719462;0,619727047146402
"F_873";35;37;35;36;270,146980421091;0,608003245929908
"F_874";61;57;61;54;1903,74913777764;0,682726806765763
"F_875";89;89;93;93;2064,54752026767;0,676485525647539
"F_876";72;74;67;74;1020,79375455126;0,634218601206221
"F_877";66;66;55;58;3051,25832733635;0,725402396224135
"F_878";95;84;96;83;2850,0080904719;0,70011096186416
"F_879";37;45;34;47;306,032338657961;0,621848739495799
"F_880";69;66;75;67;964,035479789627;0,63197849122252
"F_881";62;67;65;67;718,73584272674;0,619983450558543
"F_882";51;52;54;51;488,083488311841;0,615368820902417
"F_883";37;38;37;37;385,246449957154;0,621494115817309
"F_884";34;39;31;38;162,015262589511;0,578599353250638
"F_885";51;54;55;56;359,973724337002;0,596922770502414
"F_886";38;37;43;39;371,379977018007;0,608589704538534
"F_887";69;69;75;74;1226,84241341473;0,653190214133931
"F_888";85;78;87;75;1439,23751583659;0,657922177707043
"F_889";55;56;53;59;628,520303733613;0,629027180186798
"F_890";30;33;32;33;672,866757332908;0,605118368583112
"F_891";109;108;109;110;4508,82850532582;0,72299620047042
"F_892";47;48;49;48;621,313609061474;0,61647639617402
"F_893";45;36;49;38;260,002841060162;0,585380145514917
"F_894";70;77;69;78;1945,03615821814;0,679977311401025
"F_895";56;57;59;57;1138,33375234239;0,647579948141748
"F_896";70;79;72;77;2415,35593505746;0,702079062957545
"F_897";79;89;83;91;2819,3431872707;0,70179135932561
"F_898";42;49;46;54;738,203587103418;0,635765803988122
"F_899";77;76;80;82;1284,113551008;0,656265396616852
"F_900";27;34;28;35;217,193514139226;0,568313264435383
"F_901";45;42;45;42;332,651424085595;0,619406840963109
"F_902";41;47;41;49;188,700038537183;0,577289800635653
"F_903";65;52;68;57;759,175280682044;0,64427366045037
"F_904";72;74;74;74;1554,09876108115;0,672538569424966
"F_905";27;28;29;32;214,761433876057;0,588512518409424
"F_906";67;64;67;63;1502,54887072037;0,690115710091533
"F_907";55;55;56;57;905,553036131533;0,648876860622465
"F_908";29;31;31;31;120,417908773456;0,568097810634062
"F_909";104;104;103;102;4338,1707653432;0,722734671730875
"F_910";75;68;76;69;2126,2724964765;0,679823069071116
"F_911";51;50;53;47;504,118771826946;0,616222884753777
"F_912";32;33;31;34;242,883980446556;0,599070511218828
"F_913";42;35;43;36;217,599565945109;0,591678594343812
"F_914";74;73;75;73;2189,5431560253;0,679052905857031
"F_915";62;54;62;52;953,629188344257;0,638100814392933
"F_916";29;31;28;33;182,733485884168;0,56998858881704
"F_917";24;26;24;28;103,48262065288;0,536712034383955
"F_918";34;29;36;30;204,881193879124;0,588166028848983
"F_919";47;39;48;39;297,895199243164;0,591766215815973
"F_920";28;31;28;34;118,126687842322;0,550944436784779
"F_921";97;110;97;108;4068,41827746596;0,722038185870027
"F_922";74;78;78;83;1422,69861174465;0,674961995383147
"F_923";72;56;69;55;1057,79501048491;0,653974142163551
"F_924";85;79;85;73;2848,7646730693;0,698031908699198
"F_925";54;53;51;49;1061,44496642013;0,671559016301611
"F_926";28;29;29;33;205,274004071883;0,559820678061081
"F_927";54;47;54;52;342,419492165042;0,61812931834588
"F_928";44;42;47;43;458,611614433005;0,614233744940308
"F_929";59;54;57;51;725,578672393774;0,618320610687022
"F_930";63;64;62;64;1135,78043908704;0,675837185703013
"F_931";80;92;80;91;2508,3353963615;0,693750000000002
"F_932";51;48;50;51;476,023427263634;0,607048815069879
"F_933";64;64;63;68;1293,50371482041;0,664596961969177
"F_934";70;59;72;62;1623,72276125524;0,671408569028285
"F_935";41;42;42;44;298,490869494834;0,596803903021854
"F_936";36;40;37;41;194,982890023687;0,595115170770451
"F_937";63;59;65;62;738,58668624446;0,616761845963882
"F_938";34;33;35;33;206,018371877406;0,56236806304827
"F_939";28;30;26;30;179,674219962258;0,58747427227286
"F_940";32;40;34;40;566,594267191065;0,611976109040788
"F_941";40;49;44;52;627,06558515728;0,59279038718291
"F_942";79;65;75;61;1099,0077167708;0,670619825464311
"F_943";89;86;88;87;2224,70218015109;0,681020280633986
"F_944";63;68;63;64;1098,93681207803;0,666148032896201
"F_945";78;96;82;97;2550,72734310553;0,693108233117486
"F_946";73;65;77;64;3353,42534508891;0,71348648970361
"F_947";80;81;81;74;1205,21972952654;0,668935885274261
"F_948";67;71;65;71;1140,11361560541;0,641618497109828
"F_949";35;37;38;37;310,506934718452;0,612758127172358
"F_950";45;41;48;41;319,471293378978;0,592673159638107
"F_951";96;88;93;88;3060,77524390312;0,707423580786028
"F_952";61;53;66;56;702,745118187047;0,639803597160699
"F_953";58;67;65;75;893,623219142628;0,640829635965148
"F_954";52;51;54;52;754,187513155459;0,652159721466654
"F_955";77;78;83;86;1786,81036047895;0,674013268863152
"F_956";48;52;48;54;1353,47218494611;0,655547656805388
"F_957";44;45;46;45;350,531557120114;0,607479477044694
"F_958";56;60;53;60;1079,31927647498;0,652195201566839
"F_959";56;53;56;52;661,287086919196;0,641275275489466
"F_960";57;53;55;54;638,98489129963;0,628532480469774
"F_961";61;54;61;57;525,042314314532;0,632845906139472
"F_962";83;81;88;91;1428,70433829834;0,662503453992819
"F_963";61;65;65;67;763,14957220651;0,623757739736718
"F_964";65;78;61;72;990,200702267998;0,634285714285714
"F_965";67;68;65;71;770,011678537404;0,635462496686987
"F_966";41;49;41;43;727,625585282531;0,628203112718129
"F_967";47;70;48;72;903,056075411563;0,642099625066954
"F_968";35;37;34;37;551,00623276954;0,617747088529325
"F_969";34;29;34;29;119,760022308395;0,551755879780918
"F_970";41;41;44;39;315,606413016366;0,60862060212215
"F_971";41;36;41;37;343,886793793254;0,597756170531038
"F_972";66;73;69;75;1022,66830089558;0,645939975214183
"F_973";75;73;80;76;1413,11794405692;0,680479082704209
"F_974";40;38;38;37;139,326401541929;0,562394445486957
"F_975";52;52;54;54;666,953018940981;0,611102615078757
"F_976";72;72;69;69;2569,13010399002;0,693549320219848
"F_977";78;82;76;79;3085,26914042775;0,707089772325122
"F_978";64;58;65;64;886,058704256649;0,629721069496245
"F_979";32;33;31;35;182,265477061581;0,573835622995546
"F_980";36;35;37;40;236,094651856166;0,598771290145346
"F_981";66;63;67;62;968,543167489633;0,638508655126499
"F_982";108;114;114;115;4204,75019628417;0,71386887393557
"F_983";22;23;23;23;71,2323967205133;0,54222262427066
"F_984";62;67;61;68;1657,62805544149;0,682105263157897
"F_985";49;45;55;45;680,955030167224;0,618129318345879
"F_986";72;68;69;69;1556,60897580003;0,674240719910014
"F_987";69;73;73;75;1577,79590822043;0,666629594617139
"F_988";79;81;81;79;1317,33745028926;0,660677872692204
"F_989";55;62;57;65;916,191733884822;0,639871897518017
"F_990";57;63;56;60;1227,12056790421;0,644654764465478
"F_991";60;66;61;65;930,396876650613;0,638542665388304
"F_992";92;87;94;84;3814,48596929247;0,716942766580949
"F_993";54;60;57;57;701,6233644005;0,63011826544021
"F_994";58;73;63;76;1332,14847342714;0,65984147952444
"F_995";94;91;88;87;2723,15359010339;0,711665182546751
"F_996";63;62;61;65;1297,77698548379;0,659043430456298
"F_997";72;82;68;75;1472,00081357925;0,658391915641478
"F_998";62;66;62;69;1187,1595669931;0,647509992438157
"F_999";74;68;80;72;1348,71511067293;0,674468324518961
"F_1000";27;25;26;26;110,320856765864;0,566862114620766
