"Roost";"In";"Out";"InLink";"OutLink";"Betweeness";"Closeness"
"R_1";24;24;11;11;20,3206349206349;0,491650243750648
"R_2";21;21;10;10;19,8333333333333;0,52549889135255
"R_3";19;19;6;8;13,3333333333333;0,501746586217847
"R_4";37;37;21;20;1374,99285714286;0,77653997378768
"R_5";22;22;7;10;128,533333333333;0,555685814771395
"R_6";31;31;19;18;325,893253968254;0,681916271040138
"R_7";19;19;6;6;93,5;0,436142804563857
"R_8";17;17;6;7;96,15;0,430322287789378
"R_9";18;19;5;8;46,1531746031746;0,609254498714653
"R_10";21;21;7;6;0,833333333333333;0,546145869339786
"R_11";21;21;6;7;5;0,499420503635023
"R_12";20;21;9;10;16,5555555555556;0,60536398467433
"R_13";28;28;14;10;267,033333333333;0,738662926601216
"R_14";24;23;11;12;100,476984126984;0,69015725101922
"R_15";26;26;17;18;388,694047619048;0,711177794448612
"R_16";23;23;8;9;75,8;0,488861386138614
"R_17";28;28;12;13;1141,74523809524;0,7584
"R_18";22;22;10;10;7,58333333333333;0,485108996008597
"R_19";19;19;6;6;154,2;0,524800708591674
"R_20";22;23;12;9;23,2912698412698;0,549374130737135
"R_21";23;23;14;15;52,1960317460317;0,591243607334415
"R_22";20;20;7;6;78;0,555490448845658
"R_23";27;27;14;13;616,260317460317;0,748815165876777
"R_24";22;22;7;7;52,1666666666667;0,518316019682887
"R_25";17;17;3;2;0,583333333333333;0,350799289520426
"R_26";23;23;11;11;91,3357142857143;0,612086776859504
"R_27";21;21;10;11;119,477777777778;0,554385964912281
"R_28";22;22;7;7;79,7333333333333;0,519452054794521
"R_29";16;16;3;3;0;0,34973806537298
"R_30";25;25;13;12;1335,50753968254;0,776031434184676
"R_31";23;23;10;9;313,113492063492;0,591317365269461
"R_32";25;25;12;11;786,034523809524;0,767860035639073
"R_33";24;24;9;9;112,642857142857;0,534686971235195
"R_34";21;20;6;5;63,634126984127;0,608863198458575
"R_35";24;24;13;13;585,080158730159;0,705252194613897
"R_36";18;18;4;4;204,505555555556;0,553803014370838
"R_37";25;25;13;11;67,2801587301587;0,590433482810164
"R_38";21;21;7;6;43;0,505061267980821
"R_39";18;18;4;6;19;0,497585555322276
"R_40";24;24;12;11;212,26746031746;0,659891410274259
"R_41";20;20;8;9;511,85;0,528840789914091
"R_42";19;19;6;8;13,3333333333333;0,437067773167358
"R_43";17;17;4;4;95,3452380952381;0,359717689914244
"R_44";19;19;5;6;172,638095238095;0,373905498146249
"R_45";21;21;8;8;161,7;0,612007746933506
"R_46";22;22;7;11;312,366666666667;0,647098976109215
"R_47";21;20;10;6;3,36111111111111;0,471829583913996
"R_48";28;28;15;14;419,218253968254;0,735796336541447
"R_49";20;20;10;8;213,153968253968;0,604977664326739
"R_50";18;18;4;2;1;0,425417339795369
"R_51";19;19;7;6;141,383333333333;0,495349566307869
"R_52";24;24;12;13;212,227777777778;0,677239605657951
"R_53";20;20;9;8;447,248809523809;0,536988784411465
"R_54";20;20;10;12;346,223809523809;0,623684210526316
"R_55";16;16;3;3;0;0,34973806537298
"R_56";23;23;10;11;27,7634920634921;0,593984962406015
"R_57";21;21;9;10;565,01746031746;0,604591836734694
"R_58";19;19;6;6;26,1833333333333;0,461988304093567
"R_59";20;21;7;8;26,8150793650794;0,545266306223398
"R_60";24;24;12;12;176,285714285714;0,653072471755305
"R_61";23;23;8;10;112,163492063492;0,61216582719876
"R_62";24;24;11;12;56,8301587301587;0,632759311173408
"R_63";19;19;6;6;118,717857142857;0,496439044826142
"R_64";22;22;7;12;25,8928571428571;0,596151427493397
"R_65";16;16;2;2;0;0,34973806537298
"R_66";26;26;12;12;526,052380952381;0,70841428784935
"R_67";22;21;9;7;167,559523809524;0,585402000741015
"R_68";23;23;12;11;138,260714285714;0,657602663706992
"R_69";21;21;8;7;98,3690476190476;0,510775862068965
"R_70";20;20;10;11;98,9388888888889;0,505492161672176
"R_71";25;25;13;11;203,263095238095;0,605132133282268
"R_72";16;17;4;4;3,91666666666667;0,449076267171957
"R_73";23;23;10;10;231,827380952381;0,62532981530343
"R_74";16;16;3;2;0;0,274035959993062
"R_75";20;20;7;6;84,3857142857143;0,531271015467384
"R_76";16;16;2;1;0;0,302007008601465
"R_77";22;22;11;13;85,8547619047619;0,516621253405995
"R_78";24;25;11;10;93,3333333333333;0,671863926293409
"R_79";23;23;7;7;194,75;0,517410763017138
"R_80";21;21;8;6;567,747619047619;0,616946505271378
