"Foraging";"In";"Out";"InLink";"OutLink";"Betweeness";"Closeness"
"F_1";87;85;84;80;3078,34871027228;0,706881301963561
"F_2";60;44;59;42;900,702093770289;0,651380134753318
"F_3";64;67;62;63;1569,72361130635;0,681446111869036
"F_4";35;30;37;30;146,318978379893;0,557633268210996
"F_5";62;53;62;53;844,672715878025;0,660423093873957
"F_6";50;38;47;36;354,770715356598;0,60320016101439
"F_7";54;67;52;63;1024,34962104263;0,646462467644524
"F_8";96;94;100;95;2889,36487310895;0,721777349629723
"F_9";49;54;48;49;945,091886312163;0,637083488335021
"F_10";72;55;70;58;684,720781196947;0,642581475128646
"F_11";43;42;44;44;655,401290695687;0,617524339360222
"F_12";83;82;79;76;2133,10519291228;0,679514794241018
"F_13";112;100;105;99;2876,87022692993;0,695037105751393
"F_14";86;88;84;85;1767,57418510165;0,685028571428572
"F_15";27;24;29;26;50,3550289580461;0,550489048078248
"F_16";66;74;69;79;1222,22722746559;0,660277594183743
"F_17";32;32;32;31;99,6872332987383;0,576956396188274
"F_18";21;18;24;19;49,6593063813405;0,534462773071779
"F_19";68;71;68;73;1686,14639173134;0,674544226873739
"F_20";43;37;42;38;294,324967474184;0,600661388916724
"F_21";54;45;54;45;684,918527234132;0,636103151862465
"F_22";80;72;80;73;1936,86769035317;0,666926286509042
"F_23";55;59;56;60;827,878609621583;0,649404117009754
"F_24";75;75;74;70;2663,59088614612;0,701339729713922
"F_25";79;77;80;80;2827,66089090875;0,686912674765072
"F_26";55;55;59;57;906,526993780861;0,646462467644522
"F_27";79;71;75;71;2180,83767809662;0,684480986639262
"F_28";112;123;103;119;6734,98556288525;0,743580200967625
"F_29";42;38;43;40;404,550382564313;0,615147783251231
"F_30";66;53;62;51;1903,96579116129;0,655475969161796
"F_31";71;80;68;78;3114,24565719062;0,706839622641515
"F_32";76;70;76;66;2207,24832165746;0,68237704918033
"F_33";79;82;78;79;2278,09993432882;0,684989429175477
"F_34";92;87;91;86;2883,18205769902;0,706173421300667
"F_35";43;36;42;38;239,156496793425;0,585837853687142
"F_36";83;81;82;82;1829,69598733616;0,648105098124021
"F_37";30;34;35;33;180,714051793784;0,575295133890008
"F_38";63;59;62;59;922,232030379128;0,639906053165369
"F_39";46;42;49;44;313,008291217041;0,574247940218431
"F_40";50;52;55;55;365,951626593435;0,608280901156889
"F_41";18;18;17;20;57,9292242721706;0,522808547754034
"F_42";61;50;60;53;559,583756821659;0,607541050070949
"F_43";42;39;42;41;392,07951004349;0,619023030052669
"F_44";29;25;30;24;130,622504158256;0,572848473264202
"F_45";51;54;51;58;238,570749191803;0,584780487804877
"F_46";54;46;52;42;677,120767821031;0,630217642729472
"F_47";62;66;61;67;1275,36586187516;0,646288209606989
"F_48";49;44;53;49;634,069818371998;0,607941579187584
"F_49";27;33;30;36;150,577169902905;0,556726884317094
"F_50";75;75;76;77;1677,38209101941;0,67598962445021
"F_51";73;72;74;67;1660,51236299964;0,664375969851476
"F_52";52;44;51;45;359,524113425274;0,594967492183234
"F_53";84;75;89;73;2450,94747728068;0,68667659525719
"F_54";81;79;80;77;1607,70520301285;0,683388439174557
"F_55";76;68;72;63;1558,70868568095;0,660350336014104
"F_56";65;67;67;64;1408,1914578266;0,665445462114906
"F_57";76;79;76;87;1470,97825869364;0,666370205669819
"F_58";78;69;84;67;1603,43714213679;0,64792995351854
"F_59";82;67;85;69;2155,49767390734;0,70393423370523
"F_60";65;67;63;69;1886,45250272167;0,688569787478464
"F_61";31;30;35;29;230,900848417167;0,554102149295124
"F_62";55;59;56;61;847,59686095787;0,627217077381887
"F_63";70;69;71;78;2193,85979124133;0,67564673392324
"F_64";58;67;56;66;1365,47015732967;0,665113182423438
"F_65";87;79;84;79;2963,56007364728;0,709013484740957
"F_66";57;56;58;61;1192,00598270351;0,669645849625748
"F_67";84;73;87;78;2718,31170227189;0,688648897058827
"F_68";20;19;20;19;58,2608266094083;0,526852421552255
"F_69";67;58;69;58;1701,24779614498;0,670057570845679
"F_70";44;46;46;49;324,455531300537;0,608836973082782
"F_71";75;71;74;70;1071,40317724417;0,644169801182162
"F_72";36;50;38;51;289,497271039739;0,603990326481256
"F_73";69;64;66;63;1638,10148898579;0,662210683312159
"F_74";55;55;59;58;408,833967284838;0,606987341772151
"F_75";82;92;83;95;2050,58745185095;0,681136363636366
"F_76";51;49;51;52;396,35934148783;0,623920058290829
"F_77";34;41;35;43;176,346412144841;0,595026554822056
"F_78";31;39;33;40;245,966676166407;0,605546294893165
"F_79";31;36;33;40;169,153521414119;0,558855065031933
"F_80";34;42;34;43;315,157224488301;0,618543934781488
"F_81";62;56;62;61;1046,2259705553;0,644031374234449
"F_82";50;53;46;50;397,28649954266;0,610324814173709
"F_83";87;70;83;71;1589,77825490859;0,696814694257155
"F_84";73;84;74;89;2916,45260630589;0,675722901753003
"F_85";52;54;52;55;321,294781713612;0,583159021257965
"F_86";33;45;36;43;396,351566490331;0,630582294461103
"F_87";59;56;54;57;1116,18937642568;0,670544803669319
"F_88";61;70;68;70;1172,57882697962;0,648841740636503
"F_89";116;113;122;109;5234,91504080569;0,725402396224133
"F_90";77;78;75;80;2112,19402276101;0,691469112303169
"F_91";55;58;55;59;1154,22430368612;0,647894935956333
"F_92";31;31;32;35;215,861185868133;0,565098519845384
"F_93";78;79;78;76;2945,73644403976;0,698316537542962
"F_94";34;30;33;31;189,532252260098;0,573753230592514
"F_95";49;50;47;52;633,535170324209;0,639701173959447
"F_96";26;32;26;32;100,55717669317;0,55405093127513
"F_97";100;106;98;105;3492,33202417924;0,714209115281503
"F_98";95;90;87;82;4470,94095187238;0,735550374279057
"F_99";46;44;48;48;459,850685098789;0,629324373982887
"F_100";101;77;98;77;2993,62429935395;0,700806734479135
"F_101";87;76;79;75;2915,08575363631;0,698438592402708
"F_102";44;37;43;36;340,329067351205;0,606250632143218
"F_103";53;55;57;59;582,487320154237;0,61991932981694
"F_104";43;48;43;50;585,052280568199;0,632645522191146
"F_105";85;83;78;76;3806,53657965906;0,711876484560573
"F_106";64;71;66;73;1381,00796373581;0,655440131219247
"F_107";98;103;93;100;2288,55281460682;0,691987993534983
"F_108";28;36;27;36;179,655735872958;0,560842105263157
"F_109";33;33;33;33;145,854418591832;0,557399916306318
"F_110";49;46;50;45;376,296896271552;0,617906293490026
"F_111";44;48;44;48;364,670893703399;0,619983450558543
"F_112";42;44;44;46;317,84966491962;0,609332113449221
"F_113";62;58;69;62;605,67008070042;0,614674665436086
"F_114";61;74;58;70;1132,76796866787;0,650743676039521
"F_115";81;83;88;88;1222,47057249193;0,656588892540259
"F_116";62;57;60;57;1286,48802554991;0,661188020517349
"F_117";23;38;23;38;232,609297668975;0,589670437776684
"F_118";75;79;75;84;2917,5284620229;0,692027939733307
"F_119";66;79;67;77;1659,04655950788;0,682843472317159
"F_120";81;81;80;82;2839,95659521927;0,70517647058824
"F_121";42;34;42;34;334,784524632273;0,572492836676217
"F_122";52;52;50;48;586,738633551339;0,633615221987316
"F_123";55;51;56;53;1017,59610905347;0,638236703402014
"F_124";55;49;57;50;885,164347057899;0,629390455189795
"F_125";27;26;27;27;125,55483687197;0,558152528168358
"F_126";84;80;87;82;2550,72714204044;0,708803878673214
"F_127";65;67;70;64;1157,29509732961;0,660859977949285
"F_128";49;48;50;50;558,211521121825;0,615274071032642
"F_129";65;59;63;59;721,357129453162;0,625776478571801
"F_130";62;79;65;79;2000,81619973467;0,66492872594154
"F_131";73;78;70;75;1541,47656653845;0,655440131219248
"F_132";81;73;79;74;2043,24716221231;0,683466362599774
"F_133";84;88;84;85;2311,26382536121;0,685851593340582
"F_134";73;67;72;68;2515,10380936269;0,679900181488205
"F_135";25;23;28;23;184,352204507818;0,568987612131567
"F_136";83;86;81;88;2206,16310894763;0,696652719665274
"F_137";99;104;99;98;4345,49957705547;0,725753723211045
"F_138";66;61;69;69;1463,63081194763;0,663677130044849
"F_139";45;47;42;47;290,965883685468;0,59279038718291
"F_140";53;55;56;53;1186,19797120792;0,645800786510804
"F_141";103;87;99;90;3133,43797093869;0,700070077084794
"F_142";49;51;49;54;597,578546512299;0,612726808075644
"F_143";43;49;40;49;509,4702821515;0,618065580532068
"F_144";82;67;80;65;1440,9243102551;0,651698831204133
"F_145";48;43;49;45;255,552658306492;0,59100769079077
"F_146";38;43;35;45;263,830037144401;0,579326342241337
"F_147";97;91;96;96;2009,40359980596;0,676982154958213
"F_148";70;58;72;59;839,951546141691;0,634487138774215
"F_149";63;70;63;69;1100,43952082957;0,662247265495528
"F_150";45;48;45;51;610,096208005275;0,615242494226328
"F_151";91;85;89;82;1997,6100172242;0,687621888264313
"F_152";63;65;64;62;1753,71151335133;0,68924279882712
"F_153";84;76;84;76;3001,24814665723;0,687937564558708
"F_154";87;82;93;82;1682,47232149437;0,677288135593221
"F_155";94;86;98;90;2041,83562489763;0,67598962445021
"F_156";73;72;77;73;2025,00718297809;0,67986162309307
"F_157";89;89;96;89;2571,74244130532;0,694151708164448
"F_158";81;91;82;93;1894,63593075245;0,670544803669315
"F_159";39;42;43;42;314,985202782742;0,596566310027369
"F_160";56;61;57;60;718,918191502478;0,650461204557788
"F_161";89;81;85;78;1932,3406050179;0,690075984342622
"F_162";44;44;44;46;587,072394052391;0,593818109768178
"F_163";50;41;55;41;831,237485904422;0,613636363636363
"F_164";32;40;31;41;217,993615866465;0,575571346264643
"F_165";54;49;54;50;720,404044709458;0,641790245730502
"F_166";65;73;66;73;1171,44340777093;0,66718610863758
"F_167";68;64;69;69;2716,74364079212;0,705176470588241
"F_168";40;35;39;34;353,479053478282;0,617206404777841
"F_169";31;35;31;39;268,29186307633;0,596328906133412
"F_170";91;83;91;88;2550,02832126731;0,701339729713919
"F_171";87;82;85;83;2038,91097969683;0,671596638655464
"F_172";34;23;31;22;123,524626760021;0,598980713500548
"F_173";56;50;55;49;823,601719480668;0,623887587822013
"F_174";52;61;50;63;997,612902570268;0,657525230364196
"F_175";103;91;105;87;2594,28184694165;0,699131043331197
"F_176";34;46;34;48;281,127088981407;0,58635363169479
"F_177";91;76;92;73;1726,00791960804;0,666000000000001
"F_178";37;42;40;45;232,615340465402;0,578431845597104
"F_179";54;42;56;47;596,03488299606;0,599999999999999
"F_180";21;22;21;22;139,926540078429;0,541414506367989
"F_181";59;54;55;52;964,949993098652;0,651486332264552
"F_182";63;77;68;81;1209,44628713142;0,668413716197382
"F_183";34;25;32;26;147,395820318488;0,579186394820755
"F_184";86;81;89;80;3097,70875376426;0,686087105820409
"F_185";50;44;49;45;401,226768482046;0,607171799027552
"F_186";59;65;62;66;1203,71127605691;0,655834564254066
"F_187";17;20;17;21;41,6592507699871;0,526991383857922
"F_188";38;40;41;41;182,295934793138;0,587791125275802
"F_189";35;38;37;39;291,31422280919;0,623174091594323
"F_190";63;54;59;52;865,164360766718;0,641412520064208
"F_191";26;23;29;25;174,863800127739;0,567183951551854
"F_192";56;58;59;61;1453,05090605772;0,648210230344978
"F_193";29;39;31;44;276,886458050646;0,572219570405727
"F_194";29;32;31;33;193,206318182028;0,587359137677608
"F_195";64;51;66;58;598,653301897455;0,628071462251794
"F_196";87;84;85;83;1802,91392770605;0,679399263247383
"F_197";67;72;63;75;1393,75226933024;0,650673035171519
"F_198";31;26;32;26;105,217505473296;0,558464548588465
"F_199";93;84;91;86;1682,44704544206;0,681794915543425
"F_200";32;35;33;37;350,747415461581;0,59188308482275
"F_201";70;59;68;57;1088,78200716675;0,640898155573378
"F_202";42;39;47;39;432,048213866436;0,613196930946296
"F_203";86;91;90;93;2758,37172055825;0,694473409801879
"F_204";41;48;48;52;724,631138112691;0,613919188815487
"F_205";99;102;98;104;3305,54741610409;0,702531645569621
"F_206";67;67;66;69;1497,19371538059;0,68651929904937
"F_207";85;84;77;85;3778,71604295788;0,725841608137567
"F_208";96;105;98;108;3748,50090547655;0,723781923564573
"F_209";84;87;82;81;2101,14594363174;0,688965517241382
"F_210";29;33;31;34;145,467048054255;0,565578411020946
"F_211";32;30;33;31;259,893841260732;0,603625377643507
"F_212";65;65;65;66;624,766067955616;0,623498205648306
"F_213";31;31;34;32;222,483473440051;0,572192258126103
"F_214";31;34;32;33;131,00191394021;0,556365155242029
"F_215";38;42;38;41;211,332199634462;0,577734939759035
"F_216";82;70;81;74;1215,5230428039;0,675380281690143
"F_217";87;90;93;93;1435,8025311911;0,675722901753004
"F_218";50;53;51;57;552,53900682014;0,62580914595949
"F_219";26;30;24;28;345,391987244246;0,593377221204771
"F_220";47;51;50;52;1495,6194567688;0,686165645927546
"F_221";84;71;86;74;2186,83264618529;0,696450357288098
"F_222";78;88;81;88;2634,32360505;0,711918760021381
"F_223";71;67;71;68;2744,6492875573;0,692467652495384
"F_224";90;85;94;87;2945,8280463808;0,714081486776271
"F_225";22;25;24;26;227,637983714064;0,568232450111389
"F_226";100;94;98;93;3309,15324887031;0,68833256775379
"F_227";57;61;56;57;1058,13659458026;0,658536585365856
"F_228";99;97;98;91;2967,49270808535;0,699416569428239
"F_229";69;75;71;75;1807,8914435782;0,688332567753792
"F_230";48;48;47;48;691,01766514451;0,630947368421053
"F_231";104;105;97;105;2285,94053447576;0,687582449096646
"F_232";46;55;46;59;1198,13840837701;0,64597478176528
"F_233";97;101;91;90;3735,18419556067;0,714507092621293
"F_234";50;55;51;58;756,665827693018;0,629555718937087
"F_235";92;94;90;94;3160,34159716956;0,703851573508692
"F_236";43;38;45;41;210,05673686944;0,591883084822749
"F_237";33;35;35;38;139,773367074523;0,557011430164482
"F_238";59;68;58;71;861,141393876062;0,629159231657394
"F_239";45;50;46;50;327,546037352671;0,589583435794028
"F_240";55;51;56;52;471,783129425837;0,626725219573401
"F_241";33;29;32;29;299,455039218421;0,589351555970699
"F_242";91;83;97;92;2315,98080870083;0,679206798866857
"F_243";55;61;58;63;1322,84783462868;0,640487257573331
"F_244";75;64;75;67;2006,5861787888;0,68789808917198
"F_245";47;45;43;48;1036,86156886066;0,654938811188813
"F_246";59;63;62;70;663,424578488918;0,626136007521152
"F_247";58;54;58;58;644,26722585131;0,639223632291779
"F_248";79;93;84;91;2040,47357028954;0,682532452744255
"F_249";87;79;86;74;2688,14335968788;0,69754451297568
"F_250";58;59;55;53;1054,95065803495;0,652905615162575
"F_251";46;42;49;41;364,572872145506;0,596388239391074
"F_252";31;32;32;35;320,317292072966;0,570612594602312
"F_253";90;66;90;72;1780,2127504387;0,674089068825917
"F_254";70;73;78;73;1551,85586567592;0,657886071781365
"F_255";92;92;96;85;3669,36764576692;0,704637630047612
"F_256";48;48;48;51;487,360815493987;0,634352841570538
"F_257";61;52;68;54;504,234927436076;0,61991932981694
"F_258";90;94;90;99;2526,20122599865;0,693509198195075
"F_259";82;96;84;94;3009,70433813324;0,706090234421017
"F_260";37;38;37;39;460,397556658723;0,63008514664144
"F_261";68;66;70;66;1741,14404508469;0,662247265495532
"F_262";39;39;45;47;257,313505307418;0,58324413739418
"F_263";69;69;69;68;1512,96753212683;0,654366812227077
"F_264";39;41;39;42;322,421255781193;0,623985009369144
"F_265";29;27;31;29;74,8914772224866;0,554794520547945
"F_266";74;71;78;70;1649,20892797708;0,654223968565817
"F_267";81;89;82;95;2744,24069656577;0,686519299049367
"F_268";35;34;34;34;336,87785013221;0,594997022036926
"F_269";87;79;89;81;2358,64311945785;0,694714881780251
"F_270";70;84;72;88;2025,209282486;0,679630364533139
"F_271";78;84;74;82;1685,85787830555;0,690393918451971
"F_272";74;73;77;75;968,828209722658;0,644446833673802
"F_273";115;121;108;111;7761,11031009079;0,756818181818185
"F_274";55;58;61;62;984,075073840642;0,615779741113621
"F_275";99;102;99;103;4364,62174971398;0,730174199049825
"F_276";52;63;50;63;630,30982266055;0,606342623033735
"F_277";95;73;97;72;2672,03754690747;0,69588436756255
"F_278";103;101;96;93;2954,16803142671;0,703356019713686
"F_279";99;92;103;102;3144,40808978851;0,723519826181426
"F_280";38;40;36;39;191,662383095054;0,586640567653535
"F_281";92;84;83;80;4833,74433530835;0,716942766580951
"F_282";100;104;99;99;3707,04626589594;0,724219174771949
"F_283";15;18;14;19;60,1738664771346;0,545132099495248
"F_284";92;99;96;104;2726,4122008143;0,698275862068966
"F_285";64;55;68;56;1281,05634231558;0,656445077209508
"F_286";37;34;38;37;226,345568000222;0,606036095242908
"F_287";67;72;68;75;1150,21029152706;0,626299566375842
"F_288";73;78;73;79;1604,49055450058;0,663346613545818
"F_289";79;84;78;82;2270,56903693513;0,683427398665988
"F_290";69;66;67;68;1880,66137834494;0,671822461331542
"F_291";76;76;77;77;2103,16429329937;0,689044717783656
"F_292";76;88;80;89;1420,43049503682;0,668600111544899
"F_293";22;31;21;31;145,713801974568;0,577067488206411
"F_294";44;38;45;42;773,966730045527;0,633180161622568
"F_295";67;74;66;73;2785,38992018117;0,703232240276882
"F_296";63;58;65;55;1004,8851018296;0,653332606681565
"F_297";43;41;44;37;655,484264604533;0,625384735771298
"F_298";69;66;71;70;738,911876802293;0,641549823397196
"F_299";83;80;88;87;1266,03946705456;0,637388345384942
"F_300";17;14;17;13;54,3601383967483;0,514462277916059
"F_301";67;80;68;82;1870,57572028964;0,664302338468361
"F_302";69;67;67;70;2697,07245103286;0,708887706226721
"F_303";76;97;77;90;1523,36421578127;0,689599631845378
"F_304";48;50;47;52;526,886828665536;0,627381201590957
"F_305";85;83;84;84;1489,73206787078;0,689123936537137
"F_306";26;27;26;25;163,599626329765;0,570558278996715
"F_307";107;112;100;104;2573,87450567121;0,685930079533103
"F_308";36;37;36;38;157,050479505971;0,582875480138084
"F_309";52;58;50;62;634,194890993724;0,638134781220059
"F_310";32;31;35;29;396,685493348781;0,609517998779746
"F_311";30;38;32;38;318,775101833069;0,581320919406458
"F_312";63;59;61;61;1397,53946784087;0,652834504165987
"F_313";24;17;23;20;71,3082860861193;0,562394445486957
"F_314";46;51;49;54;679,841408853729;0,600992630470746
"F_315";74;86;76;91;1530,64949020528;0,665076282940364
"F_316";77;86;77;88;3866,92777676724;0,726589490272142
"F_317";47;40;49;40;375,046214725779;0,620496894409938
"F_318";70;79;73;81;903,360253134096;0,661735482446458
"F_319";39;36;40;34;143,442618713526;0,578655210696529
"F_320";56;75;56;74;2071,13858677063;0,701052631578951
"F_321";31;32;34;36;465,662379729881;0,599879903923138
"F_322";66;76;64;70;1233,77295445856;0,657958287596051
"F_323";39;41;37;37;369,636906283777;0,59922023392982
"F_324";42;47;42;50;329,747369700242;0,586410996429094
"F_325";29;23;29;25;103,030087051172;0,565738555922604
"F_326";42;43;43;50;318,287299593902;0,591853863243642
"F_327";27;22;25;21;86,722159503711;0,55208621166068
"F_328";39;37;41;40;258,826090144636;0,586640567653534
"F_329";61;63;59;64;682,40622420003;0,643547348078163
"F_330";24;39;25;37;138,955243225875;0,569474134245403
"F_331";32;24;34;25;152,776232929666;0,563743240065835
"F_332";76;92;78;87;2795,50091450103;0,712638211865418
"F_333";87;73;85;76;2169,29329516992;0,678706901432374
"F_334";19;19;19;20;38,3983232445694;0,537048651554521
"F_335";72;67;69;65;2099,77616139337;0,690632561354996
"F_336";71;60;65;61;1613,68775830093;0,679399263247385
"F_337";69;64;72;61;1530,67415266545;0,663787375415285
"F_338";67;69;69;72;712,322033020228;0,631811953199114
"F_339";91;82;90;80;2359,76739273779;0,696652719665275
"F_340";55;53;59;54;1380,80866492298;0,672349971957382
"F_341";18;20;18;22;83,1268643172246;0,546947714207501
"F_342";98;97;94;95;2357,82015262679;0,688767595518531
"F_343";81;71;78;70;1475,82984136759;0,661297440423657
"F_344";22;37;22;37;121,828931463485;0,569365946331037
"F_345";92;72;89;73;1755,88052948213;0,655906330360564
"F_346";33;35;37;38;343,201295487726;0,56777493606138
"F_347";58;70;56;73;1172,31119605009;0,655225185832971
"F_348";102;104;103;106;3096,71756509509;0,707590603234567
"F_349";50;50;49;53;1338,66999233925;0,660277594183743
"F_350";37;35;37;38;274,496849430012;0,569880205362235
"F_351";76;84;85;89;1855,86303168103;0,678284485685189
"F_352";34;27;35;27;250,852805961398;0,592233968975396
"F_353";43;52;41;49;766,701986676879;0,618256833419287
"F_354";70;66;75;69;868,381431480257;0,62072179361052
"F_355";22;14;22;17;95,6429904714882;0,542738138355669
"F_356";45;45;51;52;505,827981053306;0,605210016155088
"F_357";39;41;43;41;238,295997357838;0,578543506587519
"F_358";50;47;47;45;522,919101000202;0,625711154026828
"F_359";46;44;49;43;264,056541900862;0,604599556183174
"F_360";104;94;100;95;3152,99235745567;0,718920539730139
"F_361";55;61;64;62;933,160325451281;0,612570260602963
"F_362";32;38;37;38;327,446979388416;0,595854664744768
"F_363";43;30;45;32;250,236650153443;0,574578220858895
"F_364";97;98;99;95;2423,46543704364;0,703397289209648
"F_365";78;83;83;84;2407,25684365891;0,688016528925623
"F_366";40;46;41;46;356,191552333406;0,607571841265013
"F_367";78;92;77;92;2320,57370691912;0,675875288944017
"F_368";38;46;33;47;548,382606655258;0,639325902618531
"F_369";30;43;31;45;299,662583990035;0,600571113671658
"F_370";49;53;48;57;823,571660459285;0,651203215818351
"F_371";51;55;56;58;658,352166320147;0,619374838543012
"F_372";61;60;61;63;1619,10600702268;0,656157635467982
"F_373";57;57;53;51;915,193330122058;0,658102766798421
"F_374";71;75;73;71;2105,71643768752;0,685263518920775
"F_375";74;80;76;82;2041,36101471055;0,673294018534124
"F_376";107;114;98;114;5488,75307511445;0,741281226811775
"F_377";68;71;68;68;1930,32441784725;0,662613309750167
"F_378";50;46;51;45;326,027315701591;0,600270392068498
"F_379";92;88;90;88;3165,12204079077;0,705052049638303
"F_380";63;80;65;80;1249,41277864669;0,679437769213331
"F_381";117;112;106;109;4686,47842179578;0,732404692082114
"F_382";69;78;68;77;1490,35495860101;0,658175030196554
"F_383";74;70;79;76;2186,55111533501;0,676905702992664
"F_384";38;45;42;46;315,64165145779;0,592702462177394
"F_385";96;87;96;92;2083,51267555586;0,704761904761907
"F_386";88;89;85;84;2940,45503966658;0,701955732521376
"F_387";54;50;51;47;669,047640698876;0,641481164383564
"F_388";52;45;52;42;602,591173676676;0,594819886871091
"F_389";48;52;52;51;714,900725625641;0,613102848667723
"F_390";40;35;38;33;240,970685049913;0,613824884792626
"F_391";73;64;73;65;1592,77983860948;0,678399637824687
"F_392";29;32;33;37;225,808847990263;0,574964028776977
"F_393";39;45;40;44;494,030855917975;0,605301691492046
"F_394";94;94;94;93;2411,95006592644;0,703934233705229
"F_395";42;42;42;40;258,967995621383;0,616254562278311
"F_396";45;49;41;51;1316,63319197553;0,659841479524444
"F_397";83;83;81;82;1990,09981201538;0,686479986256658
"F_398";82;86;85;88;2040,09298626053;0,667334669338679
"F_399";73;79;73;76;1911,98194345663;0,679977311401022
"F_400";60;54;64;61;798,542253985242;0,626626940567664
"F_401";88;79;84;80;2127,34281091746;0,680363223609539
"F_402";94;89;98;89;1956,14438683841;0,689678978253367
"F_403";25;28;28;29;115,985950574225;0,573423897445708
"F_404";47;50;50;50;771,271805858105;0,643823845327608
"F_405";32;31;34;31;95,2327507000411;0,576567910734897
"F_406";48;49;48;50;450,836996228773;0,602836166147037
"F_407";69;60;70;61;1835,00368454002;0,655225185832971
"F_408";21;26;18;24;203,941357309043;0,608558810091882
"F_409";51;49;52;50;885,529406178438;0,612758127172356
"F_410";30;27;29;27;104,458355220419;0,550185873605948
"F_411";18;21;17;19;152,736520649535;0,569853115938584
"F_412";67;66;67;69;1269,62862019264;0,657020716869455
"F_413";17;17;18;18;77,6467590844437;0,550362684785603
"F_414";39;42;35;36;251,995325018082;0,627414036740463
"F_415";36;34;35;32;165,979519587705;0,573918039065491
"F_416";80;69;81;65;1565,9395994062;0,682765690853174
"F_417";54;58;57;60;684,443268428921;0,63415150232755
"F_418";88;99;85;95;3833,63988923235;0,698927238805971
"F_419";43;43;43;42;229,892996252888;0,576512455516013
"F_420";31;33;32;34;354,714684721845;0,594436455595774
"F_421";65;64;70;64;791,490767144181;0,629555718937086
"F_422";87;102;82;91;3325,82484842007;0,718963655991369
"F_423";81;95;83;92;3194,72974038144;0,701257677683536
"F_424";70;71;65;70;1275,08603844399;0,65465268676278
"F_425";52;55;52;52;511,060457522705;0,607602635580333
"F_426";64;64;64;63;1426,26791054691;0,668152937242227
"F_427";55;67;52;68;1157,04874071884;0,659043430456297
"F_428";53;54;55;50;811,133492275118;0,650496500081397
"F_429";16;26;16;25;41,8252769289534;0,529739284136103
"F_430";48;45;49;46;387,414653429557;0,609208252871225
"F_431";36;42;38;45;201,138491371444;0,588425857752907
"F_432";39;48;39;48;422,811070497874;0,606403965805047
"F_433";78;80;79;77;2706,75494021531;0,692147806004621
"F_434";65;63;63;62;1570,4731635406;0,661991275056605
"F_435";79;80;77;84;2724,24868349826;0,697301070265245
"F_436";36;22;37;23;95,4357216519861;0,547372266106571
"F_437";38;35;32;33;222,597808592443;0,615969581749048
"F_438";59;75;61;78;1353,75475677005;0,642099625066954
"F_439";53;57;55;61;486,839547984265;0,621526337619244
"F_440";33;25;37;27;162,224970807635;0,568717681104416
"F_441";71;71;70;66;1050,35320743652;0,658211167847145
"F_442";57;45;63;52;617,712047840095;0,613385182153089
"F_443";56;54;58;51;1185,45270146463;0,664302338468365
"F_444";72;75;71;78;724,617209406296;0,624960900844541
"F_445";63;69;60;72;1091,39134492669;0,652017839660612
"F_446";62;73;59;71;1858,3652889562;0,693830304433388
"F_447";56;57;52;62;431,979831492241;0,629093198992444
"F_448";33;31;36;31;190,693119082833;0,586439683005576
"F_449";92;95;89;93;3982,10162034427;0,712553495007135
"F_450";45;52;49;49;725,191398783909;0,643271088216357
"F_451";42;46;44;49;383,99858605164;0,586410996429094
"F_452";51;51;57;54;625,349452323638;0,616603230120357
"F_453";59;55;55;51;736,502850731841;0,645348837209304
"F_454";95;83;97;87;3059,60180811472;0,707256637168146
"F_455";55;50;52;46;1383,86603807161;0,663566921288612
"F_456";69;85;66;81;2686,22492996348;0,694956521739134
"F_457";80;85;77;87;2289,32327412915;0,707674144037785
"F_458";55;53;55;52;441,66962336808;0,605791096063468
"F_459";87;87;88;86;2480,94184015259;0,691429230591765
"F_460";82;82;82;85;3338,48336114911;0,708259482453033
"F_461";44;41;45;40;431,0152956355;0,632645522191146
"F_462";100;111;100;103;5894,95049502702;0,741510484319915
"F_463";73;77;73;79;1936,41132620333;0,662393634655764
"F_464";69;75;69;78;1205,09541635264;0,627249895353704
"F_465";98;102;91;96;3341,67062253578;0,70817580340265
"F_466";38;38;38;37;777,163706487619;0,657777777777786
"F_467";42;40;42;42;176,716811383321;0,590134882347148
"F_468";51;56;51;54;558,453114269112;0,600932377562784
"F_469";66;66;62;66;1160,40860999842;0,651663405088067
"F_470";81;90;82;87;2749,68088165554;0,692707731422631
"F_471";88;96;89;91;4417,90202873998;0,697057797418309
"F_472";33;34;35;37;167,543543545365;0,577818479780209
"F_473";46;46;43;47;456,400762916748;0,624244948968966
"F_474";39;39;39;39;722,068940791276;0,59820359281437
"F_475";85;87;87;86;1771,10039441089;0,671446174526719
"F_476";56;53;58;54;829,02976978838;0,648070061628287
"F_477";37;37;33;35;247,595958076782;0,583783783783783
"F_478";39;47;41;49;356,164462804042;0,5936710741346
"F_479";85;97;83;99;3701,19686817505;0,719567827130856
"F_480";53;49;60;49;650,389181445081;0,62541736227045
"F_481";24;29;25;30;102,455133118403;0,546299671892089
"F_482";55;61;51;58;807,508620669228;0,637117346938777
"F_483";49;59;48;58;628,627938372569;0,611570247933883
"F_484";36;46;36;47;536,12336148265;0,620111731843575
"F_485";48;51;51;52;487,336899991304;0,599100449775111
"F_486";66;71;66;66;1880,3072627746;0,665002496255622
"F_487";80;87;82;93;2148,3544573876;0,701175644849977
"F_488";62;70;62;69;1537,25893321168;0,648315396679467
"F_489";26;32;26;32;178,381925099552;0,555
"F_490";78;70;75;70;2687,99786503688;0,703273495248154
"F_491";43;44;42;42;335,604416085031;0,585494505494505
"F_492";42;43;41;41;302,867674586527;0,602533172496983
"F_493";79;82;78;84;3004,68009128424;0,695037105751393
"F_494";61;55;56;57;1436,06139823313;0,647440051847054
"F_495";39;46;38;44;182,932781341489;0,598621791670827
"F_496";65;72;68;74;888,341104720528;0,644308287649146
"F_497";71;60;66;56;1336,88422851038;0,662759840778419
"F_498";47;50;47;53;590,029211448849;0,619566902682309
"F_499";56;65;54;62;689,706757487753;0,637998935604045
"F_500";46;47;46;49;736,303565086212;0,621268656716418
"F_501";67;74;72;79;1150,11464362434;0,665482402575776
"F_502";35;34;34;38;245,559255232254;0,585494505494503
"F_503";58;59;59;61;664,125711813291;0,636981934112648
"F_504";68;65;70;64;1101,19884891398;0,653083460448902
"F_505";78;77;79;81;1145,24630210302;0,655153568696034
"F_506";46;52;46;50;494,246136083025;0,641412520064209
"F_507";71;74;67;71;2160,25877687271;0,688807170765344
"F_508";45;52;44;53;571,668232500526;0,612632869991824
"F_509";49;54;50;53;485,363412822566;0,630681818181819
"F_510";62;65;66;70;982,572548900477;0,63552987329693
"F_511";36;29;33;28;220,364430319298;0,605332256109876
"F_512";99;93;99;92;2295,05804771428;0,690075984342621
"F_513";64;60;65;59;601,078906730095;0,613416568592334
"F_514";47;49;47;47;307,61437933896;0,591503429219913
"F_515";30;27;31;28;201,16345191249;0,557996648668776
"F_516";58;57;58;59;795,969524590972;0,626332288401253
"F_517";70;58;71;58;683,091047299947;0,64954486345904
"F_518";89;82;82;84;1778,44632883135;0,692067890543822
"F_519";43;50;49;51;591,036984240755;0,633447820343465
"F_520";83;82;82;80;2892,96067707623;0,70947505474345
"F_521";35;48;37;48;287,124049486675;0,61844820470491
"F_522";45;39;46;42;340,18520886208;0,590920293784195
"F_523";55;62;57;61;1833,5956677247;0,67088253399743
"F_524";67;68;68;65;1606,63198614937;0,684285632741598
"F_525";61;49;59;55;1024,46385902256;0,653012310709229
"F_526";24;15;25;15;50,7357699083613;0,535608971494952
"F_527";30;38;31;38;160,977055233743;0,579242365674526
"F_528";13;8;13;8;16,3753315160292;0,502894538132395
"F_529";28;27;28;27;121,457239046805;0,575019186492709
"F_530";43;42;42;40;416,073208499461;0,629159231657396
"F_531";93;93;88;82;2589,70251475215;0,713146936347416
"F_532";78;92;83;96;1845,606890201;0,667706360699567
"F_533";42;40;41;36;553,250186368095;0,63348129359544
"F_534";68;62;64;60;1417,84950442741;0,666000000000006
"F_535";86;83;86;85;2408,48390606625;0,685302692505575
"F_536";94;93;96;93;3452,15050658722;0,709685058015631
"F_537";48;55;52;55;630,252303258256;0,599280143971204
"F_538";45;41;49;41;778,003318950913;0,647684910043767
"F_539";83;85;85;89;1644,34237700268;0,682610181072772
"F_540";54;41;54;44;500,438919608087;0,58460938261972
"F_541";90;101;90;99;2611,71863455916;0,709727073589488
"F_542";52;55;50;55;444,491031373193;0,614580129191017
"F_543";94;103;89;102;5679,37465037195;0,74183168316832
"F_544";29;41;31;42;279,683237169051;0,57543320693131
"F_545";67;71;67;70;1146,60044444497;0,65465268676278
"F_546";57;58;56;59;697,832365172844;0,629654918850783
"F_547";34;35;36;36;280,763298907056;0,597458260652877
"F_548";81;70;80;65;2511,08944569731;0,690871369294609
"F_549";57;56;54;58;1117,46030846917;0,666222074024678
"F_550";30;36;30;37;99,6748580068052;0,555643105446118
"F_551";40;35;41;36;148,119975115286;0,578236542542928
"F_552";40;36;40;36;280,492248839154;0,612570260602963
"F_553";86;84;83;80;1591,63711877299;0,678284485685189
"F_554";57;49;55;49;1142,80005068745;0,664965609052591
"F_555";21;21;20;19;40,9426282746192;0,532871049473264
"F_556";115;101;113;95;4890,95110283144;0,733121330724073
"F_557";110;118;110;121;3701,49412744132;0,705010585744532
"F_558";85;82;87;83;1987,514409245;0,69286787654607
"F_559";27;27;27;29;141,877896687826;0,563292923597405
"F_560";29;41;32;43;248,42377415986;0,559141791044776
"F_561";121;115;113;104;6354,67643530944;0,742566897918734
"F_562";53;63;56;64;1118,40531942353;0,608373509261608
"F_563";71;66;68;60;1387,26702290687;0,668898560428524
"F_564";52;43;55;44;397,856306831635;0,593230403800474
"F_565";27;28;25;30;259,508631969478;0,575239923224567
"F_566";40;47;40;49;332,446802086544;0,604965684295518
"F_567";41;36;43;38;373,97249904448;0,568178586662874
"F_568";64;64;64;69;1480,26247880319;0,670319838962203
"F_569";53;49;52;52;1220,98781306772;0,633180161622566
"F_570";48;50;48;51;447,790021951886;0,589844518795512
"F_571";71;67;72;69;1018,89468437704;0,630350194552528
"F_572";103;108;108;106;6249,68407391128;0,75174013921114
"F_573";63;56;65;59;358,255527229843;0,601988550768302
"F_574";65;65;64;65;834,91280116536;0,644412191582005
"F_575";20;18;20;19;60,4616793408354;0,55841252096143
"F_576";58;49;58;50;1074,33019911572;0,645279362687054
"F_577";66;59;66;61;1031,27454675553;0,6513093556449
"F_578";50;59;49;60;706,436346471078;0,640247810296947
"F_579";43;47;45;45;359,032306607563;0,616159539473684
"F_580";28;34;30;36;123,305421551365;0,555694618272841
"F_581";40;42;36;40;348,253162942398;0,590134882347148
"F_582";28;23;32;27;139,361300805645;0,571673819742488
"F_583";82;64;83;62;2033,63467739719;0,691229891022319
"F_584";75;80;71;74;1744,87811963916;0,660059464816655
"F_585";106;89;109;95;2348,85763063134;0,6851068693565
"F_586";63;60;67;61;960,987253349925;0,639906053165368
"F_587";34;38;32;39;195,048780814807;0,580645161290321
"F_588";67;70;68;71;1444,54508914947;0,661516388919548
"F_589";43;49;45;51;186,298613243571;0,599250187453135
"F_590";52;55;51;50;543,018535214491;0,615874646801951
"F_591";50;59;51;56;1152,88617258242;0,638746803069055
"F_592";77;78;79;80;1393,36681022189;0,636035653650255
"F_593";41;33;40;33;235,131191047043;0,557089084065244
"F_594";89;96;87;94;3521,95013092446;0,720173014538032
"F_595";57;58;55;58;1090,03391911733;0,643789270178832
"F_596";81;86;81;88;2415,02614512958;0,699008746355687
"F_597";46;53;47;55;407,360904572086;0,613259668508287
"F_598";37;47;42;51;669,975142200353;0,614170807930733
"F_599";83;88;82;87;1689,87084948201;0,666963391565597
"F_600";74;78;74;80;1819,99037101517;0,662393634655767
"F_601";52;50;51;49;462,344594140279;0,609703997558742
"F_602";31;35;31;37;111,689437811176;0,561551433389544
"F_603";93;83;91;81;1260,63035489581;0,657525230364196
"F_604";49;44;51;45;638,801890576844;0,611507855539685
"F_605";49;49;52;47;342,707831000463;0,600811907983761
"F_606";51;57;47;57;703,393461277121;0,616730116267106
"F_607";65;68;68;68;1850,5467917661;0,663640389725426
"F_608";58;54;56;55;1585,26629094314;0,650955690703742
"F_609";33;35;34;31;778,910072355719;0,613604954701335
"F_610";67;71;67;68;1015,48368218277;0,654759954120926
"F_611";47;46;47;48;350,47335823287;0,63035019455253
"F_612";72;91;76;95;1496,53120942451;0,685420240137224
"F_613";93;90;85;90;2389,60523034022;0,697138869504538
"F_614";54;44;50;48;1149,37022335792;0,627446875327123
"F_615";28;29;31;32;247,339504916717;0,571619301926377
"F_616";81;85;81;85;2202,00013292516;0,689678978253366
"F_617";92;96;93;86;3564,70882597638;0,706007067137813
"F_618";76;78;76;76;920,36778130344;0,651521739130437
"F_619";54;48;49;46;889,40191999984;0,650567102621158
"F_620";60;59;63;66;477,186861958266;0,591240875912408
"F_621";34;39;34;40;165,350769782765;0,581349110130448
"F_622";53;50;51;48;292,498440491842;0,603807796917496
"F_623";74;68;76;66;765,430625825516;0,642237222757956
"F_624";50;56;50;56;953,891210164597;0,649122807017548
"F_625";102;106;103;98;3205,88531704656;0,71361390558962
"F_626";50;40;49;39;404,227285944781;0,627906976744186
"F_627";57;64;58;64;1154,95218737296;0,63806685118161
"F_628";36;36;38;40;586,652788093844;0,623465779072192
"F_629";71;77;75;76;1940,08323302936;0,674772036474167
"F_630";44;51;49;54;251,320794449028;0,57306754624982
"F_631";49;45;49;45;304,859694545276;0,584866077962628
"F_632";87;92;87;92;3350,37872067826;0,695803586975452
"F_633";69;73;71;80;1415,92169277088;0,64785992217899
"F_634";42;35;41;35;409,838175068616;0,650108459869855
"F_635";44;52;44;55;817,920030556823;0,61991932981694
"F_636";53;53;55;53;1376,18975229463;0,654152570118958
"F_637";30;28;31;27;167,93751336014;0,546050833561083
"F_638";56;47;57;50;506,909415890794;0,624863174354965
"F_639";97;97;94;90;2673,49834645802;0,698031908699199
"F_640";100;102;103;101;2818,40471269009;0,694473409801879
"F_641";48;45;49;43;451,278594559719;0,626594187748276
"F_642";107;103;107;100;3124,16930709624;0,693549320219845
"F_643";56;47;57;47;326,803789025633;0,62444004583811
"F_644";70;69;72;70;1496,64315221462;0,670394810423892
"F_645";34;42;35;43;255,069338406778;0,602533172496983
"F_646";64;71;67;69;901,872576811719;0,638134781220059
"F_647";65;67;69;66;1667,78579636792;0,666296131614052
"F_648";18;18;18;19;96,9397282612498;0,532326820603908
"F_649";71;71;72;69;1734,35624869729;0,674089068825912
"F_650";22;25;23;26;103,257645838671;0,57260221627818
"F_651";98;90;97;89;3863,67728915153;0,699253383107797
"F_652";51;56;51;58;664,115126215078;0,639155470249521
"F_653";66;77;63;75;1618,59090615818;0,67046979865772
"F_654";56;46;55;46;641,792257234425;0,618161192182746
"F_655";72;74;65;71;2664,92292907837;0,703190990145476
"F_656";84;87;86;84;3208,20675108262;0,694714881780251
"F_657";41;38;39;42;578,634216830409;0,629060187857484
"F_658";89;80;88;75;2316,88525787084;0,694232105628913
"F_659";16;17;19;16;129,557471793168;0,564247387743574
"F_660";44;42;41;40;362,650349068692;0,601203610832496
"F_661";77;80;83;82;1857,70948685585;0,649791316602527
"F_662";48;49;50;48;584,82534976624;0,610045290316013
"F_663";58;57;60;62;1557,30465459833;0,674848007205586
"F_664";61;53;60;52;593,889703271077;0,637523931078495
"F_665";113;115;107;110;3049,51084350767;0,706548004950788
"F_666";57;54;57;52;724,289150388146;0,636238191274813
"F_667";48;48;48;50;563,202085470919;0,610200549730224
"F_668";63;60;66;61;1307,38559162253;0,653083460448902
"F_669";39;37;47;43;429,617883371944;0,60054102795311
"F_670";84;82;86;82;2437,40375278142;0,684324694599842
"F_671";41;31;39;30;429,753432626419;0,621204269872526
"F_672";86;109;85;105;2207,87829543894;0,688095511422342
"F_673";33;35;34;37;192,516426508278;0,580364058869092
"F_674";65;57;70;58;1077,92918624477;0,634117958212114
"F_675";52;44;55;48;705,794786527701;0,646985806033791
"F_676";75;74;75;75;1625,19912649135;0,674126975201037
"F_677";48;50;50;48;717,696339902595;0,653724506489263
"F_678";98;73;95;73;2223,32306502209;0,667186108637579
"F_679";99;111;97;98;4951,91191224799;0,73532478684905
"F_680";40;44;42;46;444,996012295067;0,581208183845631
"F_681";42;33;43;37;219,777654960679;0,579746590579359
"F_682";30;25;29;26;256,794439452589;0,582337510929756
"F_683";95;95;98;99;2217,14729800948;0,677977604343401
"F_684";79;76;81;79;1598,66182781125;0,642891617954632
"F_685";89;101;89;97;2633,82594551185;0,699539009161465
"F_686";70;73;72;77;1351,8995831192;0,659260888693359
"F_687";73;74;78;77;2387,10808996531;0,688411622832211
"F_688";48;37;52;40;416,93115601129;0,603746978243351
"F_689";58;64;55;59;1443,6573325927;0,67553251436944
"F_690";53;47;56;48;535,52928369882;0,612257405515831
"F_691";95;88;92;86;2912,47155726981;0,703108504398829
"F_692";70;73;70;70;2364,07188342871;0,696936224638105
"F_693";78;68;78;65;1048,83487095361;0,65046120455779
"F_694";79;74;79;74;1544,13378897349;0,674772036474165
"F_695";69;83;70;81;3126,56689458121;0,701503891392125
"F_696";27;30;30;32;166,085407924042;0,56018691588785
"F_697";40;39;40;40;330,891526913586;0,593465346534653
"F_698";66;67;67;67;1742,37265413274;0,673331835542576
"F_699";37;33;39;34;204,741221101576;0,597339179829586
"F_700";78;74;73;72;2091,27295554088;0,680440458621866
"F_701";58;57;58;55;1021,3434128344;0,647509992438158
"F_702";37;35;35;35;271,293484320792;0,588137173134473
"F_703";43;52;42;50;434,722863443575;0,620336351875808
"F_704";96;97;95;96;2325,77356083723;0,690433680815529
"F_705";55;47;55;47;879,170099829036;0,631179908387301
"F_706";86;70;76;65;1155,33386340065;0,669683257918554
"F_707";50;51;49;53;589,667398242284;0,642443729903539
"F_708";40;38;43;43;278,747108673115;0,609146341463413
"F_709";33;34;36;36;377,224771642608;0,627545411715439
"F_710";37;33;38;33;367,09699287456;0,557477678571428
"F_711";50;55;54;52;566,626103344669;0,637897089341777
"F_712";56;59;63;61;557,162259554202;0,617174629324546
"F_713";86;90;80;88;3479,21535653904;0,715872447151565
"F_714";38;35;38;38;356,626638350022;0,601686408351735
"F_715";52;48;55;50;691,133475652849;0,628730266953376
"F_716";38;44;43;48;356,153928313719;0,567963234945752
"F_717";52;75;53;70;1284,5644357459;0,646114045488846
"F_718";59;60;61;60;932,269054130588;0,644689432643186
"F_719";39;37;41;38;170,086346281073;0,560475010519425
"F_720";48;34;46;35;509,507662576508;0,608466145568977
"F_721";71;71;67;71;1593,57098864726;0,663713874432512
"F_722";58;54;59;62;883,600830286505;0,624244948968964
"F_723";50;57;51;55;514,596130749707;0,623303696771175
"F_724";31;37;29;34;679,070995030002;0,610045290316014
"F_725";84;85;85;90;2304,59870109903;0,695359628770307
"F_726";38;36;41;37;224,733957952477;0,585094440919516
"F_727";51;52;51;53;1033,20681974655;0,633280507131538
"F_728";22;31;23;32;162,151485906818;0,559481028608764
"F_729";44;44;45;42;629,038311022785;0,650037956837656
"F_730";63;73;57;72;1451,00681323333;0,659986787051314
"F_731";59;56;60;57;508,901758657867;0,588685916322922
"F_732";81;72;80;78;775,23387494882;0,649826539462273
"F_733";44;34;37;30;193,147972289849;0,578180765891771
"F_734";75;69;75;71;1920,9863597092;0,680440458621867
"F_735";34;34;33;34;238,52819601329;0,58906196255712
"F_736";77;84;78;81;1137,72586232937;0,657344958052312
"F_737";41;41;45;42;320,988503004047;0,56977186311787
"F_738";50;46;48;42;447,58680778845;0,60942504193991
"F_739";109;94;104;93;2563,51805862717;0,70385157350869
"F_740";73;72;70;74;1022,76351697528;0,637015781922526
"F_741";68;79;69;78;1709,36856421297;0,686991404011466
"F_742";78;78;75;82;2367,1488892605;0,70405826040994
"F_743";67;62;70;64;1837,37696101977;0,701052631578951
"F_744";107;97;109;97;2639,00766959358;0,703768932722791
"F_745";81;77;80;74;1496,33428941625;0,674316571042863
"F_746";92;100;99;102;3604,50967027882;0,722255693457047
"F_747";85;75;77;73;2653,5764308351;0,688767595518532
"F_748";36;31;38;32;79,3293256440047;0,567640513281878
"F_749";64;52;67;57;1414,45441788404;0,670319838962208
"F_750";54;52;56;50;835,377779472455;0,639769452449569
"F_751";46;47;49;51;549,211010586229;0,613134206219312
"F_752";47;39;46;40;275,15536989511;0,609672989879468
"F_753";90;72;88;73;2021,99049974673;0,679553313304236
"F_754";47;52;47;51;713,765060669662;0,650249511824697
"F_755";85;93;81;96;1915,26112285675;0,682066454255804
"F_756";65;63;60;62;1301,60020446216;0,656085814360773
"F_757";90;82;90;80;2426,91410500278;0,686204922724672
"F_758";65;60;68;66;1418,88487723364;0,682843472317157
"F_759";41;39;39;42;317,940965083576;0,580335963595875
"F_760";65;69;61;70;1367,01196928906;0,665741100683069
"F_761";33;38;34;39;191,138151737191;0,558646721655249
"F_762";63;76;61;77;1358,90771698675;0,656516976998909
"F_763";30;29;32;32;142,255139549838;0,552569716524545
"F_764";40;45;43;49;334,776031739717;0,594436455595775
"F_765";54;50;59;50;567,781542711058;0,604904632152588
"F_766";86;83;88;86;1248,95449800092;0,645348837209303
"F_767";73;79;74;82;1586,87252331941;0,669047884808578
"F_768";32;29;32;31;178,270610016782;0,590600059119124
"F_769";31;24;35;26;162,739006474786;0,561052089670987
"F_770";47;47;48;50;529,364593716874;0,621977793919269
"F_771";46;45;47;43;562,995726408402;0,619823173569101
"F_772";43;41;42;39;270,263249483809;0,58011129929833
"F_773";51;53;52;57;689,49322375499;0,626136007521153
"F_774";44;43;47;43;492,901730980296;0,595410747988476
"F_775";48;62;51;67;1181,59936778692;0,661042183622834
"F_776";40;42;42;43;420,474839347073;0,606649461059662
"F_777";74;72;75;67;1842,29934563073;0,658319604612854
"F_778";32;33;34;34;341,190699351757;0,598203592814371
"F_779";66;66;66;69;2071,84813002221;0,690075984342628
"F_780";33;41;34;42;233,993642376233;0,596269584680427
"F_781";35;36;37;37;230,140834123673;0,558750873922162
"F_782";25;26;27;26;192,240013140072;0,574908881642048
"F_783";45;48;45;51;351,237672905177;0,585465911310802
"F_784";42;49;42;49;1029,67600547048;0,636271960087047
"F_785";43;41;44;39;632,609617658831;0,654867256637172
"F_786";99;101;97;96;3576,22115470475;0,695117708454135
"F_787";69;65;73;59;1329,88017672778;0,66718610863758
"F_788";85;83;83;82;2306,17177594661;0,697138869504541
"F_789";61;62;65;65;1304,22894022312;0,652905615162577
"F_790";71;71;71;74;765,687777347058;0,646323053698513
"F_791";58;68;62;67;804,422394374849;0,634957627118644
"F_792";79;68;78;65;2097,53848126682;0,691548889529854
"F_793";41;44;42;44;750,720657811402;0,645453077047328
"F_794";61;59;63;58;797,712357340252;0,629093198992443
"F_795";50;46;48;43;310,948342061568;0,623887587822014
"F_796";77;72;78;75;1633,0043763119;0,665113182423437
"F_797";73;73;73;75;1912,41663386145;0,692067890543821
"F_798";60;59;58;58;1484,91253724686;0,646915978630407
"F_799";38;42;38;44;341,136406556107;0,599040575654606
"F_800";48;51;47;47;779,546467050948;0,633481293595436
"F_801";32;33;34;33;267,653552717294;0,581264546159812
"F_802";88;83;83;83;1928,50647455482;0,665482402575776
"F_803";43;45;49;47;325,059421309706;0,600661388916724
"F_804";26;33;29;32;225,717727268608;0,571428571428571
"F_805";82;89;78;90;2977,04597445829;0,705052049638301
"F_806";40;41;46;48;480,45905846376;0,597577388963659
"F_807";86;92;88;94;1598,89315280314;0,679514794241017
"F_808";24;40;26;41;94,668067278606;0,558750873922162
"F_809";60;54;55;52;750,747525010622;0,640589932670729
"F_810";82;89;81;90;3000,83737502782;0,699906585707614
"F_811";45;57;48;52;1178,99805624325;0,671183024466721
"F_812";94;96;100;93;2851,82556464257;0,712426457479053
"F_813";38;35;43;36;390,469500643388;0,608064925183869
"F_814";37;35;34;36;205,876351032231;0,600631294153012
"F_815";51;50;54;52;750,269716151827;0,623660389137447
"F_816";68;60;66;61;825,88049807716;0,637591745558983
"F_817";35;35;35;33;206,533125540752;0,582422387407082
"F_818";36;32;38;33;143,723080133854;0,56118340979309
"F_819";64;58;62;62;1129,8335436823;0,661443389980143
"F_820";43;34;41;35;202,156696609235;0,58067328651005
"F_821";73;77;76;81;1890,82163482981;0,683466362599778
"F_822";46;40;47;39;329,937516786492;0,602351522460053
"F_823";42;34;41;35;292,371563558423;0,56998858881704
"F_824";40;39;42;38;243,528732378165;0,580027095026126
"F_825";36;37;36;36;186,761308999348;0,59173700577521
"F_826";62;72;64;74;1004,8087671054;0,638814877970799
"F_827";82;76;75;74;3491,11490176394;0,715189118243652
"F_828";80;90;74;89;2973,84972608217;0,690831556503202
"F_829";65;64;73;65;771,777925220443;0,621848739495797
"F_830";46;44;45;43;781,160026626763;0,65102639296188
"F_831";61;59;61;58;1143,77469718455;0,634487138774214
"F_832";33;30;35;30;203,376111708076;0,564725833804408
"F_833";55;56;57;57;580,166564926646;0,63415150232755
"F_834";14;17;15;19;43,7027221144868;0,525743355845979
"F_835";68;65;69;70;1227,51885344363;0,640247810296947
"F_836";98;110;99;109;3169,67481055511;0,707214913574421
"F_837";71;70;72;70;1940,34129131144;0,689282428702856
"F_838";35;39;34;41;287,968255452153;0,605271129960617
"F_839";36;28;35;26;208,060821357759;0,587301587301586
"F_840";62;60;66;67;891,288801858978;0,648210230344979
"F_841";45;51;47;54;310,856361934889;0,580729545124254
"F_842";27;38;29;40;190,787803214029;0,568960607498812
"F_843";51;59;49;60;510,892142064285;0,599280143971205
"F_844";64;66;69;70;702,522092269342;0,640624165018972
"F_845";60;49;58;51;921,723044532961;0,652230685527751
"F_846";111;97;109;95;3354,18877934227;0,711961040503624
"F_847";77;71;78;78;2396,72062571777;0,687621888264317
"F_848";53;56;58;59;722,186333282688;0,634688691232529
"F_849";43;46;42;45;305,967025979989;0,600420715215865
"F_850";38;35;38;32;399,735849277812;0,58067328651005
"F_851";29;30;28;29;188,639424940049;0,575350355154539
"F_852";32;26;39;27;103,051781716576;0,562236187974861
"F_853";69;73;70;81;1290,19820223289;0,642788203753352
"F_854";48;39;51;39;356,385529407713;0,578822847762058
"F_855";75;69;73;70;2516,61731531115;0,693268563497573
"F_856";72;72;70;73;1861,28581331707;0,675228117607302
"F_857";99;96;99;97;1991,52777918109;0,68495029139527
"F_858";39;34;39;37;345,968865246026;0,598711481795933
"F_859";72;71;70;66;3101,07368814131;0,697138869504539
"F_860";68;60;66;58;1701,05874817394;0,6586451293885
"F_861";50;60;53;63;964,080761830926;0,62646321070234
"F_862";86;76;89;83;1835,657731815;0,692147806004622
"F_863";87;76;88;83;1890,67510455697;0,688016528925622
"F_864";55;59;51;58;902,302267828566;0,640658401026082
"F_865";50;44;50;45;494,817128620108;0,596714783474364
"F_866";74;71;76;69;1282,92327245883;0,639667040179286
"F_867";71;59;76;61;1205,69720408833;0,648947112001301
"F_868";48;43;52;43;364,97089373652;0,62223606353161
"F_869";61;74;63;75;776,637496375815;0,630914162412504
"F_870";85;71;84;71;2563,27447567888;0,691987993534982
"F_871";59;53;62;54;916,219533889384;0,645974781765278
"F_872";38;42;35;43;698,288684258535;0,642237222757958
"F_873";50;45;48;46;196,690265731258;0,588570306362921
"F_874";66;64;63;66;1140,56058567499;0,653581943081456
"F_875";46;40;47;41;399,656044289737;0,594230197283631
"F_876";91;85;89;88;1982,77683431163;0,690672351212769
"F_877";52;57;53;52;696,313105929454;0,636846578835531
"F_878";98;104;99;105;1787,96064695673;0,679900181488204
"F_879";41;48;41;49;466,212381902703;0,602714932126696
"F_880";43;44;43;43;571,744531013214;0,647859922178994
"F_881";62;53;62;50;1427,68003601024;0,682649051876322
"F_882";47;56;47;54;655,013073150851;0,636576040781649
"F_883";31;27;34;29;130,040294554419;0,552850027670172
"F_884";48;58;52;61;618,433788996672;0,596536624203821
"F_885";46;43;46;42;480,44746664923;0,604051194195302
"F_886";19;21;19;20;99,6457291728256;0,561919940001874
"F_887";20;17;25;19;71,8840870244782;0,531996094790096
"F_888";70;61;66;63;1187,87148109959;0,643202060306901
"F_889";63;69;66;68;1179,29152635019;0,646881070580619
"F_890";84;81;75;78;2139,55180699081;0,703273495248153
"F_891";110;114;106;108;4380,77288766363;0,725139124122914
"F_892";75;77;77;74;1655,29643111579;0,696005573618212
"F_893";97;100;95;101;2586,30341710063;0,708133971291869
"F_894";69;74;66;69;2031,08124896338;0,685263518920778
"F_895";41;48;48;50;420,726342846289;0,590425531914892
"F_896";75;60;72;61;1517,24222633534;0,676829268292684
"F_897";89;71;81;67;1914,78119480056;0,700724807107788
"F_898";30;34;33;38;210,813001207012;0,556907925299637
"F_899";79;71;76;65;1718,67284205439;0,692507654092778
"F_900";106;84;107;80;2680,55998696288;0,694795409760056
"F_901";26;21;28;21;69,6591223106422;0,54229620917398
"F_902";47;53;46;58;552,929790316199;0,614076426595635
"F_903";69;72;67;73;1378,51215748867;0,66408154221139
"F_904";75;77;76;74;2669,26834421829;0,689678978253371
"F_905";54;60;54;58;598,959736355221;0,62843363388551
"F_906";33;30;35;34;129,819594770966;0,573698315467074
"F_907";55;51;52;48;463,483016135897;0,610449129239229
"F_908";77;88;77;81;2311,21404855531;0,697219960451324
"F_909";99;98;98;96;4636,67275915117;0,732762836185822
"F_910";58;53;58;50;1296,84035400878;0,64396218306833
"F_911";58;56;57;58;974,727381871802;0,649685670929982
"F_912";43;40;48;44;415,828515284205;0,598950786909816
"F_913";41;42;42;40;605,809572563296;0,640726884019247
"F_914";78;78;83;79;2775,08702332748;0,685420240137223
"F_915";83;84;85;86;1773,26583799779;0,658175030196553
"F_916";87;88;83;85;3780,34607935972;0,706714614160234
"F_917";85;87;85;85;3295,663379754;0,695037105751392
"F_918";53;57;55;57;560,786850947995;0,632512003376775
"F_919";53;56;54;54;717,903190747638;0,634487138774216
"F_920";35;29;34;30;232,74314062118;0,606281292671824
"F_921";109;108;104;110;2841,71420127014;0,708133971291868
"F_922";31;22;34;24;109,640600743594;0,546773090079818
"F_923";48;46;50;47;406,597688094588;0,613636363636363
"F_924";74;61;76;64;1487,78162602758;0,642581475128646
"F_925";45;41;46;40;666,812584411749;0,632078456184754
"F_926";63;54;62;53;1198,03148610208;0,64989699663884
"F_927";60;58;62;55;1446,03366991704;0,68140737793441
"F_928";40;37;43;38;420,565750082661;0,577150835299214
"F_929";63;68;68;67;2257,06578438623;0,687030775402608
"F_930";57;61;54;58;567,698530142818;0,626757986092958
"F_931";89;86;89;87;3897,21722373748;0,710442100272612
"F_932";47;54;48;56;603,944697950519;0,618703550784475
"F_933";72;73;74;71;1188,77495342606;0,643029555329079
"F_934";87;96;91;94;1799,08135825493;0,691110342442065
"F_935";42;47;43;45;566,318063454777;0,613228298122665
"F_936";26;22;27;24;102,581153286858;0,565071883101578
"F_937";33;34;34;33;134,807814593682;0,575101942911968
"F_938";67;70;70;74;1111,62835387547;0,662466843501329
"F_939";28;42;28;43;494,771636218339;0,605332256109878
"F_940";36;37;38;38;442,517215311588;0,595026554822057
"F_941";39;46;46;48;658,983638945689;0,602018781700396
"F_942";24;31;26;31;142,938721169099;0,568744662681467
"F_943";58;57;55;53;912,888334998191;0,640932420872543
"F_944";61;65;66;64;1015,3543541761;0,654402532889351
"F_945";85;87;85;87;2884,89076456424;0,705300935459202
"F_946";69;78;69;74;1109,57649489437;0,661881625441697
"F_947";81;76;79;81;1563,01711648448;0,680904237191868
"F_948";42;47;44;49;457,34465679213;0,60408163265306
"F_949";34;34;35;36;158,643658733179;0,566460331711004
"F_950";47;40;45;41;331,228090866522;0,607325599067834
"F_951";76;67;77;70;821,802559124102;0,624440045838107
"F_952";71;72;76;76;1363,04817024845;0,666889185580777
"F_953";74;87;74;83;1377,05538636429;0,683076923076924
"F_954";52;43;53;46;389,14086335927;0,617460726242596
"F_955";72;70;78;72;865,797954581028;0,632946145723336
"F_956";33;39;33;41;322,998383506333;0,576041516505693
"F_957";35;39;38;39;218,141231112664;0,601626016260162
"F_958";67;79;66;81;1503,72513685736;0,675076022074559
"F_959";49;42;52;43;313,603372505114;0,604782564826959
"F_960";68;71;68;72;1608,8383450357;0,687582449096646
"F_961";59;56;57;58;692,004367632607;0,617524339360222
"F_962";78;76;75;78;1407,06124226536;0,67389960087695
"F_963";61;57;58;50;830,615352972379;0,634017347154644
"F_964";30;37;38;41;209,460367992676;0,559272218334499
"F_965";60;55;66;58;518,150599506365;0,629126213592232
"F_966";44;48;43;47;989,512345467644;0,64220281780683
"F_967";74;80;75;77;2635,80552053942;0,701298701298703
"F_968";28;30;30;29;184,365652778694;0,57873901708989
"F_969";28;29;29;29;201,667340704463;0,568313264435384
"F_970";15;17;20;20;34,7221799227604;0,528105726872247
"F_971";32;36;35;39;197,313963546901;0,549530139812056
"F_972";84;85;83;86;1778,77869757584;0,676523702031605
"F_973";85;78;78;75;2094,00654297471;0,676791057415459
"F_974";31;30;30;30;188,352317353996;0,558074577533634
"F_975";80;72;77;73;2297,17071830493;0,672236864240458
"F_976";89;67;91;68;2078,11801890154;0,683427398665986
"F_977";68;57;69;55;1016,53280797664;0,637490029247542
"F_978";69;83;73;88;2288,24128560393;0,680054458815523
"F_979";53;51;55;50;222,83684137677;0,579018547140648
"F_980";37;37;38;37;221,752463849941;0,581433698709864
"F_981";71;72;69;70;1683,6750052045;0,66430233846836
"F_982";90;94;91;96;2201,10388574647;0,675304191077064
"F_983";27;30;29;32;174,812325269986;0,57380815623205
"F_984";59;53;58;55;580,140492354636;0,620368453736286
"F_985";33;31;33;31;161,266431200389;0,558412520961431
"F_986";75;72;73;74;1078,99683098808;0,641481164383563
"F_987";85;74;79;74;2479,91025495179;0,695359628770305
"F_988";89;76;83;76;2565,6703348053;0,68944099378882
"F_989";37;37;37;38;312,182648492478;0,572848473264203
"F_990";57;62;59;69;988,55337972576;0,648701298701301
"F_991";69;67;68;68;988,510017561263;0,651769694992662
"F_992";85;81;84;80;2199,82958573989;0,680286006128706
"F_993";63;50;64;51;928,769271588488;0,609952172585732
"F_994";61;68;59;70;876,916603479693;0,628499528153507
"F_995";91;96;94;99;2061,73628566478;0,670544803669316
"F_996";28;21;27;23;145,930640791623;0,55590076512868
"F_997";82;71;84;71;2267,21200961387;0,693709854753781
"F_998";67;62;66;63;1384,08232480243;0,644654764465478
"F_999";82;73;79;75;1865,50373869945;0,681407377934409
"F_1000";54;60;53;61;1444,6047437561;0,633247055094819
