"Foraging";"In";"Out";"InLink";"OutLink";"Betweeness";"Closeness"
"F_1";83;84;79;85;2580,92622063735;0,693148308759761
"F_2";81;75;84;78;1978,46910392142;0,684715558601788
"F_3";115;107;116;111;5099,90186772587;0,722516875602701
"F_4";57;51;59;49;567,621249398488;0,623563068920677
"F_5";71;73;71;76;1398,25496429306;0,661808545876121
"F_6";57;51;61;50;695,186471967641;0,619054996127032
"F_7";46;49;48;51;384,769776919307;0,583357664233575
"F_8";76;68;78;70;1676,70314337687;0,668152937242226
"F_9";36;45;35;47;233,565706948433;0,592966315477072
"F_10";62;62;63;66;541,422293461662;0,640247810296946
"F_11";48;47;53;46;702,763444880309;0,626954657183202
"F_12";87;94;82;85;3134,77426169596;0,692067890543819
"F_13";97;80;103;83;1345,45678045973;0,6432020603069
"F_14";58;51;59;56;834,15065319368;0,652088772845956
"F_15";26;26;26;28;100,907647935796;0,569447083412502
"F_16";91;104;88;108;4438,3930087862;0,724613152804644
"F_17";85;76;85;74;3159,32663578624;0,702572818378955
"F_18";21;15;22;16;66,1146504655298;0,529388385957166
"F_19";41;42;45;49;369,534863409367;0,599729851418279
"F_20";26;21;26;21;84,5928579616583;0,553156146179402
"F_21";90;89;88;91;1286,02932065524;0,680904237191868
"F_22";69;68;66;62;1451,77884102401;0,686440677966103
"F_23";61;57;65;63;759,807564851714;0,639155470249521
"F_24";41;40;41;41;375,648287837924;0,595825049701788
"F_25";82;74;81;73;2047,27136847399;0,693388859968767
"F_26";68;61;66;62;644,013096696608;0,60985908327822
"F_27";56;50;57;50;940,712139158696;0,638372650300872
"F_28";72;52;69;51;851,04821856383;0,641584158415843
"F_29";36;40;38;42;220,989579418269;0,589409508825408
"F_30";68;70;65;71;2619,27140743977;0,68557703305502
"F_31";92;98;92;103;3085,93732785638;0,702408156090703
"F_32";54;52;53;50;588,920445408744;0,630980577925155
"F_33";79;92;80;93;2758,70997712077;0,703645007923932
"F_34";54;63;55;63;692,574819673262;0,608497030607582
"F_35";28;28;29;27;229,299470428775;0,580729545124253
"F_36";73;79;74;76;2288,40086691437;0,699334966748342
"F_37";71;76;71;70;2355,66016137526;0,694956521739133
"F_38";75;71;71;67;2566,69073685138;0,695924764890289
"F_39";64;53;60;53;977,227107245439;0,654974594328801
"F_40";55;51;54;53;353,817992059488;0,619566902682308
"F_41";87;97;82;98;4004,27691248438;0,717071420026324
"F_42";51;59;46;54;970,910595029733;0,649861766140839
"F_43";99;112;97;107;5569,68586620839;0,75244790359026
"F_44";49;56;49;57;577,392884309932;0,627808326787117
"F_45";89;96;85;92;2609,66217071275;0,699212598425198
"F_46";38;48;39;49;182,797125272686;0,582733812949639
"F_47";66;75;72;74;1506,0723742758;0,678899082568812
"F_48";68;65;72;63;1507,71000476221;0,679630364533138
"F_49";23;33;22;32;244,301322631097;0,616222884753778
"F_50";64;65;66;63;939,540157033946;0,633883248730965
"F_51";60;53;66;59;618,312901465702;0,628400691932694
"F_52";50;46;45;42;338,433292414899;0,593818109768178
"F_53";54;51;56;52;882,014575682797;0,642650369893859
"F_54";30;31;31;31;107,385619904376;0,573341623224448
"F_55";71;61;73;63;1392,07250111222;0,674164885839618
"F_56";60;58;60;61;610,764964455814;0,633113282281489
"F_57";70;68;68;69;1933,07928033017;0,676523702031607
"F_58";53;56;52;63;648,647142694129;0,626889086440411
"F_59";79;81;78;77;2502,77447979955;0,705716135868607
"F_60";73;87;73;87;1867,10539645458;0,686204922724674
"F_61";47;45;50;43;804,437105618762;0,631445878324995
"F_62";71;61;72;61;1785,74354781433;0,682804579370055
"F_63";56;41;58;41;555,12851309705;0,629126213592233
"F_64";27;38;30;40;161,166342884724;0,559977578475336
"F_65";40;38;40;39;284,294411844852;0,595115170770451
"F_66";58;66;56;68;982,967628823097;0,642065234856196
"F_67";92;82;95;88;2516,57862057719;0,704389212057114
"F_68";38;42;38;45;241,041192792976;0,592292490118576
"F_69";51;63;53;62;1193,30268589274;0,669608445511928
"F_70";42;49;43;51;320,418534917357;0,620304253337474
"F_71";34;41;33;38;427,177861249306;0,578850796716561
"F_72";41;39;42;41;220,756081009858;0,577234206471494
"F_73";62;59;57;54;1943,47940367001;0,689440993788824
"F_74";83;75;82;72;1512,51801376042;0,66919727587362
"F_75";56;51;58;56;810,781051310481;0,63593443318657
"F_76";50;43;50;42;602,381379133504;0,631213142375738
"F_77";37;41;39;40;219,519682185854;0,592351022828342
"F_78";56;58;60;59;389,449325220183;0,593406593406592
"F_79";29;28;30;30;192,72914560594;0,561472530560629
"F_80";66;57;67;64;830,119285633939;0,662649936432482
"F_81";39;27;40;30;121,423297288855;0,576346153846153
"F_82";28;28;29;28;67,6055360664079;0,553462603878116
"F_83";80;74;79;72;1601,16786593641;0,666814996106354
"F_84";75;78;73;84;951,630707352056;0,641000962463908
"F_85";36;37;41;37;318,198727859767;0,611351930236115
"F_86";43;44;49;47;463,327563780215;0,582620528771383
"F_87";73;63;74;65;1270,85068281357;0,664633808282976
"F_88";69;66;72;64;1511,86296299436;0,653083460448901
"F_89";125;114;120;109;7782,77697715066;0,767625024012295
"F_90";70;71;70;68;1542,1139082548;0,670807453416151
"F_91";77;74;75;74;1494,90467781234;0,677173360447384
"F_92";89;90;88;97;4470,19071634019;0,734558823529415
"F_93";58;59;61;61;1246,96994301738;0,676218411552348
"F_94";29;32;32;36;185,226058520963;0,559037493005036
"F_95";22;20;23;22;69,1987044603144;0,535752592062925
"F_96";65;84;64;79;2185,84445393281;0,68086556483217
"F_97";40;35;43;42;300,329507061998;0,575019186492708
"F_98";62;65;61;68;823,921386674493;0,626626940567664
"F_99";64;55;68;57;1315,85665745878;0,662723201945936
"F_100";100;88;96;86;4804,20072058419;0,74593989173045
"F_101";78;72;75;73;1472,27775936431;0,672161480235494
"F_102";58;56;60;57;930,951504340674;0,640658401026081
"F_103";53;58;55;63;730,238681392489;0,621461897356143
"F_104";85;81;92;80;1635,82595288384;0,694835680751176
"F_105";81;67;80;62;1489,09827915011;0,675494449766158
"F_106";33;31;34;34;129,523764820504;0,561788274989455
"F_107";22;26;21;27;118,555884529058;0,570558278996714
"F_108";33;37;37;38;139,670627980533;0,567721159310475
"F_109";48;45;48;46;523,944734862691;0,596062052505965
"F_110";54;56;55;54;544,487454013231;0,62525426380848
"F_111";112;120;106;117;6288,17965972834;0,748361320931397
"F_112";70;85;69;82;1868,87641726502;0,674923995045606
"F_113";73;70;71;73;896,879175064477;0,656229472301294
"F_114";61;69;62;64;1634,96414815339;0,670432302443939
"F_115";75;80;71;79;2420,73719547597;0,694916236739903
"F_116";77;83;77;80;4618,79061923712;0,730530164533824
"F_117";40;43;43;43;792,508609638305;0,62130085514382
"F_118";51;52;54;56;433,363512835072;0,593289122042957
"F_119";67;74;67;73;1206,72612870285;0,664044757104084
"F_120";39;39;39;39;646,981670981958;0,621880998080614
"F_121";45;36;45;39;255,425435390193;0,594436455595774
"F_122";58;59;56;62;1547,79118215286;0,661516388919551
"F_123";56;57;52;52;817,113084270664;0,630250775458703
"F_124";60;57;64;58;896,606790313645;0,645105741807031
"F_125";33;31;32;36;198,383826816512;0,5905709640869
"F_126";60;54;62;58;588,389320917085;0,624830605649953
"F_127";54;56;50;54;1296,11032800227;0,670132483649177
"F_128";50;52;49;53;564,627062322656;0,622494547720427
"F_129";52;54;51;54;661,299059004579;0,652727866710228
"F_130";77;67;84;72;1957,96884219622;0,679168319075408
"F_131";70;68;67;61;1120,66572361258;0,63742223640134
"F_132";31;30;33;32;184,527614695952;0,571782886578268
"F_133";37;41;39;41;544,272702831597;0,637185074944193
"F_134";56;66;58;65;1338,3272577339;0,659333406665936
"F_135";68;72;67;70;1306,81084289611;0,65258573761568
"F_136";59;60;60;60;980,995483782586;0,656301324865875
"F_137";98;97;94;98;1832,49412030637;0,682649051876318
"F_138";70;63;76;66;1259,36474606296;0,663199822969686
"F_139";48;50;46;52;906,741898204261;0,659442213543106
"F_140";29;24;30;25;116,714772564915;0,577902043964518
"F_141";91;89;99;92;2696,10771870936;0,694755143436686
"F_142";47;51;48;51;676,553604909936;0,631978491222522
"F_143";64;65;62;66;1479,16784632492;0,67640918580376
"F_144";53;47;53;45;421,193272168986;0,609270176865216
"F_145";40;45;41;41;567,872514157374;0,651698831204134
"F_146";82;81;79;74;2404,69368738887;0,706506364922208
"F_147";78;101;84;102;2830,68516970452;0,690274658835726
"F_148";58;48;57;49;560,331058405764;0,617938144329896
"F_149";66;44;59;42;1291,10528487988;0,648385526529291
"F_150";46;51;46;54;503,284355648617;0,614107883817426
"F_151";68;74;65;75;1880,33292560727;0,678054298642535
"F_152";69;74;67;70;3208,86985697658;0,718532725965002
"F_153";96;91;94;92;4098,00930575107;0,718145330378005
"F_154";68;76;68;78;1442,14319102559;0,631712072508826
"F_155";91;87;89;80;2562,07792859054;0,70809214412286
"F_156";76;82;81;84;2260,09413114711;0,698927238805971
"F_157";52;52;54;51;493,355867797714;0,609983208670431
"F_158";32;28;31;27;79,5713740633669;0,552340582381128
"F_159";44;40;43;42;282,614223151959;0,601958322872206
"F_160";70;72;66;66;1406,04682620604;0,661260963097801
"F_161";109;97;107;94;3490,0801996911;0,717715380470576
"F_162";41;48;40;44;391,888871080466;0,624147446243559
"F_163";42;47;43;50;456,146129749324;0,606802996558007
"F_164";43;49;45;49;281,983435848148;0,602775543041029
"F_165";30;26;32;29;70,6973077683132;0,551603552201721
"F_166";69;73;71;74;1258,03780995515;0,669047884808575
"F_167";57;54;58;57;1021,58531877422;0,639701173959447
"F_168";46;35;51;39;213,263019383938;0,585809225957778
"F_169";41;44;45;51;278,392532082575;0,580392156862744
"F_170";47;42;49;46;500,087201120088;0,613416568592334
"F_171";25;21;25;20;131,462664958608;0,554025325815694
"F_172";45;36;46;36;300,878869474337;0,605852327285591
"F_173";43;49;43;49;408,379235573045;0,620336351875808
"F_174";65;69;60;71;1808,33562419012;0,689440993788824
"F_175";118;98;113;97;7425,49530669261;0,747521356862259
"F_176";72;74;70;73;2353,92596532012;0,693428968070342
"F_177";49;51;48;48;705,176062947672;0,641618497109829
"F_178";69;74;71;74;2214,17098835329;0,663640389725424
"F_179";35;36;31;36;448,315679699095;0,620272158120765
"F_180";24;16;23;17;138,963268519378;0,567318158156263
"F_181";77;71;77;69;998,281724961607;0,627578264056119
"F_182";64;61;67;62;888,073669662849;0,652372659991296
"F_183";68;63;70;69;1165,73880601224;0,654223968565816
"F_184";74;80;78;81;1899,619344867;0,678706901432374
"F_185";45;42;45;43;635,295028944878;0,620496894409937
"F_186";70;76;66;74;2051,18887509104;0,66737181985192
"F_187";96;84;97;83;2708,45002454848;0,706881301963561
"F_188";43;53;45;55;284,35589979747;0,59001870262821
"F_189";43;45;46;47;252,48541909093;0,589931597854436
"F_190";54;54;54;51;660,958081373195;0,644897520038735
"F_191";22;28;21;27;88,9592957281732;0,553283795633913
"F_192";71;72;72;67;1199,18941867863;0,650531799435643
"F_193";51;49;51;49;693,832029452764;0,607541050070949
"F_194";34;22;37;22;85,8677715529958;0,551578172448698
"F_195";42;59;44;56;367,049280624928;0,628137280586849
"F_196";98;109;91;112;3354,31442437123;0,71086337760911
"F_197";68;64;66;63;636,188744705728;0,607695037258579
"F_198";37;33;43;33;208,87526496027;0,600992630470746
"F_199";61;58;61;57;727,533685761681;0,632845906139471
"F_200";27;35;27;36;164,170388616589;0,557296267026172
"F_201";49;61;49;62;690,304098051988;0,608558810091882
"F_202";37;36;35;37;328,82376095648;0,573122340679829
"F_203";91;94;92;93;2747,33979453893;0,675684815691581
"F_204";45;43;46;44;250,219049442581;0,56629977797723
"F_205";24;34;25;34;111,109118277909;0,570666920550292
"F_206";88;77;88;77;3154,96086253713;0,708845789971621
"F_207";99;103;94;99;4971,20442887548;0,745754276827373
"F_208";67;69;73;71;1212,11219270979;0,65666082383874
"F_209";93;100;97;107;3227,13199561656;0,700233644859814
"F_210";59;61;58;66;721,134177610557;0,632445265101557
"F_211";21;26;21;29;96,1965192705457;0,544290578887628
"F_212";68;66;66;65;1946,6408822247;0,688016528925624
"F_213";69;66;68;70;1372,47150408677;0,677364673974468
"F_214";33;41;33;40;396,616639829701;0,599340065993399
"F_215";23;28;25;28;109,279720191779;0,55590076512868
"F_216";39;38;42;37;266,876432267051;0,617683429513603
"F_217";97;94;95;89;4811,77254786879;0,743349662057423
"F_218";88;97;89;99;2110,23259000497;0,677594392945965
"F_219";95;103;94;96;3049,2744640919;0,702449314426348
"F_220";61;66;59;73;1374,40719882025;0,658862324814514
"F_221";64;84;70;88;1557,73395242862;0,668823923231423
"F_222";60;76;56;74;1467,10725109478;0,67325620577334
"F_223";58;74;57;75;1349,61357054851;0,655762813850447
"F_224";21;24;23;26;112,228733728463;0,543624161073826
"F_225";24;18;25;18;92,3275678289646;0,563716730932003
"F_226";94;87;94;84;2106,9714089593;0,693910627460062
"F_227";46;51;52;56;311,750062691851;0,598173743825157
"F_228";106;108;102;108;4876,00351549832;0,720216281165518
"F_229";86;78;79;74;1654,18756065702;0,671145448438027
"F_230";87;75;92;75;1984,01017941261;0,694071329319131
"F_231";100;88;98;83;1775,44874329359;0,689877424181391
"F_232";51;71;48;67;1079,21482002543;0,645348837209304
"F_233";68;63;68;59;955,471100375648;0,628499528153507
"F_234";64;49;62;49;1231,77197599032;0,650602409638555
"F_235";79;87;79;84;2096,26744081298;0,693428968070343
"F_236";64;63;67;68;824,517030034572;0,643927593060108
"F_237";54;59;57;58;1270,19366126037;0,661625917545123
"F_238";47;49;43;52;457,012872853719;0,616159539473684
"F_239";41;35;41;35;296,065732112561;0,598831110445075
"F_240";47;34;50;37;333,126995267113;0,588888343076091
"F_241";28;27;28;26;167,2620385776;0,552315134761576
"F_242";34;35;36;35;149,096671563363;0,561157140851003
"F_243";31;32;32;33;225,772251884139;0,574908881642048
"F_244";71;79;71;76;1454,17174472298;0,657886071781365
"F_245";63;64;56;61;963,316599412751;0,654188267394274
"F_246";63;72;63;67;1746,77904906051;0,659696235967425
"F_247";49;55;52;58;831,330474692494;0,641721535249721
"F_248";49;47;45;43;618,52944991525;0,634487138774216
"F_249";66;54;72;56;1247,44977945778;0,662393634655766
"F_250";39;35;42;36;180,322925800296;0,588454741802472
"F_251";89;93;82;89;4947,87917430024;0,73731471800234
"F_252";45;34;48;35;195,248550278166;0,56531170423465
"F_253";60;67;60;66;1343,67783130532;0,680286006128705
"F_254";52;66;55;66;710,099331695763;0,641446840387395
"F_255";55;64;61;65;730,651038377216;0,640898155573377
"F_256";75;74;78;75;1740,15645513351;0,694312521718988
"F_257";69;71;67;71;926,949555886098;0,640453039854686
"F_258";87;96;85;95;3770,02287675044;0,713656387665202
"F_259";101;119;98;119;5163,34648704082;0,736273185112397
"F_260";27;34;29;36;258,118294182517;0,578376031263568
"F_261";79;80;83;79;1833,0494579311;0,681872475968379
"F_262";43;38;43;38;285,870736918072;0,602230483271374
"F_263";63;61;59;59;952,953922737424;0,647754903550009
"F_264";73;63;76;64;1428,16106152252;0,648666197716575
"F_265";67;72;71;75;1428,24711073127;0,666814996106353
"F_266";75;78;73;72;1221,76382079185;0,653546311944613
"F_267";55;59;59;62;615,331048900454;0,615684864670535
"F_268";52;45;50;45;780,598830843831;0,636440857931622
"F_269";97;93;97;94;3410,79742185313;0,727692120917811
"F_270";85;87;88;85;2422,86671158853;0,698805013115711
"F_271";41;47;42;46;669,626700798955;0,631878557874764
"F_272";81;86;74;90;1799,39269251921;0,661698956780925
"F_273";87;85;85;91;2622,69397353377;0,729330169739007
"F_274";51;51;54;53;743,141550650234;0,618320610687023
"F_275";56;54;56;55;461,926481139835;0,612226137582349
"F_276";90;81;88;80;2908,87789056521;0,711285154859385
"F_277";21;11;21;12;28,444128232972;0,529201430274136
"F_278";101;94;101;91;5136,57922651664;0,726809748999637
"F_279";70;66;68;65;1269,16869308292;0,67125818914833
"F_280";60;62;62;65;2023,03189263935;0,678438030560276
"F_281";72;59;74;57;1495,59299718881;0,677594392945966
"F_282";101;116;100;110;3254,62112187918;0,700806734479131
"F_283";20;19;21;20;55,586332256425;0,535083020889128
"F_284";80;78;81;76;1946,01529806705;0,693108233117489
"F_285";66;69;63;68;1214,20060544031;0,663750622889103
"F_286";48;44;45;45;801,765717977386;0,633481293595436
"F_287";68;84;74;88;1057,23329522203;0,648315396679467
"F_288";76;79;74;77;1070,84731023266;0,642684822816706
"F_289";72;79;71;78;2029,24565623508;0,685498627630377
"F_290";63;62;59;67;1023,48423955885;0,65572694453561
"F_291";87;73;90;81;1722,6760364618;0,663346613545818
"F_292";59;63;61;64;712,050846447287;0,635260452546236
"F_293";24;29;27;29;135,277182291461;0,548951369173001
"F_294";43;53;41;54;699,822356638843;0,631412619825135
"F_295";45;39;48;45;304,092291395805;0,600060066072679
"F_296";42;47;47;47;308,845767338397;0,579298347347056
"F_297";37;38;40;37;794,469720973334;0,608188321241945
"F_298";76;72;78;79;1356,18237492229;0,662320441988951
"F_299";81;74;81;73;2769,32251028357;0,701421800947868
"F_300";34;43;33;42;376,293494255482;0,613573548981471
"F_301";31;25;31;25;167,106697367722;0,592263228101377
"F_302";47;47;49;45;512,711410443688;0,64434291857028
"F_303";80;88;77;85;2604,64165785674;0,685498627630378
"F_304";66;55;73;61;992,623186142531;0,657525230364196
"F_305";61;64;59;58;1342,01195494428;0,652088772845954
"F_306";53;59;56;63;763,019092354364;0,646114045488846
"F_307";102;117;96;112;2363,09464523427;0,690871369294608
"F_308";38;44;37;43;285,028487117063;0,593024981449418
"F_309";64;62;65;65;830,238020614589;0,6537601570595
"F_310";40;38;39;35;646,208693763649;0,628400691932694
"F_311";26;27;29;29;132,159459978575;0,552238805970149
"F_312";65;76;69;77;1492,14392734832;0,676600067727736
"F_313";25;25;28;25;131,612667728733;0,543796779315038
"F_314";56;61;54;66;982,580385483614;0,660495867768598
"F_315";55;68;61;71;705,559098247771;0,634319276152179
"F_316";89;96;93;92;4123,01131335015;0,72924143804368
"F_317";58;62;55;64;1002,36530316167;0,652834504165988
"F_318";73;70;68;66;1738,59649581885;0,666555462885743
"F_319";29;37;29;38;165,322483323481;0,575184723155167
"F_320";82;89;82;91;2959,8868289704;0,693910627460066
"F_321";30;31;31;31;87,6973883531488;0,559846822024003
"F_322";82;77;73;73;2928,47255189685;0,70310850439883
"F_323";59;48;58;48;567,627307536577;0,61609620721554
"F_324";45;51;47;50;832,369745879849;0,646601941747574
"F_325";29;37;29;39;232,659500640405;0,577567932164192
"F_326";43;48;43;46;672,465802440553;0,622559202326549
"F_327";26;25;28;28;107,151493181853;0,54012164902005
"F_328";48;48;49;45;246,674869128453;0,584352912503046
"F_329";65;63;64;64;1104,65676419322;0,657994401449038
"F_330";36;34;36;35;297,701370930203;0,578683143463988
"F_331";31;26;33;26;87,3025705276292;0,574715949949661
"F_332";98;94;94;95;3441,50743996865;0,714890571888605
"F_333";83;90;84;93;2503,7716011522;0,707590603234567
"F_334";64;58;67;61;970,504115676848;0,66588901849692
"F_335";78;73;70;72;2227,54842899326;0,672387682988393
"F_336";77;72;75;70;1113,72737308532;0,64559211589208
"F_337";77;84;75;85;1985,28664956864;0,671295777802667
"F_338";77;77;79;73;2212,50916812259;0,705010585744535
"F_339";37;32;34;35;242,502257704683;0,579858759794911
"F_340";54;66;56;65;711,554908726002;0,64737012636354
"F_341";68;66;69;66;1847,75143625938;0,686597938144333
"F_342";61;65;58;64;750,255511037894;0,64670658682635
"F_343";48;52;53;55;507,344793606419;0,631080227416299
"F_344";32;27;31;28;256,425974153046;0,559220040117553
"F_345";50;58;49;60;695,71544600755;0,612883435582821
"F_346";42;35;45;39;407,482341823033;0,581659388646287
"F_347";75;78;77;79;1101,51291665527;0,661042183622831
"F_348";61;55;59;56;1083,88916059215;0,663383321343594
"F_349";41;40;46;41;377,895900772007;0,60566867074218
"F_350";24;25;27;26;148,961036291764;0,569501187648455
"F_351";86;80;87;77;1641,85449175536;0,669758087043971
"F_352";56;56;57;56;1456,15485385365;0,652834504165989
"F_353";52;47;51;43;995,78937761769;0,666963391565602
"F_354";75;76;75;73;1973,63502636443;0,680286006128707
"F_355";13;22;17;23;38,2556369093869;0,531830885941175
"F_356";54;42;48;42;844,79282867066;0,663053097345134
"F_357";92;88;95;90;1999,76846845222;0,69170849922105
"F_358";43;38;44;38;433,795254679437;0,610791256941967
"F_359";35;26;35;26;74,5157323769469;0,557711095603628
"F_360";80;69;78;70;1213,41040175457;0,666444296197467
"F_361";29;29;31;28;257,790247763617;0,581828771112405
"F_362";35;34;38;37;381,6584071906;0,57792990406402
"F_363";67;63;66;67;739,242564720092;0,647789905976441
"F_364";45;43;45;44;357,669163697988;0,610697911360162
"F_365";85;71;80;75;2546,6415092089;0,695399965195199
"F_366";31;35;30;34;258,593337737031;0,602260738507912
"F_367";106;93;102;88;4970,47088871981;0,735189500797256
"F_368";23;31;23;33;108,014440904745;0,556261890399517
"F_369";34;43;35;41;240,994062019538;0,595233366434954
"F_370";48;58;49;60;440,580453164221;0,615590017459175
"F_371";77;68;81;73;1797,43479900735;0,675951508316891
"F_372";51;50;50;50;699,849317834215;0,61097803373936
"F_373";52;39;54;39;370,658273247016;0,617842601659537
"F_374";82;79;80;76;3191,01283387286;0,700847705349316
"F_375";62;60;66;62;1035,64849071833;0,660277594183742
"F_376";25;23;26;23;145,126003167482;0,561341075107697
"F_377";35;34;36;34;205,367933836728;0,564327072447394
"F_378";46;38;46;37;201,945336287708;0,580842095062744
"F_379";84;106;81;110;3065,70977232137;0,702861163227019
"F_380";66;56;64;61;2121,81212157487;0,689282428702856
"F_381";34;40;36;44;240,431967631619;0,58750306297476
"F_382";78;79;80;79;2169,1162162063;0,687740232918365
"F_383";66;78;70;81;2122,19774868982;0,681446111869038
"F_384";41;48;41;49;357,17975241807;0,600150187734668
"F_385";79;61;78;62;966,070697172661;0,671446174526719
"F_386";72;73;72;74;1162,86538244711;0,641927710843374
"F_387";63;62;67;62;1331,36451811936;0,6637506228891
"F_388";68;80;70;82;1558,14356708926;0,659914125289006
"F_389";59;50;60;51;412,655363347261;0,596655385227951
"F_390";37;38;37;36;377,023378910426;0,618448204704912
"F_391";70;74;68;77;1121,10317231491;0,655511811023623
"F_392";52;44;57;47;563,270054699233;0,627939866953014
"F_393";39;50;40;49;531,389166997433;0,593024981449418
"F_394";86;84;88;85;1695,92592513964;0,670432302443936
"F_395";50;48;54;48;590,395435908737;0,632912729000583
"F_396";82;77;83;69;4017,08799759425;0,718274415817857
"F_397";68;63;69;66;526,475898918332;0,624440045838107
"F_398";69;62;71;61;1288,80409343595;0,666111018503087
"F_399";56;49;54;53;827,745437493013;0,657741687698895
"F_400";70;61;70;61;1036,19936605896;0,663677130044847
"F_401";86;93;89;99;1744,83574576758;0,686519299049366
"F_402";85;75;85;74;3846,21792634138;0,722603978300185
"F_403";25;32;28;32;251,767918085486;0,583840646763745
"F_404";41;51;42;52;550,248921973485;0,639189549453481
"F_405";31;32;35;34;185,080321575771;0,556804458894566
"F_406";48;52;54;53;441,008829836962;0,599549887471867
"F_407";64;67;67;73;776,521885904254;0,618927151634053
"F_408";26;30;26;31;132,011773790332;0,55841252096143
"F_409";62;62;61;66;1733,62271474457;0,671521398162675
"F_410";21;19;21;19;83,0231566724262;0,554435297382295
"F_411";76;71;81;77;1115,89813060086;0,670207413205124
"F_412";75;87;79;89;2472,05418386183;0,693870463622159
"F_413";63;63;61;60;1276,4602255107;0,653154625694674
"F_414";23;26;24;30;97,489882598143;0,568555845387715
"F_415";31;26;31;26;139,414684421381;0,572301522891104
"F_416";40;38;39;36;621,217186167245;0,625221654323564
"F_417";72;73;71;69;1567,44652205389;0,689559965487491
"F_418";61;45;62;48;902,696918023232;0,649544863459039
"F_419";62;61;67;63;1190,23456400229;0,664118331394384
"F_420";25;24;28;26;151,24129211263;0,554794520547945
"F_421";66;67;66;67;1979,38903047139;0,712892483349196
"F_422";72;74;79;77;2770,87229331907;0,6953999651952
"F_423";78;74;75;77;1526,71880059581;0,666074008223138
"F_424";87;93;88;98;1876,34519959422;0,688807170765343
"F_425";62;57;63;57;1551,52065978217;0,655189375307429
"F_426";53;53;53;56;599,081530692286;0,64852583175548
"F_427";51;57;54;59;550,580909280495;0,62669245647969
"F_428";45;51;45;48;562,565807409367;0,649650463339301
"F_429";24;24;24;24;92,8692496374228;0,539368307387745
"F_430";49;51;51;54;666,988849066195;0,635732088879462
"F_431";46;37;43;35;280,896833308724;0,59757738896366
"F_432";57;58;58;60;678,398969507974;0,625907168589777
"F_433";47;50;46;52;444,364599857819;0,598293157658331
"F_434";84;80;76;81;2429,29755252786;0,693268563497573
"F_435";60;68;62;69;1462,02893272307;0,656984709815315
"F_436";21;15;23;15;48,4616352361089;0,53384396152476
"F_437";62;57;64;52;1262,56586112058;0,659732540861814
"F_438";65;65;69;65;1112,49935431079;0,643893006767645
"F_439";59;61;60;63;516,206343425309;0,634319276152178
"F_440";20;24;20;25;67,1515359833665;0,54014598540146
"F_441";71;57;68;58;1165,1253313994;0,655583506507713
"F_442";102;83;100;83;3446,08610832415;0,710147503110006
"F_443";51;54;52;58;1610,06239137624;0,670132483649176
"F_444";71;71;73;74;1135,68910144219;0,678207739307537
"F_445";97;94;95;96;1983,49435040704;0,679514794241018
"F_446";62;62;58;61;977,892044709363;0,653867132104289
"F_447";63;64;60;62;1824,54207556021;0,677402949652485
"F_448";48;44;50;50;347,631997427696;0,594465932758107
"F_449";75;75;74;77;2417,67599107057;0,670507299065944
"F_450";53;49;54;52;478,049000567029;0,608836973082781
"F_451";46;43;46;41;179,435623039811;0,57372577171572
"F_452";52;62;56;58;902,362267941712;0,641652839479743
"F_453";64;58;64;55;924,202968895983;0,649544863459041
"F_454";70;66;77;72;1723,33760157447;0,659768849752342
"F_455";92;77;86;73;1444,23880268213;0,664928725941541
"F_456";84;74;83;76;1547,3038705935;0,649193111664683
"F_457";86;53;83;51;1034,012572375;0,662759840778419
"F_458";91;85;95;87;2321,31710885788;0,700847705349315
"F_459";71;73;68;73;1214,81892219456;0,684051355206849
"F_460";91;84;97;80;2916,38451667968;0,695682451253483
"F_461";47;56;52;57;675,817571712431;0,627381201590957
"F_462";50;49;53;53;492,548506350327;0,611695070925604
"F_463";72;64;72;61;1624,04653127263;0,663677130044846
"F_464";55;60;55;58;1107,09841644898;0,634520721960515
"F_465";113;117;100;108;8539,70028287047;0,764199655765921
"F_466";47;44;48;47;385,564229721187;0,591182562382877
"F_467";43;39;42;41;247,992320801646;0,598711481795934
"F_468";57;49;57;45;905,248169289182;0,653688859806971
"F_469";61;56;62;59;904,846454881663;0,649826539462274
"F_470";28;26;30;26;74,2013181327616;0,577679259830376
"F_471";37;36;37;38;253,867645513968;0,609610983981692
"F_472";85;82;79;80;1867,18430019812;0,673331835542576
"F_473";29;35;30;36;116,05601000728;0,571782886578269
"F_474";45;55;46;56;673,783329178556;0,63667746561156
"F_475";96;91;103;93;2437,20550853704;0,681020280633984
"F_476";59;66;64;67;562,11703019073;0,611851171336701
"F_477";46;54;46;54;781,161087065351;0,624863174354965
"F_478";58;52;62;54;1132,94668244094;0,630947368421053
"F_479";86;79;92;81;2758,59162829327;0,694111516414802
"F_480";62;55;69;61;999,541360296016;0,641549823397196
"F_481";31;36;32;34;136,404985244255;0,587589452014508
"F_482";99;100;104;102;2681,2481526746;0,695803586975449
"F_483";38;44;44;45;218,597221797122;0,591445063890669
"F_484";54;45;52;42;484,743687459633;0,618671620993961
"F_485";65;70;63;62;1503,92826126555;0,664670658682636
"F_486";71;68;74;66;2000,05635132588;0,688648897058828
"F_487";78;81;80;85;1337,91459990243;0,662393634655764
"F_488";37;29;33;26;138,663238613413;0,572520177658913
"F_489";51;53;50;50;398,9047013466;0,585551702241976
"F_490";72;75;70;71;1579,45675584768;0,654759954120925
"F_491";88;92;91;90;3172,83537923076;0,703975571084622
"F_492";116;109;109;101;3774,26819612805;0,71408148677627
"F_493";70;75;68;71;4021,03549791254;0,735144416508251
"F_494";75;82;79;88;2312,76834759675;0,680247403960736
"F_495";41;37;40;35;140,428764244152;0,583954405962296
"F_496";71;61;80;67;763,783801954537;0,616032887975333
"F_497";73;76;74;77;1530,49406005216;0,660859977949285
"F_498";46;57;48;56;622,675464918417;0,632378540908373
"F_499";77;75;75;70;1151,55291575608;0,6589709762533
"F_500";38;46;38;48;439,344141321558;0,619887274419568
"F_501";37;40;34;36;439,553098851281;0,601475089057246
"F_502";42;43;40;41;235,700806488068;0,585265830200653
"F_503";74;73;71;71;1966,47821321645;0,685302692505576
"F_504";66;66;69;67;990,907024612657;0,644169801182161
"F_505";74;55;73;57;1030,4033913221;0,651982378854629
"F_506";44;45;43;47;365,748851895793;0,601686408351736
"F_507";92;78;88;80;2731,66491151825;0,697138869504543
"F_508";59;62;57;59;1020,39648074832;0,657597366977511
"F_509";37;41;42;40;319,140419590894;0,590280171352602
"F_510";49;50;51;54;522,212205820994;0,593465346534653
"F_511";42;35;44;36;132,175151601565;0,571101900814634
"F_512";72;77;82;82;3499,32974461189;0,709223214813943
"F_513";86;88;85;97;3039,65781610081;0,692427655518976
"F_514";68;60;67;63;1266,22354912115;0,670882533997432
"F_515";30;34;31;34;148,347949322485;0,5705854355069
"F_516";66;63;65;67;1690,36495779309;0,673483146067418
"F_517";56;57;57;62;1049,5554910388;0,663199822969689
"F_518";64;62;65;58;1704,29996058172;0,683193708326211
"F_519";48;51;50;49;370,995040521048;0,640521478948495
"F_520";99;91;97;90;2171,32748273569;0,686794614723576
"F_521";66;78;74;77;1308,16001735187;0,649333766655835
"F_522";32;31;31;32;190,288379253496;0,587733490219149
"F_523";44;50;48;50;444,667793075754;0,633514770385247
"F_524";75;66;70;62;864,853451418997;0,653938468252239
"F_525";49;54;48;54;459,072686525272;0,600180234304594
"F_526";44;44;41;43;855,609597324136;0,637422236401342
"F_527";59;58;61;59;465,221585191379;0,596625690538993
"F_528";42;51;44;49;659,536422448835;0,622915042868277
"F_529";83;85;79;81;1496,65089730763;0,653760157059498
"F_530";30;39;31;37;220,568781436182;0,571483052867425
"F_531";50;38;57;42;390,995298073759;0,605087825560266
"F_532";94;95;91;95;4828,85010560562;0,73280762882817
"F_533";40;41;43;48;416,003262508138;0,59364167574527
"F_534";34;33;34;36;249,026376081079;0,570748428870691
"F_535";88;87;91;91;2672,98804232239;0,670995186387554
"F_536";73;75;71;72;906,555355892144;0,632578755738483
"F_537";58;61;57;69;2396,87987086872;0,680131623737669
"F_538";97;92;94;83;4391,5062185736;0,720692557412531
"F_539";81;72;81;71;2253,11299063166;0,685498627630377
"F_540";59;67;66;71;971,220169619265;0,647090575407536
"F_541";49;43;48;44;407,088715352364;0,591182562382877
"F_542";24;24;26;24;117,201044140073;0,536928382675685
"F_543";82;73;82;73;2990,97073924507;0,703810250689841
"F_544";39;38;41;40;252,593245597866;0,567076631977293
"F_545";81;74;77;69;2320,36470758761;0,687858618315361
"F_546";59;67;62;70;1216,11272180697;0,65612172294894
"F_547";35;33;35;35;250,751899520819;0,567183951551854
"F_548";70;65;74;72;1232,89388515515;0,652195201566837
"F_549";75;75;77;75;2000,21830716302;0,677096865292294
"F_550";35;35;35;34;319,90787789682;0,618671620993962
"F_551";94;83;91;86;2539,13828525037;0,691708499221051
"F_552";36;31;40;33;192,537391866;0,588830492656809
"F_553";74;82;75;78;1899,03097465997;0,69246765249538
"F_554";35;45;35;45;363,583084938806;0,613762031537988
"F_555";14;22;16;26;64,3768991529054;0,538447718289616
"F_556";68;64;78;63;1371,67328855091;0,655583506507713
"F_557";90;85;87;83;2369,89112224444;0,700192745750836
"F_558";74;66;73;64;1830,64368884659;0,690473447759479
"F_559";79;90;86;88;1740,15679236128;0,675038008896899
"F_560";40;32;38;29;306,795184647637;0,604874110701851
"F_561";95;100;98;100;2545,30165142319;0,693509198195073
"F_562";68;70;67;69;1319,3377740359;0,655511811023626
"F_563";55;74;61;79;1129,13354623318;0,660677872692204
"F_564";40;41;37;41;311,909859203016;0,599969971472898
"F_565";51;48;50;44;563,94821957871;0,596210275028596
"F_566";72;65;76;72;786,847117559739;0,643167551907293
"F_567";54;58;56;59;1429,12321011941;0,657489167992104
"F_568";74;72;75;75;2770,30560256305;0,692587671153737
"F_569";38;39;36;36;256,51709573401;0,573040152963669
"F_570";42;46;43;43;369,651033157923;0,604843592330978
"F_571";63;64;69;69;1525,70186118217;0,670920080591002
"F_572";103;109;105;113;3057,54173040001;0,71035790471676
"F_573";45;48;47;49;395,216213663497;0,603899047906906
"F_574";81;81;88;86;2472,28793465392;0,686362074888357
"F_575";27;28;27;30;125,221818633512;0,570015691122628
"F_576";53;63;56;68;867,914786678131;0,648315396679471
"F_577";59;53;64;56;775,477334499034;0,649544863459039
"F_578";47;45;46;44;576,939301781434;0,604447133565269
"F_579";38;40;41;40;249,580616202602;0,58067328651005
"F_580";24;32;26;32;116,191897684637;0,579802669762042
"F_581";103;116;103;113;4482,07432657604;0,726809748999638
"F_582";29;27;28;28;183,912525889598;0,573863092388702
"F_583";93;83;87;78;1865,8912415399;0,659514771414426
"F_584";84;87;82;87;1434,64945202934;0,656373193166887
"F_585";58;56;53;55;639,954590634039;0,641721535249721
"F_586";59;70;59;64;983,128691687122;0,641309581126626
"F_587";49;45;46;45;635,106686587112;0,61023161109697
"F_588";54;50;52;49;410,20513924758;0,59739871430707
"F_589";69;57;70;53;759,129491421527;0,639360000000001
"F_590";49;59;54;55;1145,04055797795;0,678706901432379
"F_591";67;68;65;68;1600,33420476616;0,657669519420674
"F_592";100;96;102;90;3281,33533326465;0,700601951960732
"F_593";88;96;85;95;3017,80531934057;0,710147503110008
"F_594";62;58;63;58;1709,39474171528;0,665778073975343
"F_595";86;79;91;86;2079,26405615781;0,671559016301609
"F_596";57;62;58;66;820,830426963976;0,6129461090091
"F_597";83;81;82;79;2959,73759948107;0,701750278054209
"F_598";54;59;55;63;1149,02588534086;0,655619360131256
"F_599";99;92;96;87;2388,11190426814;0,697585103287752
"F_600";106;104;107;99;6668,39329717091;0,759310869014443
"F_601";58;47;57;49;1032,85053915417;0,653581943081455
"F_602";84;85;83;85;1737,18701814204;0,671671896010761
"F_603";76;72;74;69;1630,04496211404;0,666592526690393
"F_604";44;44;46;44;255,087410303213;0,595943527540266
"F_605";69;77;73;82;1712,89099872237;0,661625917545125
"F_606";44;47;48;46;482,983470026822;0,607171799027552
"F_607";98;93;92;100;2617,52800263918;0,699090272918128
"F_608";60;56;67;57;813,576303617016;0,625743814594425
"F_609";35;35;33;31;135,568456572147;0,576429292686444
"F_610";89;67;89;68;1698,52851269296;0,670020120724349
"F_611";69;62;67;66;1508,81223803937;0,668823923231426
"F_612";27;35;28;39;92,0844527731004;0,559742260820843
"F_613";50;54;54;55;492,904273599419;0,614895363151414
"F_614";50;50;51;47;794,259749684739;0,649193111664683
"F_615";35;32;35;34;118,980806493543;0,561735626259312
"F_616";71;75;71;72;1256,42694617491;0,64989699663884
"F_617";74;70;77;77;1610,91864131534;0,670319838962204
"F_618";55;57;58;60;985,567930579735;0,646497330529042
"F_619";48;50;58;48;1397,9964097279;0,667743552609599
"F_620";61;60;67;61;856,542167916282;0,647160440509611
"F_621";48;48;47;46;554,373619894126;0,637998935604047
"F_622";46;45;50;52;281,985938672815;0,599849887415561
"F_623";51;55;55;56;601,035865754581;0,612883435582821
"F_624";38;41;38;41;357,186591751382;0,601777019225942
"F_625";78;69;76;70;1438,1214480555;0,645140458508235
"F_626";48;44;49;44;824,350707625457;0,629787234042554
"F_627";70;64;65;60;1344,54904889772;0,667000500751128
"F_628";51;55;52;58;1589,44883357118;0,671935429628391
"F_629";51;56;52;58;973,711221307949;0,639871897518016
"F_630";79;75;84;81;2108,05664961687;0,688530239503767
"F_631";45;46;47;50;347,12129751761;0,592585269401877
"F_632";63;70;66;73;1903,42647028463;0,694956521739132
"F_633";69;59;71;62;827,53910962698;0,651734261172124
"F_634";73;67;78;69;905,755286248988;0,646532197173984
"F_635";61;64;68;66;1535,54056917344;0,679283771532188
"F_636";66;50;63;51;1119,78335235903;0,663640389725424
"F_637";45;40;48;41;753,586982346245;0,607018076864651
"F_638";45;41;47;43;361,123552332477;0,598502246630054
"F_639";56;53;59;56;1114,78503543585;0,648175182481756
"F_640";56;42;63;46;616,544092275382;0,620850380651509
"F_641";54;57;56;50;1256,62486413557;0,640966689835857
"F_642";93;84;88;82;2298,0065631216;0,686794614723576
"F_643";69;71;66;72;1952,83356949718;0,687385321100919
"F_644";70;66;73;64;1112,37684458814;0,680170212765959
"F_645";39;49;40;52;326,991528591077;0,598412619178354
"F_646";111;105;105;107;5079,08818224664;0,73451381655536
"F_647";55;55;58;60;603,731546587645;0,622947412180419
"F_648";15;20;15;19;107,966903615346;0,563928873835731
"F_649";60;66;64;70;988,21402893245;0,642443729903538
"F_650";32;33;32;32;160,161752050626;0,588223748773306
"F_651";90;94;96;97;1970,09616944447;0,674278643343273
"F_652";55;48;57;54;691,734248305382;0,63064864011784
"F_653";72;82;75;89;2689,11033687518;0,695803586975453
"F_654";73;62;86;70;1430,33918866443;0,639121394679321
"F_655";72;84;73;77;2595,06541811802;0,685616242493568
"F_656";86;84;86;85;2942,59578420635;0,705134992059298
"F_657";39;43;38;41;345,907644079525;0,613479351107926
"F_658";79;84;79;83;1495,49305387613;0,682066454255805
"F_659";28;26;30;27;187,653428036239;0,574027963991571
"F_660";39;39;42;40;219,799692254861;0,573725771715721
"F_661";87;86;89;83;1690,14439398895;0,685773125107261
"F_662";20;20;20;21;101,91580757209;0,58103916246607
"F_663";61;69;65;71;1034,61445015482;0,641652839479742
"F_664";65;58;62;55;1191,58928451667;0,674164885839615
"F_665";98;104;104;106;2701,05964656955;0,702902374670186
"F_666";69;80;66;72;3081,34751896223;0,69431252171899
"F_667";75;77;71;74;1447,44770051008;0,674923995045606
"F_668";65;73;65;77;1302,84700409217;0,664302338468365
"F_669";45;45;48;48;625,22240751693;0,616634946761997
"F_670";67;64;66;66;984,654204892004;0,64368556701031
"F_671";48;51;48;55;596,015002041498;0,623855120732724
"F_672";67;65;66;65;1289,79342104739;0,654009819967268
"F_673";66;74;64;73;1287,51813493547;0,678476427641634
"F_674";56;53;54;51;1518,03829249822;0,651486332264557
"F_675";33;45;31;50;134,566211106602;0,58704275011018
"F_676";46;42;44;43;347,662300764878;0,599190283400808
"F_677";59;52;59;57;1114,11904971836;0,666444296197466
"F_678";77;74;75;73;1451,554065246;0,652301665034283
"F_679";96;99;94;95;1613,69244134599;0,675875288944016
"F_680";45;44;46;47;406,616273185575;0,601414739376911
"F_681";35;41;34;40;317,457901719621;0,581546521781313
"F_682";43;36;45;35;283,78509147496;0,627643979057595
"F_683";43;52;39;49;761,029359607034;0,646357901547425
"F_684";80;89;78;84;2686,5738270264;0,694352736750657
"F_685";53;56;53;53;939,752210993452;0,642443729903539
"F_686";58;55;61;62;515,14698052718;0,638202725724021
"F_687";78;79;74;75;1434,8494034023;0,657020716869453
"F_688";79;68;80;68;1536,19620655907;0,679283771532188
"F_689";75;70;75;68;1870,42522951218;0,675570583262895
"F_690";50;51;54;54;543,263195906965;0,640863893937778
"F_691";48;49;48;50;363,945996291389;0,599250187453136
"F_692";62;57;61;58;1984,64298171747;0,698113207547172
"F_693";70;74;69;72;1078,21937800416;0,656696795398523
"F_694";106;107;111;113;4307,60616892318;0,722734671730878
"F_695";60;56;61;56;877,767440431288;0,652656794425089
"F_696";55;49;52;43;1123,49653668259;0,652159721466657
"F_697";118;104;113;102;3134,922596014;0,701627063092592
"F_698";68;74;71;71;1575,40814581416;0,660568657703329
"F_699";33;38;34;38;195,712008929484;0,565658472137025
"F_700";54;55;58;56;992,275524104282;0,659224635688756
"F_701";37;41;37;41;555,900918166427;0,632311830792767
"F_702";56;62;58;67;719,23575381053;0,63742223640134
"F_703";54;56;53;52;663,300005269879;0,627381201590957
"F_704";92;90;87;92;2061,04118013499;0,695924764890283
"F_705";60;65;57;68;1257,05354595344;0,653403826238624
"F_706";69;61;68;61;1204,88030820404;0,661370407149953
"F_707";69;79;71;81;1093,16979584891;0,654152570118959
"F_708";52;55;56;58;610,863415984002;0,615590017459175
"F_709";40;38;41;38;260,235676091411;0,585008783915674
"F_710";69;66;71;70;1077,57104230332;0,63482313069265
"F_711";33;47;33;47;185,45566231655;0,57074842887069
"F_712";43;45;42;46;307,759894432324;0,620882535736481
"F_713";68;71;66;70;1137,57006743181;0,649826539462273
"F_714";36;36;39;35;223,842751033276;0,586497064579255
"F_715";49;56;49;61;633,288784934544;0,608435263665431
"F_716";19;22;19;25;96,0635119431597;0,559611614228363
"F_717";52;51;51;53;462,156212717928;0,60772584406367
"F_718";56;60;58;59;450,953644174343;0,589728453364816
"F_719";32;34;34;33;384,873960944134;0,585094440919517
"F_720";73;70;73;67;1106,55040690312;0,65857276273142
"F_721";76;77;70;77;2737,9650749283;0,694433180791291
"F_722";51;36;52;36;261,139121864939;0,593553498044263
"F_723";54;48;56;51;636,313472324697;0,630914162412505
"F_724";32;35;32;32;161,678677446924;0,575184723155166
"F_725";85;98;85;94;4692,42234838066;0,719438276420816
"F_726";48;50;51;48;377,999763069678;0,616317927098863
"F_727";54;53;56;55;1266,30963934438;0,656840721056383
"F_728";51;40;51;43;780,238238335957;0,64172153524972
"F_729";49;54;50;51;531,14814410664;0,621236461626159
"F_730";44;49;45;50;460,5236843205;0,605271129960617
"F_731";43;52;46;56;502,741727050556;0,622494547720428
"F_732";63;70;59;65;1053,88021195953;0,663677130044846
"F_733";33;38;35;40;272,411114833323;0,589786480369968
"F_734";77;72;77;73;1431,67029603258;0,654402532889351
"F_735";49;57;48;56;471,968221252237;0,621429682235239
"F_736";32;40;31;40;256,27092656962;0,604233870967741
"F_737";53;47;54;48;896,903216017588;0,633648712934088
"F_738";49;58;50;62;368,873492283;0,596032416844826
"F_739";93;82;97;83;2536,18236081456;0,677594392945966
"F_740";72;72;71;74;2470,36116178276;0,675456389452335
"F_741";73;75;75;75;1398,50806134865;0,65123859191656
"F_742";65;70;60;69;807,886420923017;0,639530541477729
"F_743";66;60;67;63;1471,26172354219;0,667966791107151
"F_744";35;37;36;39;220,841411510908;0,596121332670311
"F_745";13;23;13;23;22,1023118589848;0,530067209055536
"F_746";63;72;63;76;2589,73456527415;0,69665271966528
"F_747";87;84;94;81;3379,4581666459;0,705134992059295
"F_748";26;27;28;30;75,4694121513162;0,55079255685734
"F_749";72;70;69;69;1255,23585274265;0,644204417217476
"F_750";74;70;72;71;2780,90448722301;0,702408156090706
"F_751";59;61;62;63;652,952264533941;0,629588782101781
"F_752";31;36;32;39;351,391377262645;0,588108320251176
"F_753";35;39;35;38;91,2320357142762;0,5612096811947
"F_754";48;51;49;54;307,185796100937;0,615937933514873
"F_755";59;62;57;61;1280,67323796786;0,654759954120925
"F_756";65;71;66;72;970,876179467594;0,65212424522657
"F_757";97;87;94;81;3799,95335747885;0,742153160403642
"F_758";67;68;67;70;1207,4289752948;0,658211167847144
"F_759";75;83;80;91;2396,87661692401;0,687977044476329
"F_760";64;57;64;57;821,220342127132;0,655117765998145
"F_761";68;73;69;71;1404,777561351;0,687977044476332
"F_762";94;92;95;100;3682,6142838461;0,727559628573166
"F_763";56;62;56;64;583,529345931031;0,614895363151415
"F_764";47;40;45;44;361,367866327748;0,599459945994599
"F_765";69;77;70;72;3422,94628815577;0,697219960451322
"F_766";83;91;86;96;1388,06085105227;0,6499322309569
"F_767";90;99;80;101;4191,6425437998;0,714890571888606
"F_768";47;45;47;49;552,123389134393;0,616634946761997
"F_769";86;102;84;99;4639,30758817293;0,733659730722155
"F_770";43;43;41;42;398,918626136737;0,62975415003152
"F_771";66;75;71;77;1461,27091008314;0,652870057727918
"F_772";48;52;52;54;583,708126976156;0,616730116267105
"F_773";29;28;30;27;139,659380215628;0,556390977443609
"F_774";58;63;54;59;749,028197519591;0,647405087217155
"F_775";59;55;60;56;1207,68073462892;0,638168751663563
"F_776";25;31;28;33;131,609768053231;0,540681941187083
"F_777";44;46;46;46;272,96346361603;0,59739871430707
"F_778";112;117;108;113;5806,9153273274;0,739315448658651
"F_779";69;63;72;66;1405,75486903391;0,651415530076619
"F_780";41;42;38;41;451,320780856057;0,614296694850115
"F_781";65;63;65;63;1234,95981360931;0,648982243395413
"F_782";36;41;37;42;166,399231974521;0,577095267895826
"F_783";38;40;39;40;275,041480871307;0,56839410174956
"F_784";58;53;61;55;717,347351346354;0,619566902682308
"F_785";39;36;40;37;244,683036660799;0,589177765763994
"F_786";53;55;54;55;1513,09369235021;0,653617578103703
"F_787";73;67;72;69;1211,89203864902;0,657525230364197
"F_788";39;39;40;41;473,65470989836;0,576484731906707
"F_789";70;60;70;60;1129,87576346727;0,664744371742268
"F_790";71;62;68;62;1250,69325378367;0,675913396481733
"F_791";48;53;49;58;579,914260200147;0,62985341249409
"F_792";68;74;67;71;1748,80601859334;0,664155124653741
"F_793";70;67;66;62;1564,02328498963;0,662064394985367
"F_794";42;40;41;39;215,904636920449;0,576346153846153
"F_795";37;42;38;44;360,969061210236;0,600120144173007
"F_796";76;73;78;74;2094,48321278996;0,686126373626376
"F_797";79;74;82;73;1704,09032388158;0,688609339996555
"F_798";89;93;91;95;1721,75557446411;0,669907795473598
"F_799";87;84;88;87;1318,93164617899;0,651946921905591
"F_800";88;84;83;89;1596,06803893634;0,673256205773337
"F_801";41;43;41;45;540,771350480233;0,610107384599724
"F_802";88;82;89;85;2060,89292223537;0,670507299065946
"F_803";24;26;23;26;103,849635898643;0,582563903197588
"F_804";27;32;26;33;88,7594060237672;0,554204613748786
"F_805";71;79;68;78;3452,86238598362;0,689440993788827
"F_806";44;32;46;34;260,927469993522;0,598293157658331
"F_807";100;89;93;83;2730,42548412369;0,69986572479421
"F_808";60;61;61;61;805,27419906413;0,638270684698116
"F_809";34;37;36;39;185,266632699623;0,586152943477409
"F_810";78;90;76;90;2173,05197368075;0,683388439174557
"F_811";76;66;79;67;1607,41207882625;0,675684815691582
"F_812";37;46;37;45;705,558363911393;0,612382509194931
"F_813";66;70;70;73;1405,57956684938;0,648350459707951
"F_814";33;38;35;40;165,016266313873;0,596121332670311
"F_815";59;60;58;60;876,930292253485;0,630350194552529
"F_816";72;64;74;70;1222,41951655815;0,641481164383562
"F_817";34;36;31;36;342,24011927463;0,598352882455703
"F_818";76;76;77;83;1730,03052754619;0,663640389725422
"F_819";64;59;63;58;926,906406512852;0,64852583175548
"F_820";73;71;72;74;790,303106504683;0,633514770385245
"F_821";50;45;49;42;1168,84303058563;0,665778073975348
"F_822";47;50;49;49;575,718199445294;0,633380884450785
"F_823";43;39;44;43;385,376609606681;0,625286876695182
"F_824";38;48;37;46;388,126322013587;0,623660389137447
"F_825";36;43;34;44;370,902290998023;0,594613362432419
"F_826";71;65;73;66;1370,16302969268;0,675494449766161
"F_827";44;43;43;43;287,067639108017;0,601656210790463
"F_828";113;98;107;91;5357,67715742956;0,741189563496974
"F_829";53;49;51;50;494,358681036167;0,616508099768577
"F_830";76;68;71;65;1417,65488415032;0,661735482446458
"F_831";52;52;54;58;1217,41323291614;0,642306043720535
"F_832";23;24;28;26;93,6952106102038;0,55474317445627
"F_833";27;21;26;21;112,836351332632;0,569474134245402
"F_834";24;23;24;24;81,7789982036654;0,545876781567324
"F_835";79;77;78;86;3910,34806770739;0,734603836019365
"F_836";89;95;91;98;4048,9320545886;0,723825624924529
"F_837";89;106;84;104;4754,49239254224;0,708720070942951
"F_838";65;65;62;61;2273,59287932348;0,696490820357891
"F_839";74;62;69;66;1529,9648847706;0,665815051374621
"F_840";71;62;67;62;1320,18646372123;0,651769694992661
"F_841";65;63;60;60;1363,6008853541;0,654188267394271
"F_842";49;45;53;51;1061,94137838424;0,647754903550015
"F_843";69;74;71;72;1405,8353390414;0,683349484124726
"F_844";51;42;53;44;286,077704870215;0,583442838370564
"F_845";73;71;79;75;1896,93853127779;0,676142131979698
"F_846";52;51;54;55;391,799370666239;0,618448204704911
"F_847";88;90;87;92;3279,65360876225;0,700847705349315
"F_848";97;89;99;92;3238,73522752889;0,71900677742458
"F_849";61;56;66;59;974,502701984458;0,657525230364198
"F_850";26;32;30;32;197,050856961245;0,559716126622467
"F_851";34;28;34;30;239,801708101703;0,580251694094868
"F_852";39;39;38;41;190,855787133175;0,592058474911102
"F_853";79;70;79;71;2132,0032836832;0,697260512999481
"F_854";40;37;42;39;415,127583091358;0,579634464751957
"F_855";41;45;38;46;455,194862129289;0,596239928379587
"F_856";46;43;46;45;403,480412839976;0,605393394606605
"F_857";62;69;63;71;530,56811822851;0,618543934781486
"F_858";81;76;87;82;3754,34053415973;0,718791221969066
"F_859";57;60;55;59;787,385168941081;0,637727417810406
"F_860";38;42;36;39;456,736632773878;0,636103151862466
"F_861";23;27;23;28;54,4900366575289;0,547747418441013
"F_862";37;33;38;36;227,264844078229;0,597696564790347
"F_863";108;112;105;113;4110,19040360518;0,704720474986774
"F_864";70;67;69;64;1440,7108620019;0,665297741273102
"F_865";36;27;35;28;165,095178402682;0,592936986843405
"F_866";32;28;31;28;424,863511899202;0,602049015668942
"F_867";75;64;77;66;3080,04280348326;0,705923919444123
"F_868";50;55;53;56;747,169495400354;0,638576679273429
"F_869";93;86;96;94;2990,9071654323;0,704886223319814
"F_870";75;71;73;68;1890,67114798279;0,68813500947133
"F_871";74;74;79;76;1850,90533879342;0,695037105751392
"F_872";37;41;34;40;340,540315708658;0,5972201464654
"F_873";41;40;41;41;448,778487181544;0,614422633386294
"F_874";55;62;61;70;445,944613501322;0,602533172496983
"F_875";104;99;98;99;4214,60121233121;0,738131888430519
"F_876";77;84;79;87;2298,88490697791;0,693950795947903
"F_877";59;58;59;54;667,331407287739;0,625156445556946
"F_878";109;99;118;102;2944,88081948172;0,700438212094656
"F_879";50;45;54;50;265,640319343969;0,587560652845169
"F_880";55;50;58;52;672,022168080528;0,623660389137446
"F_881";57;64;57;67;655,962895674441;0,641378203413408
"F_882";62;56;62;57;1161,67270863679;0,656049909702843
"F_883";35;36;32;32;131,973047395678;0,577512284420463
"F_884";48;46;47;46;625,091518458826;0,628203112718126
"F_885";47;57;45;59;501,265213808453;0,628038558256496
"F_886";49;52;52;55;497,390669976226;0,630350194552533
"F_887";53;56;48;51;665,349373871614;0,64168718552618
"F_888";59;76;62;82;893,250215461543;0,654009819967268
"F_889";56;54;57;53;898,619136575237;0,62314169872128
"F_890";44;40;44;36;813,995231668966;0,645800786510804
"F_891";123;106;125;105;4784,89832670726;0,729774152310222
"F_892";55;61;60;61;1287,21752135585;0,656445077209508
"F_893";40;39;39;42;656,766693184123;0,600842020850038
"F_894";65;63;65;63;884,099706495737;0,633046417067117
"F_895";56;55;57;55;1359,03458662067;0,655046172340312
"F_896";63;64;64;67;956,259491498493;0,654831485224233
"F_897";91;85;77;80;1994,09451136769;0,696409898919484
"F_898";51;50;52;55;770,256597199179;0,619695011630912
"F_899";72;85;77;87;1110,56899459918;0,6560140089745
"F_900";33;31;36;32;139,415774998049;0,562579191890749
"F_901";41;39;43;41;278,446357055027;0,5820547679161
"F_902";42;40;41;41;277,779297760819;0,601595824760374
"F_903";64;65;63;61;1535,59218807341;0,656014008974501
"F_904";88;78;87;81;1640,93135137099;0,675760992108232
"F_905";36;32;36;37;354,312864657742;0,608157467532467
"F_906";74;70;78;74;1098,87530621048;0,62541736227045
"F_907";47;57;49;58;458,503270622159;0,641000962463911
"F_908";37;32;36;33;330,242071821972;0,630648640117841
"F_909";92;100;94;102;2383,62939419736;0,702449314426347
"F_910";63;58;65;63;1123,24402566178;0,643443722827549
"F_911";63;66;63;67;1120,75355478671;0,661991275056604
"F_912";41;49;43;50;667,703145570735;0,612538960707168
"F_913";33;44;33;47;187,19086903606;0,577234206471494
"F_914";86;74;89;74;3047,64582462594;0,705052049638303
"F_915";61;61;63;63;784,796706325726;0,642443729903538
"F_916";44;42;43;41;220,928845492017;0,566808510638297
"F_917";33;32;35;35;154,820259411248;0,563187071314478
"F_918";48;43;51;46;361,143825132196;0,570829960478071
"F_919";23;30;23;28;311,334596788403;0,581913499344689
"F_920";30;34;29;37;316,111597713383;0,564779044567982
"F_921";112;108;107;111;3734,1947478443;0,727868852459019
"F_922";65;62;63;58;1880,83494227865;0,676294708338042
"F_923";62;68;59;74;1097,7304554425;0,642512595133455
"F_924";75;76;74;78;1683,44713923239;0,679283771532187
"F_925";36;40;35;40;163,93270719283;0,580954688635812
"F_926";31;35;33;38;222,915485575447;0,563716730932003
"F_927";47;55;50;60;372,298724366707;0,602593746858349
"F_928";39;37;45;41;319,977769563277;0,58438139806961
"F_929";49;52;55;54;747,760792623551;0,61720640477784
"F_930";64;79;60;75;1328,43133571205;0,670694864048341
"F_931";84;93;85;87;3546,3607739726;0,71044210027261
"F_932";42;44;43;43;510,379531865794;0,628400691932695
"F_933";73;74;77;76;1675,83009171354;0,670394810423892
"F_934";71;61;68;59;1786,11926575333;0,685655456417299
"F_935";43;41;37;35;617,423467654024;0,64302955532908
"F_936";47;36;46;36;533,874129332268;0,608991617983235
"F_937";68;70;69;74;1349,84726390925;0,664118331394384
"F_938";23;33;22;31;124,381009525339;0,59086204347183
"F_939";39;25;40;25;137,449229473116;0,565498372564743
"F_940";38;35;45;36;431,447718074918;0,6028968014484
"F_941";39;32;38;36;234,611650506515;0,591649392952324
"F_942";66;78;68;73;1066,6350106679;0,658066641049571
"F_943";80;82;86;85;2614,48664512639;0,690075984342625
"F_944";50;58;51;61;938,792143080511;0,641206675224649
"F_945";75;71;77;76;1096,3977461515;0,66718610863758
"F_946";77;80;78;79;2650,8793847502;0,702943590946406
"F_947";72;74;73;77;1700,21192676149;0,67786259541985
"F_948";61;63;63;59;1666,22664604626;0,668525540932415
"F_949";33;34;32;33;200,072337349941;0,595262922687322
"F_950";47;39;50;38;461,631834281491;0,615305651080428
"F_951";90;82;91;85;1954,30401946975;0,681058970571528
"F_952";52;67;52;66;1030,98273084166;0,656948706707587
"F_953";81;75;78;79;2430,83639997645;0,70817580340265
"F_954";62;53;63;53;883,297557100117;0,652727866710227
"F_955";83;83;81;85;1840,49212463063;0,665445462114905
"F_956";47;46;46;47;756,984190415824;0,612163611295511
"F_957";44;35;44;33;625,152995325583;0,635395134361591
"F_958";57;56;59;53;676,228520696146;0,635226791013143
"F_959";58;54;57;58;623,848830569423;0,640624165018974
"F_960";77;63;79;64;1238,9184508274;0,665113182423439
"F_961";53;54;54;57;315,735519364481;0,594436455595774
"F_962";76;71;79;71;1310,53272574122;0,642891617954632
"F_963";68;64;70;61;1938,27515517044;0,675646733923238
"F_964";77;76;75;72;1735,67932408236;0,683583281062896
"F_965";55;60;57;59;690,380047575511;0,640350408632019
"F_966";44;41;50;43;541,611512458806;0,636981934112648
"F_967";75;70;70;66;998,073528700582;0,649861766140838
"F_968";28;24;25;26;237,304496813083;0,584580874823229
"F_969";32;34;32;34;240,989274386308;0,566915728743024
"F_970";37;40;39;41;480,52137105662;0,620111731843576
"F_971";30;31;30;33;106,650558602894;0,554922927371198
"F_972";66;62;74;61;1015,89844648911;0,656804733727811
"F_973";69;75;69;73;2389,91554902159;0,679476279544301
"F_974";33;29;33;29;150,671933213799;0,579494368443947
"F_975";45;39;48;41;579,271119646036;0,598801198801198
"F_976";65;65;66;65;1239,6037486588;0,661443389980139
"F_977";78;79;83;80;1227,17914892558;0,658355758141581
"F_978";63;58;63;58;787,559844403841;0,631412619825134
"F_979";42;45;40;40;310,768925655407;0,615368820902418
"F_980";54;37;55;38;346,067963333568;0,584523867570334
"F_981";63;59;62;59;1480,58804938038;0,687779690189333
"F_982";102;92;91;88;3801,59212704376;0,713019687146853
"F_983";38;26;41;26;135,783659510784;0,557348086847366
"F_984";74;60;74;56;1753,61867301471;0,685969329365992
"F_985";47;50;48;51;582,353541762271;0,634453559142632
"F_986";70;68;69;69;1545,82733934006;0,674772036474165
"F_987";62;70;62;68;751,444273428543;0,641035238757287
"F_988";67;79;64;79;1236,81275864758;0,66618505140317
"F_989";62;61;58;60;1310,40970315994;0,646671701370161
"F_990";71;58;62;57;1012,04453042008;0,655547656805383
"F_991";51;62;55;63;809,316631543953;0,63011826544021
"F_992";83;97;81;99;3211,61855564794;0,697666298085323
"F_993";77;82;73;78;2745,63950443142;0,699947451392544
"F_994";61;69;68;69;1301,71898357173;0,66089641104802
"F_995";79;88;76;85;1433,47477517254;0,681911262798637
"F_996";63;56;61;60;1150,92770803018;0,66503938755132
"F_997";73;84;79;83;1648,35209484441;0,682765690853174
"F_998";66;71;70;75;2132,059729714;0,667371819851919
"F_999";77;78;76;75;2125,22992395884;0,689798032107717
"F_1000";39;35;39;35;172,022224569893;0,56475243793282
