"ID";"index"
"F_1";10,0825
"F_2";1,575
"F_3";4,5
"F_4";0,585
"F_5";4,2
"F_6";1,80166666666667
"F_7";1,64833333333333
"F_8";6,72
"F_9";2,6125
"F_10";4,68416666666667
"F_11";1,3325
"F_12";7,0525
"F_13";7,5175
"F_14";7,36
"F_15";0,991666666666667
"F_16";3,575
"F_17";1,10833333333333
"F_18";0,421666666666667
"F_19";1,83333333333333
"F_20";1,02
"F_21";1,645
"F_22";3,85333333333333
"F_23";3,62916666666667
"F_24";3,2
"F_25";5,265
"F_26";3,7375
"F_27";1,9975
"F_28";5,53333333333333
"F_29";2,8025
"F_30";4,14
"F_31";5,60333333333333
"F_32";6,235
"F_33";6,51666666666667
"F_34";7,595
"F_35";0,853333333333333
"F_36";6,02
"F_37";0,88
"F_38";2,295
"F_39";1,3325
"F_40";2,43
"F_41";0,479166666666667
"F_42";2,475
"F_43";2,12333333333333
"F_44";1,575
"F_45";3,36
"F_46";1,91916666666667
"F_47";2,42916666666667
"F_48";1,46916666666667
"F_49";1,2025
"F_50";2,56666666666667
"F_51";3,57333333333333
"F_52";0,541666666666667
"F_53";4,025
"F_54";11,5
"F_55";4,38
"F_56";5,06666666666667
"F_57";4,38
"F_58";5,39
"F_59";2,90083333333333
"F_60";4,68416666666667
"F_61";0,8525
"F_62";2,385
"F_63";3,62916666666667
"F_64";3,1
"F_65";5,04916666666667
"F_66";2,52
"F_67";5,07
"F_68";0,226666666666667
"F_69";3,30666666666667
"F_70";1,2675
"F_71";3,62916666666667
"F_72";1,14083333333333
"F_73";3,57333333333333
"F_74";2,00083333333333
"F_75";3,68333333333333
"F_76";2,04166666666667
"F_77";1,05
"F_78";1,65
"F_79";1,7625
"F_80";0,9075
"F_81";5,06916666666667
"F_82";2,08333333333333
"F_83";8,415
"F_84";3,68333333333333
"F_85";2,29666666666667
"F_86";1,33
"F_87";2,94833333333333
"F_88";4,8125
"F_89";6,45333333333333
"F_90";6,02
"F_91";3,8525
"F_92";1,02083333333333
"F_93";2,755
"F_94";1,3
"F_95";2,29666666666667
"F_96";1,87833333333333
"F_97";4,44083333333333
"F_98";8,3325
"F_99";2,16666666666667
"F_100";6,52666666666667
"F_101";4,68666666666667
"F_102";1,46916666666667
"F_103";1,8
"F_104";1,235
"F_105";5,74
"F_106";2,52083333333333
"F_107";6,825
"F_108";0,9625
"F_109";1,40083333333333
"F_110";2,9
"F_111";1,87833333333333
"F_112";1,36666666666667
"F_113";2,95
"F_114";2,475
"F_115";7,9825
"F_116";2,75333333333333
"F_117";1,6125
"F_118";4,25833333333333
"F_119";3,0875
"F_120";5,7375
"F_121";0,906666666666667
"F_122";1,96
"F_123";3,85
"F_124";3,685
"F_125";0,775
"F_126";3,8525
"F_127";3,85333333333333
"F_128";4,50166666666667
"F_129";2,56166666666667
"F_130";2,61
"F_131";3,685
"F_132";5,805
"F_133";6,44583333333333
"F_134";3,68
"F_135";0,723333333333333
"F_136";5,3325
"F_137";7,6725
"F_138";3,91
"F_139";1,725
"F_140";1,57666666666667
"F_141";8,25
"F_142";2,475
"F_143";1,36666666666667
"F_144";5,88
"F_145";3,465
"F_146";1,14
"F_147";9,3625
"F_148";1,6875
"F_149";2,42666666666667
"F_150";1,6125
"F_151";5,945
"F_152";3,46666666666667
"F_153";5,80833333333333
"F_154";4,3125
"F_155";7,92
"F_156";3,2025
"F_157";3,74083333333333
"F_158";8,5
"F_159";0,853333333333333
"F_160";2,90083333333333
"F_161";5,81
"F_162";0,826666666666667
"F_163";1,0725
"F_164";1,96
"F_165";1,33333333333333
"F_166";3,685
"F_167";2,34
"F_168";1,0175
"F_169";2,61
"F_170";2,42916666666667
"F_171";7,36333333333333
"F_172";1,92
"F_173";1,505
"F_174";2,9
"F_175";9,8975
"F_176";1,54
"F_177";6,4525
"F_178";0,725
"F_179";1,295
"F_180";0,225
"F_181";2,34
"F_182";5,2
"F_183";1,02
"F_184";4,56333333333333
"F_185";2,38333333333333
"F_186";2,34083333333333
"F_187";0,826666666666667
"F_188";1,43333333333333
"F_189";1,05
"F_190";3,85333333333333
"F_191";0,520833333333333
"F_192";3,2
"F_193";0,7
"F_194";0,421666666666667
"F_195";2,8025
"F_196";6,375
"F_197";4,08
"F_198";0,8
"F_199";7,52
"F_200";0,5
"F_201";2,90083333333333
"F_202";1,4
"F_203";8,75
"F_204";1,6875
"F_205";7,67916666666667
"F_206";3,6225
"F_207";4,81
"F_208";3,74083333333333
"F_209";4,50166666666667
"F_210";0,9075
"F_211";0,935
"F_212";3,78666666666667
"F_213";1,05
"F_214";0,906666666666667
"F_215";1,23333333333333
"F_216";5,46
"F_217";5,265
"F_218";0,800833333333333
"F_219";0,725
"F_220";3,1
"F_221";5,88
"F_222";7,285
"F_223";2,56666666666667
"F_224";7,5075
"F_225";0,563333333333333
"F_226";11,9866666666667
"F_227";3,25
"F_228";11,2133333333333
"F_229";5,67166666666667
"F_230";2,1675
"F_231";7,20666666666667
"F_232";2,61
"F_233";7,65916666666667
"F_234";1,91916666666667
"F_235";6,6
"F_236";0,800833333333333
"F_237";2,2525
"F_238";2,34083333333333
"F_239";1,435
"F_240";1,61333333333333
"F_241";1,105
"F_242";5,74083333333333
"F_243";2,52
"F_244";3,52
"F_245";1,3325
"F_246";3,90833333333333
"F_247";2,84166666666667
"F_248";8,585
"F_249";5,535
"F_250";0,99
"F_251";2,2525
"F_252";0,826666666666667
"F_253";4,81
"F_254";4,20083333333333
"F_255";7,8275
"F_256";3,9675
"F_257";3,62916666666667
"F_258";5,81
"F_259";5,46666666666667
"F_260";1,23333333333333
"F_261";3,91
"F_262";0,991666666666667
"F_263";5,26166666666667
"F_264";1,65
"F_265";1,07916666666667
"F_266";5,94833333333333
"F_267";7,20416666666667
"F_268";0,7
"F_269";7,3625
"F_270";4,08333333333333
"F_271";1,91916666666667
"F_272";3,685
"F_273";7,68
"F_274";2,29666666666667
"F_275";7,51333333333333
"F_276";1,65
"F_277";7,13
"F_278";6,97166666666667
"F_279";5,125
"F_280";1,96
"F_281";4,25833333333333
"F_282";7,3625
"F_283";0,6525
"F_284";6,4525
"F_285";3,30666666666667
"F_286";1,365
"F_287";2,755
"F_288";5,13
"F_289";5,7375
"F_290";3,045
"F_291";6,15
"F_292";5,46416666666667
"F_293";0,403333333333333
"F_294";1,47
"F_295";3,15166666666667
"F_296";2,56666666666667
"F_297";2
"F_298";4,2
"F_299";5,3325
"F_300";0,653333333333333
"F_301";5,67
"F_302";3
"F_303";4,62
"F_304";2,16666666666667
"F_305";4,74833333333333
"F_306";0,13
"F_307";8,91666666666667
"F_308";0,75
"F_309";3,62916666666667
"F_310";1,33333333333333
"F_311";0,826666666666667
"F_312";3,74
"F_313";0,520833333333333
"F_314";2,04
"F_315";4,37833333333333
"F_316";7,5075
"F_317";2,6125
"F_318";5,535
"F_319";1,3
"F_320";5,26666666666667
"F_321";1,11
"F_322";4,50166666666667
"F_323";1,365
"F_324";1,505
"F_325";1,33333333333333
"F_326";1,95833333333333
"F_327";1,04833333333333
"F_328";1,14
"F_329";2,52
"F_330";0,8525
"F_331";0,606666666666667
"F_332";4,75
"F_333";6,02083333333333
"F_334";0,54
"F_335";6,38
"F_336";4,0825
"F_337";4,20083333333333
"F_338";4,20083333333333
"F_339";6,97666666666667
"F_340";1,08
"F_341";0,48
"F_342";9,99
"F_343";4,62333333333333
"F_344";0,541666666666667
"F_345";6,50166666666667
"F_346";1,88
"F_347";1,29833333333333
"F_348";7,2075
"F_349";2,43
"F_350";0,63
"F_351";5,4675
"F_352";0,904166666666667
"F_353";2,12
"F_354";4,25833333333333
"F_355";0,63
"F_356";2,42916666666667
"F_357";1,57666666666667
"F_358";1,9875
"F_359";2,16666666666667
"F_360";7,285
"F_361";2,60583333333333
"F_362";1,11
"F_363";0,933333333333333
"F_364";5,06916666666667
"F_365";5,805
"F_366";1,40083333333333
"F_367";4,94083333333333
"F_368";1,02
"F_369";1,68666666666667
"F_370";2,95
"F_371";3,255
"F_372";2,29666666666667
"F_373";2,61
"F_374";4,14166666666667
"F_375";4,4375
"F_376";4,20083333333333
"F_377";6,97666666666667
"F_378";1,875
"F_379";5,87666666666667
"F_380";4,25833333333333
"F_381";8,075
"F_382";5,4
"F_383";6,74666666666667
"F_384";2,475
"F_385";7,75833333333333
"F_386";5,74
"F_387";1,84
"F_388";2,08333333333333
"F_389";2,66
"F_390";1,33333333333333
"F_391";6,0175
"F_392";1,68666666666667
"F_393";1,64833333333333
"F_394";5,0625
"F_395";2,475
"F_396";2,565
"F_397";8,24
"F_398";2,61333333333333
"F_399";9,5375
"F_400";3,245
"F_401";5,87916666666667
"F_402";7,125
"F_403";0,421666666666667
"F_404";1,23333333333333
"F_405";1,02083333333333
"F_406";2
"F_407";3,5175
"F_408";0,7
"F_409";4,02333333333333
"F_410";0,585
"F_411";0,24
"F_412";3,3
"F_413";0,4
"F_414";1,36666666666667
"F_415";0,440833333333333
"F_416";2,755
"F_417";3,35833333333333
"F_418";8,41666666666667
"F_419";1,02083333333333
"F_420";0,8
"F_421";2,94
"F_422";6,90083333333333
"F_423";4,44083333333333
"F_424";6,0175
"F_425";2,85
"F_426";3,0975
"F_427";4,025
"F_428";3
"F_429";0,585
"F_430";1,04833333333333
"F_431";1,3325
"F_432";1,235
"F_433";5,13
"F_434";4,07
"F_435";4,5625
"F_436";0,44
"F_437";1,5375
"F_438";3,8525
"F_439";1,54
"F_440";0,46
"F_441";4,14
"F_442";2,8
"F_443";2,52
"F_444";4,94083333333333
"F_445";3,575
"F_446";3,90833333333333
"F_447";1,26666666666667
"F_448";0,5625
"F_449";11,21
"F_450";3,5175
"F_451";1,2675
"F_452";3,2025
"F_453";2,51333333333333
"F_454";5,88
"F_455";1,57666666666667
"F_456";5,265
"F_457";4,62
"F_458";2,52083333333333
"F_459";4,81333333333333
"F_460";4,74833333333333
"F_461";1,7625
"F_462";7,0525
"F_463";3,62666666666667
"F_464";2,99666666666667
"F_465";10,5466666666667
"F_466";2,6125
"F_467";0,585
"F_468";2,12333333333333
"F_469";5,74
"F_470";8,41166666666667
"F_471";4,50166666666667
"F_472";1,08
"F_473";0,933333333333333
"F_474";1,11
"F_475";5,265
"F_476";1,88
"F_477";2,125
"F_478";1,76333333333333
"F_479";4,87666666666667
"F_480";1,61333333333333
"F_481";1,2025
"F_482";3,4125
"F_483";1,365
"F_484";1,54
"F_485";3,36
"F_486";4,68416666666667
"F_487";6,38
"F_488";3,3075
"F_489";0,6075
"F_490";4,25833333333333
"F_491";1,57666666666667
"F_492";1,23333333333333
"F_493";4,68666666666667
"F_494";4,2
"F_495";3,05
"F_496";4,73333333333333
"F_497";4,2
"F_498";1,435
"F_499";2,04
"F_500";1,87833333333333
"F_501";8,16416666666667
"F_502";0,7
"F_503";4,32
"F_504";3,04833333333333
"F_505";6,38
"F_506";2,2525
"F_507";2,61333333333333
"F_508";1,47
"F_509";1,40083333333333
"F_510";2,99666666666667
"F_511";0,8525
"F_512";5,87916666666667
"F_513";2,8
"F_514";1,96
"F_515";0,935
"F_516";2,755
"F_517";3,79666666666667
"F_518";3,40583333333333
"F_519";2,33333333333333
"F_520";6,60083333333333
"F_521";0,775
"F_522";0,9075
"F_523";3,74
"F_524";4,26
"F_525";3,1
"F_526";1,04833333333333
"F_527";1,11
"F_528";0,541666666666667
"F_529";1,26666666666667
"F_530";0,935
"F_531";8,16666666666667
"F_532";6,45
"F_533";1,65
"F_534";4,14166666666667
"F_535";5,87916666666667
"F_536";8,33
"F_537";1,40083333333333
"F_538";1,14083333333333
"F_539";5,945
"F_540";3,62666666666667
"F_541";6,375
"F_542";1,9975
"F_543";3,79666666666667
"F_544";2,70666666666667
"F_545";3,35
"F_546";2,8975
"F_547";1,08
"F_548";7,28333333333333
"F_549";6,74916666666667
"F_550";1,07916666666667
"F_551";1,72333333333333
"F_552";0,563333333333333
"F_553";7,3625
"F_554";1,84
"F_555";0,563333333333333
"F_556";5,66666666666667
"F_557";9,99166666666667
"F_558";5,395
"F_559";0,800833333333333
"F_560";1,04833333333333
"F_561";6,45333333333333
"F_562";2,1675
"F_563";3,57
"F_564";1,7625
"F_565";1,3
"F_566";0,935
"F_567";1,68666666666667
"F_568";4,37833333333333
"F_569";1,955
"F_570";1,84083333333333
"F_571";4,62333333333333
"F_572";7,20666666666667
"F_573";3,30666666666667
"F_574";4,44083333333333
"F_575";0,933333333333333
"F_576";3,57
"F_577";3,68
"F_578";3,35833333333333
"F_579";0,75
"F_580";1,40083333333333
"F_581";1,80166666666667
"F_582";0,300833333333333
"F_583";7,44
"F_584";5,265
"F_585";7,84083333333333
"F_586";4,015
"F_587";1,40083333333333
"F_588";3,73333333333333
"F_589";1,80166666666667
"F_590";2,2525
"F_591";2,03666666666667
"F_592";7,99583333333333
"F_593";0,906666666666667
"F_594";7,04583333333333
"F_595";1,87833333333333
"F_596";5,39833333333333
"F_597";1,57666666666667
"F_598";1,9125
"F_599";6,075
"F_600";3,74
"F_601";1,505
"F_602";0,5625
"F_603";4,26
"F_604";2,00083333333333
"F_605";2,755
"F_606";2,00083333333333
"F_607";3,795
"F_608";1,80166666666667
"F_609";0,676666666666667
"F_610";7,67916666666667
"F_611";2,29666666666667
"F_612";7,735
"F_613";7,125
"F_614";2,125
"F_615";0,536666666666667
"F_616";6,02
"F_617";4,995
"F_618";7,12833333333333
"F_619";2,29666666666667
"F_620";4,37833333333333
"F_621";1,7625
"F_622";1,17
"F_623";2,38333333333333
"F_624";1,80166666666667
"F_625";8,3325
"F_626";1,57666666666667
"F_627";3,46666666666667
"F_628";1,02
"F_629";5,05666666666667
"F_630";1,14
"F_631";1,79666666666667
"F_632";8,08
"F_633";4,2
"F_634";1,33333333333333
"F_635";3,52083333333333
"F_636";1,92
"F_637";1,57666666666667
"F_638";2,56666666666667
"F_639";4,44
"F_640";8,66916666666667
"F_641";1,9975
"F_642";9,095
"F_643";0,749166666666667
"F_644";6,90083333333333
"F_645";2,8975
"F_646";2,43
"F_647";4,625
"F_648";0,269166666666667
"F_649";2,95
"F_650";0,8525
"F_651";4,615
"F_652";1,64833333333333
"F_653";7,20416666666667
"F_654";2,85166666666667
"F_655";2,8025
"F_656";4,38
"F_657";2,34083333333333
"F_658";4,75
"F_659";0,63
"F_660";2,52
"F_661";3,74
"F_662";1,61
"F_663";2,16666666666667
"F_664";2,295
"F_665";11,7
"F_666";3,35833333333333
"F_667";1,95833333333333
"F_668";3,20333333333333
"F_669";1,36666666666667
"F_670";8,08
"F_671";0,7975
"F_672";9,0125
"F_673";0,63
"F_674";1,26666666666667
"F_675";1,65
"F_676";2,65833333333333
"F_677";1,68666666666667
"F_678";4,87666666666667
"F_679";7,0525
"F_680";1,16666666666667
"F_681";1,235
"F_682";0,520833333333333
"F_683";8,48
"F_684";5,26666666666667
"F_685";6,4525
"F_686";4,26
"F_687";3,62916666666667
"F_688";1,76333333333333
"F_689";3,2
"F_690";2,70666666666667
"F_691";11,6033333333333
"F_692";2,66
"F_693";2,52
"F_694";7,43666666666667
"F_695";2,99666666666667
"F_696";0,775
"F_697";1,72
"F_698";3,91
"F_699";0,6525
"F_700";4,80583333333333
"F_701";2,04166666666667
"F_702";1,54083333333333
"F_703";2,38333333333333
"F_704";8,08
"F_705";2,95
"F_706";5,4
"F_707";1,435
"F_708";1,6125
"F_709";0,800833333333333
"F_710";0,749166666666667
"F_711";2,20833333333333
"F_712";4,08
"F_713";4,08
"F_714";0,5625
"F_715";3,25333333333333
"F_716";1,46916666666667
"F_717";2,85166666666667
"F_718";2,3375
"F_719";0,935
"F_720";1,68666666666667
"F_721";5,005
"F_722";4,5625
"F_723";2
"F_724";1,505
"F_725";6,02
"F_726";1,4
"F_727";2,04166666666667
"F_728";0,963333333333333
"F_729";1,955
"F_730";3,90833333333333
"F_731";2,61333333333333
"F_732";6,5975
"F_733";1,3325
"F_734";3,74
"F_735";2,66
"F_736";7,75833333333333
"F_737";2,84666666666667
"F_738";1,645
"F_739";10,4533333333333
"F_740";8,00333333333333
"F_741";8,33
"F_742";3
"F_743";4,26
"F_744";7,52
"F_745";5,135
"F_746";6,6
"F_747";5,19333333333333
"F_748";0,6525
"F_749";3,63
"F_750";3,57333333333333
"F_751";3,74083333333333
"F_752";1,76
"F_753";7,68
"F_754";1,54083333333333
"F_755";7,76
"F_756";2,42916666666667
"F_757";3,85
"F_758";3,575
"F_759";1,2025
"F_760";4,14
"F_761";1,14
"F_762";4,08
"F_763";0,88
"F_764";2,00083333333333
"F_765";2,99916666666667
"F_766";8,40666666666667
"F_767";5,88
"F_768";0,5
"F_769";1,65
"F_770";1,76333333333333
"F_771";1,16666666666667
"F_772";1,7625
"F_773";2,66
"F_774";0,8525
"F_775";3,52083333333333
"F_776";0,878333333333333
"F_777";4,8125
"F_778";1,04833333333333
"F_779";2,1675
"F_780";1,33333333333333
"F_781";1,10833333333333
"F_782";0,403333333333333
"F_783";1,6125
"F_784";1,80166666666667
"F_785";1,3
"F_786";7,04583333333333
"F_787";3,20333333333333
"F_788";5,7375
"F_789";2,755
"F_790";3,1
"F_791";3,05
"F_792";5,53
"F_793";1,2025
"F_794";3,795
"F_795";1,65
"F_796";5,74
"F_797";5,005
"F_798";4,5625
"F_799";0,906666666666667
"F_800";3,30666666666667
"F_801";0,9625
"F_802";6,45333333333333
"F_803";0,675
"F_804";0,63
"F_805";5,005
"F_806";2,8
"F_807";7,05
"F_808";1,20333333333333
"F_809";2,95
"F_810";6,30666666666667
"F_811";2,34
"F_812";5,72
"F_813";1,8
"F_814";1,05
"F_815";2,52
"F_816";4,62
"F_817";1,11
"F_818";0,800833333333333
"F_819";3,52083333333333
"F_820";1,3
"F_821";4,1975
"F_822";1,61
"F_823";1,10833333333333
"F_824";2,29666666666667
"F_825";1,725
"F_826";4,625
"F_827";5,6
"F_828";5,06666666666667
"F_829";4,745
"F_830";2,385
"F_831";2,75
"F_832";2,475
"F_833";2,04
"F_834";0,46
"F_835";4,2
"F_836";8,075
"F_837";5,20083333333333
"F_838";0,72
"F_839";0,878333333333333
"F_840";4,375
"F_841";0,6975
"F_842";1,505
"F_843";3,3925
"F_844";2,52
"F_845";2,25333333333333
"F_846";8,75333333333333
"F_847";3,795
"F_848";5
"F_849";2,385
"F_850";1,7625
"F_851";0,935
"F_852";1,88
"F_853";3,795
"F_854";1,54
"F_855";5,74083333333333
"F_856";3,565
"F_857";6,09166666666667
"F_858";1,505
"F_859";5,33
"F_860";3,90833333333333
"F_861";2,12333333333333
"F_862";4,50166666666667
"F_863";5,67166666666667
"F_864";2,7075
"F_865";1,3325
"F_866";3,0975
"F_867";3,46666666666667
"F_868";2,04
"F_869";1,505
"F_870";4,31916666666667
"F_871";5,135
"F_872";2,21
"F_873";0,935
"F_874";4,14166666666667
"F_875";2,2525
"F_876";4,1975
"F_877";2,84666666666667
"F_878";9,99166666666667
"F_879";2,125
"F_880";0,8525
"F_881";4,0825
"F_882";2,08333333333333
"F_883";0,8525
"F_884";1,2675
"F_885";2,385
"F_886";0,225
"F_887";0,119166666666667
"F_888";4,75
"F_889";3,79666666666667
"F_890";4,87666666666667
"F_891";9
"F_892";3,52083333333333
"F_893";9,01333333333333
"F_894";3,255
"F_895";2,56666666666667
"F_896";4,14166666666667
"F_897";4,62333333333333
"F_898";0,826666666666667
"F_899";4,50166666666667
"F_900";5,805
"F_901";0,906666666666667
"F_902";1,88
"F_903";4,14
"F_904";4,74833333333333
"F_905";2,0825
"F_906";1,26666666666667
"F_907";2,34083333333333
"F_908";4,8
"F_909";9,27333333333333
"F_910";4,38
"F_911";3,10083333333333
"F_912";0,8525
"F_913";1,3325
"F_914";3,7375
"F_915";4,75
"F_916";5,4
"F_917";5,125
"F_918";1,57666666666667
"F_919";2,12333333333333
"F_920";0,520833333333333
"F_921";8,16666666666667
"F_922";0,5
"F_923";2,21
"F_924";5,1975
"F_925";1,2025
"F_926";1,505
"F_927";2,04
"F_928";1,43333333333333
"F_929";2,745
"F_930";3,05
"F_931";6,375
"F_932";2,5175
"F_933";4,8125
"F_934";7,2075
"F_935";1,50333333333333
"F_936";0,5
"F_937";1,14
"F_938";7,28333333333333
"F_939";1,54083333333333
"F_940";1,53333333333333
"F_941";1,435
"F_942";0,8
"F_943";4,87666666666667
"F_944";2,75333333333333
"F_945";3,20333333333333
"F_946";3,79666666666667
"F_947";7,35583333333333
"F_948";1,3325
"F_949";0,853333333333333
"F_950";1,54
"F_951";5,395
"F_952";4,81333333333333
"F_953";5
"F_954";1,92
"F_955";6,30416666666667
"F_956";1,7625
"F_957";1,725
"F_958";3,61666666666667
"F_959";2,42916666666667
"F_960";2,66
"F_961";4,08333333333333
"F_962";3,2
"F_963";2,99916666666667
"F_964";1,6125
"F_965";2,61333333333333
"F_966";2,47
"F_967";2,70666666666667
"F_968";0,44
"F_969";0,6525
"F_970";0,1875
"F_971";0,479166666666667
"F_972";5,3325
"F_973";4,44083333333333
"F_974";0,5
"F_975";4,50166666666667
"F_976";4,14
"F_977";2,04166666666667
"F_978";5,81
"F_979";1,11
"F_980";0,541666666666667
"F_981";4,20083333333333
"F_982";6,02
"F_983";0,3325
"F_984";1,96
"F_985";0,585
"F_986";3,52083333333333
"F_987";4,68416666666667
"F_988";6,23
"F_989";0,63
"F_990";4,19333333333333
"F_991";2,56666666666667
"F_992";5,1975
"F_993";1,80166666666667
"F_994";2,70416666666667
"F_995";7,35583333333333
"F_996";0,775
"F_997";4,4275
"F_998";3,30666666666667
"F_999";3,575
"F_1000";3,8525
