"Foraging";"In";"Out";"InLink";"OutLink";"Betweeness";"Closeness"
"F_1";101;114;97;114;3472,179716993;0,691469112303168
"F_2";40;41;41;44;608,509777385042;0,624602719741573
"F_3";63;68;61;63;1158,64484533097;0,6589709762533
"F_4";43;43;39;39;283,376966095806;0,608497030607582
"F_5";65;69;64;64;1854,37425433619;0,687464158733804
"F_6";42;45;43;42;502,670025696541;0,63314672018591
"F_7";53;44;51;47;620,034363792608;0,643512802619574
"F_8";76;77;70;75;1241,66073820108;0,670132483649172
"F_9";45;47;44;50;434,176067918294;0,609703997558742
"F_10";67;67;71;70;929,444846181767;0,65212424522657
"F_11";33;46;35;49;354,307557930912;0,583954405962296
"F_12";103;101;102;100;3997,89001641877;0,711285154859382
"F_13";95;99;97;95;2306,3573720344;0,690871369294608
"F_14";93;97;87;95;2428,27026366252;0,717629452259807
"F_15";47;41;46;40;285,654659316794;0,602260738507911
"F_16";66;81;63;84;1543,13907763098;0,678860637635201
"F_17";33;40;35;42;285,780220294342;0,577846331823001
"F_18";23;28;28;30;121,51327912675;0,556675179939633
"F_19";57;64;62;67;1031,62677233207;0,650002711055688
"F_20";51;50;53;56;986,889404958209;0,622365278787249
"F_21";55;46;54;46;718,369111943939;0,656804733727813
"F_22";66;79;66;80;1865,23505289917;0,687621888264316
"F_23";65;58;63;60;721,637200487218;0,634554308702096
"F_24";73;82;80;81;1369,36682913471;0,677211614506837
"F_25";79;70;78;70;1561,75125972906;0,664670658682636
"F_26";74;80;70;80;3220,36900152851;0,706090234421019
"F_27";66;54;71;54;688,329806605386;0,629258306650569
"F_28";91;102;91;104;3842,96632924167;0,7098531501658
"F_29";48;43;47;44;463,654859420968;0,626954657183202
"F_30";60;65;60;67;978,240381100019;0,630847760879862
"F_31";79;76;82;83;1904,42768011488;0,678822197055493
"F_32";99;103;96;101;3219,61009884876;0,71221482889734
"F_33";77;92;79;87;1306,2652447568;0,66180854587612
"F_34";114;116;106;115;4543,32734511343;0,733166167206901
"F_35";25;35;25;35;86,6222617879661;0,556442629038247
"F_36";85;83;80;86;2566,62523253121;0,697463346520829
"F_37";62;68;59;67;1595,49647201729;0,669683257918559
"F_38";72;63;69;61;2873,62739638048;0,703479842732237
"F_39";56;56;54;57;771,28721485988;0,633481293595434
"F_40";37;34;43;36;127,394828080742;0,586640567653535
"F_41";33;30;30;26;112,598129715653;0,560789633718482
"F_42";60;61;62;66;1113,0314686399;0,654903031958483
"F_43";95;101;95;98;3063,39006820812;0,719395103216518
"F_44";37;41;40;45;247,982850086262;0,566166052706148
"F_45";62;54;64;52;1324,10465288599;0,669197275873623
"F_46";59;52;61;49;447,283604450454;0,598920863309352
"F_47";57;65;58;64;1149,24558497936;0,631878557874763
"F_48";42;47;43;49;442,613910202035;0,600902255639095
"F_49";30;36;26;33;301,70213514453;0,620368453736289
"F_50";68;54;75;60;659,245973516816;0,611258413216396
"F_51";82;73;83;76;1692,25244135495;0,681988849698493
"F_52";45;44;46;42;394,405193183913;0,604965684295518
"F_53";44;42;42;43;207,002156140812;0,60463004993191
"F_54";22;30;24;30;62,4590130851547;0,56977186311787
"F_55";74;69;75;71;1410,70172959172;0,675304191077063
"F_56";57;55;59;57;563,562969685387;0,617460726242595
"F_57";82;82;77;79;3148,19712451005;0,71259585091839
"F_58";49;41;49;43;294,635490001473;0,59641791044776
"F_59";72;81;75;75;1933,91093101321;0,691070502104114
"F_60";71;65;67;61;1413,84588792304;0,649685670929982
"F_61";41;42;41;42;477,020833008936;0,644446833673802
"F_62";39;35;42;34;400,993726389472;0,590018702628211
"F_63";71;75;75;81;1242,10297542864;0,624309967711696
"F_64";59;58;59;60;488,576281926617;0,598980713500549
"F_65";34;45;35;45;226,960118768268;0,589206723680329
"F_66";52;52;53;52;688,061866791774;0,654116876739239
"F_67";102;94;98;90;4039,19895280708;0,719395103216516
"F_68";29;28;28;26;277,730020221708;0,583613261282312
"F_69";76;71;81;77;1532,60249363444;0,656552932800266
"F_70";42;43;40;44;346,56662203225;0,616539806624151
"F_71";80;86;83;85;3484,80235118359;0,711749688297811
"F_72";41;43;40;40;404,229882416866;0,641206675224653
"F_73";62;59;61;58;730,051646750385;0,620850380651508
"F_74";53;50;53;48;442,333212838687;0,619278851120983
"F_75";84;81;81;78;3681,98009513023;0,72034611224613
"F_76";56;46;56;46;519,254077936726;0,636609845467583
"F_77";43;34;40;33;195,733203203567;0,586497064579256
"F_78";37;36;39;40;447,655519614326;0,628400691932698
"F_79";29;25;30;26;168,008505641949;0,576567910734896
"F_80";32;38;32;39;182,397390272789;0,581574734390918
"F_81";77;82;80;85;2079,52027154457;0,675760992108232
"F_82";48;56;47;54;377,952832132601;0,605087825560266
"F_83";110;111;109;110;5162,98810998354;0,738950872218459
"F_84";110;116;110;109;4416,32839374962;0,709013484740952
"F_85";54;56;52;51;436,264152364339;0,613919188815485
"F_86";35;35;35;36;285,237219858128;0,562051666744807
"F_87";53;53;57;54;507,232908192019;0,59364167574527
"F_88";68;67;65;71;1757,32365535788;0,653688859806972
"F_89";88;85;82;80;2564,76979090252;0,686912674765072
"F_90";81;75;80;78;1413,77479004303;0,66975808704397
"F_91";59;65;64;67;1516,72607038897;0,649580059604445
"F_92";38;44;40;45;362,908872558106;0,593759286775631
"F_93";59;53;61;53;459,666000700745;0,619470855725505
"F_94";24;28;25;30;93,8904996586215;0,548725225431409
"F_95";49;44;49;46;332,868609284397;0,592029236011653
"F_96";42;42;39;37;552,118180230152;0,62747971735148
"F_97";103;97;100;95;3703,11369027794;0,711285154859383
"F_98";102;117;96;111;3432,04202417595;0,708217640456078
"F_99";49;41;48;40;296,991668640756;0,586669276695701
"F_100";92;89;90;84;4059,70282224182;0,706506364922208
"F_101";80;78;78;79;2017,86179683698;0,690632561355
"F_102";90;106;86;104;2251,80049652688;0,689282428702853
"F_103";52;47;57;51;631,368606763328;0,580027095026126
"F_104";69;72;66;74;850,98921438623;0,62665969681129
"F_105";86;97;83;96;3146,59755835618;0,706215022091313
"F_106";32;41;36;42;243,728330469307;0,570993093593712
"F_107";43;40;41;42;722,93539970712;0,649896996638841
"F_108";27;23;29;25;94,9836476984286;0,545628328250877
"F_109";33;41;36;43;179,646687682865;0,567667392745524
"F_110";53;56;49;50;453,82182907812;0,613573548981471
"F_111";44;52;46;50;369,267841253403;0,613134206219312
"F_112";57;56;58;59;593,756121709383;0,633916768018614
"F_113";58;61;59;61;796,555369072892;0,628862193778523
"F_114";54;55;51;53;699,060877565989;0,633983817229891
"F_115";65;66;72;69;1803,98403783731;0,67786259541985
"F_116";66;69;68;65;1959,19834262716;0,703892901180207
"F_117";39;36;39;39;159,396265002225;0,595144715285706
"F_118";42;48;44;46;418,767221978841;0,640658401026081
"F_119";62;75;67;78;1458,02852949624;0,660168511481913
"F_120";47;46;44;43;588,748106043397;0,629423500997586
"F_121";28;22;29;25;81,050494119608;0,544092951481869
"F_122";68;64;70;61;727,964542430296;0,621977793919268
"F_123";74;71;74;68;1372,84690128606;0,648350459707952
"F_124";59;60;62;60;905,553855325469;0,645800786510803
"F_125";36;36;37;35;513,436209856425;0,638236703402018
"F_126";75;73;79;80;1794,49366294654;0,677288135593223
"F_127";67;64;63;64;2669,56463677022;0,696814694257155
"F_128";37;38;42;43;289,814859239139;0,583159021257965
"F_129";57;66;57;64;1218,12594798303;0,647509992438157
"F_130";71;69;72;71;1528,5807466625;0,661297440423655
"F_131";81;90;78;89;2467,31534829297;0,687621888264313
"F_132";80;72;79;76;2268,42966983366;0,682843472317157
"F_133";74;67;76;62;1511,85927834736;0,676638257041262
"F_134";75;78;74;77;2197,28808842973;0,680826896865066
"F_135";27;27;30;28;134,189773669608;0,553003044561306
"F_136";81;85;80;81;1460,12332341266;0,659369671635228
"F_137";90;91;91;87;3697,39102978051;0,711116383912686
"F_138";58;64;61;62;527,479502938552;0,628137280586848
"F_139";60;57;60;55;451,90948855749;0,633682207421505
"F_140";55;50;55;51;1070,72763925228;0,65694870670759
"F_141";91;91;95;95;1567,52658384854;0,658536585365855
"F_142";50;51;47;51;1036,53135123415;0,644897520038734
"F_143";45;48;47;47;384,640962810501;0,601928098011648
"F_144";74;68;72;71;1214,03734385969;0,668674698795182
"F_145";52;56;51;58;444,109912704936;0,619566902682308
"F_146";57;55;56;56;793,031786899551;0,6651869936744
"F_147";88;89;84;87;1597,69980466122;0,675951508316889
"F_148";55;58;57;59;1111,42558081561;0,659587345254473
"F_149";78;85;79;83;1985,45238599729;0,688530239503766
"F_150";27;32;26;33;97,0270008301081;0,552467855661551
"F_151";87;81;92;85;1844,20210482643;0,678207739307538
"F_152";73;82;71;84;1993,86155460366;0,693428968070339
"F_153";81;77;88;81;1844,13463096135;0,684872029250459
"F_154";79;75;78;79;1700,30783330128;0,678860637635203
"F_155";80;82;77;87;1740,71653594779;0,66987036209209
"F_156";74;84;74;85;1742,36395463337;0,684872029250458
"F_157";82;80;79;78;1389,35110434988;0,677364673974462
"F_158";94;86;93;82;2447,17614797683;0,691150187373885
"F_159";33;38;34;40;320,837752235674;0,571973853714394
"F_160";50;61;48;61;795,437966465119;0,618831302911418
"F_161";94;90;91;89;2544,9736026804;0,682221716366948
"F_162";52;49;56;51;470,937646042031;0,606588068613064
"F_163";47;36;42;37;753,090706511835;0,651982378854635
"F_164";51;47;53;52;733,411868306313;0,629820321529894
"F_165";45;54;46;58;379,102832212902;0,603382323334003
"F_166";67;70;65;70;1924,70571331996;0,674354503009507
"F_167";64;65;61;65;1027,9312540747;0,638202725724022
"F_168";34;35;39;36;362,825358792893;0,596833615453549
"F_169";25;28;27;29;93,5384354765075;0,543796779315038
"F_170";28;26;30;28;98,668743629459;0,545678000819337
"F_171";113;92;108;86;3605,32938729096;0,725621935718179
"F_172";37;45;38;45;231,707710233271;0,595499478416371
"F_173";48;59;52;66;689,938999817277;0,615116219405818
"F_174";56;62;58;61;643,144718359642;0,620561134693031
"F_175";101;100;99;104;4676,75077373225;0,722691102001449
"F_176";48;53;50;57;398,153295057003;0,620368453736286
"F_177";95;95;97;101;3293,92472528475;0,728134110787176
"F_178";36;33;37;31;235,442535674781;0,590251107828655
"F_179";39;45;45;47;539,123161035218;0,614422633386295
"F_180";18;18;18;17;115,192522723945;0,567990144982468
"F_181";64;60;61;63;1672,26973626743;0,687700780174397
"F_182";71;70;71;67;2434,02620011403;0,69366971415346
"F_183";43;38;40;35;381,610414288486;0,603564595710401
"F_184";69;60;69;64;1032,69757471167;0,633113282281489
"F_185";46;52;48;53;670,741898284949;0,620625388279146
"F_186";44;50;46;55;434,943427754451;0,589844518795511
"F_187";28;25;26;25;174,354964767202;0,582026508714861
"F_188";37;43;37;41;263,376080323757;0,609332113449221
"F_189";41;52;41;53;599,751843411669;0,625384735771298
"F_190";54;54;53;58;557,755221654537;0,651521739130438
"F_191";31;24;32;25;124,758797968106;0,560370214556162
"F_192";69;70;68;70;1087,36387015496;0,640726884019242
"F_193";34;30;34;30;260,51597496852;0,599759855913547
"F_194";25;26;24;29;116,9916663589;0,56629977797723
"F_195";64;61;62;62;1562,71287728103;0,696652719665276
"F_196";111;125;105;114;5842,62388983938;0,75382003395586
"F_197";75;77;75;75;1472,4805437117;0,663530193169869
"F_198";42;38;43;39;206,902621836431;0,568205517110626
"F_199";113;118;121;117;3221,22637643795;0,690990835206642
"F_200";34;37;39;38;294,678165024464;0,580195528022456
"F_201";57;56;56;55;847,27487238137;0,638236703402014
"F_202";45;43;46;45;611,584449613324;0,614958448753462
"F_203";117;113;126;113;4544,14601780425;0,719093035810691
"F_204";53;48;56;52;627,831224436023;0,635361458554167
"F_205";96;87;93;96;2660,21222632035;0,705259442287331
"F_206";70;78;71;79;1909,88307917965;0,689440993788823
"F_207";73;86;71;84;3203,83895686158;0,701791359325608
"F_208";72;71;70;70;2053,19109209888;0,692907924397434
"F_209";75;73;76;73;1893,39230004385;0,679129843643782
"F_210";43;37;41;38;414,711389930967;0,621300855143819
"F_211";27;32;29;32;193,620267700637;0,593230403800474
"F_212";55;55;58;50;736,873064027062;0,652301665034282
"F_213";42;36;44;35;477,290199511609;0,630947368421055
"F_214";31;31;29;31;141,324885595396;0,574330474776026
"F_215";37;33;40;34;160,96302516365;0,584324429713393
"F_216";17;22;20;25;44,4178255661034;0,546648426812586
"F_217";91;92;90;88;3476,97341284109;0,701873536299769
"F_218";58;40;57;38;555,018106774335;0,605546294893165
"F_219";27;37;27;40;188,709387015589;0,577039711191335
"F_220";49;56;50;59;902,249657726093;0,635462496686987
"F_221";105;106;107;104;8491,51629768097;0,774368580841031
"F_222";85;79;84;76;1565,5945294894;0,691429230591765
"F_223";55;58;63;63;665,621940259659;0,60045078888054
"F_224";45;46;49;45;324,571166349665;0,598293157658331
"F_225";24;24;25;24;103,761508412989;0,539271255060729
"F_226";92;104;91;105;2634,67698742821;0,691548889529854
"F_227";57;60;59;59;704,952402302007;0,669832932893785
"F_228";104;107;108;106;4311,75473513178;0,71073694195767
"F_229";65;66;60;61;1915,82381057058;0,668749302688833
"F_230";52;46;54;49;364,47783804808;0,610791256941967
"F_231";111;106;105;103;4882,24153515322;0,737133370226897
"F_232";59;57;57;60;1325,86026676177;0,656409133220173
"F_233";86;69;83;70;2742,17772013877;0,704058260409939
"F_234";65;61;66;60;693,34256870266;0,618097447795823
"F_235";69;70;71;74;1343,33567981695;0,689917127071825
"F_236";50;47;54;46;817,499971418847;0,650955690703739
"F_237";44;50;39;47;606,629284937089;0,637320574162682
"F_238";61;58;55;54;1325,01723903974;0,636981934112646
"F_239";43;52;47;51;785,063341877805;0,654652686762782
"F_240";55;56;56;53;1233,23707505278;0,669645849625746
"F_241";37;34;37;37;256,165766328263;0,607695037258579
"F_242";37;32;36;34;154,492168450388;0,591853863243643
"F_243";41;43;40;45;341,692265336846;0,574908881642048
"F_244";64;66;62;66;2369,1963579299;0,685146025032871
"F_245";39;38;37;40;275,584461722529;0,586296278182618
"F_246";56;52;54;50;357,942073808429;0,599040575654606
"F_247";49;48;50;46;714,648894734195;0,649439297903464
"F_248";54;58;57;63;1015,65691874233;0,631445878324994
"F_249";69;68;71;72;1125,99556626147;0,670095025153719
"F_250";58;55;58;52;672,609983642997;0,626856306212089
"F_251";49;56;54;56;536,825160022552;0,613982074263763
"F_252";46;48;45;48;572,771989164283;0,635294117647062
"F_253";73;92;70;90;2689,15563416393;0,70060195196073
"F_254";56;68;55;71;690,552935127669;0,630714999736938
"F_255";59;62;56;65;707,503683620659;0,631346113334737
"F_256";60;55;65;59;1090,33857009409;0,643996776792911
"F_257";66;63;70;64;1224,73226564425;0,663309909810216
"F_258";88;92;90;96;2092,70250750106;0,67125818914833
"F_259";90;100;91;102;2413,31717450885;0,692067890543819
"F_260";36;32;39;32;219,760283998327;0,561157140851004
"F_261";67;64;69;67;1763,34702185718;0,675684815691584
"F_262";36;45;36;46;481,742974906851;0,635833244934763
"F_263";86;82;81;79;2793,58534737857;0,703727619606693
"F_264";43;41;42;42;256,131518528701;0,603018108651911
"F_265";32;31;34;34;179,36738012531;0,583869082407948
"F_266";89;93;78;83;3122,70376689642;0,696409898919485
"F_267";50;58;51;57;921,338513905567;0,639053254437874
"F_268";41;42;42;44;225,037889797394;0,604508093389137
"F_269";110;101;106;99;3189,0038083206;0,718705035971226
"F_270";101;106;104;102;3446,7955211291;0,713826366559487
"F_271";83;81;82;71;1390,36711411221;0,666148032896202
"F_272";68;72;67;75;1662,40781435164;0,660677872692203
"F_273";103;100;101;97;3261,46181148876;0,721212850439182
"F_274";44;48;45;48;590,595221356679;0,628862193778525
"F_275";98;100;97;102;4482,5778858331;0,71935193519352
"F_276";56;66;58;67;1093,83670891818;0,648490749756574
"F_277";65;76;65;78;1067,70996867694;0,658319604612853
"F_278";92;97;94;98;2523,00996706479;0,709181258873644
"F_279";79;73;82;73;2223,91414914792;0,690632561354996
"F_280";31;31;30;31;89,8926942584025;0,558985358575025
"F_281";75;77;72;71;1860,88122151855;0,676065869614259
"F_282";60;45;57;48;561,26883427629;0,646183699870636
"F_283";25;27;27;27;185,553564798053;0,538568668853049
"F_284";88;84;88;87;2063,51645726356;0,684950291395274
"F_285";57;73;59;72;934,146591553511;0,642891617954632
"F_286";44;42;45;44;428,093583842229;0,619470855725506
"F_287";61;79;59;79;2628,6559868584;0,724394223215908
"F_288";79;60;82;63;2725,30555230317;0,694031146876634
"F_289";77;85;74;88;1679,4610799474;0,656445077209507
"F_290";80;70;83;69;1909,41491200885;0,688609339996555
"F_291";96;89;95;92;4080,79312903387;0,727074235807864
"F_292";70;78;75;77;2646,14443614562;0,69888649215881
"F_293";35;24;34;25;166,846697878636;0,568663725629713
"F_294";36;39;35;43;536,287344104623;0,64705564851299
"F_295";58;60;56;62;793,282335709097;0,613259668508287
"F_296";78;71;76;75;1655,03495452552;0,674316571042863
"F_297";42;39;40;41;402,566088074265;0,616825315153074
"F_298";80;67;76;65;2409,02000781513;0,70642309958751
"F_299";99;100;99;97;3219,82317917907;0,714294226300424
"F_300";22;23;22;19;92,8267855071042;0,547147421268827
"F_301";50;58;49;57;536,238070965291;0,612351228482402
"F_302";73;75;77;72;1487,66476735312;0,652692328632877
"F_303";82;84;79;85;2052,0213439035;0,692907924397435
"F_304";61;58;60;58;816,98489217608;0,642547033285095
"F_305";82;94;77;93;1978,73634405768;0,677594392945971
"F_306";21;18;20;18;112,452964236217;0,538085192333588
"F_307";93;83;98;90;2303,43427621389;0,687503584332169
"F_308";27;30;25;30;236,68488590821;0,599010643081995
"F_309";52;54;55;53;647,25564691456;0,633347421808961
"F_310";50;43;51;43;448,123757481567;0,605362823814573
"F_311";42;32;43;34;435,212708442421;0,605760485093481
"F_312";62;76;58;74;1790,52812745788;0,688569787478465
"F_313";22;25;22;25;246,823433121058;0,58750306297476
"F_314";47;45;46;46;441,141335993854;0,58089838639337
"F_315";88;89;95;91;2908,40356793852;0,693990969086492
"F_316";97;92;98;95;2752,42246708404;0,695803586975453
"F_317";52;62;54;65;720,319479235455;0,624602719741573
"F_318";61;68;64;70;571,236888865327;0,626889086440411
"F_319";42;44;43;42;386,429024796605;0,621816484257482
"F_320";74;78;77;74;1018,53326011757;0,651663405088064
"F_321";32;40;33;40;256,263862407469;0,575212321865552
"F_322";85;83;81;82;3304,27234896782;0,73030764544624
"F_323";40;33;36;30;585,616500139033;0,656948706707593
"F_324";54;53;57;52;702,893847917484;0,629390455189794
"F_325";26;32;27;33;203,168699569036;0,577401021096233
"F_326";40;41;39;40;430,461006110008;0,594760865251041
"F_327";46;39;49;40;348,995053705864;0,583073929961089
"F_328";44;44;46;46;301,029467015675;0,599100449775111
"F_329";59;54;62;58;484,113508130596;0,630118265440212
"F_330";34;35;30;31;398,709674348221;0,6140135218193
"F_331";33;26;32;24;215,999109303774;0,587675866464042
"F_332";120;111;127;110;4353,21050142318;0,726897889886007
"F_333";73;80;68;74;1576,21102901805;0,678207739307537
"F_334";22;15;21;13;40,6399370339585;0,543895467537771
"F_335";70;79;70;77;2032,89026227684;0,686912674765073
"F_336";31;28;31;28;84,6885404412281;0,550817864363168
"F_337";68;71;67;71;1284,55426542224;0,674582184457825
"F_338";70;70;69;69;1925,04731431018;0,707256637168144
"F_339";87;98;83;89;2522,15472685076;0,714847942754922
"F_340";68;74;68;74;1166,61430530256;0,670619825464312
"F_341";25;27;27;26;172,895330029545;0,583869082407947
"F_342";101;92;98;89;2066,70150175858;0,694111516414801
"F_343";97;87;99;94;4652,97407604901;0,724656954603159
"F_344";50;48;51;51;536,613740765291;0,606189320388348
"F_345";91;93;95;97;2178,06230640741;0,687424737656977
"F_346";46;38;48;39;538,530872196897;0,596447584456937
"F_347";61;65;58;61;1328,34497193842;0,686912674765072
"F_348";87;71;85;70;1423,1057701057;0,675532514369438
"F_349";56;40;58;44;506,176717605089;0,615684864670535
"F_350";40;47;39;45;553,343953578465;0,628005657708629
"F_351";89;82;90;78;2707,776761934;0,6991310433312
"F_352";37;37;36;36;208,751037679079;0,576623376623375
"F_353";56;49;52;47;495,309489531542;0,622429906542057
"F_354";74;70;76;71;1472,31719272145;0,663824132011742
"F_355";18;24;18;27;59,187454407366;0,534844293744981
"F_356";65;56;65;54;932,013674319711;0,63101379092536
"F_357";47;34;49;38;202,666551217403;0,569690633464809
"F_358";56;49;60;55;402,004143642526;0,63088095989896
"F_359";35;37;36;38;253,963226341632;0,614296694850116
"F_360";112;104;106;105;4020,55395200241;0,716899892357376
"F_361";41;40;41;40;404,274216573807;0,604386186034786
"F_362";48;45;52;49;527,919431341379;0,620015515903801
"F_363";36;30;36;32;450,944423287044;0,615337234370188
"F_364";33;30;35;32;149,667173911247;0,570612594602312
"F_365";85;71;82;74;3711,77129330895;0,734738906594757
"F_366";29;38;31;38;220,886433800433;0,588137173134472
"F_367";69;71;68;68;1400,11576827567;0,678399637824689
"F_368";33;36;32;36;175,802413062163;0,57818076589177
"F_369";34;50;35;49;384,515445162393;0,615716486902927
"F_370";60;64;60;63;1285,87933790919;0,658536585365856
"F_371";76;59;71;60;753,437362669375;0,643720131020782
"F_372";60;55;63;53;945,013484271975;0,632278481012658
"F_373";35;43;37;42;185,381214909741;0,584523867570334
"F_374";76;102;74;100;2599,10557777961;0,704182330827069
"F_375";79;88;82;88;2261,57904537143;0,694594124804451
"F_376";86;93;89;91;3266,38806188629;0,722516875602703
"F_377";50;57;50;52;1679,97346414677;0,660059464816651
"F_378";49;49;51;51;260,963648146417;0,588541410967646
"F_379";97;117;90;108;4700,25789583272;0,744688781215061
"F_380";57;63;55;66;581,176741078454;0,645453077047328
"F_381";102;123;94;115;6292,55501626273;0,7448275862069
"F_382";101;80;99;79;2633,44652860354;0,689361702127661
"F_383";75;71;71;71;1028,91810135819;0,646462467644523
"F_384";37;41;38;41;349,002817369613;0,610014247913698
"F_385";79;77;81;75;1559,19452736793;0,684324694599844
"F_386";83;87;77;81;2897,05953058705;0,691229891022316
"F_387";50;41;49;40;355,551117491463;0,583159021257964
"F_388";59;59;54;59;1369,20359969527;0,648631100530248
"F_389";56;64;52;68;1232,77218253993;0,663897657418177
"F_390";33;35;35;38;185,110427255453;0,590047743269182
"F_391";78;71;78;69;1841,64006105979;0,689401345678307
"F_392";44;41;42;40;703,512440553051;0,608867895779368
"F_393";49;56;48;55;527,922758144721;0,61819306930693
"F_394";87;104;88;105;3237,58861623848;0,703851573508691
"F_395";46;40;45;40;1069,86704459;0,678937531857056
"F_396";60;68;62;68;1120,38124717017;0,660495867768598
"F_397";89;91;91;90;2457,46649015974;0,693549320219845
"F_398";85;92;92;94;3554,52439186388;0,692547660311959
"F_399";79;74;78;68;3432,66898702945;0,710063377361847
"F_400";41;43;41;42;466,878885853224;0,635866970773884
"F_401";81;79;79;73;2366,12155686547;0,694553881807649
"F_402";71;93;75;90;1512,66933634085;0,674885998986659
"F_403";17;19;18;21;53,2954886149671;0,535848381905954
"F_404";52;50;48;52;462,728194530487;0,629159231657396
"F_405";16;21;19;22;37,8892838155996;0,536088006439496
"F_406";52;52;52;51;455,086782354835;0,61316556697867
"F_407";46;52;49;53;503,622885808161;0,597041685342895
"F_408";26;29;27;33;120,82246035389;0,578627280625542
"F_409";67;75;69;74;1788,34713620396;0,663273210136109
"F_410";28;24;29;26;112,13073984039;0,545380100996316
"F_411";34;28;35;30;138,759758750643;0,548148148148148
"F_412";77;81;72;78;2907,25201976431;0,700970646707991
"F_413";18;17;18;17;114,015054081288;0,575571346264643
"F_414";42;34;41;34;245,364397148043;0,622526873344759
"F_415";39;35;39;34;148,075769479318;0,563690224291154
"F_416";56;67;59;65;1244,75001796902;0,678553234844629
"F_417";70;56;71;59;497,210802510122;0,617683429513602
"F_418";91;90;91;86;1268,77771846878;0,667929574325832
"F_419";56;48;60;50;724,126189671937;0,632979565974973
"F_420";28;26;29;30;227,9359893732;0,596774193548385
"F_421";76;63;74;62;1492,88138623274;0,680594981264905
"F_422";55;55;57;52;1326,52221385224;0,643651006711411
"F_423";73;78;74;78;1463,63042560573;0,658211167847145
"F_424";81;78;80;79;2243,74846927401;0,682260542940075
"F_425";40;48;40;48;282,41494809229;0,578934659776886
"F_426";55;43;59;47;281,952156085894;0,608806053526991
"F_427";67;62;63;61;1291,85490430058;0,677709310871168
"F_428";51;44;49;45;502,199074332174;0,633816220788835
"F_429";26;22;28;25;74,9929476312538;0,545976226260418
"F_430";56;53;53;54;1204,27967305915;0,674582184457827
"F_431";32;29;30;32;326,087436476456;0,615463599958931
"F_432";51;46;53;50;501,885458937938;0,586841589974544
"F_433";106;91;102;90;3622,57695744432;0,730752819262425
"F_434";87;88;83;85;1923,28065491695;0,663420033204207
"F_435";75;82;72;82;2142,81221128123;0,673975375274081
"F_436";28;28;30;28;144,507218994273;0,560056061667834
"F_437";49;54;48;56;783,947761811294;0,670132483649173
"F_438";68;55;73;54;1614,24743067153;0,667817948860793
"F_439";72;71;72;66;2214,93446146802;0,690155440414511
"F_440";29;36;27;35;308,826475227532;0,585037333463471
"F_441";62;67;61;62;1277,58304934171;0,645731214651228
"F_442";47;49;48;49;519,89913922258;0,634890371782652
"F_443";62;53;62;57;1139,98209638896;0,64852583175548
"F_444";73;75;74;72;2183,09527078824;0,694513643473735
"F_445";23;23;23;22;76,5427481751113;0,567828723001136
"F_446";70;66;67;64;1183,70055037913;0,639087322742297
"F_447";57;51;56;51;896,349709465682;0,614170807930733
"F_448";31;36;31;37;184,226525957281;0,588166028848983
"F_449";75;80;77;76;3084,04462726069;0,704679050082296
"F_450";54;62;59;63;1052,15245156771;0,651344743276285
"F_451";49;42;50;42;340,863132362099;0,620432667425733
"F_452";45;50;45;51;1006,31461436756;0,661516388919552
"F_453";53;64;53;65;765,108928689394;0,625776478571801
"F_454";64;66;62;65;1263,54373881366;0,645939975214184
"F_455";48;45;46;43;317,315611318694;0,610542398777692
"F_456";75;94;80;98;2775,75468692748;0,680247403960738
"F_457";81;80;82;82;1863,56297251583;0,657164784563098
"F_458";46;48;49;49;367,739133408995;0,614328174643845
"F_459";75;70;70;68;1372,06580676895;0,657236842105268
"F_460";86;88;84;86;2213,60991043689;0,670207413205122
"F_461";49;50;52;49;693,772258210165;0,613416568592334
"F_462";45;34;45;34;215,721064031364;0,588194887395122
"F_463";60;63;62;65;1288,52257633677;0,659405940594062
"F_464";65;64;62;64;1403,11876195751;0,657958287596051
"F_465";99;95;96;101;3661,96585817987;0,71591519856674
"F_466";48;43;46;43;339,167393505222;0,63932590261853
"F_467";33;33;35;37;223,572437192035;0,578683143463988
"F_468";33;34;33;34;278,956393506856;0,577345405509534
"F_469";61;69;62;69;844,302669756269;0,647614931662257
"F_470";90;79;98;85;2082,05265528082;0,696612237782557
"F_471";71;84;72;82;1684,79763120403;0,684246575342467
"F_472";36;34;40;37;134,694396447667;0,566567418119948
"F_473";30;34;32;34;247,05664351108;0,592585269401877
"F_474";30;31;26;27;127,023102197257;0,547097480832421
"F_475";70;72;73;77;2057,48365934507;0,676905702992661
"F_476";49;57;50;55;878,609188459257;0,642237222757957
"F_477";43;45;42;42;424,226256181523;0,625809145959491
"F_478";52;49;59;49;1190,94640001308;0,646601941747578
"F_479";82;66;84;65;1417,06626709286;0,666407248874314
"F_480";49;49;44;47;563,448591421814;0,60102276145593
"F_481";43;40;43;41;566,43455424595;0,607479477044694
"F_482";71;83;82;80;3735,04745084205;0,732718049019009
"F_483";50;60;49;62;538,713700149698;0,608064925183869
"F_484";57;40;56;41;281,722213434474;0,602502889882896
"F_485";64;69;62;68;1326,01880709698;0,670619825464316
"F_486";74;75;76;79;1826,00344453504;0,658500411974734
"F_487";75;72;71;71;1581,61539358994;0,677402949652487
"F_488";30;24;28;23;209,289058628927;0,590192989365891
"F_489";26;18;27;18;86,3915266704483;0,553232728783054
"F_490";78;74;80;71;1624,24344348511;0,678438030560273
"F_491";45;43;45;46;438,820822314309;0,580701414454562
"F_492";38;39;42;44;227,820624986215;0,577095267895825
"F_493";64;65;60;66;521,544586930596;0,630317051369684
"F_494";77;83;81;79;2127,14033169316;0,696612237782557
"F_495";53;44;52;44;730,493088764427;0,674278643343272
"F_496";59;66;55;66;886,381931369888;0,650249511824694
"F_497";74;73;75;74;1188,49268778129;0,647440051847053
"F_498";44;45;47;49;405,570197500734;0,606588068613063
"F_499";54;50;53;51;283,60449352041;0,606864432519994
"F_500";55;52;53;53;466,401056338688;0,623692835960667
"F_501";64;72;67;75;1327,97955796673;0,638236703402013
"F_502";19;26;24;28;115,436988396588;0,545653163404643
"F_503";69;54;66;55;1138,60537800146;0,677977604343405
"F_504";70;65;77;69;1062,50127541946;0,64838552652929
"F_505";108;110;109;109;3301,61084235667;0,715530619553542
"F_506";47;48;52;46;482,670015948472;0,623725286160251
"F_507";68;66;76;67;2169,48641533969;0,681678607983625
"F_508";47;43;49;45;366,465505506435;0,605638072143073
"F_509";62;60;62;62;639,187912914421;0,631047007422225
"F_510";74;62;75;69;1155,68777243262;0,655583506507712
"F_511";43;45;46;45;295,576020206724;0,579802669762042
"F_512";79;78;75;78;2483,30926952866;0,698479286837966
"F_513";62;63;63;61;766,7432926903;0,638542665388304
"F_514";49;47;53;52;315,787046455909;0,58460938261972
"F_515";36;32;37;33;196,644956930054;0,551603552201721
"F_516";58;48;57;49;655,51117464236;0,609952172585732
"F_517";56;59;56;59;897,580917216151;0,633414350628765
"F_518";97;97;96;94;3369,28316066425;0,715573330149825
"F_519";49;52;52;54;616,233388968947;0,645939975214185
"F_520";90;82;83;79;2419,00019260568;0,710442100272612
"F_521";37;42;37;44;157,055403670456;0,571319639708334
"F_522";35;35;36;33;269,551510512398;0,605454545454544
"F_523";56;57;56;60;953,305767861714;0,677326402621622
"F_524";67;67;68;69;1074,51461165989;0,674126975201037
"F_525";56;60;59;61;750,553598824856;0,623174091594322
"F_526";42;41;40;37;870,288072402754;0,651203215818355
"F_527";45;40;48;42;528,616551136287;0,639223632291783
"F_528";21;25;21;25;83,2106651705304;0,557037312392546
"F_529";29;29;30;31;68,8638782823403;0,55208621166068
"F_530";33;38;36;37;210,998186382657;0,575322743197196
"F_531";92;94;92;85;4456,35493099387;0,735550374279057
"F_532";83;82;85;83;1799,30509875695;0,688648897058827
"F_533";42;39;47;44;560,686897679155;0,607356368426385
"F_534";57;64;57;59;1096,01894050003;0,656876712328769
"F_535";70;84;63;78;3285,57511963546;0,704513399153739
"F_536";101;94;97;90;3674,7297438578;0,724262928951188
"F_537";50;58;56;54;720,844989094516;0,638917017534511
"F_538";78;74;73;73;2886,29372388287;0,711538461538464
"F_539";86;81;88;79;1381,17504500775;0,655153568696034
"F_540";67;70;66;72;1033,66957271846;0,65965993506851
"F_541";95;102;99;102;3185,63514889045;0,709811119663688
"F_542";48;50;43;46;1186,34575357604;0,683232645617238
"F_543";88;80;86;84;2290,58890711033;0,684246575342468
"F_544";46;48;46;48;742,140798312373;0,604203417166473
"F_545";65;51;63;49;1016,71189916456;0,663420033204209
"F_546";80;71;78;72;1363,12668132402;0,675380281690143
"F_547";41;38;42;38;329,725997432852;0,615906288532675
"F_548";70;73;71;74;1596,54895394661;0,6851068693565
"F_549";58;72;63;75;890,408540807335;0,650991039913115
"F_550";41;40;41;39;247,485918420057;0,572383498854086
"F_551";46;41;46;39;384,024462549591;0,62392005829083
"F_552";34;39;32;40;290,358367857004;0,592526690391458
"F_553";87;78;85;74;2177,89462694067;0,679938744257277
"F_554";45;46;45;49;319,184808271881;0,579718555055853
"F_555";16;15;15;16;31,0086984516975;0,517415512106695
"F_556";109;109;97;111;10189,6688857593;0,791966704102526
"F_557";110;99;108;99;4291,01511437867;0,754626715346848
"F_558";75;71;76;70;1964,31259260368;0,692667706708273
"F_559";33;35;31;35;227,595844020651;0,597666766377504
"F_560";46;37;43;35;473,534289710678;0,607079556388311
"F_561";112;116;106;122;4997,0315875873;0,7446425243804
"F_562";69;55;66;55;1523,51557858044;0,670207413205124
"F_563";63;71;62;70;883,1498579123;0,647894935956333
"F_564";41;45;41;47;369,206659339396;0,601837441638635
"F_565";38;35;37;34;368,51789961081;0,598950786909817
"F_566";41;37;40;36;491,144971616155;0,62294741218042
"F_567";49;61;51;63;1023,76873190019;0,631146677898284
"F_568";70;73;74;76;1502,01959711962;0,671483784237944
"F_569";45;49;50;47;513,979019910898;0,608280901156889
"F_570";47;44;47;46;258,221012345045;0,57562662057044
"F_571";82;76;79;71;2653,51698508457;0,698886492158808
"F_572";97;89;89;86;2779,65775625493;0,69746334652083
"F_573";48;47;50;49;520,438530181609;0,625580545843552
"F_574";68;71;68;68;1983,9181579879;0,692067890543824
"F_575";22;20;22;20;54,8499333786925;0,568017057569295
"F_576";52;54;53;56;758,188339671018;0,60386862784606
"F_577";57;65;53;60;2240,65738874401;0,683271587346826
"F_578";67;73;68;80;918,072106162155;0,636339508466479
"F_579";37;30;42;32;168,488747686043;0,578403937083855
"F_580";32;35;31;35;314,343245742926;0,600510945248709
"F_581";42;49;47;52;482,942906063226;0,622591534666321
"F_582";25;21;27;21;129,6952620587;0,547772446881426
"F_583";76;81;76;74;1593,43797600656;0,682260542940073
"F_584";75;76;73;70;1840,76084591732;0,688411622832207
"F_585";113;101;111;94;4432,16626293976;0,733031674208149
"F_586";75;69;74;67;1914,13273329658;0,680788233289802
"F_587";68;66;68;67;565,170608316058;0,608589704538531
"F_588";68;61;67;63;1302,72507569415;0,672614038040736
"F_589";39;40;41;40;174,977454284545;0,568933605429262
"F_590";48;47;47;52;481,153319019683;0,602714932126696
"F_591";49;41;49;42;341,976152511425;0,597696564790346
"F_592";75;86;73;82;2684,70330411904;0,690951008645534
"F_593";21;30;24;33;81,9253372599944;0,551299149229708
"F_594";60;59;61;60;1079,99819295604;0,62787408998062
"F_595";41;38;39;38;182,431121722699;0,578794901506372
"F_596";81;84;81;83;2383,97622496534;0,678514829069505
"F_597";47;43;48;44;556,064810394832;0,633079847908746
"F_598";39;42;41;44;534,00679581339;0,610293743318229
"F_599";97;96;100;96;3957,07234779807;0,727118335658402
"F_600";85;87;88;90;2854,75311109349;0,699906585707616
"F_601";45;55;48;58;650,454223892146;0,65694870670759
"F_602";24;29;26;27;86,9945315608547;0,60135440180587
"F_603";72;79;68;72;2856,44694971368;0,694916236739905
"F_604";39;33;41;33;178,089048053351;0,594053518334983
"F_605";53;50;50;50;761,303260357059;0,62297978485683
"F_606";41;49;42;50;258,054404405103;0,570531125071387
"F_607";101;93;102;88;3546,10171323639;0,710821227394012
"F_608";61;43;58;45;715,785774206759;0,62544999217405
"F_609";31;27;30;27;169,118009506562;0,581546521781311
"F_610";78;88;81;87;2050,9577009496;0,687621888264312
"F_611";63;72;66;73;1192,71027252419;0,674734057522378
"F_612";50;39;52;43;396,840488922491;0,626757986092959
"F_613";66;75;65;68;1672,72410684383;0,670020120724347
"F_614";47;45;53;50;431,048839955869;0,607325599067834
"F_615";37;37;35;35;610,828676895529;0,633213606592015
"F_616";85;78;87;79;2945,83989055292;0,696490820357892
"F_617";92;94;92;102;3120,23791902867;0,706881301963564
"F_618";53;56;54;59;558,974939172256;0,600962502506516
"F_619";44;45;48;44;556,049530171387;0,640453039854689
"F_620";79;70;80;77;2223,07602264138;0,692747760762787
"F_621";50;45;50;46;758,606702009588;0,648876860622467
"F_622";43;47;43;44;548,463405744547;0,631578947368422
"F_623";57;69;59;73;1142,79209088297;0,650284784377546
"F_624";49;45;51;45;285,408339553362;0,596180624627013
"F_625";80;78;78;77;1752,89507521202;0,664891846921798
"F_626";43;31;41;29;334,889305870544;0,624017489979701
"F_627";71;57;70;57;1676,60896003629;0,677671000565298
"F_628";35;32;38;31;216,256597691334;0,59665538522795
"F_629";92;101;93;102;2064,35284332647;0,673483146067419
"F_630";68;70;68;72;961,313728132143;0,650425912864199
"F_631";40;32;41;31;205,418482009671;0,577567932164192
"F_632";103;98;103;99;3578,1180961238;0,706714614160233
"F_633";33;46;33;45;203,07142247194;0,59279038718291
"F_634";50;43;50;43;323,078976892025;0,594849402074132
"F_635";48;47;47;50;485,450025844909;0,609672989879467
"F_636";54;55;49;55;1316,34488993896;0,675608656447258
"F_637";27;23;26;23;156,075962868498;0,546922761074867
"F_638";48;53;51;52;560,1711021293;0,617142857142856
"F_639";48;52;49;52;767,737359545905;0,639121394679322
"F_640";109;100;114;107;2570,85543998422;0,697503927386981
"F_641";49;53;52;58;606,156632761395;0,631612223393046
"F_642";107;97;108;101;3078,75344490831;0,705633056683737
"F_643";42;41;43;42;470,307403544323;0,621107714626186
"F_644";63;75;68;79;1442,69694228439;0,662137531068768
"F_645";38;40;39;41;233,401409358565;0,568313264435384
"F_646";55;68;58;70;688,426445205978;0,642788203753352
"F_647";57;67;58;64;1211,92768877094;0,646218532693658
"F_648";16;21;15;22;62,4927537782984;0,550084889643463
"F_649";80;68;87;70;1321,21408464361;0,645001614118154
"F_650";27;29;27;30;96,1517542776984;0,546822971308672
"F_651";82;85;84;86;2832,36119327924;0,693068162109038
"F_652";60;59;63;63;519,538915323945;0,61555840821566
"F_653";72;83;76;87;1389,2676788137;0,667669172932333
"F_654";68;64;68;64;1225,95475126585;0,650673035171518
"F_655";71;71;68;73;2440,44095287266;0,698072555756136
"F_656";97;90;96;92;2134,49095869183;0,686715930572266
"F_657";45;44;48;45;379,131681284855;0,57246549830476
"F_658";86;88;83;86;1922,13147806885;0,692587671153737
"F_659";26;25;28;26;113,202393075722;0,544018878199311
"F_660";44;43;44;45;463,591169746409;0,593935790725326
"F_661";78;69;81;71;2060,89111325799;0,678553234844627
"F_662";38;46;34;45;643,668733979879;0,628895184135978
"F_663";60;60;57;59;1084,92081939775;0,64527936268705
"F_664";56;61;56;56;1022,24907402011;0,655870445344132
"F_665";101;92;100;94;2639,58812831702;0,699539009161465
"F_666";82;71;85;71;2708,13611912684;0,701914632004217
"F_667";75;70;76;71;1841,12254924187;0,668600111544903
"F_668";56;57;54;55;568,679257323011;0,615116219405818
"F_669";28;27;28;29;130,606348468285;0,557840856212191
"F_670";75;75;72;75;1112,18056373272;0,6779392636996
"F_671";33;34;32;32;295,544870988408;0,606005459508643
"F_672";25;32;26;31;152,244254947308;0,561709305594601
"F_673";29;22;30;23;194,292896266342;0,583840646763744
"F_674";47;50;47;49;581,732939434247;0,609239213294709
"F_675";42;48;48;53;582,015771622894;0,625645843118835
"F_676";77;78;85;78;1634,01072226715;0,660969289298121
"F_677";51;42;53;45;230,682589187706;0,58747427227286
"F_678";91;92;89;92;3215,87911144241;0,706797948234186
"F_679";99;118;103;112;3758,96767453511;0,731644797070497
"F_680";47;41;47;41;461,531545372659;0,58296051351877
"F_681";44;46;43;48;584,295117173658;0,605760485093481
"F_682";35;38;34;37;242,097596555693;0,596952494771436
"F_683";41;43;43;43;442,464076164107;0,619598924953483
"F_684";67;78;68;80;1276,89981575644;0,646811265781808
"F_685";83;98;79;87;3477,61436579025;0,713911386374467
"F_686";76;81;75;78;2553,02349375441;0,702696365767883
"F_687";85;61;85;61;1663,24935881618;0,668152937242226
"F_688";45;47;47;49;459,875468853747;0,614391143911438
"F_689";70;64;70;67;1635,56720668792;0,675380281690142
"F_690";43;43;45;41;1003,67872699554;0,635563566960027
"F_691";91;104;87;101;4170,87353373203;0,722516875602701
"F_692";58;63;55;62;1420,80674194535;0,672878311629996
"F_693";64;53;62;52;843,837575655505;0,658572762731422
"F_694";95;106;98;102;3073,08132354547;0,711580696859977
"F_695";69;74;72;74;1168,98228617368;0,674089068825913
"F_696";34;32;37;33;172,514815799086;0,557140865362271
"F_697";115;115;110;109;5819,3664967249;0,741418764302062
"F_698";72;85;76;88;1503,15940458141;0,667111853088483
"F_699";30;34;27;34;194,507178956843;0,576290741274877
"F_700";74;69;83;72;2068,61565833243;0,672614038040741
"F_701";53;56;51;58;588,953936084274;0,633046417067118
"F_702";46;54;44;50;810,897284441803;0,63674510012217
"F_703";46;51;40;51;506,551976499105;0,612007351439656
"F_704";79;86;71;82;2918,89250982778;0,714421930870087
"F_705";54;56;53;58;734,543801655452;0,619727047146402
"F_706";89;83;87;84;2954,20563961658;0,698479286837966
"F_707";63;61;63;58;737,44169282723;0,620047584566048
"F_708";37;49;37;50;424,295661975765;0,635496183206109
"F_709";33;30;31;33;360,800091794454;0,622817955112221
"F_710";30;35;32;34;161,080803503484;0,568286323773405
"F_711";48;46;51;48;502,600639472937;0,633816220788834
"F_712";65;53;70;54;619,576697317807;0,627709707822808
"F_713";70;71;74;77;1386,65580364312;0,664523281596455
"F_714";39;35;37;37;317,755834898571;0,61423374494031
"F_715";55;54;58;55;771,487051625593;0,649580059604445
"F_716";29;31;32;32;153,792217055066;0,574633304572905
"F_717";61;83;60;85;1910,13056423073;0,671370967741941
"F_718";72;62;79;65;1253,16444283166;0,656624856219534
"F_719";43;42;43;44;495,764689224304;0,589844518795512
"F_720";34;27;34;28;178,906718336449;0,575184723155166
"F_721";71;65;70;65;1550,8919468801;0,658247309466288
"F_722";78;78;79;83;2253,88851582676;0,68545943164275
"F_723";65;56;65;56;639,322510518719;0,624537640010419
"F_724";29;38;29;39;221,065897664265;0,572875848227085
"F_725";90;89;92;89;3136,39395436276;0,701421800947868
"F_726";44;48;46;50;336,11465947557;0,60874422383588
"F_727";49;49;50;56;630,068274157407;0,615495199466036
"F_728";36;31;37;32;224,341017056163;0,566112580279561
"F_729";53;51;52;51;367,530360543338;0,617206404777839
"F_730";70;73;72;73;1615,73889751195;0,658536585365856
"F_731";62;63;62;64;748,588612255686;0,627874089980621
"F_732";76;77;76;75;2474,15127915702;0,69266770670827
"F_733";45;53;46;54;421,95419710329;0,620593259822953
"F_734";66;67;68;65;1178,68955457948;0,649333766655839
"F_735";51;58;55;58;914,396304412939;0,625058657907085
"F_736";43;54;44;55;491,782711844285;0,627053039020818
"F_737";48;40;51;40;640,169002851878;0,624667813037365
"F_738";49;50;53;53;449,967342462035;0,617460726242595
"F_739";97;102;91;101;3539,11384525064;0,73030764544624
"F_740";84;89;82;88;3096,51049560233;0,715146453498783
"F_741";96;87;91;88;2278,43507333667;0,684832904884322
"F_742";66;80;73;87;1908,1704069101;0,692107845967329
"F_743";74;74;75;74;1937,53761943074;0,677900927392
"F_744";29;29;30;30;88,4296141021133;0,549983942744414
"F_745";69;63;66;63;1215,68737580909;0,661589403973512
"F_746";68;65;61;59;1151,81126287525;0,658030519266662
"F_747";78;84;77;83;1802,05347958071;0,652053304324179
"F_748";33;28;33;27;185,929749323463;0,588108320251177
"F_749";76;64;75;66;1318,40232235599;0,666555462885745
"F_750";61;66;66;67;732,246922355396;0,61435965766412
"F_751";48;51;49;52;419,841129168222;0,629522659244867
"F_752";42;43;40;44;718,096121529824;0,644966912358104
"F_753";97;92;97;91;3016,49126737042;0,703934233705231
"F_754";39;41;37;42;364,440806062087;0,616952292728115
"F_755";111;100;102;93;4032,40223211614;0,718489661372492
"F_756";71;66;70;65;1972,67754136754;0,686008583690991
"F_757";40;44;39;45;376,696904036418;0,630018919487072
"F_758";86;78;92;82;1943,63253602608;0,675000000000001
"F_759";37;38;38;40;268,550210120395;0,593788696815097
"F_760";67;62;69;65;625,347061996697;0,622753246753246
"F_761";32;31;33;32;168,128107844417;0,550539609644087
"F_762";74;79;78;78;1908,76365277973;0,683856246434687
"F_763";37;34;39;35;302,5609109609;0,588454741802472
"F_764";50;50;53;57;489,926046255926;0,624212444675866
"F_765";63;57;65;56;1669,28633674422;0,685146025032868
"F_766";96;107;94;106;2952,96996142681;0,71476269973766
"F_767";96;86;96;92;2188,24531697145;0,690195175312342
"F_768";25;22;25;23;87,7356007985309;0,540828295587838
"F_769";30;37;31;36;246,528751265881;0,580954688635812
"F_770";38;41;40;45;429,672504243441;0,598831110445076
"F_771";34;41;35;43;313,682919865038;0,584980237154149
"F_772";44;37;43;40;463,981987005333;0,611414290814504
"F_773";59;56;61;60;938,546311348783;0,639428205675273
"F_774";34;38;33;37;247,914356436535;0,585952392590057
"F_775";62;55;64;55;809,335520838883;0,626889086440412
"F_776";43;37;43;41;282,454514513499;0,570124126123555
"F_777";70;61;70;65;1241,74682268303;0,649650463339296
"F_778";37;28;42;28;194,231291642574;0,569744783993155
"F_779";50;56;53;64;1029,23008381105;0,627578264056119
"F_780";35;48;35;47;640,14362357525;0,676256557793201
"F_781";63;70;70;70;1414,39136838101;0,647055648512983
"F_782";22;21;22;22;73,9497408273832;0,566487099518003
"F_783";42;49;43;48;308,095583388421;0,598980713500549
"F_784";47;38;45;41;453,326057299786;0,62033635187581
"F_785";39;39;39;42;347,431195062198;0,624472573839664
"F_786";85;85;82;85;3370,909746451;0,700601951960729
"F_787";80;74;78;75;2097,76871894542;0,676829268292685
"F_788";27;40;27;40;321,866793076442;0,581095492001938
"F_789";58;61;58;65;619,490909643916;0,630217642729472
"F_790";67;78;67;76;1594,64123215977;0,690393918451972
"F_791";64;72;69;74;859,909068187149;0,656193551918552
"F_792";81;72;79;73;1913,42804810277;0,683973298339706
"F_793";52;47;51;47;591,094889529631;0,607233309695065
"F_794";48;40;48;39;485,527068353309;0,616096207215541
"F_795";40;38;39;37;235,012145185477;0,594141844674628
"F_796";83;70;81;69;2433,63656897871;0,708678174509345
"F_797";58;66;59;63;1368,74180140443;0,673748103186648
"F_798";79;84;79;90;1944,86579907078;0,685537828100876
"F_799";38;31;39;32;184,069883923309;0,567640513281878
"F_800";64;67;64;70;1028,04072826234;0,635159478647875
"F_801";31;30;28;29;267,235621456934;0,582337510929757
"F_802";77;77;78;75;1520,66023707047;0,670207413205122
"F_803";35;39;37;41;564,254640242364;0,58089838639337
"F_804";33;24;31;26;307,666039076238;0,595943527540265
"F_805";76;73;78;71;1012,25345664908;0,673218397259507
"F_806";37;33;40;36;179,100954827537;0,583982852689009
"F_807";92;97;89;91;3810,27778262161;0,731734114631024
"F_808";40;37;42;37;218,979799542856;0,57543320693131
"F_809";64;71;64;66;1689,84245375318;0,680131623737665
"F_810";78;89;82;87;2464,08681547806;0,690075984342621
"F_811";54;50;57;52;952,323467642623;0,646497330529044
"F_812";77;70;80;69;2056,75794419555;0,694232105628913
"F_813";45;47;45;49;450,482009771712;0,598711481795934
"F_814";35;36;39;37;297,735254645921;0,594230197283631
"F_815";58;59;56;58;773,430280381351;0,627611119836658
"F_816";65;62;68;61;599,120737221466;0,624147446243556
"F_817";35;37;36;41;211,172719858233;0,571919278660368
"F_818";37;38;38;37;168,940215315613;0,584466871434839
"F_819";48;39;52;37;263,554709287164;0,593201049037557
"F_820";75;74;72;76;1466,8048919055;0,657344958052313
"F_821";37;43;35;40;307,060938168961;0,636305732484078
"F_822";40;37;38;37;151,173157210544;0,572356170923847
"F_823";31;31;32;32;172,205792862871;0,561078348778432
"F_824";43;44;42;43;309,744781009897;0,597011952191234
"F_825";32;34;32;35;114,110282868415;0,577902043964519
"F_826";84;88;83;87;3022,42028254096;0,712722948870395
"F_827";77;75;80;77;1321,2808403328;0,660969289298123
"F_828";64;72;66;70;1569,67386238157;0,70609023442102
"F_829";72;74;77;79;514,322887924996;0,614233744940307
"F_830";40;40;43;39;257,614896611791;0,610138436482084
"F_831";51;59;48;54;620,117429458505;0,640521478948494
"F_832";51;46;50;44;419,376270389975;0,60320016101439
"F_833";57;43;60;46;400,798627761259;0,603899047906905
"F_834";26;30;28;31;194,448433357592;0,542394353452177
"F_835";60;59;58;60;1178,34850874496;0,637761344895465
"F_836";105;97;105;95;3346,62392080248;0,71506113927826
"F_837";79;65;78;63;1149,27153327875;0,683466362599778
"F_838";44;40;41;40;452,203377975587;0,627676841719463
"F_839";28;44;29;43;362,694549589529;0,603777386048853
"F_840";62;65;64;68;882,996545684308;0,646881070580618
"F_841";46;36;47;36;211,173042737432;0,594200743494422
"F_842";32;32;34;34;243,321764625943;0,58578060102614
"F_843";46;50;50;52;439,982937483964;0,615116219405817
"F_844";56;60;54;56;561,481744716351;0,620207977650162
"F_845";59;60;62;62;734,950426041497;0,632345184091149
"F_846";99;101;103;95;4720,41039292824;0,713104514900959
"F_847";89;92;91;89;3750,18567773228;0,711158569140418
"F_848";77;82;77;85;1607,13924504034;0,663383321343592
"F_849";51;47;51;47;659,228338790901;0,623012160898035
"F_850";31;31;33;35;195,947318677002;0,565151800867432
"F_851";31;31;34;35;236,673219675329;0,58211129455181
"F_852";44;44;44;44;392,645386864935;0,61316556697867
"F_853";60;55;60;61;707,670130107563;0,630085146641438
"F_854";47;52;51;57;707,236341546644;0,625319492984196
"F_855";68;77;68;71;1808,28967121101;0,715658766640799
"F_856";79;82;78;83;2246,79845422366;0,696531288129686
"F_857";66;57;70;65;461,841958210264;0,607479477044693
"F_858";44;50;44;52;529,620093659152;0,591124260355029
"F_859";60;63;62;62;815,464623336499;0,629754150031518
"F_860";38;35;39;36;321,803055401002;0,589235684443351
"F_861";65;54;63;52;2062,81734729464;0,652585737615679
"F_862";77;57;76;54;1087,94123524493;0,660386712940012
"F_863";89;98;94;96;4268,02541371894;0,71145400593472
"F_864";61;65;63;68;1100,25329009136;0,64737012636354
"F_865";45;54;48;59;787,047896108302;0,61800185586143
"F_866";40;46;38;45;262,416507560084;0,588108320251176
"F_867";72;69;68;71;1488,48357925672;0,700029197080296
"F_868";47;45;52;47;324,327024053868;0,603838210849745
"F_869";58;56;57;56;513,959295559399;0,630052031323908
"F_870";69;67;68;63;892,805677836118;0,65301231070923
"F_871";65;74;68;76;1760,59660597059;0,672425398249946
"F_872";25;22;28;24;208,50105526792;0,573533633145153
"F_873";44;46;45;49;415,392271510837;0,597994712425799
"F_874";54;48;54;49;683,861333178485;0,644758780186093
"F_875";70;59;69;57;1146,60492243787;0,631678785962693
"F_876";93;92;88;90;2807,83876102911;0,725929514351464
"F_877";72;79;75;78;2202,20740838921;0,662576687116567
"F_878";102;105;104;100;3926,56502817592;0,729374543684596
"F_879";45;52;49;54;302,030501926309;0,588454741802473
"F_880";44;39;46;42;200,513458783181;0,579186394820755
"F_881";74;66;76;67;1093,6977338476;0,629721069496243
"F_882";47;48;46;47;389,91556578931;0,621300855143819
"F_883";25;20;26;19;104,917344706137;0,56651386985492
"F_884";50;47;48;46;709,147205725476;0,637863147813133
"F_885";56;56;53;55;472,006609421894;0,642340459733164
"F_886";25;26;27;29;122,084109186852;0,560029898159394
"F_887";15;20;15;20;38,2428110387265;0,528571428571429
"F_888";78;80;78;78;2115,21648216888;0,686479986256659
"F_889";55;53;53;56;663,039257231273;0,62843363388551
"F_890";84;84;86;80;2294,76409278954;0,702120182733983
"F_891";98;90;97;90;1981,22901518486;0,661589403973512
"F_892";85;80;84;76;2071,55945037915;0,67774762550882
"F_893";104;95;107;92;2924,70120392923;0,690592776081573
"F_894";58;66;57;60;1225,18977514337;0,673899600876949
"F_895";50;47;50;48;576,459602686981;0,635327786316181
"F_896";90;74;90;72;2474,53830725516;0,677785944478998
"F_897";80;86;73;84;1966,74121517786;0,683154775472993
"F_898";46;41;43;38;281,472577878727;0,584381398069609
"F_899";72;76;80;83;1106,43640495636;0,648175182481753
"F_900";108;100;108;101;3471,66765386387;0,719093035810692
"F_901";31;34;35;39;234,149575998947;0,568394101749561
"F_902";43;51;46;54;298,889821582719;0,601083032490974
"F_903";58;61;65;67;621,739035631395;0,627545411715437
"F_904";83;84;89;79;2370,23579902387;0,69872355306872
"F_905";54;41;55;40;353,515295450418;0,596477261419045
"F_906";36;37;36;41;206,930844816796;0,593612280267392
"F_907";53;59;55;62;1064,2692060672;0,643305607727396
"F_908";99;83;103;78;2486,24217188477;0,693549320219846
"F_909";96;100;96;102;3447,67650755836;0,716214601505561
"F_910";59;58;57;59;1058,05170673802;0,643823845327606
"F_911";62;61;62;64;1633,00684359889;0,671220604703252
"F_912";37;46;37;43;290,395542838222;0,599250187453136
"F_913";44;42;43;42;732,121477387906;0,651415530076622
"F_914";94;97;97;96;3044,4755499896;0,688411622832205
"F_915";80;90;74;84;2064,01484105014;0,697098331104263
"F_916";80;90;83;87;1490,43075028967;0,674620146314017
"F_917";86;80;89;77;1985,16057538657;0,678591644967736
"F_918";44;49;46;46;413,824661491335;0,60585232728559
"F_919";63;76;63;76;2089,57755318041;0,686991404011465
"F_920";28;28;28;29;204,281200123031;0,573341623224448
"F_921";107;94;106;91;2329,29597926708;0,707089772325117
"F_922";68;78;69;82;1132,49528417807;0,655511811023624
"F_923";53;44;53;47;645,907752359093;0,63234518409115
"F_924";57;69;58;67;1008,12470908416;0,633950290851403
"F_925";46;47;45;44;422,222565546662;0,60692588092345
"F_926";27;26;29;25;249,859211440379;0,596893049193386
"F_927";57;48;56;48;646,794720800939;0,635968169761274
"F_928";45;41;48;41;522,576728396321;0,615716486902928
"F_929";69;68;73;74;1738,14453470382;0,639530541477728
"F_930";59;56;61;60;811,02539568308;0,648490749756574
"F_931";101;115;97;105;4994,37081611439;0,750422535211269
"F_932";50;36;53;37;296,724797220762;0,591970766875709
"F_933";84;82;84;81;2410,12715296089;0,684051355206848
"F_934";80;75;82;76;2393,05760066972;0,680208806173401
"F_935";49;46;54;46;562,75997847904;0,624570178180681
"F_936";33;41;33;40;186,729227466694;0,606956609791908
"F_937";47;40;50;41;328,363110264642;0,59736894558501
"F_938";78;86;74;86;2616,80915616952;0,708552514924052
"F_939";32;36;31;35;220,739021248032;0,586267605633802
"F_940";37;34;39;34;328,154705761958;0,613919188815486
"F_941";41;34;41;35;329,953505448669;0,592029236011654
"F_942";39;38;36;37;350,414894062141;0,621397470454075
"F_943";70;73;66;68;2457,60449270864;0,70347984273224
"F_944";75;60;78;64;2059,29537023549;0,689520303692631
"F_945";78;82;77;81;3189,60304659857;0,71685702326138
"F_946";69;72;70;80;1999,09865215921;0,677862595419852
"F_947";71;78;74;82;1546,44794348737;0,665039387551319
"F_948";67;59;64;61;1123,37560528876;0,666074008223138
"F_949";31;36;32;39;362,62194108563;0,597339179829587
"F_950";49;34;52;35;240,397351860286;0,581405499781754
"F_951";81;92;77;92;2239,192889272;0,690632561354997
"F_952";88;71;93;72;2291,6307947844;0,687227700068798
"F_953";75;80;71;80;1981,98170927642;0,672765026095742
"F_954";45;56;45;57;437,01695209246;0,60948701001576
"F_955";68;70;68;68;2446,77074930082;0,688332567753791
"F_956";41;49;39;48;613,215036794337;0,609548990695072
"F_957";40;34;38;31;153,176458633533;0,588946204863669
"F_958";57;58;54;56;779,054091603792;0,636069400965672
"F_959";67;54;69;56;615,590792646313;0,627315541601257
"F_960";58;73;61;73;979,23627399743;0,652870057727918
"F_961";57;50;60;48;654,44414861467;0,62314169872128
"F_962";62;72;62;74;1511,31034603861;0,671822461331541
"F_963";64;64;66;68;663,836466789052;0,641378203413409
"F_964";41;32;45;35;494,902962178121;0,626463210702342
"F_965";59;66;52;62;1117,84704287674;0,665076282940368
"F_966";47;47;46;49;709,732001401015;0,617556150834534
"F_967";53;59;52;57;1865,88735895296;0,693669714153459
"F_968";30;26;29;26;202,270578698088;0,58865700957525
"F_969";20;21;22;22;65,3140503823805;0,535274156099304
"F_970";21;17;20;17;52,2064327193275;0,522648995073463
"F_971";46;48;42;48;415,319601272352;0,60265433340036
"F_972";71;73;70;65;2332,18154206918;0,722691102001451
"F_973";81;70;82;67;2242,62054146227;0,688609339996558
"F_974";38;37;35;40;284,277453208536;0,583471235276939
"F_975";72;87;73;89;2000,12434623819;0,676600067727735
"F_976";88;69;86;68;2518,70342927912;0,682532452744255
"F_977";66;67;67;69;1333,02508933384;0,641893339044765
"F_978";64;72;74;73;1225,70474425228;0,666518403202492
"F_979";53;48;51;51;562,766784012832;0,623563068920676
"F_980";40;30;42;31;202,969465105782;0,583755356447214
"F_981";77;60;81;59;1248,89881268101;0,655619360131256
"F_982";105;109;102;109;4600,4905971953;0,708468766621359
"F_983";26;21;27;22;132,883719019796;0,567022987418407
"F_984";62;68;59;66;896,676883221906;0,652870057727918
"F_985";38;36;38;36;468,102888239439;0,623303696771176
"F_986";44;40;41;40;415,996036344467;0,609703997558741
"F_987";90;84;86;84;2402,08473912298;0,685930079533102
"F_988";83;84;86;85;2632,6687763374;0,697301070265244
"F_989";27;33;30;35;166,707451969979;0,548951369173001
"F_990";65;71;69;65;1336,8337131726;0,66841371619738
"F_991";67;52;67;54;423,093814571297;0,599729851418279
"F_992";78;81;79;79;2200,22888398491;0,708301329394392
"F_993";60;58;60;57;816,82474239256;0,627315541601256
"F_994";65;64;65;64;1036,92920920568;0,652870057727918
"F_995";93;100;96;102;3323,67979307563;0,726986052152823
"F_996";29;24;30;24;132,851652466215;0,550261635912972
"F_997";90;93;91;93;2864,38794571501;0,700397289086237
"F_998";61;57;58;61;1411,76965215532;0,678899082568816
"F_999";63;55;69;59;580,089172217614;0,614422633386294
"F_1000";85;81;86;77;3510,93515693582;0,7070480684164
