"ID";"index"
"R_1";0,1
"R_2";0,1925
"R_3";0,183333333333333
"R_4";0,165
"R_5";0,105
"R_6";0,24
"R_7";0,105
"R_8";0,09
"R_9";0,14
"R_10";0,095
"R_11";0,1
"R_12";0,0425
"R_13";0,1925
"R_14";0,281666666666667
"R_15";0,1
"R_16";0,216666666666667
"R_17";0,210833333333333
"R_18";0,1575
"R_19";0,1
"R_20";0,268333333333333
"R_21";0,191666666666667
"R_22";0,11
"R_23";0,35
"R_24";0,315
"R_25";0,0125
"R_26";0,183333333333333
"R_27";0,095
"R_28";0,1725
"R_29";0,3375
"R_30";0,158333333333333
"R_31";0,153333333333333
"R_32";0,153333333333333
"R_33";0,095
"R_34";0,210833333333333
"R_35";0,281666666666667
"R_36";0,09
"R_37";0,23
"R_38";0,133333333333333
"R_39";0,210833333333333
"R_40";0,166666666666667
"R_41";0,210833333333333
"R_42";0,0833333333333333
"R_43";0,0566666666666667
"R_44";0,1725
"R_45";0,26
"R_46";0,110833333333333
"R_47";0,0791666666666667
"R_48";0,0791666666666667
"R_49";0,26
"R_50";0,26
"R_51";0,2
"R_52";0,229166666666667
"R_53";0,281666666666667
"R_54";0,28
"R_55";0,24
"R_56";0,1725
"R_57";0,346666666666667
"R_58";0,229166666666667
"R_59";0,26
"R_60";0,085
"R_61";0,24
"R_62";0,256666666666667
"R_63";0,116666666666667
"R_64";0,23
"R_65";0,183333333333333
"R_66";0,191666666666667
"R_67";0,18
"R_68";0,2925
"R_69";0,1575
"R_70";0,14
"R_71";0,2
"R_72";0,1725
"R_73";0,105
"R_74";0,191666666666667
"R_75";0,05
"R_76";0,075
"R_77";0,0791666666666667
"R_78";0,229166666666667
"R_79";0,075
"R_80";0,0991666666666667
