"Roost";"In";"Out";"InLink";"OutLink";"Betweeness";"Closeness"
"R_1";20;20;7;7;34,2761904761905;0,525207756232687
"R_2";26;26;14;12;366,60119047619;0,597353497164461
"R_3";25;25;10;11;186,966017316017;0,586633663366337
"R_4";24;24;12;12;375,008766233766;0,590286425902864
"R_5";23;23;9;11;197,114285714286;0,599620493358634
"R_6";21;22;9;9;19,1100732600733;0,530498041410185
"R_7";17;17;6;7;2,08333333333333;0,386780905752754
"R_8";19;19;5;5;20,7333333333333;0,419283502874834
"R_9";26;26;13;15;201,781060606061;0,593241551939925
"R_10";20;20;7;9;69,4166666666667;0,55406195207481
"R_11";24;24;7;9;83,9166666666667;0,522601984564498
"R_12";20;20;8;8;17,2261904761905;0,518032786885246
"R_13";26;26;10;13;535,857450882451;0,647098976109215
"R_14";21;21;8;11;3,19285714285714;0,488911810211449
"R_15";23;23;10;11;271,687296037296;0,660627177700349
"R_16";27;27;12;11;139,195238095238;0,554710356933879
"R_17";24;24;11;9;278,655627705628;0,649315068493151
"R_18";19;19;5;5;0;0,469074715487382
"R_19";20;20;7;8;15,0928571428571;0,484414920797139
"R_20";22;22;9;8;59,9531135531136;0,496595075955998
"R_21";23;23;12;9;94,1011904761905;0,59435736677116
"R_22";19;18;8;8;0;0,438888888888889
"R_23";20;20;11;9;74,7465950715951;0,589919103920349
"R_24";19;19;6;6;62,0845238095238;0,493492972410203
"R_25";20;20;4;5;37,3928571428571;0,485158648925281
"R_26";22;22;11;11;242,375;0,619607843137255
"R_27";21;21;6;7;108,316666666667;0,450570342205323
"R_28";21;21;9;10;40,2;0,52549889135255
"R_29";22;21;12;11;268,586063936064;0,582667486170867
"R_30";17;18;6;5;78,5325757575758;0,49581589958159
"R_31";22;22;8;8;275,911904761905;0,612798965740142
"R_32";26;26;13;12;547,512121212121;0,704309063893017
"R_33";19;19;7;6;29,2666666666667;0,434463794683776
"R_34";19;19;5;5;59,25;0,549565217391304
"R_35";22;22;11;10;229,980952380952;0,534385569334836
"R_36";18;18;3;4;4;0,484414920797139
"R_37";25;25;15;15;424,585647685648;0,654696132596685
"R_38";21;21;9;9;104,102380952381;0,549883990719258
"R_39";23;23;11;10;753,984998334998;0,700147710487445
"R_40";21;22;9;10;763,173809523809;0,724216959511077
"R_41";21;21;9;8;77,0440226440226;0,460865337870686
"R_42";23;23;9;10;387,466666666667;0,620013080444735
"R_43";16;16;2;2;0;0,380570052187876
"R_44";25;25;14;15;1080,83435730936;0,768856447688565
"R_45";24;24;11;11;167,945238095238;0,570397111913357
"R_46";20;20;8;8;149,026623376623;0,464023494860499
"R_47";17;17;3;3;0;0,392059553349876
"R_48";19;19;5;5;0;0,393524283935243
"R_49";26;26;14;11;221,552355977356;0,60536398467433
"R_50";23;23;10;9;506,37987012987;0,657876474670368
"R_51";22;23;13;11;152,889285714286;0,567324955116697
"R_52";23;22;13;12;87,9512737262737;0,614785992217899
"R_53";24;24;13;14;133,402380952381;0,621231979030144
"R_54";27;27;12;11;636,029761904762;0,70326409495549
"R_55";19;18;5;5;1,25;0,47117296222664
"R_56";19;20;5;7;71,8833333333333;0,515778019586507
"R_57";25;25;10;6;50,2350649350649;0,536199095022625
"R_58";25;25;10;11;346,909523809524;0,629482071713148
"R_59";21;21;8;7;39,3166416916417;0,5639500297442
"R_60";18;18;4;4;23,5107142857143;0,55406195207481
"R_61";23;23;9;8;520,520512820513;0,649315068493151
"R_62";24;24;9;10;130,166666666667;0,582667486170867
"R_63";23;23;10;7;155,824242424242;0,437067773167358
"R_64";23;23;12;15;330,232359307359;0,638814016172507
"R_65";24;24;11;12;90,4714285714286;0,571773220747889
"R_66";25;25;13;12;179,507142857143;0,585908529048208
"R_67";18;18;6;5;64,3380952380952;0,549883990719258
"R_68";21;20;9;9;64,5238095238095;0,495039164490861
"R_69";21;20;9;10;300,965476190476;0,626984126984127
"R_70";30;29;16;16;540,187587412588;0,650205761316872
"R_71";22;22;9;7;127,835714285714;0,595851665619108
"R_72";20;20;5;8;22,8583333333333;0,552769679300292
"R_73";19;19;7;7;69,8940476190476;0,518316019682887
"R_74";22;22;10;9;86,5;0,571428571428572
"R_75";23;23;11;9;91,2444805194805;0,537110481586402
"R_76";22;22;4;6;31,3909090909091;0,435261707988981
"R_77";26;26;10;11;621,538095238095;0,609646302250804
"R_78";24;24;12;11;106,309523809524;0,579462102689487
"R_79";20;20;8;10;108,30119047619;0,534686971235195
"R_80";18;18;6;6;2,16666666666667;0,505330490405117
