"Roost";"In";"Out";"InLink";"OutLink";"Betweeness";"Closeness"
"R_1";19;19;7;7;111,135714285714;0,533483398987057
"R_2";23;23;9;8;118,602380952381;0,582667486170867
"R_3";21;21;8;8;1;0,457971014492754
"R_4";20;20;8;12;57,6039682539683;0,5925
"R_5";24;23;12;8;273,439285714286;0,626155878467636
"R_6";25;25;15;14;609,181301739196;0,628230616302187
"R_7";18;18;6;5;9,38030303030303;0,44674835061263
"R_8";18;18;4;5;0,25;0,377388535031847
"R_9";22;22;11;10;163,413528138528;0,627814569536424
"R_10";20;20;5;4;7,85;0,466995073891626
"R_11";20;20;7;7;6,83333333333333;0,491191709844559
"R_12";20;19;6;6;5,75;0,502917771883289
"R_13";22;22;10;11;124,207794836742;0,586633663366337
"R_14";26;26;9;10;374,919047619048;0,559622195985833
"R_15";20;20;11;10;105,061665089297;0,608472400513479
"R_16";22;22;9;9;166,169047619048;0,5287228109314
"R_17";23;23;11;14;306,726623376623;0,6484268125855
"R_18";20;20;6;7;17,9554093567251;0,49119170984456
"R_19";20;20;5;7;278,383333333333;0,559952746603662
"R_20";25;25;11;10;688,159965034965;0,635814889336016
"R_21";24;24;14;15;382,923809523809;0,627399073461284
"R_22";17;17;3;3;12,75;0,507494646680942
"R_23";27;27;13;11;550,057860560492;0,679083094555874
"R_24";19;19;4;4;32;0,425302826379543
"R_25";17;17;4;2;3;0,349815498154981
"R_26";22;22;9;9;231,606385281385;0,671863926293409
"R_27";21;22;8;7;67,2336302586303;0,492467532467533
"R_28";22;22;8;7;96,9666666666667;0,503451938396176
"R_29";27;27;13;13;576,276435406698;0,637525218560861
"R_30";18;18;8;6;1,53333333333333;0,5
"R_31";27;27;13;14;966,881435231435;0,68299711815562
"R_32";25;25;13;14;514,515975690976;0,712246431254696
"R_33";20;20;10;9;83,4619047619048;0,477101157523905
"R_34";22;22;7;8;65,4166666666667;0,505330490405117
"R_35";20;20;10;11;96,1020467836257;0,511051212938005
"R_36";22;22;8;8;71,8547619047619;0,533783783783784
"R_37";26;26;13;14;342,371026049974;0,677626876340243
"R_38";18;18;6;7;5,13571428571429;0,495556717198118
"R_39";23;23;12;13;119,450286701602;0,61598440545809
"R_40";21;21;10;9;550,623809523809;0,646216768916156
"R_41";17;17;6;8;0,333333333333333;0,49375
"R_42";17;17;4;4;2,33333333333333;0,433470507544582
"R_43";16;16;3;3;1,2;0,346238130021914
"R_44";26;26;10;11;402,964835164835;0,703786191536749
"R_45";20;20;6;6;2,75;0,450999048525214
"R_46";22;22;9;10;272,56602374234;0,517749863462589
"R_47";18;18;4;4;0,392857142857143;0,402889927751806
"R_48";19;19;7;6;1;0,438280166435506
"R_49";25;25;11;10;374,128571428571;0,562945368171021
"R_50";24;24;9;11;416,635714285714;0,584824182603331
"R_51";20;20;11;10;117,333333333333;0,495297805642633
"R_52";21;22;12;12;161,428034830666;0,637954239569314
"R_53";17;17;8;7;33,5333333333333;0,544514646754738
"R_54";22;22;10;9;409,860689310689;0,632843791722297
"R_55";23;23;9;10;196,22619047619;0,599620493358634
"R_56";21;21;8;8;90,4692275560697;0,55406195207481
"R_57";19;19;6;6;18,4;0,477822580645161
"R_58";23;24;12;12;497,873809523809;0,600760456273764
"R_59";21;21;11;9;202,133333333333;0,577696526508227
"R_60";16;16;4;6;85,897619047619;0,411815812337098
"R_61";22;22;10;9;365,776406926407;0,603437301082113
"R_62";19;19;6;6;0,5;0,455769230769231
"R_63";23;23;9;9;35,3;0,513821138211382
"R_64";22;22;14;13;324,977380952381;0,637954239569314
"R_65";21;21;11;10;464,278571428571;0,606525911708253
"R_66";25;25;9;9;445,952380952381;0,61598440545809
"R_67";16;16;3;3;79;0,441135411819451
"R_68";23;23;9;9;193,453787878788;0,547028274668206
"R_69";19;19;5;7;175,933333333333;0,559952746603662
"R_70";20;20;11;12;353,287843443107;0,676176890156919
"R_71";20;20;10;9;185,033333333333;0,544514646754739
"R_72";24;24;11;11;80,5503920056552;0,632843791722297
"R_73";16;16;2;2;0;0,378141204627044
"R_74";18;18;4;2;0;0,408620689655172
"R_75";22;22;4;5;47,7;0,513542795232936
"R_76";21;21;6;6;28,9166666666667;0,465847665847666
"R_77";21;20;9;9;199,565476190476;0,567324955116697
"R_78";23;23;10;11;277,121703296703;0,657876474670368
"R_79";17;17;3;2;0;0,395164651938308
"R_80";20;19;7;7;177,916666666667;0,488911810211449
