"Roost";"In";"Out";"InLink";"OutLink";"Betweeness";"Closeness"
"R_1";25;25;11;9;34,7095238095238;0,47859450726979
"R_2";19;19;8;6;94,3797619047619;0,605983124520583
"R_3";21;21;9;8;115,783333333333;0,537719795802609
"R_4";23;23;15;15;268,835714285714;0,630990415335463
"R_5";21;21;11;12;838,436796536797;0,672817601135558
"R_6";23;23;11;12;76,1178571428571;0,609724723437098
"R_7";19;19;4;4;194,233333333333;0,514825676115999
"R_8";17;17;4;4;4,33333333333333;0,425990833108655
"R_9";23;24;8;8;107,166666666667;0,609254498714653
"R_10";21;21;7;6;139,682142857143;0,50516892251945
"R_11";20;20;9;9;65,5833333333333;0,475235612592741
"R_12";26;26;11;11;275,996428571429;0,687753917585607
"R_13";26;26;12;11;47,4785714285714;0,601522842639594
"R_14";25;25;11;12;244,819047619048;0,731594381849051
"R_15";27;27;12;11;520,074404761905;0,716661626852132
"R_16";20;20;6;9;198,316883116883;0,520478752607884
"R_17";24;25;14;17;1114,72489177489;0,758521363418147
"R_18";22;23;9;9;113,683333333333;0,497951465490073
"R_19";18;18;7;6;52,3547619047619;0,4360625574977
"R_20";21;21;9;7;43,9285714285714;0,537414965986394
"R_21";22;22;12;13;58,0833333333333;0,592870544090056
"R_22";26;26;14;11;235,192857142857;0,63641245972073
"R_23";25;25;11;12;659,438636363636;0,744229863400848
"R_24";23;23;8;10;140,183333333333;0,618879749314532
"R_25";18;18;4;3;103,75;0,391250515889393
"R_26";27;27;14;14;613,138852813853;0,701910262105731
"R_27";22;22;10;9;25,6261904761905;0,466443613461917
"R_28";17;17;8;7;5,68333333333333;0,470564876402264
"R_29";17;17;3;4;0;0,352678571428572
"R_30";25;25;14;15;307,469047619048;0,665730337078652
"R_31";19;19;7;6;2,5;0,553092182030338
"R_32";24;24;10;13;22,25;0,64271186440678
"R_33";20;20;7;7;21;0,505492161672177
"R_34";19;19;6;5;15,3333333333333;0,525207756232687
"R_35";23;23;11;10;132,278571428571;0,565025628799619
"R_36";19;19;5;5;160,110714285714;0,585763717251606
"R_37";21;22;7;6;7,65;0,462935833577498
"R_38";19;19;7;7;20,8651515151515;0,436343551505109
"R_39";21;21;7;7;90,646645021645;0,59931723353142
"R_40";27;26;14;11;237,328571428571;0,673295454545454
"R_41";16;16;4;6;172,066666666667;0,520021941854087
"R_42";18;17;6;6;3,33333333333333;0,471641791044776
"R_43";15;15;3;3;1,5;0,289200732153752
"R_44";17;17;3;4;50,25;0,390605686032139
"R_45";24;24;9;10;75,3568181818182;0,589185829707893
"R_46";24;24;10;12;127,802380952381;0,547533787686266
"R_47";20;20;6;6;7,7;0,497951465490073
"R_48";26;26;14;15;764,521428571428;0,666479190101237
"R_49";19;19;7;6;4,91515151515152;0,48160942897785
"R_50";19;19;6;6;92,5666666666667;0,578754578754579
"R_51";21;21;9;9;471,442857142857;0,70756829377519
"R_52";25;25;12;13;303,940476190476;0,643584521384929
"R_53";23;22;10;6;464,127380952381;0,599241466498103
"R_54";27;27;10;11;181,430303030303;0,595851665619108
"R_55";20;20;5;5;61,5333333333333;0,379929464571978
"R_56";18;18;6;7;41,8666666666667;0,483081940481044
"R_57";21;21;7;5;38,2636363636364;0,503077902780726
"R_58";20;20;8;10;115,295454545455;0,494419526442057
"R_59";19;19;6;8;53,2482142857143;0,48273754964864
"R_60";26;25;10;10;120,12619047619;0,623438116532948
"R_61";22;22;11;11;136,316666666667;0,626569729015202
"R_62";26;26;15;13;185,166666666667;0,605441307957594
"R_63";18;18;9;8;325,896428571429;0,506680919294495
"R_64";25;25;12;12;320,275;0,660719264008921
"R_65";17;17;4;3;0,5;0,354101299865531
"R_66";24;24;10;12;43,7702380952381;0,580811175101091
"R_67";25;25;14;13;130,52380952381;0,586633663366337
"R_68";29;29;13;15;692,944588744589;0,745048726815467
"R_69";16;16;2;4;0,333333333333333;0,38555392874573
"R_70";24;24;11;13;196,067857142857;0,585546633724521
"R_71";33;34;18;16;1520,23376623377;0,794102864801474
"R_72";20;20;6;5;52,3469696969697;0,507820869937862
"R_73";20;20;7;7;80,5880952380952;0,559490084985836
"R_74";16;16;2;2;0;0,405301410859342
"R_75";20;20;9;8;508,009523809524;0,583241048357327
"R_76";19;19;5;5;154,2;0,447761194029851
"R_77";24;24;13;12;302,294047619048;0,567732662594323
"R_78";23;23;13;13;73,5839285714286;0,646040616055609
"R_79";21;21;6;8;62,8666666666667;0,48675292667899
"R_80";20;20;7;6;22,1845238095238;0,538942581011939
