"Foraging";"In";"Out";"InLink";"OutLink";"Betweeness";"Closeness"
"F_1";88;95;83;96;3117,42335904483;0,709601041789986
"F_2";51;51;47;48;1040,81699782845;0,634923997669618
"F_3";73;80;72;76;2298,71118443257;0,674316571042865
"F_4";39;42;35;39;371,671131220938;0,615147783251231
"F_5";54;60;57;62;626,410546376671;0,622203768100898
"F_6";40;43;39;42;183,871997745772;0,591532616204479
"F_7";50;51;46;47;860,756861332089;0,669832932893786
"F_8";74;81;78;78;1718,01845294859;0,68487202925046
"F_9";55;48;56;47;1123,00107817435;0,658030519266664
"F_10";72;60;74;56;1655,15406493132;0,693549320219848
"F_11";45;37;46;39;576,509590318564;0,601988550768302
"F_12";107;107;108;106;4026,85274714074;0,733839373163567
"F_13";108;104;101;105;4215,4486957882;0,72689788988601
"F_14";105;100;103;101;5370,06729267473;0,736725663716817
"F_15";31;36;35;40;184,587225629096;0,579746590579359
"F_16";100;88;101;86;4357,33811385684;0,7146348733234
"F_17";43;42;44;45;250,22173245581;0,600330512294055
"F_18";16;15;16;15;32,2340002396928;0,51934323961357
"F_19";56;60;56;60;1271,36867885539;0,663677130044845
"F_20";39;44;39;45;167,305455182932;0,573341623224447
"F_21";51;54;51;54;797,837313179223;0,623044540304559
"F_22";68;67;68;64;1574,41303139962;0,680170212765961
"F_23";61;59;64;64;955,067600020645;0,659514771414426
"F_24";78;70;80;72;1446,5296768607;0,671183024466717
"F_25";88;87;87;86;2248,63205986018;0,68884675056025
"F_26";71;60;73;63;1178,07462235888;0,658608944072082
"F_27";59;62;62;64;665,993957809404;0,630383341221014
"F_28";93;92;94;86;3177,04239031817;0,727294788570045
"F_29";48;45;49;45;316,275983302674;0,587186520376175
"F_30";64;65;61;65;1473,22892034684;0,678361249434135
"F_31";67;76;73;80;1240,10280255098;0,669047884808575
"F_32";104;104;99;103;3150,04925609894;0,702984812056531
"F_33";65;76;66;73;1339,3964873741;0,678860637635202
"F_34";93;95;91;96;1918,66825394085;0,680440458621866
"F_35";41;39;44;43;240,253179209554;0,572219570405726
"F_36";107;96;109;99;2772,88960025697;0,690115710091534
"F_37";78;86;78;87;2220,49704115721;0,704844778927566
"F_38";63;60;68;65;1223,31549694209;0,670807453416152
"F_39";61;59;58;58;764,389412587223;0,653368214519296
"F_40";39;38;41;36;656,103717071382;0,612601563697685
"F_41";21;18;21;18;43,9654750778977;0,534677311449089
"F_42";68;63;72;65;669,527105340619;0,631445878324994
"F_43";91;95;89;94;2261,07188651049;0,692187770656507
"F_44";41;48;39;54;497,191375642055;0,617111088232265
"F_45";58;49;62;52;644,721594019692;0,632779097387174
"F_46";44;53;45;57;531,10149115664;0,629291338582677
"F_47";51;58;55;59;1114,89292375991;0,638985128724483
"F_48";50;52;54;55;485,156791784118;0,58211129455181
"F_49";35;35;37;36;246,040752197447;0,572656921754083
"F_50";77;70;75;67;1989,71049644582;0,675342234240327
"F_51";62;70;62;64;544,445937611027;0,621461897356142
"F_52";49;46;48;44;450,355279880524;0,602654333400361
"F_53";43;51;43;50;400,925756185252;0,627446875327123
"F_54";23;28;25;31;105,743674012241;0,560684720078573
"F_55";81;74;84;77;2939,36711626456;0,692547660311961
"F_56";57;59;59;58;998,366913973236;0,647824912185898
"F_57";77;87;78;91;1724,47014463492;0,685773125107262
"F_58";51;51;52;50;1084,53421905471;0,652230685527751
"F_59";69;56;66;53;712,387038392277;0,650390625000002
"F_60";67;65;63;66;1512,06632741274;0,687424737656978
"F_61";37;39;38;39;227,751106658127;0,567022987418408
"F_62";49;49;50;53;589,133688006716;0,625874490967944
"F_63";49;61;52;61;1001,54686791785;0,660313963095567
"F_64";72;60;80;68;881,293660935642;0,622300664451826
"F_65";51;40;51;40;364,300453932065;0,610324814173708
"F_66";53;48;54;43;1421,43445089665;0,664560119740569
"F_67";84;82;84;83;1710,32891456965;0,682299373932845
"F_68";24;28;25;31;182,832471632119;0,571810159790125
"F_69";62;62;66;67;946,723876759785;0,641618497109829
"F_70";38;43;40;45;301,471390937218;0,615874646801953
"F_71";66;66;68;70;1115,84236116511;0,636981934112647
"F_72";42;46;46;44;440,326066010419;0,628005657708628
"F_73";77;74;81;75;1685,79759019351;0,669533649818488
"F_74";60;56;59;56;1277,28844087296;0,650461204557789
"F_75";85;79;83;83;1834,20364117914;0,684402831696737
"F_76";40;38;41;38;115,933066647212;0,574220433970397
"F_77";38;39;37;40;375,935115809814;0,6112584132164
"F_78";44;37;44;39;242,783269810684;0,587647058823528
"F_79";36;27;35;29;132,59034859249;0,55405093127513
"F_80";22;32;26;32;67,5922137454545;0,5799429151952
"F_81";84;83;88;83;1555,89935625561;0,681484850207495
"F_82";50;45;48;39;902,783855246398;0,661406896551729
"F_83";117;107;111;100;4247,41043282551;0,733435301315389
"F_84";103;92;100;96;2821,28724610349;0,709685058015631
"F_85";54;50;55;54;618,253617175037;0,622010065895293
"F_86";33;42;33;41;363,571104990409;0,613259668508288
"F_87";48;41;49;40;322,601494984292;0,603625377643503
"F_88";63;69;67;65;1685,43554854714;0,67295385651735
"F_89";109;114;107;120;7241,98555819387;0,753820033955859
"F_90";88;94;85;90;2968,32908013881;0,703934233705228
"F_91";83;73;83;79;2108,33525499934;0,690712145655686
"F_92";34;31;35;31;183,077524053405;0,584780487804876
"F_93";63;69;62;66;1033,927147989;0,644828142649671
"F_94";35;35;35;36;215,047769463639;0,573506195282973
"F_95";42;45;44;45;243,232572662126;0,608188321241945
"F_96";30;29;33;31;164,913237930938;0,576041516505693
"F_97";102;99;109;98;4061,74303250375;0,733929227378479
"F_98";102;96;98;96;4696,94785810678;0,727824661526323
"F_99";44;39;46;42;243,233006897428;0,592321755027421
"F_100";107;113;107;107;4744,22610272972;0,718188353702375
"F_101";71;74;74;78;2190,40278399355;0,669758087043974
"F_102";105;99;103;98;4918,99013601385;0,739634748272461
"F_103";50;56;54;60;1392,21179747371;0,653546311944614
"F_104";96;94;92;97;2744,5792476212;0,709979271542791
"F_105";73;77;79;80;1939,01520131283;0,691868182605187
"F_106";32;27;33;28;105,950682234999;0,557166759620747
"F_107";47;41;48;43;383,664424823801;0,611445475874731
"F_108";28;30;29;30;224,261214851954;0,578487670704047
"F_109";37;51;37;49;321,326754377609;0,595825049701788
"F_110";54;49;57;48;593,622134033322;0,602957448948797
"F_111";39;39;39;42;188,472050643637;0,584837545126353
"F_112";43;39;43;42;256,951908956809;0,604051194195302
"F_113";60;51;58;53;698,130168518137;0,650920345333119
"F_114";71;79;68;76;1544,81877789135;0,655010381379087
"F_115";64;69;68;66;1990,62759112849;0,67836124943414
"F_116";82;70;81;68;1485,03507588928;0,675266152199631
"F_117";48;40;52;40;249,729389223916;0,584694922694239
"F_118";49;55;50;55;614,25808797116;0,634823130692653
"F_119";68;65;68;60;1326,47805049684;0,664449617559035
"F_120";46;46;44;48;431,742431610708;0,598472367829863
"F_121";38;39;38;39;320,377687285543;0,608342636760377
"F_122";46;39;50;41;286,400023051371;0,605210016155088
"F_123";56;58;60;63;679,417583670175;0,617365331136058
"F_124";76;73;74;72;1860,65613188727;0,653403826238625
"F_125";35;33;32;34;229,753281374982;0,601324237560191
"F_126";68;75;68;75;1815,26675314697;0,691349480968864
"F_127";70;74;74;76;1293,08445901732;0,655978112175105
"F_128";46;45;47;47;609,352797443648;0,586296278182618
"F_129";52;44;55;47;589,655113934744;0,617524339360222
"F_130";74;82;72;83;1778,49477189555;0,676180269614759
"F_131";75;84;74;84;1819,91428016933;0,651592564409178
"F_132";84;84;83;82;2607,39873562167;0,694674624789942
"F_133";70;73;76;77;1334,72062453896;0,652834504165988
"F_134";68;64;70;62;1703,88489632642;0,680788233289798
"F_135";28;26;26;26;194,646084025668;0,602321258101798
"F_136";98;89;94;88;2018,61189499238;0,681872475968379
"F_137";86;96;87;94;3049,18215845951;0,7050935184096
"F_138";87;71;90;73;1503,04230589369;0,672878311629998
"F_139";58;50;59;52;510,235472417394;0,638338658146967
"F_140";57;53;58;50;1200,80741274291;0,631013790925362
"F_141";85;81;89;84;2081,28953965325;0,66144338998014
"F_142";43;48;45;53;464,258380071856;0,608280901156889
"F_143";54;42;57;44;268,856845961053;0,591941536638356
"F_144";73;71;74;76;740,151436832747;0,643893006767646
"F_145";46;41;49;41;304,516528100292;0,587330361079808
"F_146";38;42;38;42;228,651178740058;0,596388239391074
"F_147";93;87;89;84;1332,21435851373;0,668152937242228
"F_148";51;52;51;53;1168,07905733115;0,664007976071791
"F_149";88;86;85;82;3228,47578210147;0,700274548747008
"F_150";34;34;36;33;274,012389452645;0,581659388646287
"F_151";67;72;65;72;1261,438638817;0,663493469116676
"F_152";86;90;90;89;2422,27157199717;0,710610551274454
"F_153";88;91;87;93;4060,59397541827;0,726413379385568
"F_154";63;69;63;72;2087,95149458747;0,701298701298705
"F_155";78;85;78;83;1661,6375218401;0,672727272727274
"F_156";81;77;81;78;2122,60780448794;0,683895259284618
"F_157";81;79;82;84;1464,60268360473;0,687385321100919
"F_158";84;87;92;91;2440,72534001341;0,705176470588242
"F_159";32;29;32;29;254,68234742009;0,596091691114314
"F_160";56;61;58;57;887,047735147491;0,638202725724022
"F_161";103;113;98;115;2893,41505189888;0,708971553610506
"F_162";33;45;33;42;362,27932400224;0,622300664451829
"F_163";38;40;41;43;400,168646808746;0,606618763283067
"F_164";55;44;55;43;782,638436552319;0,638678742674483
"F_165";49;38;49;38;288,345375232147;0,593318485523384
"F_166";63;69;63;73;1000,48426167542;0,667892361691461
"F_167";62;67;64;68;990,322231682792;0,628334818386708
"F_168";45;37;48;44;340,981979387542;0,578124999999999
"F_169";17;19;18;22;94,3430162808519;0,55405093127513
"F_170";29;31;29;31;172,724134589358;0,563716730932003
"F_171";103;101;99;91;3178,46577404045;0,736001964636546
"F_172";38;36;42;37;166,379354106828;0,585551702241975
"F_173";46;63;45;68;447,958732432501;0,638644717915935
"F_174";67;65;66;66;868,261109795037;0,633849732987892
"F_175";106;115;106;113;4476,32740012563;0,72614937306924
"F_176";48;42;48;43;175,209378660419;0,571755615967949
"F_177";78;78;79;80;2001,76918228208;0,698764280718118
"F_178";40;45;41;43;328,638680084187;0,595174262734583
"F_179";35;39;38;42;404,641626848271;0,606618763283067
"F_180";23;28;27;28;101,647755167998;0,543870792124127
"F_181";51;47;52;47;707,484713613553;0,621590791247537
"F_182";66;64;75;65;1231,50935701596;0,672916081953416
"F_183";46;46;43;44;411,292531668351;0,629357412851745
"F_184";79;74;75;71;2615,4718928617;0,703521126760569
"F_185";42;43;39;47;474,009188333063;0,627742577368176
"F_186";55;47;53;47;699,907967747825;0,615147783251231
"F_187";22;22;22;22;47,2157512395158;0,537843779442775
"F_188";52;39;52;41;580,761682584589;0,644481479490353
"F_189";41;39;40;37;174,719361407241;0,589148810693924
"F_190";59;59;60;63;778,116443686961;0,641584158415844
"F_191";32;35;34;34;196,754964010358;0,609332113449222
"F_192";68;78;73;77;965,93989660931;0,656301324865873
"F_193";28;24;24;23;202,602239577052;0,57276636407071
"F_194";28;31;27;33;183,524536729065;0,586726703210649
"F_195";62;61;63;67;1029,87786295982;0,648701298701301
"F_196";91;103;87;94;3187,6855774706;0,700274548747009
"F_197";90;81;93;84;3729,41083760958;0,708845789971622
"F_198";34;33;35;36;308,006372836613;0,57208303507516
"F_199";89;106;89;106;2405,78725366182;0,668898560428526
"F_200";34;23;34;23;133,553984970006;0,57372577171572
"F_201";77;74;78;76;2914,1382953515;0,703975571084622
"F_202";38;45;38;45;319,486365168015;0,57706748820641
"F_203";87;73;89;78;1790,98025717566;0,681833693550223
"F_204";47;53;47;51;468,931666933784;0,58865700957525
"F_205";96;87;99;91;2649,08406475312;0,702202436738521
"F_206";61;64;62;66;812,359989680199;0,646915978630406
"F_207";70;62;65;62;1818,86584547238;0,677517802644967
"F_208";90;83;97;80;2163,72381798864;0,667780748663104
"F_209";72;64;71;65;1122,39253027794;0,66327321013611
"F_210";35;36;36;36;222,002741361093;0,580982843849956
"F_211";28;25;27;23;130,201917598103;0,557399916306318
"F_212";46;47;48;50;423,578783357016;0,616603230120358
"F_213";46;44;46;42;448,796593633645;0,617174629324549
"F_214";62;63;61;65;994,401232149067;0,649720882337002
"F_215";39;43;40;42;283,488638107355;0,595973154362415
"F_216";27;21;28;22;95,3680752579349;0,567157117850214
"F_217";105;97;103;91;3371,36553564883;0,701298701298703
"F_218";35;44;36;43;343,601457671046;0,594024082057379
"F_219";31;28;32;27;267,120308552968;0,598263299730511
"F_220";72;69;74;68;1995,03095048163;0,668861239747812
"F_221";95;87;86;88;1775,05740084791;0,696167247386763
"F_222";79;83;82;88;1880,58703313;0,689005115236513
"F_223";59;60;59;58;1368,91517404511;0,661918171277131
"F_224";51;60;51;60;575,110702922737;0,60880605352699
"F_225";33;33;35;34;236,811333756482;0,556132863239933
"F_226";103;103;102;101;3077,22304640754;0,70183244540718
"F_227";52;61;51;62;461,824414099558;0,614076426595635
"F_228";103;101;103;104;3405,0509527078;0,70884578997162
"F_229";76;68;77;71;1424,90701852795;0,657417055113794
"F_230";63;62;68;64;926,944578382375;0,640761131006469
"F_231";110;99;107;105;2257,36825903777;0,684793784988007
"F_232";64;50;59;47;855,117795192578;0,641996465484927
"F_233";78;74;79;74;2893,94084980869;0,711116383912687
"F_234";77;82;76;80;1816,97803712263;0,677900927391994
"F_235";74;76;73;76;1244,32030792809;0,648140138408307
"F_236";45;44;45;46;250,782596429239;0,577707098453085
"F_237";48;53;47;51;772,548285899004;0,635428813739005
"F_238";65;70;66;74;867,995755330607;0,638712771058661
"F_239";45;45;44;46;716,196915235468;0,626299566375843
"F_240";47;62;49;64;690,209055567356;0,62489574645538
"F_241";52;51;54;57;1097,49170995594;0,649263431542467
"F_242";36;43;37;44;183,1239520097;0,583130654732949
"F_243";47;34;48;36;313,748729294461;0,616381304951412
"F_244";82;88;86;87;1506,16062620724;0,662100961007403
"F_245";40;45;45;49;226,656313052026;0,609239213294708
"F_246";57;51;57;54;506,807116963416;0,628433633885511
"F_247";58;60;58;59;1350,57239071193;0,653154625694674
"F_248";56;66;58;65;955,352052173243;0,65454545454546
"F_249";80;75;87;76;1596,76407580907;0,662320441988952
"F_250";64;52;60;47;1133,87059033156;0,672576301615804
"F_251";49;49;51;51;295,789365783479;0,607479477044693
"F_252";17;17;17;17;16,1460408004448;0,53140653397757
"F_253";79;89;78;85;2671,53205790599;0,690155440414509
"F_254";63;70;68;77;1303,81215589812;0,661078636814826
"F_255";69;67;71;69;1447,28905614783;0,687188306104904
"F_256";58;46;56;48;737,60874478632;0,648175182481754
"F_257";63;71;64;72;1625,34016459697;0,669608445511927
"F_258";84;81;76;73;4800,06654198716;0,723607170881877
"F_259";83;88;82;91;2123,25964593568;0,682960177747398
"F_260";50;44;48;45;715,031055712262;0,628598395469563
"F_261";54;49;51;49;715,636366244094;0,634185049992066
"F_262";37;44;39;48;300,252467980448;0,590018702628211
"F_263";73;72;70;68;2435,33263247705;0,681329923273661
"F_264";50;41;50;43;285,27503496974;0,578264434904249
"F_265";31;28;32;29;122,377239969195;0,564167725540025
"F_266";87;89;88;92;2637,25798889065;0,686597938144335
"F_267";71;55;72;55;916,959385838281;0,635092180546727
"F_268";35;34;33;33;107,497973772351;0,575322743197196
"F_269";85;94;85;94;2592,6750410565;0,695682451253483
"F_270";94;94;87;97;2456,3497879347;0,690195175312339
"F_271";62;62;59;61;1668,01738855903;0,691708499221053
"F_272";83;94;81;100;2140,76147946316;0,681407377934408
"F_273";103;91;98;94;3807,61488786127;0,720692557412531
"F_274";44;50;46;53;316,176581113804;0,595144715285706
"F_275";108;118;102;115;4859,4302512834;0,753630477148428
"F_276";63;55;64;55;1042,33219767693;0,644169801182163
"F_277";81;95;79;92;3218,07482143319;0,708385038113811
"F_278";114;114;108;117;5167,58334364883;0,744318887371169
"F_279";77;81;81;88;1808,61568678315;0,689520303692629
"F_280";32;39;32;41;208,521305888498;0,573259372609027
"F_281";86;97;84;95;3486,33142860836;0,710442100272611
"F_282";44;54;42;52;672,40596768247;0,639871897518017
"F_283";29;33;30;33;213,310628086015;0,560448807854137
"F_284";79;83;79;83;2047,8902326157;0,683778234086244
"F_285";74;69;69;70;2511,76783050754;0,706672954491869
"F_286";36;36;36;40;242,38276693211;0,581857011114885
"F_287";62;63;64;64;1123,77411736205;0,657741687698895
"F_288";95;86;99;85;3890,48215410194;0,709853150165804
"F_289";84;75;83;74;1954,49727558822;0,686558616345004
"F_290";73;83;73;89;1647,46127661871;0,673558826834478
"F_291";82;73;87;72;1598,75796271544;0,66360365347357
"F_292";65;82;64;78;1860,85905962986;0,665852032881583
"F_293";23;28;23;26;145,38975406133;0,554871557509835
"F_294";34;34;34;33;176,80728946825;0,566166052706148
"F_295";74;68;74;66;1128,44596338605;0,632979565974972
"F_296";75;69;67;65;1981,04706315976;0,696369445251239
"F_297";42;36;45;37;447,588201681941;0,612914770693798
"F_298";73;77;72;83;2032,01681178207;0,697057797418309
"F_299";85;93;82;90;4136,01412398474;0,724350453172209
"F_300";21;22;20;22;80,5447279435227;0,549605721621126
"F_301";60;66;58;65;843,222440829906;0,659442213543101
"F_302";77;75;74;75;2550,56333093166;0,705965490842708
"F_303";60;66;63;67;666,141103819696;0,6589709762533
"F_304";62;65;66;64;721,005033210954;0,617142857142856
"F_305";75;72;71;68;2971,43077146821;0,710484205535473
"F_306";23;17;25;19;107,670535490959;0,535011380372206
"F_307";102;97;101;92;3639,51350413164;0,715872447151563
"F_308";35;37;37;40;120,969421156334;0,57006990346664
"F_309";48;54;52;56;1309,36285954403;0,689718658305046
"F_310";38;42;41;43;265,812233078374;0,569041629088146
"F_311";33;46;35;45;240,054124111706;0,594524895853995
"F_312";59;59;58;59;797,583429103128;0,645348837209306
"F_313";27;31;27;32;102,219274266885;0,552824533087387
"F_314";46;50;45;52;435,029678113226;0,602775543041029
"F_315";90;78;84;81;2100,66503282533;0,697057797418306
"F_316";82;85;81;82;2048,5325726155;0,673748103186649
"F_317";52;60;48;56;1359,04182513137;0,667483296213815
"F_318";82;78;85;79;1484,70191381983;0,664375969851476
"F_319";42;38;42;39;324,177050972487;0,605332256109876
"F_320";71;70;69;70;2389,57821519511;0,697666298085322
"F_321";49;48;52;46;693,117554705519;0,633648712934089
"F_322";62;66;70;67;2106,70731642932;0,688688458666058
"F_323";48;50;49;49;701,618115195211;0,642547033285097
"F_324";34;42;32;41;266,377533039145;0,615337234370189
"F_325";34;31;35;30;123,13138891858;0,568663725629713
"F_326";48;43;45;41;907,897064101643;0,670282359519157
"F_327";35;26;32;24;264,863445659101;0,587819947043246
"F_328";28;34;28;34;136,976460796723;0,596774193548385
"F_329";63;54;67;53;1004,08125303391;0,668078466339729
"F_330";45;49;50;53;327,183095357417;0,594318576173714
"F_331";20;25;18;25;88,25362252818;0,55417899408284
"F_332";106;99;101;100;3326,96490687628;0,704265068734581
"F_333";93;89;95;86;3543,43341981744;0,710484205535474
"F_334";25;22;27;23;66,4948925031848;0,542418895072622
"F_335";85;78;88;83;2399,51639007226;0,689996546563834
"F_336";34;31;32;28;156,82383558878;0,580757678519521
"F_337";73;85;71;86;2221,13436787961;0,703479842732237
"F_338";71;77;74;77;1355,97502080839;0,682299373932842
"F_339";96;90;95;93;3975,82319622539;0,720129753108673
"F_340";71;72;66;68;2782,27806194346;0,696774193548391
"F_341";21;19;22;20;43,8408854144838;0,539586802898682
"F_342";111;103;112;102;4326,46978082822;0,721864274101287
"F_343";72;80;74;78;1377,67662221378;0,671032745591942
"F_344";34;37;35;38;229,213116873919;0,580139372822298
"F_345";105;98;103;92;4407,08739476017;0,725226860254088
"F_346";39;38;39;40;241,621553440115;0,575958489478235
"F_347";59;59;61;58;843,431826905222;0,637897089341777
"F_348";61;65;66;67;659,883263842161;0,636373288034824
"F_349";34;35;38;35;271,831967950329;0,588223748773306
"F_350";39;32;38;29;184,203431729743;0,572164948453607
"F_351";76;74;72;71;1363,81242377216;0,660859977949285
"F_352";38;35;40;37;306,417929603423;0,583272514961318
"F_353";43;44;43;40;275,783784030822;0,588714825909737
"F_354";77;78;79;75;2901,23685645491;0,695399965195202
"F_355";23;18;24;18;50,7147266681183;0,535992130912994
"F_356";56;51;55;52;1165,69135849003;0,658319604612853
"F_357";41;45;43;44;312,811394530818;0,579746590579359
"F_358";55;44;55;45;541,996502711179;0,632712302739222
"F_359";40;46;45;48;337,231428988693;0,599759855913547
"F_360";100;86;96;91;3240,72113382096;0,718575795720196
"F_361";31;33;29;37;220,731520845297;0,58495169317849
"F_362";30;36;32;34;300,100039033417;0,580420257577224
"F_363";44;43;41;39;704,712660899453;0,626692456479693
"F_364";24;29;27;29;147,53068241073;0,561735626259312
"F_365";77;73;71;69;1610,65661763918;0,681407377934407
"F_366";57;59;54;58;445,53889436162;0,616634946761997
"F_367";81;80;78;77;2090,96073849768;0,694916236739902
"F_368";29;36;31;41;132,269402327325;0,560920830993823
"F_369";45;36;48;38;361,648762693583;0,587618254007154
"F_370";66;57;66;61;870,16201521966;0,626299566375842
"F_371";58;56;59;54;1305,56127980153;0,677939263699604
"F_372";52;46;56;50;458,240921585059;0,610666802506239
"F_373";53;51;59;53;483,059453551868;0,613322418909238
"F_374";80;84;78;85;2861,30501285281;0,700274548747009
"F_375";69;54;71;54;985,869991026755;0,653154625694673
"F_376";102;87;105;93;2671,88051166359;0,695722825140739
"F_377";58;55;64;58;819,603587490504;0,615969581749048
"F_378";40;43;38;42;642,789326943068;0,644724104549858
"F_379";82;84;81;85;2229,28351586474;0,689599631845379
"F_380";61;70;60;66;1969,51123295432;0,682882369695245
"F_381";92;109;96;102;3214,7781076743;0,715317143027631
"F_382";86;75;92;77;1692,42657684818;0,658138896513865
"F_383";71;84;68;83;1889,96622011544;0,667669172932333
"F_384";39;54;38;51;329,488336468063;0,612476370510397
"F_385";70;68;71;73;1461,04314631478;0,675418333427237
"F_386";68;63;73;69;1450,81717270751;0,684402831696741
"F_387";55;43;56;42;330,458905464513;0,599549887471866
"F_388";42;44;41;45;412,162054003254;0,601535450850518
"F_389";59;62;63;66;1552,79937856906;0,649333766655836
"F_390";40;45;41;47;417,019907689235;0,622462225453036
"F_391";82;95;75;87;2989,86099279377;0,705716135868607
"F_392";46;47;45;50;326,528805695294;0,616127871717121
"F_393";50;47;51;46;685,420933620934;0,633615221987318
"F_394";94;85;94;81;2564,19855886105;0,713274230975194
"F_395";60;56;62;62;901,029211185362;0,66327321013611
"F_396";54;55;54;58;678,938721264501;0,624635264693622
"F_397";115;96;117;98;2828,59928143299;0,721386448429418
"F_398";73;64;74;64;1442,2626894965;0,675570583262893
"F_399";76;81;77;78;3014,88818589189;0,685577033055017
"F_400";48;45;46;42;1337,42205666975;0,660386712940017
"F_401";67;63;66;65;1912,95410886411;0,661589403973512
"F_402";87;102;91;101;2611,54662911294;0,699008746355689
"F_403";31;24;30;24;149,02743107523;0,568717681104416
"F_404";45;56;46;54;320,103956336871;0,591970766875708
"F_405";31;36;33;38;199,43800576559;0,571183533447683
"F_406";63;65;62;69;1042,91422813837;0,642340459733163
"F_407";54;60;57;65;1107,05911348164;0,628532480469775
"F_408";29;31;32;33;233,430748612501;0,583414444228147
"F_409";59;74;57;76;983,243232151179;0,635968169761273
"F_410";27;24;29;26;187,916984465991;0,572246885292853
"F_411";18;20;20;20;106,14661915336;0,542959373160017
"F_412";65;64;63;65;939,22561488931;0,637252817350629
"F_413";24;22;24;24;104,627892528864;0,567049808429117
"F_414";43;47;42;47;1076,04195629789;0,678322865387888
"F_415";21;24;22;26;62,6986061194729;0,541194528463727
"F_416";58;53;57;56;460,173863539104;0,63035019455253
"F_417";63;69;61;67;839,095359338505;0,63314672018591
"F_418";91;90;90;86;2795,34010723586;0,699131043331197
"F_419";57;44;59;43;692,019884393959;0,597190395536514
"F_420";30;44;32;43;238,478951731643;0,590192989365891
"F_421";46;52;41;49;633,514708596163;0,654724194429277
"F_422";53;49;49;51;642,676794912988;0,649932230956901
"F_423";102;92;105;95;2652,39787106701;0,681484850207494
"F_424";81;87;79;86;3320,39063754026;0,707924884847058
"F_425";60;60;61;61;654,453874863192;0,608620602122149
"F_426";63;68;70;72;1273,77842329564;0,665150086001228
"F_427";51;63;52;62;585,980015759282;0,630217642729471
"F_428";53;51;52;53;310,535964803874;0,603048443080637
"F_429";16;17;18;19;39,2677639588317;0,53095934095137
"F_430";44;48;46;50;287,9960256937;0,599250187453135
"F_431";41;31;43;28;272,415223599913;0,623790196690603
"F_432";48;50;50;51;578,085218944142;0,608744223835879
"F_433";95;95;95;98;2951,47248286094;0,70183244540718
"F_434";85;85;87;83;1613,21658465044;0,675114039533707
"F_435";73;86;78;93;1593,7337503287;0,657849969818364
"F_436";24;23;28;25;92,8703552158651;0,552086211660679
"F_437";57;53;54;53;664,375649850401;0,643616450123485
"F_438";81;70;77;63;2102,44931814798;0,683310533515735
"F_439";64;60;67;60;677,302251488377;0,647020725388603
"F_440";26;28;24;26;142,457583802599;0,584980237154148
"F_441";56;42;57;44;1077,22407688526;0,663089772664423
"F_442";47;44;48;47;409,717548974295;0,619342839429633
"F_443";63;67;63;67;1206,75446509365;0,640350408632018
"F_444";75;79;80;77;2401,47298715656;0,701052631578949
"F_445";33;26;36;26;86,1447009109001;0,550767251676927
"F_446";75;76;75;75;2563,92985164624;0,696126821903491
"F_447";44;48;42;49;599,29925667707;0,615021547301456
"F_448";28;27;30;27;147,354122546679;0,564965361232856
"F_449";60;67;57;64;1063,95707636245;0,637829209896252
"F_450";59;61;59;57;1155,59224078814;0,669533649818489
"F_451";58;68;61;72;922,044582724019;0,628400691932693
"F_452";59;54;60;57;988,615370517398;0,636677465611559
"F_453";58;58;61;57;1819,88813678853;0,66526082130966
"F_454";62;62;65;63;1152,77061412852;0,646532197173985
"F_455";49;48;51;48;781,049117244022;0,625841816758027
"F_456";83;91;84;91;1919,89997444443;0,674240719910014
"F_457";73;68;68;69;2299,48362561225;0,686597938144334
"F_458";49;46;54;49;317,359367768213;0,586497064579255
"F_459";62;57;62;61;553,493350457289;0,613919188815485
"F_460";93;90;89;84;2124,05486353288;0,676294708338036
"F_461";53;56;52;60;846,010096685729;0,612476370510396
"F_462";32;45;31;43;146,732514354627;0,576346153846153
"F_463";55;61;53;63;749,674691549435;0,640795381654909
"F_464";53;47;51;46;560,469972480277;0,614674665436086
"F_465";104;116;104;114;6829,61360278178;0,744134078212293
"F_466";50;54;50;52;590,251126344856;0,634352841570538
"F_467";35;39;36;44;275,040735718516;0,598801198801198
"F_468";42;44;44;47;709,45530813869;0,621204269872526
"F_469";62;65;66;70;1687,44530851282;0,662430237055871
"F_470";98;111;99;119;5498,46225695082;0,732136313668014
"F_471";76;86;76;86;2806,47955050387;0,707507082152978
"F_472";40;31;41;35;264,096336816357;0,606741573033707
"F_473";43;43;38;42;473,804995099021;0,654545454545461
"F_474";27;31;30;35;231,061822055393;0,589931597854434
"F_475";92;90;87;87;3171,88318871747;0,717973288614726
"F_476";74;76;70;67;1637,90917351499;0,673483146067418
"F_477";33;42;30;40;249,902537390859;0,609022556390976
"F_478";40;43;47;43;593,795579877132;0,613699191153884
"F_479";87;84;81;84;2954,67971311561;0,702120182733987
"F_480";55;43;54;43;559,009401598776;0,60323051376239
"F_481";40;44;39;41;831,87620146886;0,643064048921792
"F_482";67;79;65;77;2469,71433063311;0,696976744186048
"F_483";60;54;60;55;1103,13609060561;0,664044757104085
"F_484";50;63;48;60;459,909662671391;0,635866970773885
"F_485";65;62;69;64;909,375604607926;0,636846578835531
"F_486";74;67;73;66;834,823649124135;0,62646321070234
"F_487";110;115;107;117;4050,92979848549;0,717629452259806
"F_488";25;24;24;22;257,517201519435;0,588599204595669
"F_489";26;18;27;20;76,9267396492397;0,534534266732065
"F_490";83;65;83;71;1251,41177192162;0,670394810423893
"F_491";44;48;43;48;440,860190295809;0,618256833419288
"F_492";34;34;33;32;118,57508706991;0,588223748773305
"F_493";73;79;76;81;2004,6469795493;0,684051355206852
"F_494";48;48;46;47;663,163662375911;0,646497330529044
"F_495";54;46;55;48;452,234466597513;0,630648640117839
"F_496";61;63;63;64;909,18231729559;0,633849732987892
"F_497";64;61;61;60;908,844703591274;0,651769694992662
"F_498";45;44;48;46;522,405645680536;0,604264327839103
"F_499";54;58;55;58;458,667130791351;0,603503826016914
"F_500";55;53;55;52;481,182590254713;0,621300855143819
"F_501";72;85;79;83;2968,66778517959;0,694151708164449
"F_502";33;33;31;30;484,622013748659;0,604599556183175
"F_503";62;65;63;60;1321,86578619407;0,65240816326531
"F_504";56;52;61;55;875,871173372185;0,651167843563282
"F_505";103;102;104;110;2520,26882083838;0,699743170674765
"F_506";66;61;61;61;799,311091516994;0,647964974866225
"F_507";72;72;72;75;1643,81003028402;0,667855153203345
"F_508";54;43;53;43;561,767759878421;0,633615221987316
"F_509";46;49;47;52;500,571399841333;0,600781798135711
"F_510";64;55;64;59;962,794810953479;0,624602719741573
"F_511";36;35;36;36;256,164442848777;0,614107883817428
"F_512";91;86;93;87;1746,0911074635;0,681833693550224
"F_513";51;58;55;55;1141,81271008749;0,656624856219538
"F_514";54;45;55;44;333,399039144034;0,607264069702647
"F_515";24;22;24;22;67,0402542792555;0,544438893682729
"F_516";61;60;64;63;1914,95265183669;0,660568657703331
"F_517";55;53;57;57;455,574965322167;0,618735483870966
"F_518";85;88;81;86;1952,07670595799;0,683193708326214
"F_519";49;43;54;43;562,47420520685;0,65251469627695
"F_520";102;106;105;111;5080,31236818252;0,737768478060191
"F_521";47;47;40;45;1241,43849486218;0,657597366977516
"F_522";30;36;34;37;200,010161353137;0,586870318695842
"F_523";73;71;77;79;1679,81293050571;0,675342234240327
"F_524";61;61;59;61;1005,388103557;0,655261000273303
"F_525";61;68;64;71;1870,76976129271;0,66503938755132
"F_526";39;38;42;39;179,102106958032;0,597517818870556
"F_527";36;34;35;32;307,715614228;0,602593746858348
"F_528";21;29;22;33;228,421624981555;0,568852614596184
"F_529";26;27;25;28;155,127195633785;0,569420035149384
"F_530";40;40;39;38;231,489017137507;0,587129003820158
"F_531";95;104;93;107;1923,88010796203;0,681794915543423
"F_532";88;79;92;86;3308,67664096044;0,699416569428242
"F_533";52;47;52;43;700,279619282157;0,623174091594324
"F_534";78;81;71;80;2192,79095580456;0,678015949324135
"F_535";80;75;83;68;1873,73374103559;0,681639847614717
"F_536";108;97;110;99;2135,68056692967;0,680131623737662
"F_537";57;55;54;54;672,746036786069;0,642340459733164
"F_538";76;72;71;76;2289,39282318424;0,695238647567132
"F_539";92;102;89;97;3262,48416774964;0,716000716717437
"F_540";51;50;50;48;540,337348246533;0,632345184091149
"F_541";109;116;101;107;5286,61630286651;0,735144416508252
"F_542";55;46;56;46;471,274169589453;0,641481164383565
"F_543";64;76;63;74;1172,16061654784;0,665889018496919
"F_544";53;57;53;55;1124,98601488715;0,636136906341206
"F_545";55;58;57;57;956,359973715192;0,639906053165369
"F_546";58;69;57;69;907,592776221158;0,636170664402463
"F_547";35;41;34;40;299,726189805929;0,592380293521766
"F_548";71;87;71;85;1456,90423993516;0,668861239747811
"F_549";79;69;78;65;1330,98334231671;0,675152061275063
"F_550";30;29;29;30;182,79488106597;0,572875848227084
"F_551";31;38;31;38;488,836999857806;0,593347851910512
"F_552";47;47;49;45;466,34791859276;0,614674665436086
"F_553";80;78;83;76;2819,48707392892;0,703108504398828
"F_554";59;58;64;55;1625,65826305483;0,673785971223027
"F_555";19;13;20;13;92,0105868996107;0,537650805041038
"F_556";95;81;100;80;2264,2150304953;0,713146936347414
"F_557";97;105;98;106;2431,48421678433;0,695158016816471
"F_558";62;71;64;70;1432,16710822572;0,678514829069506
"F_559";25;25;25;24;134,390999709212;0,596417910447762
"F_560";55;43;53;44;1040,36887941236;0,648105098124024
"F_561";98;93;91;91;5294,50197614691;0,738404681244228
"F_562";50;46;51;52;711,366377546098;0,610915762115883
"F_563";65;57;68;59;745,411653683394;0,642202817806828
"F_564";49;42;46;39;658,453584042553;0,645592115892082
"F_565";38;35;40;35;331,334353317594;0,584523867570333
"F_566";35;28;35;27;61,70705190836;0,556210272351876
"F_567";50;56;52;58;969,52493279722;0,628862193778524
"F_568";67;74;66;71;1532,07040132744;0,681484850207494
"F_569";56;51;52;47;853,041314248456;0,639325902618529
"F_570";38;44;42;45;318,398816423759;0,592029236011654
"F_571";64;73;69;69;1154,18733476922;0,667037614066332
"F_572";98;102;89;93;3874,80693112339;0,735415005214407
"F_573";67;67;66;66;2067,71972271102;0,683739234586218
"F_574";79;78;83;77;1778,649851099;0,69572282514074
"F_575";23;26;23;29;144,445706337455;0,549152542372881
"F_576";49;40;52;42;630,226643250211;0,632078456184753
"F_577";58;58;60;58;700,115540610813;0,663860892679152
"F_578";59;55;58;56;1115,21526146546;0,659224635688756
"F_579";36;38;40;37;202,537866419204;0,589757465440054
"F_580";29;32;31;32;106,485382600591;0,589033018867922
"F_581";36;38;39;39;230,066718430781;0,572930606002676
"F_582";36;31;36;30;309,760628577774;0,599190283400809
"F_583";89;80;94;90;1573,31995328743;0,679707433236949
"F_584";71;81;69;83;1190,83930560126;0,667371819851921
"F_585";105;109;99;98;4753,822447348;0,737632291410292
"F_586";79;63;78;69;1289,44891934778;0,659659935068511
"F_587";64;70;69;70;1226,85044789193;0,667223242611457
"F_588";90;90;88;86;4299,27268628541;0,729330169739007
"F_589";41;45;42;46;296,233298733571;0,619246861924687
"F_590";40;46;42;48;392,752604926441;0,593347851910511
"F_591";52;56;52;55;806,367751161433;0,642099625066956
"F_592";90;81;88;79;3335,63982594239;0,706381474279659
"F_593";35;32;34;36;177,78500338989;0,559246128008956
"F_594";73;83;73;85;3869,51882207455;0,7273389151802
"F_595";46;39;45;38;541,173589734161;0,630748184783754
"F_596";79;63;83;63;1050,46425687558;0,656301324865874
"F_597";40;40;38;38;274,961395163615;0,615242494226328
"F_598";46;51;43;48;586,535276740174;0,620368453736287
"F_599";95;92;98;93;2037,8718395077;0,677479513987004
"F_600";82;84;78;83;1864,69523925202;0,690871369294609
"F_601";67;66;65;64;1398,23792984173;0,680093039087765
"F_602";38;48;41;50;349,172830080324;0,613542146476278
"F_603";85;82;89;83;1715,31980415972;0,666407248874315
"F_604";43;43;46;47;205,322144509411;0,578124999999999
"F_605";58;51;59;52;546,411899442094;0,611383108935127
"F_606";50;48;48;48;829,194142065078;0,657489167992108
"F_607";95;93;95;97;3113,52962482909;0,698113207547171
"F_608";67;64;68;72;2351,44919944162;0,689440993788825
"F_609";35;36;37;33;192,786660720121;0,58191349934469
"F_610";76;86;77;83;1642,33947684747;0,65857276273142
"F_611";73;82;77;85;3510,19866735513;0,712638211865419
"F_612";24;27;25;25;86,6140013741084;0,561972623288955
"F_613";87;78;89;85;1618,32762273643;0,662723201945935
"F_614";46;46;44;44;738,570687611353;0,616952292728114
"F_615";31;26;34;27;141,948166931153;0,561472530560628
"F_616";62;72;59;72;1058,70732466878;0,6485960071417
"F_617";76;69;79;69;2021,796300542;0,685381053113032
"F_618";55;46;56;45;889,426120632197;0,632011809363138
"F_619";47;49;51;54;511,618483415499;0,609270176865215
"F_620";72;68;78;66;1179,00304649497;0,673256205773337
"F_621";48;42;45;43;606,354239446062;0,628796223446106
"F_622";50;48;43;47;473,361493648083;0,643029555329081
"F_623";60;59;62;60;865,361301927278;0,621719738616325
"F_624";47;50;47;50;377,749961768457;0,589960629921259
"F_625";68;67;70;63;1657,70661227594;0,662174105170134
"F_626";45;52;51;55;868,343855414325;0,653368214519297
"F_627";65;75;62;72;499,761654103913;0,614863825203876
"F_628";30;27;31;28;147,066076137394;0,565365025466892
"F_629";84;100;92;108;2412,55617131909;0,684363760917967
"F_630";68;63;67;66;1356,22349598089;0,647090575407539
"F_631";44;41;46;42;322,963527284976;0,611196084429489
"F_632";92;89;90;87;2594,26823474252;0,691908114971724
"F_633";31;38;29;37;493,370875522415;0,631911865478897
"F_634";45;49;45;46;380,444481910618;0,624732919902028
"F_635";67;62;62;63;1250,27899927135;0,66901054746359
"F_636";42;43;43;49;421,949028747984;0,632211792005064
"F_637";28;25;28;26;210,880936831791;0,581151832460732
"F_638";63;57;64;58;983,084373690772;0,643478260869569
"F_639";42;43;43;43;322,789453177266;0,594436455595774
"F_640";125;119;128;122;3876,65535111244;0,717715380470575
"F_641";44;50;44;49;349,304804770586;0,601686408351736
"F_642";95;106;94;103;2746,95103408887;0,706215022091312
"F_643";46;43;48;45;696,064654462105;0,639837745516658
"F_644";97;83;98;83;2735,51040976081;0,681368648402866
"F_645";48;53;52;57;510,148919292141;0,609053497942386
"F_646";62;57;70;62;711,316582425269;0,648666197716576
"F_647";67;72;65;67;2345,46982117295;0,676943926816881
"F_648";30;30;30;32;207,648860028257;0,591211717709718
"F_649";76;67;75;67;942,162097561912;0,641069518716578
"F_650";37;33;42;33;501,765223149453;0,598980713500549
"F_651";86;84;85;81;2097,37229545564;0,690791748300106
"F_652";52;48;57;51;451,886924562066;0,619118938181066
"F_653";76;71;75;74;1453,0663627167;0,676485525647539
"F_654";59;67;62;71;1334,29014372967;0,626201420810697
"F_655";69;76;70;74;1470,14019125385;0,682377049180333
"F_656";91;81;88;79;1703,09054383619;0,666926286509045
"F_657";32;35;34;37;336,447303609122;0,594230197283631
"F_658";74;87;77;91;898,178614893694;0,637218944346994
"F_659";22;32;24;31;105,31081210183;0,555952325743171
"F_660";41;43;39;40;570,915821226147;0,612257405515831
"F_661";75;76;78;75;1708,20474248386;0,668637403089969
"F_662";47;51;46;52;455,909907982941;0,599489923488522
"F_663";58;62;60;63;1036,03625529324;0,649263431542464
"F_664";63;70;64;72;879,770164946203;0,655153568696034
"F_665";92;78;89;77;1971,80569608667;0,69266770670827
"F_666";59;72;67;75;884,970849086862;0,632712302739219
"F_667";63;73;65;76;946,109876116386;0,642134018961917
"F_668";51;54;51;50;489,358001220497;0,630383341221014
"F_669";38;36;39;35;298,619653640504;0,57063975628332
"F_670";69;64;70;67;916,836254094842;0,652763408657775
"F_671";35;32;36;30;164,812034983031;0,552595187609477
"F_672";42;39;47;38;363,104006612007;0,61511621940582
"F_673";29;25;30;29;197,08742029495;0,56629977797723
"F_674";51;57;51;62;829,286031000841;0,627808326787117
"F_675";40;52;42;52;232,876410181061;0,602351522460053
"F_676";78;82;79;83;2002,98810817321;0,683661248930712
"F_677";37;44;39;47;324,28141889396;0,58635363169479
"F_678";89;86;86;86;2832,27904966867;0,70846876662136
"F_679";114;100;104;96;3561,9215183456;0,710652676507204
"F_680";33;39;33;43;322,378529480126;0,577345405509535
"F_681";51;58;52;58;1398,40226977752;0,662759840778417
"F_682";31;36;30;34;260,084437196166;0,606189320388348
"F_683";48;41;51;45;361,027644979759;0,609952172585732
"F_684";64;65;68;72;928,370750073203;0,627775450356095
"F_685";80;84;80;84;1506,42276677105;0,667446133288794
"F_686";68;60;66;62;1888,97256946517;0,701668129938547
"F_687";68;72;65;73;1322,56217013537;0,657705601580076
"F_688";38;40;41;43;343,809338996565;0,593935790725325
"F_689";70;57;71;60;1308,62421662984;0,66162591754512
"F_690";45;50;47;50;334,471170690071;0,582167832167831
"F_691";106;93;99;94;2592,75070442706;0,698845750262331
"F_692";61;59;69;58;1231,46574548623;0,66301642608263
"F_693";57;45;60;48;547,934109282197;0,645696434342349
"F_694";84;98;87;105;2061,59851099142;0,674810019701663
"F_695";59;52;59;52;743,666380252473;0,630250775458704
"F_696";31;31;32;31;188,900759784991;0,561367361273705
"F_697";101;89;93;93;4562,73885842865;0,732718049019012
"F_698";77;79;78;77;2647,13442035073;0,696207677565481
"F_699";27;25;29;25;108,865200834505;0,558568632932624
"F_700";75;62;74;65;2250,89772756608;0,667260380719139
"F_701";54;51;54;50;885,260287456144;0,640692640692642
"F_702";33;32;35;33;199,482224955775;0,589525448733709
"F_703";41;50;36;46;386,7770672;0,647824912185899
"F_704";84;94;91;89;3022,68674690213;0,717672413793109
"F_705";59;67;55;65;1397,3816168363;0,653653217011998
"F_706";79;102;78;107;3090,3236253448;0,694634372464947
"F_707";66;61;68;62;1429,95180416123;0,680015882920191
"F_708";48;42;48;41;395,635759633693;0,613071494323412
"F_709";46;45;46;47;372,618514008357;0,617238183503244
"F_710";48;50;46;50;743,84062455647;0,642753739745861
"F_711";42;44;45;44;355,851920965587;0,599939945951355
"F_712";73;60;71;58;1079,52977723342;0,648385526529289
"F_713";76;79;82;78;1883,42144647745;0,674240719910014
"F_714";33;26;32;25;203,028573526832;0,564725833804408
"F_715";53;53;55;56;643,197517397405;0,62718426284399
"F_716";28;22;27;22;58,0745895773759;0,53970826580227
"F_717";58;62;58;66;1337,65879973196;0,665593248570321
"F_718";60;62;56;58;838,287477539394;0,646462467644524
"F_719";43;41;47;42;395,295457391209;0,571020291511859
"F_720";43;32;46;35;318,157830023577;0,569447083412501
"F_721";69;82;71;83;2880,41973927178;0,693870463622164
"F_722";58;69;58;67;1113,31114122936;0,6385086551265
"F_723";50;51;54;52;494,029071865772;0,622171476022423
"F_724";28;26;30;28;191,000427347023;0,581800533851006
"F_725";76;74;78;70;1871,5316336144;0,682882369695245
"F_726";48;45;45;46;454,113814597628;0,616191210485735
"F_727";38;47;40;46;324,716903168862;0,591445063890669
"F_728";31;35;35;36;211,97919620762;0,56721078779276
"F_729";45;48;45;48;395,871815540592;0,614611638041527
"F_730";74;75;79;75;1666,30056190381;0,669832932893783
"F_731";52;53;54;54;244,893100224218;0,592585269401877
"F_732";98;93;93;96;3117,56378959413;0,704554804584193
"F_733";40;44;41;46;264,964437142929;0,600120144173006
"F_734";66;71;67;76;1197,32591006556;0,663273210136111
"F_735";48;45;49;46;574,465478246153;0,5936710741346
"F_736";43;47;42;45;472,02273639446;0,634386410541358
"F_737";36;33;35;35;237,614309991308;0,573012762296256
"F_738";49;51;47;48;1385,75732961202;0,685185185185189
"F_739";100;94;102;87;2686,19156385079;0,729907452508527
"F_740";78;86;79;88;2750,62197714245;0,705633056683739
"F_741";83;80;88;83;2277,29083971096;0,695399965195198
"F_742";78;70;77;69;2190,49873899711;0,701462843768291
"F_743";59;62;63;57;1426,48484527945;0,664081542211394
"F_744";41;40;44;43;325,625155446082;0,603078780561424
"F_745";72;74;76;81;1647,96376579681;0,664265528896774
"F_746";61;74;68;75;1170,58651123289;0,648000000000001
"F_747";78;88;77;93;1610,87895825944;0,673483146067419
"F_748";22;24;25;27;62,8360916416408;0,543722786647315
"F_749";101;99;97;101;2319,2362572593;0,683661248930711
"F_750";80;62;81;60;1634,51772497926;0,667186108637579
"F_751";54;52;52;50;1249,68209269326;0,672651778700484
"F_752";47;49;50;50;537,30621531322;0,629390455189795
"F_753";88;86;92;89;2375,84942708614;0,686126373626375
"F_754";53;62;55;66;607,830698875355;0,64185897092681
"F_755";84;76;76;67;1924,1260563668;0,690354160668015
"F_756";55;52;56;52;401,899832361546;0,63324705509482
"F_757";43;42;44;42;386,184304196945;0,616286243059839
"F_758";93;86;93;91;2490,21454880202;0,671220604703249
"F_759";36;41;37;44;560,685363934978;0,61540041067762
"F_760";55;61;57;59;1125,40468391145;0,641687185526177
"F_761";30;26;31;27;166,114024321897;0,589641434262946
"F_762";84;74;85;74;1564,32660037176;0,651203215818351
"F_763";33;31;34;31;143,617451629583;0,557037312392546
"F_764";42;49;46;51;886,225958695632;0,643098546215334
"F_765";53;59;54;59;642,461804672758;0,622042341220423
"F_766";112;100;108;96;5182,19940457178;0,737224032962305
"F_767";96;85;90;86;3240,49628587381;0,700970646707992
"F_768";27;30;26;31;110,004981506392;0,569934391936863
"F_769";30;32;34;34;121,977178953259;0,561525129982668
"F_770";34;37;36;40;171,489091370399;0,563504747579204
"F_771";41;37;40;36;351,408560149471;0,615274071032642
"F_772";37;51;37;48;276,187967030694;0,608064925183869
"F_773";67;60;61;56;1289,4770650704;0,656624856219535
"F_774";38;39;36;37;325,053288449795;0,61736533113606
"F_775";55;53;60;58;763,793755497961;0,633782712133232
"F_776";29;40;33;41;499,065155507662;0,607510261997671
"F_777";77;76;78;79;2560,35522385136;0,692027939733307
"F_778";33;27;33;29;220,956979201709;0,5993400659934
"F_779";67;72;64;78;2339,11836690687;0,692947976878616
"F_780";43;36;44;37;219,693549423575;0,588801571709233
"F_781";79;76;75;74;4363,80606893897;0,726501424156115
"F_782";26;33;25;34;76,8421770364249;0,550817864363168
"F_783";47;48;47;48;657,70682813923;0,637354457972252
"F_784";51;51;49;47;686,818522903458;0,613667775787048
"F_785";41;42;43;40;423,175494075937;0,611788721612655
"F_786";103;101;98;97;3242,99405667645;0,708761972330614
"F_787";66;64;72;70;1722,02434434895;0,655225185832972
"F_788";51;54;58;53;536,71416831299;0,607294832826747
"F_789";66;67;72;65;2898,97281771516;0,692107845967327
"F_790";76;78;75;74;1528,32714386972;0,694151708164452
"F_791";56;54;58;58;757,406647214297;0,644724104549857
"F_792";77;89;81;86;2571,96586484489;0,707715921837183
"F_793";43;49;45;50;410,894802188638;0,625058657907087
"F_794";45;44;45;45;1047,29814477847;0,651061749850654
"F_795";44;44;45;45;410,883743278504;0,629489603024576
"F_796";74;65;81;70;754,023407630773;0,635732088879462
"F_797";85;83;84;86;2363,97586610451;0,673748103186652
"F_798";83;79;81;77;2774,97498887649;0,69786936779602
"F_799";28;31;29;32;112,416155852744;0,552289689486778
"F_800";57;63;59;60;1511,58059349089;0,682105263157898
"F_801";27;27;27;29;140,692321057355;0,563134160090191
"F_802";75;76;76;77;1910,29215068098;0,682493595217766
"F_803";51;44;56;45;405,838566853773;0,615526802218114
"F_804";25;21;25;21;84,7023600084122;0,562447217791122
"F_805";84;81;85;79;2372,93789667157;0,693509198195073
"F_806";38;45;37;47;366,198471118157;0,606557377049179
"F_807";70;81;69;79;2199,83103297962;0,700601951960728
"F_808";34;45;35;44;568,091784145038;0,617683429513604
"F_809";59;58;56;56;997,441064318583;0,6503200607573
"F_810";94;96;95;102;2104,01349420883;0,682843472317158
"F_811";51;43;53;45;432,740596156125;0,587129003820157
"F_812";79;92;89;98;2548,03528249056;0,705716135868609
"F_813";48;38;49;40;429,655628099247;0,606588068613063
"F_814";35;38;37;41;343,379567305226;0,607233309695066
"F_815";51;57;50;55;1292,59194776454;0,636103151862466
"F_816";66;59;66;59;1359,05225791099;0,681291202546036
"F_817";38;39;40;39;244,509657786893;0,584210526315788
"F_818";35;32;36;34;191,988146743832;0,586439683005575
"F_819";49;51;48;50;556,449590959011;0,624440045838107
"F_820";79;83;83;80;1021,82578505553;0,656948706707586
"F_821";49;54;53;51;1184,23526171302;0,66815293724223
"F_822";39;40;45;39;622,149204321167;0,615748112383789
"F_823";41;54;42;53;366,650510340663;0,599489923488522
"F_824";48;42;50;42;454,415745552874;0,643996776792912
"F_825";33;32;38;35;199,187686816603;0,583556442583847
"F_826";77;87;78;89;2346,28109379391;0,688530239503763
"F_827";106;114;108;110;4096,49605854228;0,737950138504157
"F_828";85;82;85;83;2863,53823043323;0,694634372464945
"F_829";72;66;76;69;1228,45647291952;0,667892361691462
"F_830";36;46;39;45;353,323120785929;0,617810760667904
"F_831";54;50;56;50;406,773776942464;0,621945525291828
"F_832";45;60;45;58;574,856168069191;0,632912729000582
"F_833";52;52;52;53;632,054162175409;0,614643150123051
"F_834";19;24;21;26;52,9266332709209;0,539829783401631
"F_835";64;59;62;58;1065,62049543912;0,655942219304007
"F_836";88;91;89;91;1767,10957764802;0,678937531857055
"F_837";82;76;79;75;1165,16073649281;0,649720882337003
"F_838";34;36;36;36;235,169780869022;0,586784140969161
"F_839";29;37;31;37;207,263547751972;0,600420715215865
"F_840";58;51;57;46;884,183541930669;0,65123859191656
"F_841";70;57;73;54;1309,67477954203;0,66500249625562
"F_842";44;45;47;44;458,371078945459;0,617047560222359
"F_843";54;53;56;59;1041,53150633721;0,653119041133209
"F_844";52;51;53;53;919,916481786035;0,643512802619574
"F_845";47;57;46;60;816,79200525286;0,623303696771174
"F_846";104;101;102;100;2990,29560932676;0,720822560279003
"F_847";95;85;94;91;3456,88535975826;0,712130212664848
"F_848";71;68;71;72;1418,9817532243;0,663456749128344
"F_849";59;51;58;51;419,915939054229;0,593729879649347
"F_850";44;43;49;48;963,01167013913;0,631047007422225
"F_851";32;30;33;28;226,319972758546;0,57260221627818
"F_852";36;45;35;46;262,218949652759;0,602412060301506
"F_853";53;50;51;52;826,382010949568;0,641962086323232
"F_854";45;49;45;49;341,028379564002;0,594082957530104
"F_855";81;87;82;87;2610,54898432668;0,700847705349315
"F_856";75;69;79;69;1180,91366371226;0,655332640900892
"F_857";67;56;72;61;677,600535901753;0,637456131022015
"F_858";46;32;49;33;281,822332424467;0,58635363169479
"F_859";70;63;65;57;848,929452809332;0,640555703980766
"F_860";35;33;36;34;264,927220332858;0,605515708657439
"F_861";57;59;52;55;1478,93154371705;0,640829635965149
"F_862";73;69;73;65;1342,90936479458;0,672500841467524
"F_863";96;96;86;95;2073,75356636507;0,70269636576788
"F_864";57;70;58;66;877,154499458465;0,635732088879461
"F_865";48;56;54;60;738,85513657537;0,631213142375738
"F_866";46;48;43;47;516,880129679018;0,60585232728559
"F_867";74;82;73;79;2570,94164385729;0,702325853887169
"F_868";55;48;58;50;770,630813550543;0,652230685527754
"F_869";56;62;52;62;642,486933538557;0,627611119836659
"F_870";62;66;62;65;860,742289037224;0,654188267394274
"F_871";78;79;77;75;2790,54001372716;0,695521002552802
"F_872";28;25;29;24;110,873244729248;0,56273764258555
"F_873";32;37;32;39;349,408684609916;0,605699272433306
"F_874";54;58;57;58;857,158402199277;0,644031374234449
"F_875";59;61;59;63;844,289978077335;0,648210230344979
"F_876";100;80;97;80;2916,94654558956;0,715658766640801
"F_877";73;63;74;62;2074,28951151459;0,685733897723376
"F_878";100;91;102;90;3972,73045572918;0,727471327143641
"F_879";54;56;53;57;768,160934697201;0,660641463683464
"F_880";47;44;51;44;468,446188371063;0,631978491222523
"F_881";61;65;62;72;1137,7554547931;0,654152570118958
"F_882";55;45;55;44;380,414389656958;0,617301750772399
"F_883";30;30;31;32;129,891799334874;0,549454578788157
"F_884";45;40;45;41;302,328589550281;0,597309417040357
"F_885";40;43;40;46;441,196388348918;0,643374657865082
"F_886";29;22;31;24;89,2830450120894;0,543525571273124
"F_887";10;12;10;12;12,9014554974975;0,519118347551207
"F_888";86;83;85;79;2028,64702273921;0,679091372571236
"F_889";62;70;61;69;1570,57722466041;0,670844991606049
"F_890";79;91;81;91;2523,38286979431;0,697179412619951
"F_891";108;113;106;110;4312,14559055038;0,739954323807175
"F_892";76;80;79;79;1907,73432994421;0,691588785046733
"F_893";106;100;106;103;2887,80391172919;0,71987029364079
"F_894";64;60;71;65;664,436799038692;0,639360000000001
"F_895";46;58;50;57;764,965294049527;0,656624856219535
"F_896";73;73;75;75;1827,18222249616;0,678899082568809
"F_897";75;82;76;80;1704,5004322199;0,666185051403169
"F_898";46;43;50;46;318,277691094551;0,572219570405727
"F_899";71;67;71;72;643,141150372142;0,642340459733163
"F_900";110;111;102;106;4322,10301802174;0,730218675762932
"F_901";36;36;35;33;973,228272667487;0,653938468252245
"F_902";48;48;46;45;612,540118624091;0,659587345254478
"F_903";65;67;69;69;3060,25446815525;0,688846750560252
"F_904";83;77;83;80;2615,627515357;0,701462843768287
"F_905";38;29;42;31;130,957166579195;0,567183951551854
"F_906";37;34;38;35;393,03347552959;0,620593259822954
"F_907";46;51;47;49;599,865261175503;0,613040143185885
"F_908";90;91;82;84;1963,85255987327;0,685420240137223
"F_909";116;100;118;101;4494,91963712067;0,741143740340034
"F_910";70;61;69;66;1130,0048077002;0,656193551918552
"F_911";69;59;70;57;986,977310819987;0,657994401449039
"F_912";39;38;40;41;421,324311619245;0,610293743318229
"F_913";38;40;38;40;167,33949033861;0,569880205362235
"F_914";85;86;89;95;2656,84962184682;0,685302692505578
"F_915";70;76;73;81;1185,4997663301;0,673104997192591
"F_916";90;88;89;86;2581,67397345371;0,702408156090703
"F_917";100;90;95;81;4609,11953564506;0,729197080291975
"F_918";40;43;42;46;294,82126793694;0,592526690391458
"F_919";61;58;58;60;838,808137318432;0,625613192777371
"F_920";29;38;29;39;261,445664801509;0,605576884219033
"F_921";98;87;97;83;3615,21343947324;0,715189118243651
"F_922";67;74;68;75;1603,24169204089;0,66949625823747
"F_923";50;40;49;43;412,51614631095;0,602018781700396
"F_924";87;88;90;90;2855,44770529173;0,696612237782557
"F_925";53;47;55;44;914,276850371225;0,666518403202497
"F_926";41;42;42;43;195,744730664954;0,569961489088574
"F_927";54;54;57;58;447,482233298061;0,611882400979991
"F_928";32;29;30;31;162,420195015605;0,580476467170248
"F_929";74;90;74;89;2905,92969656381;0,69330865768319
"F_930";59;45;61;46;452,751815329758;0,616254562278311
"F_931";76;77;79;77;1275,35107116123;0,656840721056382
"F_932";62;63;69;62;1465,67088841332;0,664412791664364
"F_933";74;81;73;78;1596,15519910192;0,689242798827116
"F_934";84;85;80;87;1762,40387581809;0,69523864756713
"F_935";42;49;44;51;702,718864027942;0,615779741113621
"F_936";24;30;25;29;119,848486494086;0,587704676929109
"F_937";35;38;35;40;356,330063839435;0,621043361135575
"F_938";87;82;83;84;2926,30478555521;0,693950795947904
"F_939";34;34;36;37;203,696825861698;0,566166052706148
"F_940";37;36;40;39;247,999852281555;0,577067488206411
"F_941";40;44;40;44;542,373718026149;0,627446875327123
"F_942";28;36;29;40;263,735895549279;0,600330512294055
"F_943";73;71;76;70;1433,90439831235;0,678284485685191
"F_944";68;66;66;67;2192,28838724924;0,687070151306742
"F_945";74;81;79;80;2273,82858630395;0,687345909064849
"F_946";66;81;67;81;922,801282219571;0,649509671127488
"F_947";72;85;76;85;1549,01456876967;0,657561296692449
"F_948";67;65;68;65;1444,74862890423;0,670244884267026
"F_949";46;38;43;37;437,557379737062;0,611695070925604
"F_950";38;47;37;44;463,619185083547;0,610418045725342
"F_951";91;93;92;100;2057,98730551947;0,688451157181419
"F_952";73;73;77;78;1160,32739017876;0,643167551907291
"F_953";84;84;87;88;2170,023046339;0,692627686618908
"F_954";42;49;39;49;473,48718432539;0,618161192182746
"F_955";77;83;72;81;1849,69506639308;0,691668589891533
"F_956";48;56;49;57;743,640663371664;0,632612137203168
"F_957";38;35;36;34;376,429447257815;0,619182893445587
"F_958";68;58;64;56;538,569728939717;0,629291338582677
"F_959";69;64;73;67;1593,00088579659;0,692988033990409
"F_960";68;71;67;70;901,046137995878;0,654795717719033
"F_961";64;70;66;74;562,750018242601;0,616952292728113
"F_962";67;63;74;58;1238,37336002762;0,671032745591942
"F_963";70;75;73;75;852,984822310945;0,639223632291778
"F_964";34;39;37;39;353,727564757176;0,586468372388825
"F_965";61;61;64;63;993,297132760599;0,645939975214186
"F_966";49;53;53;55;510,94307826786;0,618831302911418
"F_967";77;73;77;71;1769,86120323145;0,670882533997428
"F_968";30;27;31;28;414,659020477681;0,573094942155079
"F_969";30;29;32;28;141,342092072318;0,559454918797834
"F_970";20;26;20;26;94,6869563326718;0,560213094069815
"F_971";36;34;35;38;260,41295531807;0,595144715285706
"F_972";94;86;93;86;2746,22929375797;0,698316537542964
"F_973";65;59;64;58;1129,71712865009;0,652727866710228
"F_974";40;37;40;37;377,756848603962;0,611570247933883
"F_975";79;86;76;82;1970,8008399262;0,678092652299341
"F_976";63;66;58;63;1610,11022575419;0,660059464816653
"F_977";44;52;46;54;387,604353051261;0,599879903923136
"F_978";73;75;69;70;1747,24199250733;0,647265266454297
"F_979";44;40;41;38;768,279272073271;0,637523931078497
"F_980";36;37;39;38;349,264577073451;0,614076426595636
"F_981";59;51;62;54;1102,28200612883;0,627118644067797
"F_982";108;92;106;90;3938,23334802715;0,720562601430549
"F_983";30;25;30;26;159,831888950171;0,562104374736248
"F_984";56;61;56;60;512,897016048316;0,620143810459882
"F_985";41;36;40;37;339,113223384791;0,620015515903801
"F_986";33;39;33;40;145,606612486527;0,558620689655172
"F_987";62;70;52;65;1805,69003708056;0,666037002055677
"F_988";68;76;65;74;2849,69362545598;0,695843974924545
"F_989";27;28;30;31;124,918195552244;0,546075707192639
"F_990";60;70;69;79;1561,82223042323;0,670957631387476
"F_991";60;68;57;71;1232,51625475062;0,661443389980142
"F_992";91;79;94;81;1672,67082251024;0,668488261863605
"F_993";60;52;61;54;653,505273002536;0,628829206882082
"F_994";62;57;61;58;1688,87636371311;0,668078466339727
"F_995";91;107;85;98;2553,36814728697;0,710273729114827
"F_996";29;26;28;27;168,06602740887;0,552315134761575
"F_997";88;106;87;106;2496,45425369999;0,690672351212769
"F_998";66;64;68;64;1420,23019856162;0,656409133220174
"F_999";76;64;83;71;922,518993372633;0,646462467644522
"F_1000";62;75;65;72;2180,04528915648;0,685694674826976
