"Roost";"In";"Out";"InLink";"OutLink";"Betweeness";"Closeness"
"R_1";21;21;10;9;7,41666666666667;0,550912301353737
"R_2";22;22;11;11;88,3833333333333;0,661016949152543
"R_3";23;23;7;7;41,25;0,542608695652174
"R_4";22;22;9;9;272,727777777778;0,709090909090909
"R_5";25;25;13;13;398,611904761905;0,700074794315632
"R_6";26;27;11;11;262,569444444444;0,722222222222222
"R_7";19;19;6;7;22,2051587301587;0,561824729891957
"R_8";17;17;5;4;15,8166666666667;0,551561579257513
"R_9";24;24;12;12;268,138888888889;0,647302904564316
"R_10";18;18;5;4;2,75;0,449136276391555
"R_11";20;20;7;7;11,0333333333333;0,469643753135976
"R_12";22;22;8;7;49,4833333333333;0,502145922746781
"R_13";25;25;11;9;103,383333333333;0,693333333333334
"R_14";24;24;10;11;505,565079365079;0,751807228915663
"R_15";24;24;10;11;170,275;0,664300922640171
"R_16";24;24;14;14;411,373809523809;0,650904033379694
"R_17";23;23;12;11;98,7333333333334;0,630303030303031
"R_18";21;21;6;6;156,394444444444;0,598083067092652
"R_19";19;18;6;6;12,9583333333333;0,56453558504222
"R_20";22;22;12;10;16,0982142857143;0,566585956416465
"R_21";22;22;9;9;161,647222222222;0,561487702459508
"R_22";21;21;7;8;24,3666666666667;0,566929133858268
"R_23";21;21;12;11;69,0857142857143;0,641975308641975
"R_24";27;27;13;11;150,219444444444;0,680232558139535
"R_25";15;15;1;1;0;NA
"R_26";25;25;11;10;655,553968253968;0,757281553398058
"R_27";21;21;10;8;23,1154761904762;0,534857142857143
"R_28";17;17;5;8;14,9166666666667;0,618229854689564
"R_29";24;24;14;15;78,1059523809524;0,688235294117647
"R_30";20;20;7;8;106,367857142857;0,608187134502924
"R_31";22;22;12;10;702,938095238095;0,752411575562701
"R_32";21;22;12;13;250,394444444444;0,791208791208791
"R_33";17;17;5;5;65,1083333333333;0,456585365853659
"R_34";23;23;12;10;278,075;0,677279305354559
"R_35";30;29;13;14;295,951984126984;0,674837779379957
"R_36";20;20;5;5;28,5583333333333;0,490309062336302
"R_37";24;24;10;9;494,613492063492;0,745816733067729
"R_38";20;21;7;7;62,8666666666667;0,621101526211015
"R_39";22;22;11;12;540,42003968254;0,7488
"R_40";23;24;12;15;668,420833333333;0,75
"R_41";24;24;7;7;135,071428571429;0,604651162790698
"R_42";20;20;7;6;25,2;0,539170506912442
"R_43";17;17;5;3;6,83333333333333;0,379254457050243
"R_44";21;21;11;10;144,868452380952;0,558139534883721
"R_45";26;26;11;12;14;0,598083067092652
"R_46";25;25;10;11;275,804761904762;0,614576493762311
"R_47";16;16;3;4;14,4583333333333;0,37987012987013
"R_48";21;20;9;9;24,2833333333333;0,54292343387471
"R_49";26;26;12;12;257,683333333333;0,705350414468727
"R_50";23;22;14;12;49,0833333333333;0,602316602316602
"R_51";19;19;8;8;37,6416666666667;0,646408839779006
"R_52";25;24;11;12;128,227777777778;0,730109204368175
"R_53";24;24;10;11;208,460714285714;0,725581395348837
"R_54";20;20;7;7;136,277777777778;0,55417406749556
"R_55";21;21;9;9;215,905555555556;0,581005586592179
"R_56";21;21;8;8;100,222222222222;0,618229854689564
"R_57";27;27;14;14;904,692460317461;0,816753926701571
"R_58";24;23;10;7;65,425;0,621101526211015
"R_59";21;21;8;6;175,078571428571;0,640218878248974
"R_60";18;18;4;3;27,2777777777778;0,530311614730879
"R_61";18;18;4;4;17,3553571428571;0,518559556786704
"R_62";28;28;11;13;135,920238095238;0,633288227334236
"R_63";20;20;8;7;15,2468253968254;0,553846153846154
"R_64";24;24;14;14;382,786904761905;0,765957446808511
"R_65";24;24;10;11;278,178571428571;0,747007182761373
"R_66";25;25;11;11;30,0333333333333;0,63716814159292
"R_67";21;21;9;10;403,773809523809;0,71395881006865
"R_68";24;24;11;12;274,295833333333;0,66430092264017
"R_69";21;21;7;8;196,75;0,662889518413598
"R_70";21;21;8;11;112,141666666667;0,579566563467492
"R_71";30;30;16;15;1128,73174603175;0,870697674418604
"R_72";18;18;5;7;22,4333333333333;0,606610499027868
"R_73";17;17;3;5;25,5333333333333;0,49211356466877
"R_74";23;23;9;10;90,8261904761905;0,638907849829352
"R_75";20;20;7;6;6,83333333333333;0,505399568034557
"R_76";16;16;3;4;0;0,428767750801649
"R_77";19;19;8;9;75,625;0,489539748953975
"R_78";24;24;14;14;383,112301587302;0,739336492890995
"R_79";18;18;4;4;65,1833333333333;0,560814859197124
"R_80";20;20;6;5;10,5666666666667;0,476093591047813
