"ID";"density";"cell_id";"lon";"lat"
"R_1";2,51836240442288e-05;1806890;472296,80531957;949034,16326953
"R_2";1,72311306964125e-05;300384;463717,685884527;951624,577194845
"R_3";9,21722537613629e-06;4434888;467162,332324355;944508,440098854
"R_4";1,10732656649712e-05;1267281;461377,926038606;949959,3111
"R_5";2,13620729944623e-05;1802472;464732,581715129;949039,164068614
"R_6";9,81510941226279e-06;7336689;465692,483190379;939512,641814318
"R_7";6,03797941308182e-06;3256684;458768,193902771;946533,76372772
"R_8";1,18267258496902e-05;2654028;466687,38107358;947573,929937113
"R_9";1,45982293883069e-05;817172;462207,840855749;950734,434957961
"R_10";1,71721560778382e-05;2532448;468837,160419191;947783,963498625
"R_11";2,00971402771128e-05;3898489;472291,805832719;945433,587929324
"R_12";2,04808136164846e-05;6180703;466712,378507831;941502,959849599
"R_13";1,84972844010435e-05;1372523;464687,586333477;949779,28233299
"R_14";2,09553242429565e-05;6113886;466702,379534131;941617,978228522
"R_15";1,07940516156799e-05;6428878;458438,227770654;941072,891128408
"R_16";9,91530352839909e-06;4496983;458088,263691136;944398,422519015
"R_17";1,69846587837176e-05;4281362;469357,107051618;944773,482450286
"R_18";1,581189656279e-05;420480;468672,177353133;951419,544432417
"R_19";1,49989882542565e-05;700868;461687,894223322;950934,466921306
"R_20";1,21487358121221e-05;4675456;464427,613017263;944093,373774914
"R_21";1,78748690790753e-05;2613975;469772,064460189;947643,941124284
"R_22";1,48468362038944e-05;5239067;464632,591978124;943123,218752692
"R_23";2,06767370338205e-05;3387035;471421,895120775;946313,728568041
"R_24";1,48841741325327e-05;2441835;466047,446756747;947938,988270218
"R_25";1,13317785203268e-05;6750302;467807,266128038;940522,80322921
"R_26";1,40798139943468e-05;2586285;462047,85727654;947688,948316037
"R_27";1,34041919432188e-05;5290814;461917,870618434;943033,204369187
"R_28";1,35361518192711e-05;6361027;467782,268693787;941192,910306415
"R_29";2,10179873000468e-05;1443712;472031,832516506;949659,263154983
"R_30";6,27330149387253e-06;854450;459773,090759673;950669,424569874
"R_31";1,23031617426256e-05;1818541;457928,280111928;949009,159274112
"R_32";1,59657137580981e-05;2627657;465557,497045422;947618,937128866
"R_33";1,85405947309857e-05;7240072;461932,869078984;939677,668184078
"R_34";1,24272284142432e-05;1301149;470941,94438315;949904,30231008
"R_35";8,03025482958562e-06;5918579;463342,724370757;941953,031767125
"R_36";1,25853689354526e-05;7507653;463537,704357917;939217,594668385
"R_37";1,05916496361574e-05;3280742;462857,774146282;946493,757335052
"R_38";1,23551241961234e-05;4080276;466152,435980602;945118,537587056
"R_39";1,03517190075656e-05;7052737;469382,104485869;940002,720124513
"R_40";1,75753808414191e-05;5630593;461387,925012306;942448,110876403
"R_41";1,5370230461048e-05;4549174;472116,82379296;944313,408934593
"R_42";1,17775229501611e-05;5405108;466912,357981842;942838,173204925
"R_43";8,48622122394597e-06;734597;470556,98389568;950879,458131386
"R_44";1,23300519918885e-05;4925132;463657,692042324;943663,305053723
"R_45";1,17280096195719e-05;2798882;464707,584280878;947323,889982932
"R_46";1,99860119601995e-05;5586855;460573,008655714;942523,122862658
"R_47";2,18130492815073e-05;137609;463242,734633752;951904,621943528
"R_48";1,97333711826158e-05;7352458;471911,8448321;939487,6378189
"R_49";1,18835083931935e-05;3763622;466107,44059895;945663,624687171
"R_50";2,01831335169602e-05;5371873;460513,014813511;942893,181994845
"R_51";2,22712864613236e-05;7413191;470551,98440883;939382,621038144
"R_52";1,17658277016068e-05;7097498;460787,986590275;939922,707339175
"R_53";1,90054776869431e-05;2491838;469137,129630207;947853,974685796
"R_54";1,66055895893756e-05;4714304;469842,057276093;944028,363386827
"R_55";1,81059801925215e-05;3250382;470831,955672444;946548,766124971
"R_56";1,78004290661618e-05;5860862;465257,527834406;942053,047748797
"R_57";1,25404804143222e-05;745354;466242,426743907;950859,454935052
"R_58";2,16457452454863e-05;1665938;464737,581201979;949274,201625544
"R_59";1,45786340440115e-05;480999;466242,426743907;951314,527651661
"R_60";1,66876253824669e-05;2152349;471116,926422909;948439,06817858
"R_61";1,10476890169121e-05;882376;468677,176839983;950624,417378121
"R_62";1,64165546336246e-05;4505199;470117,029052857;944388,420920848
"R_63";2,06050150833997e-05;7311591;470926,945922599;939557,649006071
"R_64";1,3061806458723e-05;3106237;461832,879341979;946793,805280069
"R_65";1,5096118227597e-05;1998082;469607,081394131;948704,110530011
"R_66";1,690716908443e-05;7144218;461987,863434337;939842,694553837
"R_67";9,74972724635157e-06;2262070;467772,269720086;948249,037813402
"R_68";1,48366019861173e-05;4429422;468882,155800843;944518,441697022
"R_69";1,96125465070873e-05;1755901;464277,628411756;949119,176853952
"R_70";1,92471720240125e-05;5215039;460692,996340121;943163,225145361
"R_71";1,69315772073036e-05;286666;467752,271772685;951649,581190263
"R_72";2,15738651520358e-05;5956901;466127,438546351;941888,021379038
"R_73";1,09297184502222e-05;2307519;462617,79877747;948169,025028064
"R_74";1,83119771127799e-05;5712717;465307,522702909;942308,088502062
"R_75";6,7496747159131e-06;2359312;460133,053812892;948079,010644559
"R_76";1,6534429941308e-05;2271463;471161,921804561;948234,035416151
"R_77";2,05088713964136e-05;3241752;471256,912054716;946563,768522222
"R_78";1,06874332156703e-05;6071755;459398,129245904;941687,989415693
"R_79";5,63350133519928e-06;5882164;470092,031618606;942018,042155212
"R_80";1,24232546054543e-05;5289966;472201,815069415;943038,20516827
