"Foraging";"In";"Out";"InLink";"OutLink";"Betweeness";"Closeness"
"F_1";86;97;88;101;2413,40208002357;0,701175644849975
"F_2";44;46;45;43;573,915694350184;0,637557836515452
"F_3";72;74;70;74;1491,81593278847;0,663897657418178
"F_4";31;35;31;36;147,641307312399;0,608651502843219
"F_5";75;83;82;89;2230,84471954108;0,689996546563834
"F_6";47;38;49;42;228,124195180862;0,614139344262294
"F_7";55;52;51;53;814,206188668304;0,642857142857146
"F_8";74;73;68;73;1659,15002104388;0,688609339996559
"F_9";65;64;65;61;1811,27775412923;0,676829268292687
"F_10";71;70;74;72;1263,48913710327;0,663163135476021
"F_11";45;41;47;43;347,894007890811;0,597130902570232
"F_12";90;89;90;89;1654,08047280455;0,675913396481734
"F_13";101;104;104;105;3311,10272895356;0,706464729801405
"F_14";85;88;90;88;2649,83743933514;0,700151851419229
"F_15";48;46;45;44;838,245345638721;0,660132158590316
"F_16";75;73;80;79;1594,615140548;0,671860113209664
"F_17";49;40;45;38;825,450205231709;0,641549823397197
"F_18";27;23;30;25;96,9237524591269;0,546050833561083
"F_19";52;58;56;58;867,050871600159;0,680517711171667
"F_20";46;47;44;42;476,071234006161;0,628961175236098
"F_21";43;46;45;46;435,922137678155;0,626266847769303
"F_22";79;83;85;86;1825,81281524291;0,668264674731035
"F_23";52;63;51;68;997,761692676463;0,659659935068515
"F_24";82;72;85;72;2531,47438784545;0,702284710017577
"F_25";86;89;81;93;2991,65704135303;0,709685058015632
"F_26";58;62;55;64;1555,594529961;0,66290643662907
"F_27";61;61;67;62;1519,11022934662;0,663199822969689
"F_28";92;85;94;80;2726,56384976728;0,698397902709002
"F_29";36;37;37;39;162,408732545118;0,569555302166476
"F_30";54;56;52;51;1097,95985840639;0,662686567164186
"F_31";87;83;94;89;2024,01017497355;0,686479986256658
"F_32";101;105;106;101;2888,50485163858;0,715829700841944
"F_33";87;93;88;95;2490,49831411643;0,682687927107062
"F_34";83;90;80;84;1715,92431721123;0,679437769213332
"F_35";40;41;41;44;299,527244964832;0,578292329956583
"F_36";100;101;101;99;3244,51836186011;0,715701492537315
"F_37";74;65;73;63;1667,99487900281;0,682105263157897
"F_38";68;66;68;66;1030,51227491569;0,66559324857032
"F_39";59;55;65;57;577,364574416687;0,622074619895178
"F_40";53;58;58;62;800,937151138173;0,641755888650965
"F_41";28;33;28;34;254,851956538838;0,615084658799385
"F_42";55;50;57;52;536,976948603839;0,610635696821515
"F_43";109;104;107;104;3786,34721409724;0,721343041097541
"F_44";41;37;38;34;726,209173872482;0,622300664451828
"F_45";57;50;63;53;769,897816602013;0,64223722275796
"F_46";50;55;50;55;1534,8436922382;0,695642082051882
"F_47";62;64;61;62;522,840242375505;0,609952172585732
"F_48";42;41;43;42;304,90876552383;0,594082957530105
"F_49";38;37;39;37;252,822824734644;0,57208303507516
"F_50";65;64;68;67;589,180395321828;0,634285714285714
"F_51";70;58;69;55;1864,87635091421;0,671370967741937
"F_52";45;38;47;41;224,664262317601;0,585494505494504
"F_53";46;46;43;44;467,974235863013;0,63837265030087
"F_54";22;23;22;23;54,8884774499925;0,535513267220585
"F_55";67;73;68;71;3074,82825993618;0,695198329853869
"F_56";71;71;68;74;1420,22659831989;0,65372450648926
"F_57";99;89;99;93;2117,60722482387;0,698479286837967
"F_58";47;50;49;55;347,316310310361;0,604996214988644
"F_59";86;90;88;89;2680,20906872252;0,715445213654816
"F_60";59;55;57;58;814,046867952645;0,639974375400385
"F_61";57;48;57;49;698,422368638298;0,620753935376968
"F_62";52;52;46;49;588,024926207147;0,597249900358708
"F_63";61;66;63;64;1243,06346957401;0,656337257049006
"F_64";76;74;81;82;1708,33207403572;0,6449669123581
"F_65";43;49;48;54;248,920720868878;0,613196930946291
"F_66";59;55;62;57;729,411437788918;0,652479181407502
"F_67";91;99;92;96;2538,76475539877;0,709475054743448
"F_68";19;18;20;18;46,1714599126364;0,535728649953078
"F_69";80;67;77;69;1830,13621672173;0,688767595518535
"F_70";32;32;33;29;240,197176669185;0,60432525079397
"F_71";82;63;84;62;1300,48932705948;0,666074008223138
"F_72";26;33;25;32;167,703875484134;0,570368255780758
"F_73";66;72;61;67;1687,24570728477;0,674810019701664
"F_74";61;63;62;67;1100,62193488511;0,670732389638005
"F_75";88;76;85;77;2177,33584643207;0,676523702031606
"F_76";50;39;49;40;502,086249010446;0,639019189765465
"F_77";41;46;43;46;302,651618332184;0,595440321859633
"F_78";41;47;43;50;236,444875041475;0,589061962557121
"F_79";26;28;25;27;103,669083098368;0,566219535235215
"F_80";44;44;44;46;384,227540459288;0,617460726242596
"F_81";72;73;75;80;2072,1158662322;0,687543014452862
"F_82";46;58;45;55;739,114153095756;0,621526337619244
"F_83";106;114;109;108;4376,26484092487;0,737133370226898
"F_84";107;105;104;102;3131,4296107068;0,715487914055507
"F_85";47;45;48;45;532,874667005477;0,630416491375685
"F_86";55;51;60;56;702,979515372847;0,619695011630912
"F_87";62;61;55;58;1255,4585227931;0,650531799435644
"F_88";78;77;79;76;2246,64436956925;0,681523592950542
"F_89";108;120;108;119;4455,7980565607;0,726281352235552
"F_90";83;88;92;88;2868,0941769342;0,729197080291976
"F_91";63;72;64;69;928,111019669232;0,651982378854629
"F_92";40;38;43;39;263,89940095013;0,588628105666306
"F_93";48;57;52;57;457,979980568787;0,622462225453034
"F_94";32;30;32;32;270,009358030696;0,588859416445622
"F_95";35;41;38;42;165,467659941887;0,577150835299214
"F_96";24;30;29;31;155,680373890004;0,548926232886121
"F_97";80;91;90;97;2182,5461900294;0,708468766621359
"F_98";97;107;99;116;4384,43477015599;0,7219512195122
"F_99";47;47;50;45;403,015388319029;0,613291042103647
"F_100";109;117;105;111;4565,16818885064;0,727603787327025
"F_101";80;87;78;88;1188,58830533583;0,651592564409176
"F_102";88;93;88;92;2468,03205859005;0,706589649888016
"F_103";53;59;49;61;759,539114238491;0,639496425904195
"F_104";104;90;100;86;5345,11485851246;0,727074235807865
"F_105";75;73;74;75;2316,02554803226;0,704389212057116
"F_106";33;31;36;34;163,423739574456;0,562051666744807
"F_107";40;35;41;34;319,923746312373;0,612413793103447
"F_108";27;26;28;26;66,4546938602256;0,550438495798705
"F_109";46;37;45;39;194,660918776231;0,601505268439537
"F_110";57;43;55;42;728,430508962892;0,635833244934763
"F_111";43;47;38;43;817,869069667435;0,666703742839667
"F_112";45;42;46;43;300,295443678019;0,60432525079397
"F_113";68;65;73;65;1460,25031640119;0,671747170234228
"F_114";64;55;58;53;573,179820904537;0,640145244833664
"F_115";78;73;78;79;1209,19846844202;0,669234634064648
"F_116";88;78;91;81;1595,53676878415;0,667037614066328
"F_117";40;44;41;44;398,01543905545;0,612194872842405
"F_118";50;54;52;57;709,759012822395;0,654616938786656
"F_119";66;72;63;66;1474,3814217632;0,681291202546037
"F_120";54;42;58;41;644,842879238276;0,616159539473684
"F_121";35;41;35;37;316,816548263442;0,624570178180683
"F_122";47;47;44;46;574,604297614893;0,618607771298828
"F_123";66;74;67;81;2318,00501714396;0,684051355206848
"F_124";57;60;57;62;827,126203017619;0,627972760607648
"F_125";33;26;31;25;227,425125984699;0,597517818870556
"F_126";78;80;74;80;2581,58471542246;0,722168674698799
"F_127";69;65;69;70;848,706976535856;0,640179429669978
"F_128";37;45;42;47;250,24360495582;0,601837441638636
"F_129";48;54;48;54;371,167992722104;0,592029236011654
"F_130";75;75;82;77;1851,99398367598;0,697788125727592
"F_131";69;64;71;68;1241,51456115903;0,66737181985192
"F_132";100;95;103;92;4313,28165276668;0,720649233543735
"F_133";82;92;83;86;2126,84372402117;0,697950628784352
"F_134";69;69;66;67;2163,48112404027;0,696571760604304
"F_135";30;33;30;36;154,735755072608;0,576484731906707
"F_136";87;90;88;94;2639,37230997455;0,69238766316276
"F_137";99;87;91;80;3634,81470114904;0,721386448429419
"F_138";64;69;61;68;1000,27226076611;0,658898537979557
"F_139";58;54;59;53;320,188226253245;0,589728453364816
"F_140";59;56;58;56;1063,74250487002;0,641652839479742
"F_141";84;89;84;89;3210,94409194457;0,685067718155326
"F_142";65;49;64;49;467,605321600613;0,608898821617227
"F_143";49;47;49;48;303,038421035635;0,603412694417878
"F_144";80;82;83;77;2007,99789037263;0,693790149892936
"F_145";42;47;43;49;430,263826380806;0,60213973579788
"F_146";43;38;45;44;286,106873510191;0,609239213294708
"F_147";92;91;90;82;2115,45591787332;0,682843472317158
"F_148";56;54;54;55;354,482959594536;0,623985009369143
"F_149";83;83;80;79;3734,77646568106;0,719006777424583
"F_150";47;46;44;41;411,565905660533;0,620496894409937
"F_151";87;67;85;64;1757,14396184448;0,665113182423437
"F_152";80;79;80;75;2821,24539307221;0,704223697350647
"F_153";78;92;79;96;1947,92589882699;0,663199822969686
"F_154";73;79;71;79;823,144483489132;0,62616871245756
"F_155";91;88;87;87;1778,7819090181;0,673785971223024
"F_156";84;86;89;87;3277,26942346413;0,724613152804643
"F_157";87;79;87;80;1736,66824611261;0,691070502104114
"F_158";95;96;97;93;2661,79016713308;0,689798032107719
"F_159";34;38;33;43;321,206174558747;0,591590998815632
"F_160";61;61;65;60;999,853643221137;0,657020716869453
"F_161";101;104;103;109;3141,59401457003;0,707674144037782
"F_162";54;48;54;45;315,591993121619;0,580588919023633
"F_163";55;48;52;46;520,957437455479;0,618735483870968
"F_164";40;41;43;44;304,968018589807;0,588657009575251
"F_165";49;52;50;56;708,238851010639;0,619023030052669
"F_166";84;84;85;91;2162,11962766972;0,673596673596675
"F_167";52;68;53;70;986,06623316948;0,644654764465478
"F_168";30;36;33;40;211,770702142861;0,567667392745524
"F_169";29;28;29;29;172,77141672049;0,583726931879046
"F_170";28;36;27;36;198,209203225951;0,581687612208258
"F_171";81;93;83;95;2773,18843629439;0,689559965487492
"F_172";31;30;31;32;94,8357825029761;0,583954405962296
"F_173";39;42;38;42;258,984349505022;0,626332288401256
"F_174";67;53;66;57;884,16406243108;0,633481293595436
"F_175";103;95;98;81;3581,7351547391;0,728532360984507
"F_176";55;51;56;53;558,160380561198;0,613447958243782
"F_177";103;91;104;92;2681,64114356506;0,71174968829781
"F_178";45;39;42;38;255,663763660668;0,589293614511132
"F_179";36;36;38;31;464,124423023219;0,61991932981694
"F_180";24;22;26;23;53,8436799944201;0,543994191586877
"F_181";44;51;43;49;210,018136761764;0,619118938181067
"F_182";50;57;48;51;587,445044632442;0,637354457972249
"F_183";48;51;46;48;484,890843372788;0,623855120732723
"F_184";83;85;85;84;2349,01718114696;0,695601717535107
"F_185";48;44;47;47;338,069658736212;0,596833615453548
"F_186";67;55;71;54;1007,45968140816;0,633280507131538
"F_187";21;24;21;24;59,8373235218514;0,53656789902426
"F_188";56;48;57;48;740,426781918256;0,662064394985367
"F_189";42;49;44;47;337,780170596893;0,598621791670826
"F_190";56;59;55;61;469,772131183772;0,632946145723337
"F_191";24;27;25;29;81,1358366992264;0,586296278182617
"F_192";70;70;69;67;1378,30674666784;0,641755888650965
"F_193";30;28;33;29;228,082937162952;0,59153261620448
"F_194";23;28;24;32;92,9747809459232;0,543624161073826
"F_195";65;61;66;59;530,795463380643;0,631146677898283
"F_196";111;105;112;107;3152,30837570509;0,710021321961622
"F_197";62;67;63;70;1283,6187852593;0,670095025153719
"F_198";38;37;37;32;248,115951081432;0,594406981356604
"F_199";95;99;93;95;5089,68578356092;0,746683276237935
"F_200";36;32;36;36;260,009510761018;0,569474134245403
"F_201";66;52;69;52;1165,11570648555;0,623465779072186
"F_202";44;39;46;41;807,797999696601;0,639974375400389
"F_203";90;90;86;89;2873,3025585592;0,705342433513772
"F_204";55;51;56;51;444,975842506287;0,607910750507098
"F_205";105;93;104;95;4182,23142357745;0,722473332128009
"F_206";65;76;62;72;1672,48421483216;0,680054458815526
"F_207";89;74;88;70;2287,3049628761;0,695561357702352
"F_208";68;69;70;67;2387,77607598701;0,689401345678309
"F_209";86;89;87;93;3181,17740162978;0,702613996014537
"F_210";31;31;32;35;125,700161234178;0,565658472137025
"F_211";23;29;23;30;77,0424517338991;0,542051003798156
"F_212";62;56;62;65;788,319425679073;0,649122807017546
"F_213";43;46;43;49;292,611018049711;0,571483052867425
"F_214";41;44;40;46;209,554527127182;0,57358851674641
"F_215";37;38;37;40;415,49769720657;0,634386410541359
"F_216";26;24;28;25;52,3808556312968;0,573341623224447
"F_217";100;103;96;101;2657,85869310171;0,708803878673212
"F_218";39;34;41;33;237,2527239986;0,61023161109697
"F_219";23;27;25;29;161,476069123257;0,54278728606357
"F_220";66;53;64;59;884,4148910346;0,638202725724021
"F_221";100;90;101;97;3564,75885641339;0,722778246714099
"F_222";70;81;76;81;1918,28242642246;0,699416569428242
"F_223";63;59;65;59;969,439667032707;0,656732770899531
"F_224";42;48;43;46;484,295741521946;0,610480215918928
"F_225";33;33;29;30;450,782369705334;0,600240336471058
"F_226";94;71;91;69;1361,07723044915;0,673558826834478
"F_227";79;69;82;74;809,090421825031;0,654366812227077
"F_228";113;122;115;122;5723,27932852755;0,734783941158445
"F_229";69;73;66;69;2210,27628281952;0,699824868651491
"F_230";47;45;49;47;484,077206050702;0,622559202326547
"F_231";112;119;108;115;5023,28565146775;0,73613754989254
"F_232";67;65;64;59;1207,14929783344;0,654438257451689
"F_233";63;62;67;64;981,44115543484;0,637998935604045
"F_234";72;66;70;70;1192,09311366263;0,657128761716825
"F_235";62;74;59;69;1091,40472010651;0,666222074024676
"F_236";55;46;61;45;783,586938809612;0,665704131497114
"F_237";43;43;43;40;298,880719338863;0,605699272433305
"F_238";58;59;53;60;881,418643916939;0,646462467644523
"F_239";41;46;38;44;366,247320545095;0,615653245686114
"F_240";54;50;55;51;644,692162006845;0,618416301263863
"F_241";40;36;45;38;260,141273034679;0,576734340421437
"F_242";31;31;31;31;116,425170944422;0,57129241326725
"F_243";51;49;52;50;452,110349347915;0,594348041646008
"F_244";57;57;60;56;1276,78970180619;0,669197275873622
"F_245";39;38;36;35;371,873892106511;0,604386186034786
"F_246";50;58;48;58;695,306658574882;0,635900700190963
"F_247";52;49;48;46;638,379004652617;0,637117346938778
"F_248";59;61;60;63;1816,82842460752;0,679823069071116
"F_249";67;62;69;63;1787,7112898656;0,699865724794213
"F_250";63;58;64;63;653,13918705034;0,627939866953014
"F_251";40;48;38;47;283,727582518039;0,584923151988289
"F_252";43;38;46;39;267,184884866646;0,598233444782673
"F_253";83;75;82;87;2047,54453802993;0,684598252526989
"F_254";71;75;70;73;1438,14074565336;0,679052905857032
"F_255";66;64;64;59;2734,44459390029;0,697706902572463
"F_256";55;51;54;49;791,510237399948;0,654938811188816
"F_257";68;69;74;74;923,278325891163;0,654081187254478
"F_258";94;90;92;93;2843,80844091257;0,697341632249433
"F_259";103;112;102;108;4696,58113050868;0,734513816555361
"F_260";44;40;42;40;307,193471243652;0,599399999999999
"F_261";81;80;80;73;2507,43184726241;0,682649051876318
"F_262";38;39;41;42;267,04477319646;0,602200231074495
"F_263";82;86;84;89;2700,04638562079;0,694191904568882
"F_264";39;49;37;45;284,025483305971;0,620368453736286
"F_265";36;32;37;31;261,844011044038;0,598532128413799
"F_266";80;78;83;81;2369,9949854298;0,682221716366949
"F_267";40;41;39;41;342,360901871937;0,623725286160251
"F_268";36;43;34;46;412,663775723449;0,582365800340052
"F_269";98;109;97;103;4433,16434809513;0,72915272793626
"F_270";106;115;98;111;3302,99277083575;0,713613905589621
"F_271";64;62;64;63;831,647726667905;0,640521478948495
"F_272";80;73;76;72;2586,9436402977;0,695319297024538
"F_273";105;106;101;105;4343,23014241496;0,734243890488152
"F_274";50;40;48;45;649,006249734168;0,634554308702097
"F_275";104;102;98;94;3581,6615658046;0,711961040503627
"F_276";61;63;64;64;2000,82631689573;0,67920679886686
"F_277";82;90;79;93;2891,00202930954;0,692147806004622
"F_278";90;89;86;89;3204,46723228612;0,715146453498779
"F_279";87;87;92;88;2955,28611203233;0,696612237782558
"F_280";44;53;49;56;311,860005938787;0,584894613583137
"F_281";78;71;74;72;1181,83155166318;0,672500841467521
"F_282";53;52;54;51;350,572929792402;0,611632653061223
"F_283";18;23;20;23;78,7951600523975;0,535083020889128
"F_284";89;104;89;102;2260,23842156139;0,67295385651735
"F_285";72;67;74;68;1758,31295484379;0,677441229656421
"F_286";33;33;33;34;143,989366574395;0,560396409872849
"F_287";73;67;75;64;1476,15929259967;0,674202800742368
"F_288";92;102;87;94;2376,01972616659;0,686952037132545
"F_289";73;84;70;79;1346,4720815402;0,673861720067456
"F_290";77;75;78;74;1536,10101570373;0,686873316908273
"F_291";83;73;90;73;1181,99171905816;0,674696082845567
"F_292";75;86;71;83;994,685307157927;0,656876712328769
"F_293";29;29;27;30;227,142549397254;0,587014004504944
"F_294";46;46;47;51;697,678628673483;0,62757826405612
"F_295";59;72;63;72;1258,88286454543;0,665002496255619
"F_296";100;89;96;88;2183,33187486453;0,681601091653402
"F_297";41;43;44;49;285,784483285861;0,591999999999998
"F_298";68;72;68;71;1291,90368253738;0,663787375415284
"F_299";93;103;95;102;1887,19120568508;0,671973094170405
"F_300";23;22;23;22;40,9837076261004;0,539416846652269
"F_301";61;53;59;55;1012,35821538042;0,652266173350021
"F_302";84;90;82;91;3474,10975273001;0,711032028469755
"F_303";92;89;86;88;2869,65413063781;0,717200119653011
"F_304";57;64;55;59;1328,3513409782;0,663089772664419
"F_305";73;65;82;66;1135,65507224974;0,666444296197466
"F_306";24;22;24;22;85,2344179662245;0,558152528168358
"F_307";117;107;116;107;5420,67702340622;0,753441015649553
"F_308";46;38;46;36;298,029225403366;0,619887274419566
"F_309";67;62;65;61;1435,10282388078;0,688530239503766
"F_310";38;33;38;35;263,897114084041;0,564406779661016
"F_311";39;39;40;41;219,816354687324;0,583159021257965
"F_312";83;72;81;71;1291,91115066868;0,651557149845102
"F_313";31;31;32;32;353,502478727338;0,600510945248709
"F_314";50;45;49;45;355,143849142004;0,609022556390976
"F_315";86;86;82;87;3341,5978246255;0,70981111966369
"F_316";82;84;84;87;1131,74701033417;0,651911468812878
"F_317";70;70;71;67;1301,17139539775;0,655547656805382
"F_318";82;95;82;92;1754,76254054408;0,684168473918504
"F_319";28;33;29;34;124,826454847687;0,575350355154539
"F_320";65;69;63;65;1923,88516052322;0,703851573508694
"F_321";39;37;39;37;213,748179209737;0,56102583302134
"F_322";81;80;75;73;2185,99115843388;0,691987993534982
"F_323";45;36;49;42;333,73681083429;0,587964098288292
"F_324";44;50;40;49;376,374433075196;0,604843592330977
"F_325";31;31;31;29;254,085506530759;0,598621791670826
"F_326";43;40;43;45;310,709927540023;0,586124284945973
"F_327";33;38;28;38;230,527233933237;0,605362823814573
"F_328";37;42;37;43;383,25913827352;0,61278944947094
"F_329";50;56;55;60;696,340381028777;0,641893339044766
"F_330";28;28;28;29;319,001366516505;0,593965218252984
"F_331";19;27;17;29;70,3174527340683;0,578292329956584
"F_332";95;102;94;99;3399,23705146541;0,712172518267694
"F_333";77;84;77;87;2549,06994154384;0,687385321100919
"F_334";19;28;19;30;79,9946176984175;0,552569716524545
"F_335";65;69;66;74;1477,23836326277;0,664781234403596
"F_336";35;35;38;36;263,916787534806;0,584153591267907
"F_337";90;90;92;91;2060,10161123928;0,673142792969847
"F_338";61;75;59;74;1582,7773459632;0,690672351212771
"F_339";96;103;95;106;3860,72611255564;0,723388848660394
"F_340";63;56;59;57;1078,1381224478;0,66162591754512
"F_341";22;26;23;28;108,631374708456;0,543057757644395
"F_342";105;99;103;104;3975,14597557179;0,718231382182016
"F_343";88;75;91;75;2020,26691507947;0,667037614066327
"F_344";46;48;45;50;499,729896238335;0,60566867074218
"F_345";101;92;99;92;2612,82281909212;0,70846876662136
"F_346";42;39;44;38;343,533303230164;0,61562162994916
"F_347";61;53;59;50;1482,90031615684;0,669907795473602
"F_348";77;73;82;70;2985,4358041825;0,68557703305502
"F_349";31;27;35;31;102,280667871962;0,558646721655249
"F_350";48;41;47;42;345,984709232064;0,59748803827751
"F_351";91;85;95;88;3067,86652262918;0,711116383912684
"F_352";36;38;39;42;168,330602195627;0,567936327458783
"F_353";34;39;33;40;204,688024658278;0,595322043998608
"F_354";83;71;74;68;2829,70821456445;0,712765324930143
"F_355";14;20;15;21;26,3124873829898;0,526713532513182
"F_356";55;48;57;48;693,097706554716;0,620368453736289
"F_357";33;31;34;34;162,044216907517;0,56281690140845
"F_358";45;53;45;52;412,188046897461;0,629687992436181
"F_359";46;43;47;43;592,25235957806;0,630018919487073
"F_360";93;103;92;103;3632,73987160669;0,718059299191377
"F_361";44;41;46;43;387,912645600716;0,599849887415561
"F_362";46;39;46;37;564,095198991052;0,653795811518331
"F_363";42;38;45;37;348,410868102803;0,59141588554514
"F_364";32;35;35;37;84,9918882580793;0,563610719322989
"F_365";71;70;78;73;1115,73775160156;0,657777777777779
"F_366";42;53;41;52;293,206978518673;0,586583157997748
"F_367";60;77;58;74;735,655571299034;0,638066851181606
"F_368";37;31;38;33;134,592162116224;0,583386052849286
"F_369";45;40;49;40;553,212729997196;0,60948701001576
"F_370";70;79;70;75;1661,69785934868;0,664007976071786
"F_371";63;61;62;60;536,582913121036;0,623725286160249
"F_372";66;61;70;61;1300,93675422703;0,651663405088064
"F_373";42;44;39;44;415,407445367896;0,618161192182746
"F_374";68;79;69;77;1734,59092176898;0,682765690853175
"F_375";64;53;61;47;1411,82341227214;0,683817238035482
"F_376";98;83;93;80;3371,78553747183;0,713656387665202
"F_377";65;66;66;68;1069,91506410113;0,646148870802568
"F_378";40;45;44;48;294,103051782361;0,591912309287512
"F_379";101;92;95;87;3941,61399945088;0,723781923564576
"F_380";66;70;68;71;1167,22157038611;0,656481025135536
"F_381";97;87;97;86;4061,52735490701;0,731689453125004
"F_382";84;88;83;87;1839,45144391837;0,680247403960734
"F_383";72;74;70;72;1873,08842174399;0,68241589343656
"F_384";41;49;42;49;226,182961103177;0,595469898668784
"F_385";96;94;104;100;2260,0951230894;0,685185185185186
"F_386";87;101;84;104;3731,92820908577;0,723781923564573
"F_387";45;47;44;46;309,792299295882;0,589004078022894
"F_388";49;50;52;50;529,612361542005;0,596506941334527
"F_389";59;55;59;54;1192,7551360002;0,66441279166436
"F_390";38;40;40;44;173,105084492287;0,601173461712049
"F_391";80;84;79;79;1592,62061035238;0,65882611562981
"F_392";49;49;51;50;537,788267182;0,612758127172356
"F_393";47;46;49;44;586,224161233478;0,613604954701335
"F_394";87;91;87;86;1931,94687925296;0,668301928866095
"F_395";51;52;51;56;395,24620505088;0,626365013846074
"F_396";68;58;65;62;1447,62162780884;0,673596673596679
"F_397";99;98;93;94;5048,31138124383;0,735550374279056
"F_398";81;69;89;73;2098,80349232344;0,685890834191558
"F_399";72;86;69;85;1595,75626703084;0,688174512055111
"F_400";69;56;69;53;712,253620295809;0,650178978197203
"F_401";81;84;79;81;1788,47321812253;0,663677130044845
"F_402";75;75;83;75;1322,05158927518;0,677135110709447
"F_403";33;27;34;28;134,994166414073;0,550919117647059
"F_404";59;60;59;61;1081,8472333738;0,650885003800633
"F_405";27;25;26;23;56,8161508715884;0,573945516349882
"F_406";62;54;63;56;810,854807878462;0,641652839479743
"F_407";61;65;63;67;1158,71813137;0,645348837209304
"F_408";24;29;25;28;129,494457257632;0,569907297361539
"F_409";64;52;63;54;699,626487230809;0,626659696811291
"F_410";18;23;19;24;50,4657216698428;0,534915889518541
"F_411";25;20;26;19;59,0805431383053;0,533653846153847
"F_412";64;81;63;75;1291,48484110048;0,656373193166887
"F_413";27;19;27;20;78,5030370027813;0,542811863255604
"F_414";47;49;45;45;485,045318151158;0,626005221932115
"F_415";35;33;37;33;237,633831784704;0,590541871921181
"F_416";57;54;53;53;842,173873988785;0,643029555329079
"F_417";76;71;73;70;2119,97244567344;0,687582449096647
"F_418";92;90;87;90;3504,3389505045;0,708803878673212
"F_419";46;39;45;38;392,631755233314;0,608713313699606
"F_420";35;34;34;39;409,426747632962;0,590338306987738
"F_421";56;55;58;59;786,273592361424;0,64058993267073
"F_422";59;58;62;56;1127,04765738333;0,627414036740462
"F_423";86;83;81;82;3946,29790198852;0,723301556655006
"F_424";79;78;79;77;1751,91404368133;0,695278969957087
"F_425";50;60;46;56;596,39858564406;0,639803597160701
"F_426";63;70;64;72;694,599168488141;0,652905615162576
"F_427";66;66;67;68;944,522102786769;0,64065840102608
"F_428";49;53;48;52;573,080992276612;0,639155470249522
"F_429";22;18;24;19;57,879649321267;0,539368307387745
"F_430";47;44;48;44;305,839675614989;0,608867895779368
"F_431";38;38;39;36;395,421311342154;0,624082461346244
"F_432";48;41;45;42;519,298644293952;0,642581475128647
"F_433";115;110;111;103;6050,42286610227;0,760225759401357
"F_434";86;91;77;89;2478,45193605994;0,700683850604949
"F_435";80;73;83;71;1551,87364714551;0,676371022342588
"F_436";27;27;26;28;242,94426425758;0,562394445486957
"F_437";44;42;48;42;353,739778468657;0,595469898668785
"F_438";69;73;67;69;826,399019070108;0,636576040781648
"F_439";55;55;56;57;533,800982806014;0,617174629324546
"F_440";30;37;30;36;271,931735855476;0,577734939759035
"F_441";56;59;54;58;1264,31711940144;0,666629594617146
"F_442";52;58;51;56;397,217048274582;0,605607476635513
"F_443";56;64;57;64;1327,12806369475;0,678745328954822
"F_444";78;71;82;73;1430,89078466248;0,671333370666968
"F_445";24;25;23;26;342,375015981898;0,613699191153889
"F_446";77;67;75;66;1278,78660257286;0,653439441840185
"F_447";54;49;57;52;578,780931977224;0,621107714626184
"F_448";26;24;26;24;162,152988400791;0,592116961375085
"F_449";59;68;59;68;1031,65413530411;0,657741687698893
"F_450";54;61;56;61;756,572600617184;0,646148870802568
"F_451";41;45;40;47;294,065844882117;0,589322583816733
"F_452";48;50;49;50;705,721433817938;0,652621264086236
"F_453";52;57;54;58;998,664021241367;0,636914249282755
"F_454";66;57;67;60;1731,25275200527;0,676218411552349
"F_455";52;45;55;46;496,26180737187;0,624342482162387
"F_456";93;92;93;90;3596,11010541986;0,707298365685292
"F_457";78;68;73;63;1400,271941852;0,665186993674399
"F_458";52;58;57;63;651,612039575902;0,624472573839663
"F_459";53;58;55;57;980,38368743483;0,647614931662256
"F_460";88;87;87;89;2283,58440000805;0,681136363636368
"F_461";59;53;60;56;1477,71823037454;0,651592564409176
"F_462";52;59;51;61;1257,8856173581;0,666889185580777
"F_463";61;76;64;76;1761,26540975204;0,674734057522377
"F_464";67;73;69;79;2173,85644374739;0,68373923458621
"F_465";88;99;88;101;3249,85774657143;0,719654220194506
"F_466";56;54;58;57;544,64535620827;0,629489603024574
"F_467";23;28;25;27;72,114787795437;0,572738999570015
"F_468";48;48;46;51;746,933975883623;0,625809145959491
"F_469";76;77;76;80;2894,91901281288;0,718791221969065
"F_470";102;107;107;114;2208,94702151432;0,679476279544297
"F_471";92;87;93;89;2186,11552211061;0,683505330976682
"F_472";37;33;37;34;126,457369815231;0,571782886578269
"F_473";35;29;35;30;215,947531138187;0,593083659031314
"F_474";25;25;27;26;130,704566090251;0,563875823142049
"F_475";78;84;78;84;1335,94514574119;0,664375969851476
"F_476";51;54;52;54;1045,19524655906;0,655368467089443
"F_477";39;45;40;45;260,90753546434;0,626954657183202
"F_478";50;50;53;53;1269,78009973409;0,632879315806146
"F_479";86;96;89;100;3624,36137393894;0,714336789417238
"F_480";45;45;44;47;589,109975678066;0,630615465544451
"F_481";46;41;49;41;432,163845179098;0,629721069496248
"F_482";72;75;71;85;3091,17555026471;0,713401571054517
"F_483";54;47;56;52;363,831868114323;0,586611861421021
"F_484";51;50;48;49;714,965283554912;0,638882967384355
"F_485";56;54;58;57;1187,12762282165;0,668637403089973
"F_486";73;74;73;76;1326,92440675978;0,637931034482758
"F_487";91;85;91;86;1997,65671366638;0,689282428702854
"F_488";28;28;30;29;120,964158423688;0,575046769319325
"F_489";26;28;25;29;65,8683927285091;0,548800585973265
"F_490";65;49;67;56;1426,81209692465;0,65828345505464
"F_491";35;32;35;34;162,014849600671;0,571592046917464
"F_492";45;46;44;46;347,77542410792;0,59790523690773
"F_493";85;78;90;76;2665,62863870229;0,72676568657169
"F_494";76;66;75;65;2223,81599282141;0,708803878673215
"F_495";41;48;44;48;296,494151376462;0,6028968014484
"F_496";92;86;89;82;2337,56727879696;0,680131623737663
"F_497";80;86;77;87;2434,6545065012;0,704347826086961
"F_498";53;45;52;49;1204,14249027348;0,660677872692206
"F_499";37;38;36;36;207,092785255364;0,578794901506372
"F_500";48;44;47;47;323,871156890064;0,603443068559347
"F_501";79;76;77;70;1694,90446246137;0,672991635322523
"F_502";38;37;41;39;289,143863753558;0,580307871042694
"F_503";65;72;66;78;1487,79797135109;0,659986787051312
"F_504";73;62;73;65;1437,51053077631;0,672727272727275
"F_505";122;108;130;113;5281,07245588078;0,745059042883782
"F_506";59;51;59;52;595,691238193215;0,621816484257482
"F_507";59;55;60;56;587,262989059829;0,634017347154645
"F_508";47;55;46;57;563,652521268803;0,628598395469562
"F_509";51;55;52;53;689,081123874226;0,65258573761568
"F_510";60;61;59;64;1510,54648964896;0,672727272727276
"F_511";36;34;36;32;82,4248616106717;0,561446234544773
"F_512";76;81;78;87;2388,33129004177;0,704099612357574
"F_513";53;52;52;53;951,847817881605;0,66441279166436
"F_514";46;49;51;51;510,555486914445;0,622494547720428
"F_515";37;34;38;37;321,149153109934;0,617778922958
"F_516";70;58;70;60;1895,23819894367;0,67905290585703
"F_517";70;71;67;77;1558,17477178893;0,66994523303901
"F_518";85;82;88;80;2127,88899517625;0,678745328954821
"F_519";42;41;43;38;288,318083425178;0,615906288532676
"F_520";97;88;93;84;5097,01903031762;0,750516496587991
"F_521";52;56;52;60;896,136793506991;0,674468324518968
"F_522";31;37;32;37;148,820851158252;0,582903821841874
"F_523";57;52;54;54;484,119322528495;0,628104369695064
"F_524";72;65;77;68;961,44142918837;0,65397414216355
"F_525";53;56;55;55;903,185191314672;0,648982243395412
"F_526";28;37;24;34;185,60493259676;0,588368098159507
"F_527";37;45;42;48;235,133456805831;0,570965898266335
"F_528";14;15;14;18;24,6670576148464;0,525535925649906
"F_529";32;28;35;30;60,4561487471357;0,564088085827215
"F_530";38;36;36;35;304,694360019927;0,631612223393048
"F_531";91;91;91;91;2123,92377177844;0,697138869504541
"F_532";100;94;96;95;2952,95496739907;0,71251114413076
"F_533";46;46;48;45;410,630626628527;0,600631294153012
"F_534";65;49;67;51;447,506442841541;0,602745236060133
"F_535";81;86;82;89;3398,0866168795;0,722996200470422
"F_536";95;94;93;94;3948,97402274642;0,737950138504159
"F_537";52;54;56;58;807,838893663285;0,654759954120927
"F_538";84;92;79;85;1970,87164528696;0,679823069071114
"F_539";100;108;101;101;7911,66499037516;0,762838052815781
"F_540";58;66;64;68;808,92606430271;0,659297145685534
"F_541";97;91;90;88;2831,06649784977;0,707507082152977
"F_542";55;64;56;62;483,783562167954;0,621848739495797
"F_543";81;68;84;67;1457,36140448971;0,662759840778418
"F_544";45;46;48;50;844,995059896026;0,639291808873725
"F_545";63;57;60;57;529,104006606832;0,63654223968566
"F_546";73;77;72;72;1748,77858954003;0,669085226321371
"F_547";34;34;34;33;356,077525466839;0,586985261714732
"F_548";87;78;88;78;2422,98925121513;0,692107845967325
"F_549";83;81;82;81;2018,32510254456;0,683310533515733
"F_550";37;41;37;41;350,191857963176;0,611476664116296
"F_551";40;35;42;37;222,737007948082;0,601686408351735
"F_552";35;39;36;43;169,895203412881;0,584894613583137
"F_553";92;83;93;82;3296,06541806173;0,71948145480735
"F_554";60;50;58;48;748,410804689989;0,618097447795823
"F_555";19;15;19;16;38,4820055529083;0,533060607408067
"F_556";105;92;105;97;4467,06669568122;0,745847072730669
"F_557";99;111;99;115;4178,76450372754;0,746683276237935
"F_558";62;68;67;64;1760,96475428527;0,696976744186051
"F_559";30;30;33;30;260,230987372468;0,57257486745952
"F_560";37;35;37;35;193,387156336948;0,591590998815631
"F_561";105;107;107;104;5347,87250042757;0,732628491107991
"F_562";57;55;60;60;629,904327434608;0,621333056908882
"F_563";60;65;62;64;630,01859030026;0,648560917550317
"F_564";47;48;47;49;310,811368123349;0,588194887395122
"F_565";43;43;45;40;457,105780278908;0,586784140969162
"F_566";44;41;51;46;292,826144539805;0,615084658799383
"F_567";33;41;33;39;463,796506201046;0,617587965586523
"F_568";85;91;86;89;3697,92534692281;0,731555501312019
"F_569";53;52;54;53;553,02519663472;0,617111088232266
"F_570";44;50;44;51;396,562295569333;0,585294404843276
"F_571";81;82;87;82;2207,79131861301;0,685773125107261
"F_572";125;121;120;115;7529,15452774702;0,759022413574777
"F_573";69;80;70;78;1272,5796126994;0,654545454545456
"F_574";78;78;78;76;2013,71186106059;0,679630364533142
"F_575";16;16;16;17;13,7573726711885;0,524753775443205
"F_576";60;58;59;57;1296,93084791797;0,680170212765959
"F_577";63;58;66;62;809,574053095441;0,640555703980767
"F_578";70;70;70;70;1194,37297471238;0,653653217011998
"F_579";44;44;45;44;465,213203180813;0,601928098011647
"F_580";39;41;39;44;164,113580781973;0,578180765891771
"F_581";41;36;43;34;490,969799674713;0,610542398777692
"F_582";23;26;24;27;92,0991637467624;0,545827072804262
"F_583";85;95;81;88;1987,19296136506;0,694191904568881
"F_584";80;72;78;74;1714,71150886556;0,685930079533105
"F_585";112;129;111;134;5603,41212748602;0,737995567594192
"F_586";55;57;55;62;674,934311255531;0,608651502843216
"F_587";55;59;52;58;1458,54840726942;0,700029197080293
"F_588";79;75;80;78;1901,45465965814;0,677862595419852
"F_589";37;43;36;42;232,814974561012;0,602442333785616
"F_590";43;58;41;61;695,927214492317;0,625026068821689
"F_591";57;53;58;54;940,463222818733;0,66217410517013
"F_592";92;105;96;100;3057,68344456826;0,692827833323702
"F_593";26;28;27;29;262,381333462342;0,604935156683655
"F_594";65;54;66;58;748,839978509795;0,636069400965673
"F_595";39;36;39;33;730,390539674809;0,652301665034287
"F_596";80;82;84;84;2224,55048826989;0,68738532110092
"F_597";47;50;47;51;341,437434418794;0,622397590986969
"F_598";43;42;39;40;381,283664654522;0,572930606002675
"F_599";89;103;91;108;2497,29256707327;0,675228117607302
"F_600";70;74;70;72;1813,9744524471;0,680208806173402
"F_601";53;44;55;48;703,44796126769;0,626725219573401
"F_602";34;32;36;31;141,134944650479;0,582196105094458
"F_603";73;75;77;74;1321,90037407582;0,669533649818493
"F_604";55;46;52;47;492,513259503026;0,618575851393188
"F_605";49;51;50;53;470,214956478209;0,596714783474364
"F_606";45;45;45;44;280,076252077291;0,590309237738821
"F_607";94;87;94;88;4521,25116642602;0,714251668255483
"F_608";61;66;59;65;878,289647751238;0,649896996638842
"F_609";35;34;35;35;390,944487563591;0,597041685342894
"F_610";54;68;55;70;548,791974297688;0,625319492984195
"F_611";73;64;71;63;891,121958497579;0,6655562958028
"F_612";46;44;43;44;346,048780577378;0,605026748763499
"F_613";77;70;69;68;1674,05022100676;0,670469798657719
"F_614";45;44;44;43;271,520172682059;0,565872079301391
"F_615";26;33;29;33;171,957604033027;0,555591602168976
"F_616";67;67;66;70;1108,64816483273;0,655332640900894
"F_617";84;88;83;83;2312,12143784812;0,675608656447252
"F_618";57;45;57;43;596,908919176463;0,631945176594625
"F_619";44;48;47;50;491,267209886622;0,631978491222523
"F_620";89;75;87;71;3370,13014055475;0,713401571054515
"F_621";38;46;39;47;312,544402947243;0,605729877216916
"F_622";47;49;47;53;426,013140691128;0,611164924802445
"F_623";47;60;48;57;587,193253076727;0,635529873296932
"F_624";50;43;51;47;546,672802290468;0,615463599958927
"F_625";50;54;51;54;288,540327484913;0,604416658263587
"F_626";49;52;49;53;512,1268186254;0,613636363636363
"F_627";57;52;60;52;684,86657944719;0,63191186547889
"F_628";36;36;35;36;237,777698921508;0,575350355154539
"F_629";100;91;95;82;2447,61310539331;0,703603709355561
"F_630";66;64;65;60;992,636209750082;0,642306043720533
"F_631";44;46;47;47;320,696686308221;0,584409886413493
"F_632";111;120;103;114;5962,8463935955;0,750187734668337
"F_633";31;26;32;27;154,744158716913;0,575101942911967
"F_634";40;40;41;39;197,097760049407;0,589902568644817
"F_635";58;53;59;52;713,187614847637;0,642547033285097
"F_636";39;43;40;47;603,688053121568;0,624505105230257
"F_637";32;29;33;32;199,080586763715;0,57873901708989
"F_638";48;38;48;39;274,320749021844;0,592849018347262
"F_639";36;49;37;51;430,625327526049;0,620753935376968
"F_640";101;103;102;109;3418,73280527536;0,722996200470422
"F_641";43;43;44;47;264,579076610943;0,575571346264642
"F_642";106;98;108;94;2570,33009259067;0,701709201592135
"F_643";49;48;48;46;595,739721011532;0,627545411715438
"F_644";76;80;73;79;2444,86707175183;0,700970646707993
"F_645";45;42;45;41;773,543281874189;0,675266152199633
"F_646";61;59;64;65;949,164844522645;0,62985341249409
"F_647";51;60;56;59;847,492411961552;0,636136906341205
"F_648";19;15;20;16;36,3090742493089;0,530137531508425
"F_649";59;62;59;63;1663,31409738006;0,671671896010761
"F_650";34;35;31;33;212,192143419548;0,575930819120825
"F_651";91;89;87;87;3521,6421287087;0,730619210141398
"F_652";56;52;53;51;759,167961059956;0,675228117607307
"F_653";64;63;64;60;889,454136401746;0,640487257573332
"F_654";53;64;52;63;963,84614488561;0,645175178946237
"F_655";64;52;64;55;893,845401914023;0,635024896705159
"F_656";91;73;90;75;1824,95157145122;0,688846750560249
"F_657";53;41;51;41;553,585275315551;0,646741476046617
"F_658";92;100;85;95;4220,57494553821;0,738768718801998
"F_659";34;26;33;26;225,315848068567;0,59077468953282
"F_660";40;40;41;40;580,673286419222;0,624830605649954
"F_661";80;71;80;69;1218,16013627552;0,65141553007662
"F_662";63;51;63;53;646,197744270953;0,633916768018615
"F_663";63;56;65;55;649,620060244461;0,62466781303736
"F_664";60;65;60;60;1251,83408082383;0,670244884267029
"F_665";110;111;101;106;2442,08955838899;0,691548889529855
"F_666";64;59;59;56;2400,41020586287;0,689322063136109
"F_667";74;67;79;74;1917,64011922281;0,703190990145477
"F_668";65;71;66;70;763,23264474602;0,652905615162576
"F_669";35;33;36;40;356,669802323591;0,576152256452154
"F_670";77;81;83;83;1369,80130144817;0,656696795398524
"F_671";34;36;34;34;325,283000972518;0,60320016101439
"F_672";39;41;38;41;304,680248909905;0,571210749511601
"F_673";28;26;29;25;66,2124292340615;0,551071067389905
"F_674";45;45;50;47;463,160998887479;0,623692835960669
"F_675";35;34;36;33;159,940272440862;0,590076786769048
"F_676";77;70;79;74;2619,56513386833;0,701503891392128
"F_677";48;45;46;48;230,150953806775;0,6050267487635
"F_678";87;87;91;93;2115,4880183597;0,701791359325609
"F_679";97;98;95;97;3969,01736269894;0,729374543684598
"F_680";51;40;58;39;376,259292568559;0,596803903021854
"F_681";45;41;45;42;666,187115319876;0,63328050713154
"F_682";35;36;35;35;170,672933182335;0,601897876186172
"F_683";38;39;39;38;248,894622366365;0,59707142145632
"F_684";73;71;72;73;1724,28697312592;0,700561009817675
"F_685";92;93;89;87;3399,76053783615;0,72142986098574
"F_686";69;74;73;70;812,276486437816;0,641824606488919
"F_687";65;78;62;80;1694,8802324167;0,669496258237464
"F_688";44;45;46;49;219,501861282242;0,573753230592513
"F_689";58;58;58;57;1051,17395004064;0,68600858369099
"F_690";39;48;38;46;317,455270362167;0,598323018566579
"F_691";104;103;105;97;4004,28279114752;0,728798103228164
"F_692";62;64;67;63;777,612173378158;0,637151209141643
"F_693";70;59;65;60;676,390165938564;0,647929953518541
"F_694";110;116;105;113;3801,11675237993;0,720000000000002
"F_695";72;82;71;76;1381,96796049314;0,693428968070343
"F_696";34;29;35;29;344,05143230929;0,585208689284841
"F_697";93;106;93;104;3323,47413805674;0,709643047416091
"F_698";79;84;87;86;2347,12595891251;0,693549320219846
"F_699";35;25;36;25;118,187082330294;0,555668860665615
"F_700";54;60;52;62;988,1427794389;0,636812749003985
"F_701";51;44;53;47;520,387602029583;0,609394062627083
"F_702";46;39;49;37;392,931457789342;0,594524895853996
"F_703";54;58;55;61;558,6068135751;0,620207977650162
"F_704";78;103;75;104;2502,34788661623;0,699988321849823
"F_705";45;59;48;60;1147,06930301069;0,643512802619573
"F_706";84;102;86;102;2546,6971376019;0,695682451253485
"F_707";60;57;61;60;764,92703170918;0,637286693955666
"F_708";44;39;45;38;302,784500114324;0,578906702723584
"F_709";33;36;35;35;234,953391289713;0,600842020850038
"F_710";48;50;52;47;532,418935560267;0,629060187857481
"F_711";35;46;36;43;763,640290815642;0,661808545876126
"F_712";67;58;68;63;369,006092325225;0,600962502506516
"F_713";67;69;68;76;1227,53100931208;0,658138896513865
"F_714";33;31;34;32;213,57447369312;0,565205091937764
"F_715";57;63;62;65;1088,14634453734;0,6485960071417
"F_716";37;40;39;41;188,058787570898;0,586870318695843
"F_717";50;52;53;52;1015,21291787195;0,659369671635231
"F_718";58;65;63;63;998,668879360277;0,657272876802458
"F_719";55;55;59;58;860,977087195044;0,62372528616025
"F_720";36;28;37;29;402,302610861886;0,589728453364816
"F_721";84;75;82;78;1655,17658308816;0,671897769308376
"F_722";47;58;47;60;385,554293586367;0,606741573033707
"F_723";72;57;72;58;1140,82552772698;0,661589403973515
"F_724";33;35;34;35;192,188073144861;0,569203741512748
"F_725";75;82;76;81;911,240208611348;0,638406646075194
"F_726";44;44;50;44;392,785081489648;0,582705487775238
"F_727";53;57;53;53;1009,62807591178;0,650249511824695
"F_728";26;23;29;23;66,4420138381256;0,547797477609212
"F_729";50;50;53;53;612,976936273677;0,612257405515832
"F_730";74;78;74;80;2009,50054875246;0,685106869356504
"F_731";45;52;45;50;747,142413347236;0,652621264086233
"F_732";71;80;66;76;1713,26690197324;0,687898089171976
"F_733";53;49;53;51;503,477906995684;0,651238591916561
"F_734";65;64;66;62;1478,16307888752;0,662796483662301
"F_735";61;57;60;57;854,91956505242;0,650214243098121
"F_736";46;40;49;40;436,136949850045;0,618033716554105
"F_737";37;38;38;40;294,843866436924;0,597517818870557
"F_738";51;53;48;53;539,040980931603;0,627479717351482
"F_739";78;104;79;102;2332,60160187512;0,690036263166984
"F_740";71;75;69;71;4279,62648126007;0,733614833853499
"F_741";81;71;78;72;2603,87330351868;0,703479842732235
"F_742";71;73;74;72;1929,07992989224;0,676561882724763
"F_743";69;66;67;65;2060,88532911785;0,681097664905405
"F_744";43;40;44;41;271,987015227251;0,625123846274184
"F_745";79;68;77;67;1485,62214639566;0,682687927107063
"F_746";84;81;84;88;1739,63483828919;0,661954721148539
"F_747";89;81;91;78;2403,27086154799;0,700601951960729
"F_748";28;27;30;28;101,897594486395;0,569365946331037
"F_749";68;70;72;78;1607,15289220451;0,674126975201037
"F_750";71;75;68;74;1639,73781393423;0,653617578103705
"F_751";56;60;58;63;539,21512123057;0,608620602122149
"F_752";42;39;43;35;288,050764453028;0,631845253781691
"F_753";89;93;94;98;2668,71542719146;0,700765768398903
"F_754";47;51;49;56;440,764714133421;0,619951388529761
"F_755";100;99;91;97;4739,3248376398;0,724919876640263
"F_756";78;72;80;74;2661,90946181609;0,679399263247384
"F_757";39;37;40;37;176,583535161538;0,562051666744807
"F_758";90;65;84;64;2803,70249432549;0,703232240276886
"F_759";42;39;40;39;118,55925878933;0,571946564885495
"F_760";64;61;66;59;771,258287505206;0,652337160581164
"F_761";32;29;30;29;164,263217497936;0,57102029151186
"F_762";68;74;70;76;1487,1562750677;0,663787375415284
"F_763";28;34;29;38;219,52879856931;0,568259385665528
"F_764";41;49;41;50;863,173552443552;0,656516976998912
"F_765";67;55;66;54;1201,55639185814;0,6648918469218
"F_766";99;98;103;101;2065,90214953024;0,694352736750654
"F_767";89;86;88;80;3060,54168258915;0,707966692257724
"F_768";22;30;23;31;85,3359724312665;0,58767586646404
"F_769";26;28;25;26;92,2671695558429;0,537795522856759
"F_770";47;40;47;44;564,308678807192;0,649826539462278
"F_771";35;36;37;39;202,046876131996;0,58174406754986
"F_772";48;50;47;51;509,947880698659;0,603200161014389
"F_773";71;71;75;76;745,24000635503;0,611476664116296
"F_774";47;39;47;39;400,73679470275;0,625189048239898
"F_775";64;59;61;60;654,372007960548;0,618639694498915
"F_776";37;37;41;43;393,245393616922;0,588859416445622
"F_777";86;78;80;77;1948,53605790974;0,675266152199631
"F_778";23;24;22;24;64,8431926518614;0,541072395739304
"F_779";61;55;61;55;543,517189058021;0,585037333463471
"F_780";35;33;36;35;178,638709141664;0,563902347241168
"F_781";68;71;68;72;2053,78707916281;0,686244204018554
"F_782";18;21;17;20;130,041859167315;0,597547602432459
"F_783";53;48;55;51;384,609852959531;0,636880412261597
"F_784";49;43;52;45;223,680871967552;0,577123050259964
"F_785";46;47;49;48;357,042488728657;0,578711078928312
"F_786";82;97;88;100;2828,50689699569;0,709433069002251
"F_787";73;73;72;75;1868,02754186467;0,689559965487495
"F_788";44;36;48;36;439,092003958681;0,613950629929324
"F_789";56;59;61;61;710,885803895825;0,616508099768577
"F_790";73;67;72;67;1497,94504959687;0,684324694599844
"F_791";55;54;56;58;596,300757161025;0,627348369878067
"F_792";72;82;74;80;1446,73978391525;0,672727272727277
"F_793";40;47;39;43;372,265510090104;0,603412694417877
"F_794";46;43;47;43;365,94611072828;0,614454126089184
"F_795";44;39;47;43;409,856863363123;0,639667040179289
"F_796";71;76;74;80;1925,95241801539;0,695440306300037
"F_797";78;78;73;77;3054,5565653447;0,708678174509342
"F_798";68;66;75;73;1533,64832421507;0,653083460448901
"F_799";31;34;32;35;144,273074778527;0,555694618272841
"F_800";44;58;45;55;896,788779241446;0,657958287596055
"F_801";36;32;37;32;377,121133369293;0,583556442583847
"F_802";90;83;87;82;3474,28396261759;0,713019687146853
"F_803";25;31;23;31;150,904173250485;0,569447083412501
"F_804";38;34;36;33;246,53399036833;0,584039754457759
"F_805";77;89;81;89;1613,98433650646;0,681136363636366
"F_806";36;40;38;36;303,469831026494;0,611539050145385
"F_807";81;81;86;85;2574,23883668553;0,690911186675123
"F_808";43;41;45;42;309,237716407426;0,602381789859804
"F_809";58;57;63;58;875,478836492484;0,644169801182162
"F_810";86;94;84;89;3209,47851577569;0,709895185645767
"F_811";55;62;54;60;524,854883838686;0,60045078888054
"F_812";73;75;77;79;769,645607665955;0,632845906139471
"F_813";45;39;46;41;542,192974550646;0,626725219573401
"F_814";50;45;52;50;465,278248743433;0,641069518716579
"F_815";54;64;53;61;674,513636882361;0,644204417217479
"F_816";72;63;72;63;828,106742033194;0,663236514522823
"F_817";33;30;36;33;378,139043556068;0,592175459395375
"F_818";40;38;42;38;282,585695663378;0,614265218282434
"F_819";55;58;53;57;1173,00560170423;0,656337257049002
"F_820";72;66;74;69;1198,99000120902;0,668711998661243
"F_821";57;52;57;50;920,04879077334;0,649368939927417
"F_822";36;32;37;36;142,079687211793;0,574468085106382
"F_823";43;36;39;36;734,349017019339;0,646497330529047
"F_824";55;47;56;46;369,641704349708;0,613196930946291
"F_825";43;41;44;45;271,954287472102;0,606281292671824
"F_826";91;93;99;98;3801,55023150084;0,719179314895918
"F_827";89;80;86;85;2764,56265595803;0,715018489800791
"F_828";88;91;87;95;2112,10298890811;0,677632694590471
"F_829";80;64;74;65;1227,1572419709;0,682765690853173
"F_830";44;41;44;42;248,967775991423;0,570368255780758
"F_831";55;63;55;62;1589,39567430282;0,656085814360773
"F_832";54;44;53;41;537,561764868543;0,606189320388349
"F_833";60;53;63;51;717,283941963261;0,659805162639664
"F_834";30;33;28;29;402,076339763802;0,620143810459888
"F_835";65;60;57;56;1129,43968525959;0,643996776792912
"F_836";90;98;87;97;2191,48291662213;0,701668129938545
"F_837";68;79;70;82;1103,27284280244;0,663530193169871
"F_838";55;57;52;60;531,221070803362;0,641035238757287
"F_839";36;35;37;36;300,473704121795;0,587157760689621
"F_840";50;59;52;60;574,027624312345;0,629489603024575
"F_841";48;51;49;50;371,884118213577;0,616317927098863
"F_842";31;24;29;25;176,598249290955;0,587042750110179
"F_843";55;56;51;54;1204,36266337195;0,645001614118155
"F_844";48;44;56;49;1263,0588919702;0,668562824159285
"F_845";59;71;60;69;1452,58944737469;0,655010381379087
"F_846";85;90;87;90;2923,76453510574;0,711369570377408
"F_847";80;73;79;70;1532,17910562759;0,687503584332168
"F_848";68;61;73;60;1512,7969455422;0,660932848164081
"F_849";40;61;42;60;531,053683666483;0,611196084429488
"F_850";35;33;37;35;255,994606162069;0,554281486961346
"F_851";37;30;34;29;256,346964197277;0,59710116053195
"F_852";39;29;38;29;108,104747367076;0,571564794507484
"F_853";57;58;61;62;1026,00369730796;0,643202060306902
"F_854";35;48;38;58;368,355137528546;0,584980237154149
"F_855";79;77;86;79;1442,30553988256;0,659442213543102
"F_856";98;94;100;95;4191,03462755944;0,739087546239212
"F_857";77;72;80;68;2959,86696052907;0,682882369695246
"F_858";43;44;43;42;337,580074165871;0,581377303588748
"F_859";65;67;69;68;801,884115172907;0,642788203753352
"F_860";44;37;45;37;464,08012904129;0,626528692380057
"F_861";45;53;44;57;647,076302682804;0,606526688590943
"F_862";68;67;70;70;920,891929855837;0,646915978630404
"F_863";83;89;85;88;1619,20417222683;0,671860113209664
"F_864";59;61;55;61;1231,08881317678;0,650849666105656
"F_865";58;53;58;57;667,925282451206;0,617938144329896
"F_866";67;57;70;60;1010,47093193063;0,651450929246822
"F_867";67;72;66;70;1092,81979537346;0,649615259564324
"F_868";49;50;46;50;482,427459622828;0,614580129191019
"F_869";65;69;60;64;1250,10181903902;0,677288135593223
"F_870";79;90;83;89;3687,79752930585;0,707006369426756
"F_871";70;80;75;74;1222,43091569448;0,668190178919794
"F_872";25;30;25;27;206,986934070549;0,564566261655834
"F_873";29;30;24;26;191,852333205622;0,581857011114885
"F_874";74;61;77;62;788,272518748451;0,642788203753353
"F_875";54;65;54;65;1587,51942433843;0,663346613545821
"F_876";74;73;74;72;1718,20810303158;0,678591644967736
"F_877";60;64;60;69;1015,77928806552;0,635193133047213
"F_878";113;119;111;109;3882,48766096336;0,713571428571431
"F_879";47;49;47;48;617,111851121428;0,634285714285718
"F_880";35;38;36;36;173,432770404283;0,586095629216778
"F_881";46;44;49;44;315,023977916747;0,604965684295517
"F_882";63;50;63;52;626,920533990917;0,635900700190962
"F_883";24;29;23;27;86,6539589348196;0,570476824973826
"F_884";43;46;43;48;218,961409406607;0,577818479780208
"F_885";38;40;38;42;363,133806655365;0,62411495210329
"F_886";30;23;30;27;148,442859430737;0,572520177658913
"F_887";13;14;13;13;20,5713276474651;0,557503604148258
"F_888";72;84;73;90;1591,58284910354;0,674089068825913
"F_889";67;58;69;63;1304,21210338268;0,671747170234229
"F_890";70;75;67;75;1835,14372210872;0,663787375415285
"F_891";108;104;101;92;4101,03143869349;0,711285154859382
"F_892";73;52;76;54;981,813266395177;0,66419192199014
"F_893";108;106;104;97;4372,02017820645;0,724876043052366
"F_894";64;57;63;55;870,832007231614;0,650849666105655
"F_895";59;55;58;54;406,86615904092;0,588714825909737
"F_896";75;81;78;82;774,768893453419;0,629621848739495
"F_897";72;79;75;80;1220,6629470121;0,643029555329078
"F_898";44;42;44;42;453,58895797298;0,599070511218829
"F_899";72;79;67;78;2634,67524266879;0,697706902572461
"F_900";87;105;82;105;2089,17234767353;0,684441906936913
"F_901";26;34;23;34;334,933081590693;0,597488038277511
"F_902";53;62;52;63;731,701777931939;0,625515262196712
"F_903";69;67;69;69;1933,44318803316;0,692988033990407
"F_904";72;79;69;76;3278,02317181042;0,706048648330293
"F_905";39;38;41;36;227,980542501023;0,584495368113115
"F_906";34;41;35;43;420,88044048312;0,610604594305505
"F_907";54;56;55;56;722,37467139027;0,625874490967944
"F_908";93;97;86;97;2988,992071537;0,717586495869753
"F_909";107;97;102;95;2336,35985836474;0,691269749740515
"F_910";73;61;72;58;1734,2687585998;0,667520463277466
"F_911";57;61;57;64;1110,37755580686;0,649896996638842
"F_912";35;35;38;35;212,472832284744;0,576789838337182
"F_913";45;45;47;46;363,4677050424;0,593641675745269
"F_914";75;94;74;93;4217,27522320911;0,710779082177165
"F_915";76;78;74;75;1540,53610015409;0,680440458621868
"F_916";77;74;77;78;3305,5456097652;0,726369365002428
"F_917";94;84;93;88;3616,24743356357;0,713698874799073
"F_918";62;58;60;55;521,437780190664;0,60045078888054
"F_919";59;53;64;55;658,791934146051;0,654259673634233
"F_920";35;32;32;32;389,254044742112;0,615084658799385
"F_921";105;95;120;94;3194,92452587136;0,727383047145202
"F_922";72;74;73;76;1827,99329284302;0,676676450666067
"F_923";42;47;44;50;369,296518514416;0,624309967711697
"F_924";57;73;58;74;1074,16594600368;0,656121722948937
"F_925";52;45;52;46;345,819363585825;0,606158669161146
"F_926";41;32;42;34;192,241046309624;0,58715776068962
"F_927";45;43;47;44;188,210037056167;0,585237258347978
"F_928";46;45;49;47;503,825440020903;0,609921139659119
"F_929";50;60;56;60;777,843582103374;0,627578264056121
"F_930";58;60;59;65;594,613724727424;0,620625388279146
"F_931";98;95;95;91;3300,8342375498;0,712087912087916
"F_932";41;56;37;57;284,263161852512;0,613542146476277
"F_933";76;81;77;82;1497,98179221602;0,6627964836623
"F_934";73;77;70;76;1512,78881203336;0,676829268292684
"F_935";33;35;33;34;161,935796326751;0,58460938261972
"F_936";36;34;41;36;243,594272317008;0,583869082407948
"F_937";30;26;30;26;142,939556074639;0,575212321865553
"F_938";84;77;87;84;2027,56287926815;0,700724807107792
"F_939";34;28;33;30;213,680581432237;0,608126616953279
"F_940";37;35;36;36;346,797421010808;0,586640567653534
"F_941";39;52;40;51;420,390053809633;0,600661388916723
"F_942";43;35;45;37;304,739609222057;0,588830492656809
"F_943";74;78;74;80;1451,36422629408;0,672840545546392
"F_944";59;57;62;57;687,018806553547;0,619470855725506
"F_945";74;77;75;77;1875,51477256073;0,688135009471331
"F_946";74;65;74;66;1068,06031110584;0,673029418369641
"F_947";72;83;73;79;3150,74244809397;0,70708977232512
"F_948";75;71;77;77;2598,26745322034;0,71497584541063
"F_949";29;33;32;36;246,951730297987;0,566969353007944
"F_950";49;55;50;55;643,492829478179;0,633280507131539
"F_951";85;85;82;80;1357,72319328714;0,670244884267026
"F_952";72;78;82;86;1356,26064245586;0,670132483649171
"F_953";100;103;96;101;3948,3563929491;0,711961040503624
"F_954";47;43;44;42;784,313513142282;0,647475020253854
"F_955";73;72;74;66;1196,99332685406;0,666666666666668
"F_956";33;44;34;49;252,695990948144;0,597547602432458
"F_957";37;42;36;43;289,484299976486;0,607633433017385
"F_958";65;77;71;77;1055,69713958995;0,654903031958484
"F_959";55;57;56;57;496,50939765811;0,630880959898959
"F_960";64;66;58;67;804,417242727418;0,639803597160699
"F_961";43;44;47;46;279,339030290017;0,588108320251177
"F_962";84;83;84;83;1439,11941826965;0,652656794425089
"F_963";69;73;74;73;574,4600251463;0,618735483870966
"F_964";39;39;37;43;306,568839452314;0,596062052505965
"F_965";68;70;68;74;1659,64465223365;0,676065869614259
"F_966";48;58;49;61;702,194620458563;0,644550782300125
"F_967";61;63;63;66;700,042477997686;0,643581897245935
"F_968";26;28;27;30;161,942335724834;0,570884327825134
"F_969";24;27;25;27;113,999081730545;0,564672633066414
"F_970";28;28;30;28;139,714031222931;0,561393649901657
"F_971";46;40;48;41;205,508865610106;0,593612280267392
"F_972";61;62;65;69;583,84910879084;0,626954657183201
"F_973";81;67;80;65;2064,36100175141;0,692747760762787
"F_974";42;34;40;33;250,714423388654;0,585465911310802
"F_975";84;82;83;82;4313,39813208511;0,711749688297814
"F_976";87;65;91;71;1765,6337554477;0,684051355206848
"F_977";49;62;56;66;1073,63381781129;0,660677872692208
"F_978";70;76;69;76;1889,48208534594;0,686401374176929
"F_979";40;38;40;37;269,804475574019;0,58750306297476
"F_980";35;40;34;41;299,20974384073;0,602109492717227
"F_981";66;63;73;67;1543,81331349501;0,672010762935145
"F_982";102;104;98;97;4422,06470254054;0,72017301453803
"F_983";24;24;22;24;152,500928130613;0,592292490118576
"F_984";60;57;64;61;592,992522771082;0,63644085793162
"F_985";41;39;40;40;656,092679244108;0,619278851120986
"F_986";41;34;42;37;199,343512973246;0,592907661110834
"F_987";83;83;80;83;2146,76971506144;0,680710919311796
"F_988";77;66;78;67;1591,26577970308;0,663860892679147
"F_989";35;30;35;30;378,203005610898;0,58747427227286
"F_990";65;69;65;67;1368,70867749429;0,665223905443652
"F_991";70;76;72;82;618,106161987207;0,624928321951727
"F_992";77;69;78;70;1065,39962683289;0,654581194714429
"F_993";45;52;47;55;398,508070848483;0,598861025077429
"F_994";61;57;61;60;868,481582979043;0,646567067579961
"F_995";84;88;84;79;3309,72105834399;0,703562415634721
"F_996";21;27;23;30;104,824292757845;0,549731737515477
"F_997";77;85;71;86;3790,11222591495;0,724744574088632
"F_998";69;55;71;55;1140,97069471223;0,671634265224944
"F_999";65;61;66;63;680,1038887123;0,638100814392933
"F_1000";66;69;64;68;1235,13824990892;0,65458119471443
