"ID";"index"
"R_1";0,1425
"R_2";0,208333333333333
"R_3";0,116666666666667
"R_4";0,22
"R_5";0,210833333333333
"R_6";0,1725
"R_7";0,0708333333333333
"R_8";0,04
"R_9";0,210833333333333
"R_10";0,0791666666666667
"R_11";0,105
"R_12";0,133333333333333
"R_13";0,1575
"R_14";0,238333333333333
"R_15";0,2275
"R_16";0,15
"R_17";0,238333333333333
"R_18";0,0708333333333333
"R_19";0,1725
"R_20";0,165
"R_21";0,238333333333333
"R_22";0,110833333333333
"R_23";0,18
"R_24";0,208333333333333
"R_25";0,0283333333333333
"R_26";0,35
"R_27";0,133333333333333
"R_28";0,14
"R_29";0,0708333333333333
"R_30";0,110833333333333
"R_31";0,35
"R_32";0,2
"R_33";0,128333333333333
"R_34";0,22
"R_35";0,275
"R_36";0,085
"R_37";0,1725
"R_38";0,0791666666666667
"R_39";0,28
"R_40";0,28
"R_41";0,075
"R_42";0,146666666666667
"R_43";0,0666666666666667
"R_44";0,165
"R_45";0,15
"R_46";0,1
"R_47";0,04
"R_48";0,0633333333333333
"R_49";0,333333333333333
"R_50";0,146666666666667
"R_51";0,191666666666667
"R_52";0,165
"R_53";0,24
"R_54";0,183333333333333
"R_55";0,22
"R_56";0,1575
"R_57";0,229166666666667
"R_58";0,175
"R_59";0,191666666666667
"R_60";0,0425
"R_61";0,165
"R_62";0,249166666666667
"R_63";0,0916666666666667
"R_64";0,291666666666667
"R_65";0,14
"R_66";0,165
"R_67";0,191666666666667
"R_68";0,165
"R_69";0,1225
"R_70";0,133333333333333
"R_71";0,281666666666667
"R_72";0,26
"R_73";0,085
"R_74";0,128333333333333
"R_75";0,0791666666666667
"R_76";0,116666666666667
"R_77";0,166666666666667
"R_78";0,3375
"R_79";0,0791666666666667
"R_80";0,18
