"ID";"index"
"F_1";7,285
"F_2";1,80166666666667
"F_3";4,255
"F_4";0,9075
"F_5";3,68333333333333
"F_6";1,02
"F_7";1,80166666666667
"F_8";6,38
"F_9";2,43
"F_10";3,10083333333333
"F_11";1,10833333333333
"F_12";6,90083333333333
"F_13";6,975
"F_14";5,6025
"F_15";1,23333333333333
"F_16";4,49666666666667
"F_17";0,675
"F_18";0,585
"F_19";2,08
"F_20";0,9075
"F_21";1,14
"F_22";3,25
"F_23";2,56166666666667
"F_24";5,6025
"F_25";5,6025
"F_26";3,79666666666667
"F_27";4,37833333333333
"F_28";7,36
"F_29";1,955
"F_30";2,66
"F_31";4,02
"F_32";8,245
"F_33";8,84
"F_34";9,8875
"F_35";1,2675
"F_36";8,65666666666667
"F_37";3,355
"F_38";4,38
"F_39";2,70666666666667
"F_40";1,91916666666667
"F_41";0,44
"F_42";3,46666666666667
"F_43";9,98666666666667
"F_44";0,75
"F_45";1,68666666666667
"F_46";1,40083333333333
"F_47";3,52
"F_48";1,8375
"F_49";0,88
"F_50";3,96666666666667
"F_51";2,8025
"F_52";2,3375
"F_53";2,04
"F_54";0,240833333333333
"F_55";4,20083333333333
"F_56";3,1
"F_57";5,67166666666667
"F_58";2,42666666666667
"F_59";3,63
"F_60";3,74
"F_61";1,57666666666667
"F_62";2,25
"F_63";5,135
"F_64";4,80583333333333
"F_65";1,14
"F_66";2,4225
"F_67";6,23333333333333
"F_68";0,226666666666667
"F_69";5,805
"F_70";0,8
"F_71";4,20083333333333
"F_72";1,33333333333333
"F_73";3,0975
"F_74";2,9
"F_75";3,63
"F_76";2,205
"F_77";1,79666666666667
"F_78";1,64833333333333
"F_79";0,6525
"F_80";1,91916666666667
"F_81";3,46666666666667
"F_82";1,54
"F_83";9,3625
"F_84";7,755
"F_85";2,29666666666667
"F_86";1,8
"F_87";4,37833333333333
"F_88";2,29666666666667
"F_89";7,20666666666667
"F_90";6,825
"F_91";3,91
"F_92";1,045
"F_93";4,255
"F_94";0,826666666666667
"F_95";2,755
"F_96";0,8
"F_97";7,755
"F_98";7,44
"F_99";1,33333333333333
"F_100";7,43666666666667
"F_101";5,2
"F_102";9,35
"F_103";2,5175
"F_104";5,74
"F_105";4,62333333333333
"F_106";0,775
"F_107";1,3
"F_108";0,821666666666667
"F_109";1,20333333333333
"F_110";2,16666666666667
"F_111";2,385
"F_112";1,88
"F_113";3,41
"F_114";4,94083333333333
"F_115";3,96666666666667
"F_116";6,3075
"F_117";1,02
"F_118";1,76
"F_119";5,67
"F_120";2,0825
"F_121";0,88
"F_122";2,945
"F_123";2,20833333333333
"F_124";4,18
"F_125";1,14
"F_126";3,15
"F_127";4,75
"F_128";1,46916666666667
"F_129";3,46666666666667
"F_130";4,37833333333333
"F_131";5,06916666666667
"F_132";7,0525
"F_133";6,675
"F_134";5,26666666666667
"F_135";0,725
"F_136";8,0025
"F_137";6,75
"F_138";3,74
"F_139";3,14666666666667
"F_140";2,08333333333333
"F_141";6,45
"F_142";1,505
"F_143";2,475
"F_144";2,475
"F_145";1,68666666666667
"F_146";2,15416666666667
"F_147";6,235
"F_148";3,36
"F_149";3,15
"F_150";1,33333333333333
"F_151";4,24333333333333
"F_152";8,3325
"F_153";4,81
"F_154";3,255
"F_155";10,8291666666667
"F_156";5,4675
"F_157";6,525
"F_158";8,92666666666667
"F_159";0,991666666666667
"F_160";2,9925
"F_161";6,16333333333333
"F_162";2,295
"F_163";1,8
"F_164";2,70666666666667
"F_165";1,65
"F_166";5,6
"F_167";3,74083333333333
"F_168";1,57166666666667
"F_169";0,826666666666667
"F_170";1,26666666666667
"F_171";8,41666666666667
"F_172";1,47
"F_173";2,52083333333333
"F_174";3,46666666666667
"F_175";7,44166666666667
"F_176";0,85
"F_177";5,87666666666667
"F_178";1,23333333333333
"F_179";0,878333333333333
"F_180";0,725
"F_181";2,6125
"F_182";3,2025
"F_183";1,54083333333333
"F_184";5,46666666666667
"F_185";2,04
"F_186";3,85333333333333
"F_187";0,725
"F_188";2,95
"F_189";2,34083333333333
"F_190";4,19333333333333
"F_191";1,4
"F_192";3,0975
"F_193";1,26
"F_194";1,4
"F_195";3,8525
"F_196";8,16
"F_197";3,575
"F_198";1,80166666666667
"F_199";14,3
"F_200";0,44
"F_201";2,99916666666667
"F_202";1,72333333333333
"F_203";5,0625
"F_204";1,92
"F_205";6,97666666666667
"F_206";4,62
"F_207";4,74833333333333
"F_208";2,95
"F_209";5,13333333333333
"F_210";1,14083333333333
"F_211";0,63
"F_212";3,41
"F_213";0,46
"F_214";1,02
"F_215";1,36666666666667
"F_216";0,44
"F_217";7,67666666666667
"F_218";1,17166666666667
"F_219";0,5625
"F_220";2,34
"F_221";7,59833333333333
"F_222";4,94083333333333
"F_223";2,34083333333333
"F_224";3,045
"F_225";0,825
"F_226";7,43666666666667
"F_227";4,08
"F_228";7,91166666666667
"F_229";4,13666666666667
"F_230";2,385
"F_231";10,2675
"F_232";2,38
"F_233";3,78666666666667
"F_234";3,90833333333333
"F_235";5,81
"F_236";1,65
"F_237";1,17166666666667
"F_238";3,05
"F_239";1,36166666666667
"F_240";2,75333333333333
"F_241";1,14083333333333
"F_242";0,749166666666667
"F_243";1,505
"F_244";4,50166666666667
"F_245";2,47
"F_246";3,20333333333333
"F_247";1,505
"F_248";3,84583333333333
"F_249";5,26666666666667
"F_250";1,6875
"F_251";1,725
"F_252";0,541666666666667
"F_253";5,88
"F_254";5,005
"F_255";3,36
"F_256";2,52083333333333
"F_257";3,74
"F_258";5,26166666666667
"F_259";8,58333333333333
"F_260";1,84083333333333
"F_261";3,90833333333333
"F_262";1,68666666666667
"F_263";3,575
"F_264";1,05
"F_265";0,935
"F_266";6,29416666666667
"F_267";1,20333333333333
"F_268";0,991666666666667
"F_269";5,7275
"F_270";6,5975
"F_271";5,81
"F_272";2,5175
"F_273";7,68
"F_274";1,46916666666667
"F_275";9,89333333333333
"F_276";4,0825
"F_277";8,085
"F_278";7,44
"F_279";5,4
"F_280";0,88
"F_281";3,795
"F_282";9,71916666666667
"F_283";0,6525
"F_284";6,09
"F_285";3,4125
"F_286";1,11
"F_287";4,32
"F_288";5,33333333333333
"F_289";5,94833333333333
"F_290";3,90833333333333
"F_291";7,36
"F_292";4,255
"F_293";1,05
"F_294";1,07916666666667
"F_295";3,62916666666667
"F_296";2,85
"F_297";1,68666666666667
"F_298";5,3325
"F_299";2,80333333333333
"F_300";0,606666666666667
"F_301";0,385
"F_302";5,33
"F_303";4,37833333333333
"F_304";3,15166666666667
"F_305";4,44083333333333
"F_306";0,4025
"F_307";6,3
"F_308";1,20333333333333
"F_309";4,1875
"F_310";1,14
"F_311";1,29833333333333
"F_312";3,04833333333333
"F_313";0,749166666666667
"F_314";1,76
"F_315";8,75333333333333
"F_316";8,0025
"F_317";3,7375
"F_318";7,05333333333333
"F_319";0,9075
"F_320";4,81
"F_321";1,02
"F_322";3,74
"F_323";1,14
"F_324";1,8375
"F_325";0,9075
"F_326";2
"F_327";0,676666666666667
"F_328";1,87833333333333
"F_329";3,795
"F_330";1,29833333333333
"F_331";0,585
"F_332";5,87916666666667
"F_333";6,1625
"F_334";0,725
"F_335";5,4
"F_336";0,541666666666667
"F_337";7,28333333333333
"F_338";3,795
"F_339";9,44666666666667
"F_340";3,30666666666667
"F_341";0,4025
"F_342";9,17416666666667
"F_343";4,81333333333333
"F_344";0,991666666666667
"F_345";6,38
"F_346";2,20833333333333
"F_347";4,26
"F_348";2,9
"F_349";2,1675
"F_350";1,14083333333333
"F_351";5,535
"F_352";0,853333333333333
"F_353";1,6875
"F_354";4,615
"F_355";0,35
"F_356";2,20833333333333
"F_357";1,26666666666667
"F_358";1,2025
"F_359";1,33
"F_360";9,54
"F_361";0,88
"F_362";2,0825
"F_363";0,606666666666667
"F_364";0,88
"F_365";2,99916666666667
"F_366";1,435
"F_367";4,14
"F_368";0,8525
"F_369";1,57666666666667
"F_370";3,1
"F_371";3,85333333333333
"F_372";3,91
"F_373";2
"F_374";4,38
"F_375";5,74083333333333
"F_376";7,51333333333333
"F_377";2,95
"F_378";1,2675
"F_379";6,67
"F_380";3,575
"F_381";7,52
"F_382";4,56
"F_383";6,52666666666667
"F_384";1,64833333333333
"F_385";5,4
"F_386";5,94
"F_387";0,935
"F_388";1,50333333333333
"F_389";2,475
"F_390";2,47
"F_391";5,945
"F_392";0,700833333333333
"F_393";2,00083333333333
"F_394";6,37833333333333
"F_395";1,5375
"F_396";2,6125
"F_397";5,945
"F_398";4,25833333333333
"F_399";7,05333333333333
"F_400";2,75333333333333
"F_401";4,5
"F_402";7,83333333333333
"F_403";0,5625
"F_404";2,2525
"F_405";1,54
"F_406";3,10083333333333
"F_407";1,65
"F_408";1,0175
"F_409";4,13166666666667
"F_410";0,5
"F_411";0,316666666666667
"F_412";6,45333333333333
"F_413";0,48
"F_414";1,64833333333333
"F_415";1,235
"F_416";3,4125
"F_417";3,6225
"F_418";6,02
"F_419";1,05
"F_420";0,906666666666667
"F_421";5,06916666666667
"F_422";2,99666666666667
"F_423";5,73333333333333
"F_424";3,4125
"F_425";2,7075
"F_426";3,62916666666667
"F_427";3,41333333333333
"F_428";3,15166666666667
"F_429";0,585
"F_430";1,91666666666667
"F_431";0,676666666666667
"F_432";2,00083333333333
"F_433";5,59583333333333
"F_434";4,5
"F_435";4,015
"F_436";0,46
"F_437";2,475
"F_438";2,8975
"F_439";4,4375
"F_440";0,725
"F_441";3,2
"F_442";2,125
"F_443";4,2
"F_444";6,02083333333333
"F_445";0,285
"F_446";3,25333333333333
"F_447";2,655
"F_448";0,85
"F_449";2,755
"F_450";2
"F_451";2,475
"F_452";2,47333333333333
"F_453";2,56666666666667
"F_454";3,255
"F_455";2,8025
"F_456";4,62333333333333
"F_457";3,5175
"F_458";2,04
"F_459";3,95416666666667
"F_460";6,30666666666667
"F_461";2,6125
"F_462";7,2075
"F_463";3,96666666666667
"F_464";3,30666666666667
"F_465";6,1625
"F_466";1,87833333333333
"F_467";1,20333333333333
"F_468";2,52
"F_469";3,85333333333333
"F_470";7,11333333333333
"F_471";5,2
"F_472";1,02083333333333
"F_473";0,75
"F_474";0,385
"F_475";6,665
"F_476";3,85333333333333
"F_477";1,91916666666667
"F_478";2,75
"F_479";6,09166666666667
"F_480";1,54083333333333
"F_481";1,4
"F_482";3,41
"F_483";2,16416666666667
"F_484";1,6125
"F_485";1,95833333333333
"F_486";3,57333333333333
"F_487";6,3075
"F_488";1,02083333333333
"F_489";0,9075
"F_490";4,07
"F_491";1,68666666666667
"F_492";1,54083333333333
"F_493";4,025
"F_494";2,52
"F_495";2,9
"F_496";3,25333333333333
"F_497";6,0175
"F_498";1,65
"F_499";2,80333333333333
"F_500";1,47
"F_501";7,84
"F_502";1,2025
"F_503";3,68
"F_504";3,14666666666667
"F_505";9,00583333333333
"F_506";2,755
"F_507";4,44
"F_508";1,84083333333333
"F_509";4,38
"F_510";4,14166666666667
"F_511";0,9075
"F_512";6,09
"F_513";3,0975
"F_514";2,385
"F_515";1,23333333333333
"F_516";1,91916666666667
"F_517";3,74
"F_518";8,5
"F_519";2,9
"F_520";10,4233333333333
"F_521";1,40083333333333
"F_522";1,61333333333333
"F_523";2,08
"F_524";3,46666666666667
"F_525";1,7625
"F_526";0,800833333333333
"F_527";0,826666666666667
"F_528";0,266666666666667
"F_529";0,749166666666667
"F_530";1,26666666666667
"F_531";7,67666666666667
"F_532";4,875
"F_533";1,68666666666667
"F_534";3,62916666666667
"F_535";5,3325
"F_536";6,30666666666667
"F_537";1,65
"F_538";1,47
"F_539";5,74
"F_540";3,30666666666667
"F_541";5,95
"F_542";1,91916666666667
"F_543";4,25833333333333
"F_544";1,36666666666667
"F_545";2,56666666666667
"F_546";2,7075
"F_547";0,541666666666667
"F_548";4,44
"F_549";3,35833333333333
"F_550";1,76333333333333
"F_551";0,991666666666667
"F_552";1,07916666666667
"F_553";6,97666666666667
"F_554";3,2025
"F_555";0,4025
"F_556";8,58333333333333
"F_557";9,81
"F_558";4,875
"F_559";0,8
"F_560";1,43333333333333
"F_561";8,41166666666667
"F_562";1,72333333333333
"F_563";3,5175
"F_564";1,61333333333333
"F_565";0,676666666666667
"F_566";1,23333333333333
"F_567";1,46916666666667
"F_568";4,625
"F_569";2,16666666666667
"F_570";1,43333333333333
"F_571";4,31666666666667
"F_572";8,75
"F_573";3,05
"F_574";4,68666666666667
"F_575";0,24
"F_576";2,21
"F_577";4,44
"F_578";4,44
"F_579";1,76
"F_580";1,54083333333333
"F_581";1,295
"F_582";0,255
"F_583";8,33333333333333
"F_584";3,15
"F_585";7,28
"F_586";5,13333333333333
"F_587";0,88
"F_588";4,125
"F_589";1,4
"F_590";2,99666666666667
"F_591";1,60583333333333
"F_592";5,11
"F_593";1,11
"F_594";4,68
"F_595";1,575
"F_596";4,8
"F_597";2,2525
"F_598";1,05
"F_599";8,92666666666667
"F_600";4,38
"F_601";2,04166666666667
"F_602";1,46916666666667
"F_603";3,74083333333333
"F_604";2,04166666666667
"F_605";3,255
"F_606";1,3325
"F_607";7,18666666666667
"F_608";3,79166666666667
"F_609";0,676666666666667
"F_610";6,0075
"F_611";4,5
"F_612";1,3
"F_613";6,825
"F_614";1,435
"F_615";0,5
"F_616";4,38
"F_617";5,3325
"F_618";1,91666666666667
"F_619";1,26666666666667
"F_620";3,3075
"F_621";1,50333333333333
"F_622";1,91916666666667
"F_623";3,61666666666667
"F_624";2,38333333333333
"F_625";4,44083333333333
"F_626";1,50333333333333
"F_627";4,08333333333333
"F_628";1,07916666666667
"F_629";7,36
"F_630";4,75
"F_631";1,54083333333333
"F_632";9,45
"F_633";1,11
"F_634";1,4
"F_635";1,505
"F_636";1,65
"F_637";0,85
"F_638";1,84083333333333
"F_639";2,20833333333333
"F_640";8,3325
"F_641";1,92
"F_642";5,74083333333333
"F_643";0,991666666666667
"F_644";6,02
"F_645";2,475
"F_646";3,05
"F_647";3,66833333333333
"F_648";0,226666666666667
"F_649";4,015
"F_650";0,653333333333333
"F_651";4,2
"F_652";2,85166666666667
"F_653";4,5625
"F_654";3,045
"F_655";4,6875
"F_656";4,32
"F_657";1,645
"F_658";3,51333333333333
"F_659";0,63
"F_660";1,65
"F_661";5,72
"F_662";1,92
"F_663";1,96
"F_664";1,96
"F_665";8,58
"F_666";3,355
"F_667";5,535
"F_668";2,12333333333333
"F_669";1,2
"F_670";5,265
"F_671";2,16666666666667
"F_672";10,7333333333333
"F_673";0,773333333333333
"F_674";2,0825
"F_675";1,91916666666667
"F_676";4,0825
"F_677";1,435
"F_678";4,87666666666667
"F_679";14,1816666666667
"F_680";1,91916666666667
"F_681";1,57666666666667
"F_682";0,63
"F_683";2,16666666666667
"F_684";4,14
"F_685";6,5975
"F_686";3,57
"F_687";4,8125
"F_688";2,38333333333333
"F_689";4,08
"F_690";2,03666666666667
"F_691";10,925
"F_692";3,7375
"F_693";2,29666666666667
"F_694";6,09166666666667
"F_695";3,90833333333333
"F_696";0,904166666666667
"F_697";7,44166666666667
"F_698";5,53333333333333
"F_699";0,963333333333333
"F_700";3,85333333333333
"F_701";2,3375
"F_702";1,36666666666667
"F_703";2,21
"F_704";8,41166666666667
"F_705";2,385
"F_706";4,8125
"F_707";1,80166666666667
"F_708";2,565
"F_709";0,963333333333333
"F_710";0,826666666666667
"F_711";0,9625
"F_712";2,42666666666667
"F_713";4,80583333333333
"F_714";0,6075
"F_715";3,79166666666667
"F_716";0,6075
"F_717";3,15166666666667
"F_718";3,46166666666667
"F_719";0,963333333333333
"F_720";1,17166666666667
"F_721";5,53333333333333
"F_722";2,7
"F_723";1,8375
"F_724";0,3675
"F_725";3,04833333333333
"F_726";1,02
"F_727";2,16
"F_728";0,366666666666667
"F_729";3,57333333333333
"F_730";3,575
"F_731";4,44083333333333
"F_732";6,02
"F_733";1,4
"F_734";3,57333333333333
"F_735";1,95833333333333
"F_736";1,10833333333333
"F_737";2,47333333333333
"F_738";2,24583333333333
"F_739";7,36333333333333
"F_740";6,08666666666667
"F_741";6,02
"F_742";4,02333333333333
"F_743";3,3
"F_744";1,235
"F_745";4,31666666666667
"F_746";5,93333333333333
"F_747";4,1975
"F_748";0,8525
"F_749";5,6025
"F_750";3,79666666666667
"F_751";2,47333333333333
"F_752";2,08333333333333
"F_753";6,3075
"F_754";1,7625
"F_755";5,8725
"F_756";2,99666666666667
"F_757";1,50333333333333
"F_758";5,26166666666667
"F_759";0,7975
"F_760";2,755
"F_761";0,935
"F_762";3,36
"F_763";0,826666666666667
"F_764";1,47
"F_765";2,70416666666667
"F_766";9,63
"F_767";6,16
"F_768";0,46
"F_769";0,6525
"F_770";1,4
"F_771";1,725
"F_772";1,54083333333333
"F_773";1,47
"F_774";2,16666666666667
"F_775";2,6125
"F_776";0,749166666666667
"F_777";3,2025
"F_778";0,46
"F_779";2,475
"F_780";1,2
"F_781";4,08333333333333
"F_782";0,520833333333333
"F_783";1,95833333333333
"F_784";2,04
"F_785";1,5375
"F_786";8,83333333333333
"F_787";4,0825
"F_788";1,46916666666667
"F_789";2,475
"F_790";5,87916666666667
"F_791";4,68
"F_792";6,45
"F_793";1,505
"F_794";1,40083333333333
"F_795";2,21
"F_796";6,38
"F_797";5,88
"F_798";4,875
"F_799";1,17166666666667
"F_800";1,87833333333333
"F_801";0,88
"F_802";6,16
"F_803";0,8
"F_804";0,775
"F_805";7,52
"F_806";1,17166666666667
"F_807";8,33
"F_808";1,50333333333333
"F_809";2,95
"F_810";6,60083333333333
"F_811";2,29166666666667
"F_812";5,67166666666667
"F_813";1,36666666666667
"F_814";1,14083333333333
"F_815";2,125
"F_816";2,75333333333333
"F_817";1,235
"F_818";1,72333333333333
"F_819";1,53333333333333
"F_820";3,5175
"F_821";2,1675
"F_822";1,07916666666667
"F_823";1,91916666666667
"F_824";0,75
"F_825";1,43333333333333
"F_826";3,79666666666667
"F_827";5,26666666666667
"F_828";5,87916666666667
"F_829";4,75
"F_830";1,80166666666667
"F_831";3,15
"F_832";0,8525
"F_833";1,36666666666667
"F_834";0,585
"F_835";3,465
"F_836";7,13
"F_837";4,8125
"F_838";1,84083333333333
"F_839";1,02083333333333
"F_840";2,56166666666667
"F_841";1,88
"F_842";1,57666666666667
"F_843";3,74
"F_844";1,5
"F_845";2,8025
"F_846";8,00333333333333
"F_847";5,4
"F_848";3,52
"F_849";2,8025
"F_850";1,72333333333333
"F_851";1,6875
"F_852";0,963333333333333
"F_853";3,74
"F_854";2,33333333333333
"F_855";6,9
"F_856";3,91
"F_857";4,9375
"F_858";2,125
"F_859";4,68416666666667
"F_860";2,20833333333333
"F_861";2,655
"F_862";4,2
"F_863";5,46666666666667
"F_864";2,34083333333333
"F_865";2,03166666666667
"F_866";0,5
"F_867";3,905
"F_868";1,7625
"F_869";2,565
"F_870";7,2
"F_871";3,15166666666667
"F_872";0,8525
"F_873";1,505
"F_874";1,76333333333333
"F_875";5,67166666666667
"F_876";5,6025
"F_877";2,1675
"F_878";7,5175
"F_879";0,99
"F_880";2,00083333333333
"F_881";3,7375
"F_882";2,475
"F_883";0,99
"F_884";2,66
"F_885";5,4675
"F_886";0,88
"F_887";0,0833333333333333
"F_888";4,14166666666667
"F_889";3,46666666666667
"F_890";3,57
"F_891";9,45
"F_892";4,31666666666667
"F_893";8,67
"F_894";4,20083333333333
"F_895";2
"F_896";5,88
"F_897";6,30416666666667
"F_898";0,3675
"F_899";2,85
"F_900";7,84
"F_901";0,5
"F_902";1,05
"F_903";4,94083333333333
"F_904";4,50166666666667
"F_905";2,85
"F_906";1,505
"F_907";3,045
"F_908";8,24833333333333
"F_909";7,36
"F_910";2,475
"F_911";3,36
"F_912";0,9075
"F_913";0,88
"F_914";6,97166666666667
"F_915";8,16666666666667
"F_916";8,08333333333333
"F_917";6,825
"F_918";2,42916666666667
"F_919";4,08333333333333
"F_920";1,14083333333333
"F_921";5,8
"F_922";5,81
"F_923";2,04166666666667
"F_924";4,255
"F_925";2,04166666666667
"F_926";1,3
"F_927";2,34083333333333
"F_928";1,91666666666667
"F_929";4,62
"F_930";2,7075
"F_931";9,095
"F_932";1,64833333333333
"F_933";4,38
"F_934";9,98666666666667
"F_935";1,10833333333333
"F_936";0,52
"F_937";1,88
"F_938";6,74916666666667
"F_939";0,853333333333333
"F_940";0,725
"F_941";1,235
"F_942";1,05
"F_943";6,5875
"F_944";3,245
"F_945";5,135
"F_946";4,625
"F_947";6,23333333333333
"F_948";5,06916666666667
"F_949";0,8525
"F_950";0,6975
"F_951";4,87666666666667
"F_952";6,37833333333333
"F_953";4,94
"F_954";1,3
"F_955";6,90083333333333
"F_956";2,04
"F_957";1,83333333333333
"F_958";3,45666666666667
"F_959";4,08
"F_960";2,84666666666667
"F_961";1,65
"F_962";4,5
"F_963";3,255
"F_964";1,57666666666667
"F_965";2,66
"F_966";3,52
"F_967";4,07583333333333
"F_968";0,75
"F_969";0,676666666666667
"F_970";0,213333333333333
"F_971";1,435
"F_972";5,1875
"F_973";2,9
"F_974";1,3
"F_975";4,44
"F_976";7,755
"F_977";4,74833333333333
"F_978";3,52
"F_979";1,79666666666667
"F_980";2,6125
"F_981";2,95
"F_982";10,6408333333333
"F_983";0,385
"F_984";3,0975
"F_985";1,76333333333333
"F_986";0,6525
"F_987";4,56
"F_988";4,2
"F_989";0,3
"F_990";3,90833333333333
"F_991";2,90083333333333
"F_992";7,3625
"F_993";2,94833333333333
"F_994";3,63
"F_995";9,01
"F_996";0,48
"F_997";5,32583333333333
"F_998";3,96666666666667
"F_999";3,90833333333333
"F_1000";2,475
