"Foraging";"In";"Out";"InLink";"OutLink";"Betweeness";"Closeness"
"F_1";84;94;86;95;1527,01771818038;0,670020120724348
"F_2";88;75;90;83;1936,49092989727;0,693348756506653
"F_3";95;93;95;93;5143,29540604345;0,750328597358703
"F_4";46;42;49;47;343,051058100364;0,574357991567649
"F_5";56;54;58;55;853,321638792749;0,646532197173985
"F_6";56;49;57;51;755,539607251864;0,624635264693621
"F_7";47;41;46;40;393,887459821989;0,607325599067834
"F_8";73;77;74;76;1542,52912765214;0,655475969161794
"F_9";38;33;38;33;352,72669249422;0,605271129960617
"F_10";70;70;75;75;1409,55097597142;0,669159921853198
"F_11";46;44;45;42;559,286915791046;0,603443068559346
"F_12";98;98;98;91;5422,57044588309;0,74478131212724
"F_13";95;96;100;100;2623,27455002182;0,71497584541063
"F_14";47;53;55;55;708,904904595009;0,611040318059024
"F_15";32;38;35;38;154,233303674166;0,560291643297812
"F_16";97;95;97;95;3308,18939879062;0,707632371170534
"F_17";77;85;72;79;2578,72843212823;0,703232240276885
"F_18";18;21;20;21;114,223248320136;0,540340755431354
"F_19";62;62;59;65;1315,58813628077;0,656804733727812
"F_20";25;23;29;24;132,123954017043;0,542836442673429
"F_21";89;97;87;93;3400,33038142749;0,712892483349195
"F_22";86;80;88;84;2265,71539420215;0,690871369294608
"F_23";51;61;52;61;816,29321722501;0,627381201590956
"F_24";42;48;43;50;418,067157442953;0,595588235294117
"F_25";75;73;72;77;1483,74865198764;0,638338658146966
"F_26";71;65;74;66;870,519220622252;0,621719738616325
"F_27";44;50;47;60;593,47844420013;0,60368617181992
"F_28";56;71;56;72;810,219335899568;0,638270684698117
"F_29";38;44;41;45;216,488580854168;0,57626303898476
"F_30";69;63;73;66;1087,05746814998;0,651982378854629
"F_31";88;87;84;89;2401,24861400155;0,68628348980994
"F_32";41;52;40;48;312,2907481142;0,616096207215541
"F_33";94;86;92;90;2683,4761478916;0,672991635322519
"F_34";55;34;55;34;600,625010882393;0,635462496686991
"F_35";33;30;30;28;430,387152183258;0,634554308702099
"F_36";94;92;93;87;3140,27150468676;0,702325853887165
"F_37";77;80;81;76;3074,53641188737;0,698886492158809
"F_38";69;67;67;64;1594,23724542661;0,663053097345135
"F_39";57;50;57;48;504,178748279092;0,610200549730224
"F_40";50;51;49;55;405,933071814889;0,613040143185884
"F_41";79;74;73;69;3025,09162478553;0,705466956982293
"F_42";60;69;62;70;1719,009168598;0,661589403973514
"F_43";96;93;92;90;2163,36258746346;0,699906585707616
"F_44";53;51;52;46;749,170635670592;0,61844820470491
"F_45";85;90;77;92;2019,05744363627;0,696005573618208
"F_46";51;44;54;52;301,766160233281;0,59561782679982
"F_47";62;63;59;65;2093,96518052947;0,679014443500426
"F_48";62;52;57;51;1108,5954044833;0,635732088879461
"F_49";43;46;44;47;309,702953394188;0,615021547301458
"F_50";63;51;64;52;496,860556999036;0,62343335586874
"F_51";60;64;60;69;1127,6635073043;0,665113182423438
"F_52";67;50;63;49;1385,46053925725;0,672387682988395
"F_53";62;61;61;65;772,90367349438;0,61435965766412
"F_54";29;30;29;31;124,763138474607;0,566406803685329
"F_55";78;66;83;72;1526,24102164654;0,659043430456297
"F_56";59;55;62;55;1189,95442438554;0,669271996426978
"F_57";75;71;69;66;1370,00585216502;0,662686567164181
"F_58";48;54;50;54;668,546372663018;0,619086965502994
"F_59";83;73;84;75;1976,35187513831;0,691868182605185
"F_60";67;65;70;69;1033,58459138834;0,636474648261215
"F_61";46;45;48;44;559,1467901137;0,631612223393049
"F_62";56;51;56;56;1320,73371924359;0,669907795473598
"F_63";49;49;49;49;446,412196633001;0,616064545968446
"F_64";28;33;28;32;333,020240655892;0,578320227700323
"F_65";35;40;36;41;341,141140215884;0,61812931834588
"F_66";56;57;61;56;492,960133296006;0,61889519876097
"F_67";73;74;70;71;1721,61956886779;0,659986787051314
"F_68";31;33;34;34;158,614421577348;0,579466357308584
"F_69";65;63;67;64;1090,64660630292;0,6584280771132
"F_70";38;39;39;39;218,075636506023;0,58089838639337
"F_71";40;42;41;45;247,800794948322;0,562526394819576
"F_72";44;47;43;48;351,364490568464;0,59772636617471
"F_73";68;63;72;67;1299,07911488774;0,652408163265311
"F_74";55;56;54;57;869,643422884165;0,637523931078495
"F_75";52;57;53;58;885,327664991999;0,629291338582677
"F_76";43;50;40;45;448,460211712206;0,62489574645538
"F_77";37;39;38;36;231,211832477858;0,592907661110835
"F_78";41;46;45;49;710,937328977432;0,637829209896252
"F_79";30;31;31;33;656,461739605774;0,625091250391076
"F_80";57;56;58;55;864,061345425616;0,649791316602531
"F_81";38;39;38;43;176,149537513429;0,587014004504945
"F_82";48;44;45;45;407,578525882038;0,627249895353704
"F_83";73;64;73;71;1386,24379087058;0,671709531013618
"F_84";77;78;79;76;1711,68564336834;0,670657342657344
"F_85";34;49;35;49;195,004493173204;0,606680161943319
"F_86";36;36;36;40;262,609450941198;0,573231960981206
"F_87";62;60;64;61;1398,87278574358;0,674013268863153
"F_88";60;64;62;67;1037,18331046167;0,636440857931621
"F_89";81;90;78;87;2546,99667065343;0,708720070942954
"F_90";71;65;72;66;1111,90689255264;0,648596007141699
"F_91";61;67;60;65;1742,80075629691;0,685577033055019
"F_92";105;90;107;97;3644,32387174644;0,706797948234186
"F_93";53;60;51;59;419,212491152857;0,621655258245176
"F_94";36;33;39;34;302,722418771902;0,587014004504945
"F_95";28;24;27;25;100,496187825881;0,565578411020946
"F_96";66;67;63;61;1814,83087796865;0,681562340098927
"F_97";31;36;31;35;374,17455639986;0,589206723680329
"F_98";73;79;77;78;1972,65638915633;0,699988321849825
"F_99";51;60;54;70;632,38666116871;0,629555718937088
"F_100";77;83;80;86;1781,71854664202;0,668190178919796
"F_101";72;76;71;73;1597,09756899268;0,667520463277471
"F_102";46;52;47;53;791,071210950973;0,648771512068412
"F_103";59;58;55;59;896,74489039281;0,643409188492918
"F_104";92;92;92;91;2019,21040961019;0,679553313304237
"F_105";79;76;78;74;2162,82537687358;0,690592776081574
"F_106";28;34;30;35;145,378297951588;0,55435838150289
"F_107";35;27;33;25;84,5964052851124;0,546922761074867
"F_108";33;34;37;33;366,157104694832;0,619887274419567
"F_109";45;40;46;40;401,411108708384;0,612507664009809
"F_110";46;50;48;55;272,230584843941;0,601113172541743
"F_111";92;96;88;90;4192,91769703197;0,723257918552039
"F_112";78;73;78;76;1611,70114628609;0,662686567164181
"F_113";72;60;71;62;743,833835098755;0,614769230769229
"F_114";64;72;65;70;2303,38841417142;0,668973214285719
"F_115";73;78;77;73;1837,80014358004;0,664560119740564
"F_116";87;86;84;91;2716,05771441823;0,672463117742751
"F_117";47;40;50;43;379,317470181382;0,592351022828341
"F_118";47;56;46;55;1050,87941046451;0,644550782300126
"F_119";75;66;74;64;1561,2607448542;0,68491115808719
"F_120";40;50;38;49;233,686268752203;0,587387917095398
"F_121";45;38;46;36;337,850847773005;0,600631294153012
"F_122";60;52;60;48;924,027586113523;0,639462313970237
"F_123";78;81;78;79;2463,24043825534;0,673331835542577
"F_124";72;65;70;62;1077,188040764;0,647509992438158
"F_125";29;32;31;30;275,480385884566;0,604935156683658
"F_126";66;66;70;63;2068,88011623288;0,675951508316891
"F_127";61;69;64;68;1371,74224746186;0,67855323484463
"F_128";50;49;47;50;663,963102438256;0,623855120732722
"F_129";56;55;57;61;942,159992639909;0,636542239685659
"F_130";65;70;66;69;1585,72454586059;0,653581943081454
"F_131";66;76;63;75;2092,61215327832;0,671483784237945
"F_132";24;29;25;29;108,319729437967;0,541243396993093
"F_133";45;38;45;41;651,212879778461;0,637320574162684
"F_134";67;76;70;78;1825,02212933383;0,64792995351854
"F_135";75;60;78;62;1392,6150580279;0,672727272727275
"F_136";71;71;77;74;1061,09560608387;0,644239036973346
"F_137";89;103;84;96;4743,68685528492;0,716814159292037
"F_138";58;56;56;59;608,051801500529;0,645279362687051
"F_139";53;48;52;48;663,904307575549;0,627578264056121
"F_140";28;28;31;30;101,803605561965;0,549404216315307
"F_141";97;94;97;101;3322,52802822832;0,703438563548881
"F_142";31;42;34;46;292,673407602253;0,565551729018256
"F_143";46;49;49;50;451,25774828189;0,626757986092958
"F_144";60;41;61;40;386,116236094223;0,587387917095398
"F_145";49;50;52;51;599,025434765155;0,622915042868277
"F_146";87;78;87;77;2501,26440277226;0,676714648602881
"F_147";103;105;95;96;3587,3714520768;0,715786959636974
"F_148";60;59;58;60;813,658289295188;0,634520721960515
"F_149";52;62;53;59;769,421320709459;0,628367753433274
"F_150";36;40;34;39;227,759473490139;0,591386710078436
"F_151";69;78;73;84;1187,38438966032;0,653867132104289
"F_152";92;96;90;97;2725,71862220033;0,681639847614718
"F_153";86;89;96;88;3891,19753768723;0,721169463995674
"F_154";72;81;71;82;1831,16225418056;0,661370407149952
"F_155";89;92;93;92;2933,81553712082;0,706090234421017
"F_156";90;91;95;95;2111,38491146928;0,690751944684533
"F_157";68;63;67;65;850,266299418451;0,626299566375841
"F_158";34;29;33;30;176,605855326942;0,57304015296367
"F_159";33;34;33;33;213,649485261767;0,598472367829865
"F_160";53;54;55;55;880,940574212544;0,630947368421053
"F_161";103;89;105;88;2762,35954008788;0,703314755060137
"F_162";30;34;32;33;259,539563421702;0,586009678838538
"F_163";38;36;40;39;417,901537402735;0,574633304572907
"F_164";47;46;50;49;452,53462283418;0,593259761468797
"F_165";20;26;23;24;82,1660224981905;0,565791957711911
"F_166";71;85;74;81;1673,09181340731;0,662357036300349
"F_167";62;61;64;62;2578,48375271382;0,672387682988394
"F_168";52;44;53;50;677,639621462724;0,610107384599724
"F_169";45;34;46;36;204,941504787052;0,570015691122628
"F_170";43;56;47;59;485,060429623903;0,607664233576641
"F_171";27;31;26;31;192,540463921981;0,555411415863602
"F_172";31;34;32;35;85,5323175490058;0,563345864661653
"F_173";42;42;43;41;353,908794132401;0,593318485523384
"F_174";66;50;66;50;982,39508926467;0,634856749457185
"F_175";100;104;100;97;5716,34663462373;0,736680390831441
"F_176";83;78;85;85;3040,82434964116;0,707632371170539
"F_177";40;43;37;43;311,357461436605;0,584153591267906
"F_178";58;61;58;61;1037,71078446531;0,654402532889352
"F_179";27;32;29;32;120,942621558103;0,551324503311258
"F_180";29;31;30;33;311,617350807543;0,598741384477074
"F_181";78;91;71;83;1962,96634156206;0,668898560428526
"F_182";68;57;65;55;814,902477090153;0,631412619825134
"F_183";67;67;68;71;1849,56292179159;0,669795507877977
"F_184";82;80;82;79;2674,58959237005;0,70286116322702
"F_185";36;41;38;41;330,086858608823;0,589873542291984
"F_186";66;64;65;64;1121,68669941685;0,631179908387301
"F_187";99;92;95;92;2145,51344927828;0,68651929904937
"F_188";38;39;37;39;182,027147015586;0,57754010695187
"F_189";36;36;37;36;247,049303051924;0,605148914689549
"F_190";40;44;41;46;451,643903345971;0,627939866953015
"F_191";32;33;32;34;98,8920730025969;0,571237968169255
"F_192";66;55;63;57;925,162480000766;0,631645502924284
"F_193";50;54;50;58;557,036545015901;0,595469898668785
"F_194";22;29;24;31;130,049437830109;0,563001925515427
"F_195";57;55;64;61;386,154371921565;0,609115390478125
"F_196";87;87;85;84;3699,41708687764;0,724700761697501
"F_197";87;81;88;81;2395,54180635047;0,699498191154164
"F_198";49;40;52;41;487,568033039162;0,597458260652877
"F_199";57;64;59;64;635,599013693296;0,604203417166472
"F_200";19;20;20;20;74,0278230553093;0,532539647283551
"F_201";58;66;61;67;1242,70596350947;0,670244884267029
"F_202";40;39;41;39;529,495584018602;0,599100449775111
"F_203";91;84;88;80;2788,49145656325;0,700929661462903
"F_204";33;33;34;35;251,598629489852;0,575129533678756
"F_205";41;40;45;42;152,39942769403;0,571646559534594
"F_206";60;61;56;60;735,03287088158;0,649474482609169
"F_207";90;102;90;103;3932,00679191445;0,723345200024138
"F_208";79;71;73;66;1178,34751943161;0,652976741652597
"F_209";94;100;91;97;3639,97501303792;0,733345567994128
"F_210";70;65;72;63;828,814243041163;0,65709274281956
"F_211";21;18;22;18;60,3006025563287;0,533558839238028
"F_212";60;52;65;51;383,266739642889;0,589757465440054
"F_213";59;60;55;58;994,642506774282;0,647964974866225
"F_214";32;32;35;34;136,746457598441;0,553897334010997
"F_215";30;29;29;25;346,857257327615;0,611757501530925
"F_216";29;29;32;28;124,961878287065;0,557788944723618
"F_217";91;105;88;102;3137,24624421916;0,704637630047615
"F_218";90;105;91;103;3391,43798551041;0,726501424156116
"F_219";78;94;75;89;2475,8163209129;0,700724807107787
"F_220";68;81;63;82;1462,20895278275;0,67174717023423
"F_221";74;77;74;77;1754,51279571291;0,692787794729546
"F_222";67;59;64;61;1468,15456155086;0,672840545546392
"F_223";63;73;63;71;1873,91566512428;0,658355758141581
"F_224";20;24;20;25;56,6786949467448;0,533867735470943
"F_225";23;26;23;26;273,952377823099;0,5760691975012
"F_226";105;117;101;118;5165,96826507799;0,746450809464509
"F_227";51;49;59;53;500,73699478838;0,607787467045223
"F_228";94;95;93;97;3333,60210016727;0,700274548747012
"F_229";65;59;67;59;804,510490574532;0,619278851120982
"F_230";66;66;66;74;1024,07578572143;0,649720882337003
"F_231";94;85;93;79;3116,89517717075;0,710105437744344
"F_232";59;53;61;54;763,89744557348;0,650037956837656
"F_233";79;63;71;57;1088,21358496939;0,655511811023625
"F_234";52;61;49;61;1260,3210652762;0,660677872692208
"F_235";96;91;93;92;2862,03416916851;0,72535850426575
"F_236";38;41;40;42;201,223197539913;0,587877599058453
"F_237";60;47;62;48;341,492092046655;0,580139372822299
"F_238";73;60;75;63;2623,6722176265;0,696774193548391
"F_239";52;45;52;46;404,730825083221;0,629654918850781
"F_240";58;66;60;69;935,367661239542;0,638100814392931
"F_241";42;43;45;49;475,167316630627;0,602563458155314
"F_242";30;26;31;27;57,7672980228531;0,554281486961346
"F_243";47;46;47;47;480,029406800218;0,609270176865215
"F_244";66;70;68;72;895,075795047224;0,649263431542463
"F_245";54;62;56;71;615,031604160653;0,628400691932694
"F_246";79;78;75;81;4189,53465968073;0,721343041097544
"F_247";49;60;50;60;839,083577918514;0,626889086440412
"F_248";47;53;43;52;659,957716273646;0,605791096063469
"F_249";62;70;60;74;2817,04549858363;0,694916236739904
"F_250";55;48;58;46;480,474099998396;0,604172966434834
"F_251";81;74;76;76;3286,07954816203;0,713656387665203
"F_252";36;38;36;39;252,307383398639;0,591474245115452
"F_253";95;97;94;95;2566,60829151123;0,690234914785815
"F_254";55;54;50;51;944,046777254126;0,646323053698516
"F_255";61;57;58;59;1383,36690993049;0,683076923076926
"F_256";78;58;74;61;1472,27246314369;0,68237704918033
"F_257";86;80;84;75;2985,57156351511;0,696774193548388
"F_258";96;92;97;100;3457,61204299773;0,703975571084622
"F_259";87;91;88;87;3785,82877086325;0,733884297520664
"F_260";44;47;42;47;350,142889457115;0,587647058823529
"F_261";78;80;76;81;1285,22389866276;0,671596638655464
"F_262";61;57;57;53;556,175518208558;0,602109492717226
"F_263";67;76;73;81;1886,30617028416;0,663016426082631
"F_264";52;57;52;58;605,711142244371;0,621333056908883
"F_265";77;64;79;68;1500,57820552701;0,665704131497114
"F_266";84;92;79;88;3284,54633688072;0,692147806004622
"F_267";63;63;62;63;1050,1612103581;0,643133047210303
"F_268";25;35;25;35;223,789041245943;0,598920863309351
"F_269";92;100;88;99;2485,50395813627;0,709979271542794
"F_270";88;91;84;88;2285,35157908093;0,695117708454135
"F_271";42;47;41;51;607,534357009187;0,624960900844541
"F_272";70;69;74;78;1160,52977331805;0,658970976253299
"F_273";102;100;93;96;4278,38722648534;0,731734114631024
"F_274";42;46;45;50;489,887410589142;0,603139464681021
"F_275";51;58;54;62;517,128377297463;0,626005221932115
"F_276";98;96;95;96;3050,25002833931;0,697017268445844
"F_277";21;29;20;29;150,287863679198;0,549353863073962
"F_278";88;88;87;88;2813,93774736323;0,701832445407178
"F_279";86;88;82;87;2480,35469805051;0,692147806004623
"F_280";70;75;69;72;1264,18470286291;0,659333406665936
"F_281";73;85;74;85;2485,54030690899;0,687700780174393
"F_282";75;77;74;80;1405,42919490866;0,666037002055673
"F_283";19;18;20;18;43,8261820480861;0,532894736842106
"F_284";92;80;88;85;3721,36021963698;0,711538461538465
"F_285";69;54;68;55;761,848645355283;0,621043361135574
"F_286";60;64;58;61;1052,14774186492;0,637693494334806
"F_287";80;80;76;82;3222,1218459852;0,701955732521378
"F_288";69;68;73;69;1193,24843910219;0,652053304324179
"F_289";76;75;78;80;2370,64540891899;0,690791748300107
"F_290";66;72;66;69;1787,01804842639;0,696369445251237
"F_291";91;93;89;87;1911,52407375335;0,686126373626375
"F_292";73;62;72;63;1421,44406002967;0,669346733668345
"F_293";23;30;27;32;238,456422445189;0,576373864128082
"F_294";54;57;58;57;1419,89671676971;0,655726944535614
"F_295";48;46;51;45;527,524374218549;0,636778922766389
"F_296";35;38;34;37;145,720384179895;0,558386510782989
"F_297";45;48;47;51;582,133531241723;0,586124284945972
"F_298";73;76;72;80;1257,94690429096;0,651026392961878
"F_299";71;69;72;70;1515,2130211106;0,65727287680246
"F_300";43;45;42;44;511,794773344702;0,630582294461107
"F_301";27;25;24;25;350,088792523294;0,620786080472272
"F_302";48;43;51;44;366,41914757085;0,610262675626145
"F_303";64;80;65;85;1020,5895303952;0,639019189765459
"F_304";65;56;59;52;1205,33065747952;0,649263431542464
"F_305";66;55;63;54;1415,92540787008;0,669085226321373
"F_306";73;61;76;64;790,703390277833;0,640863893937774
"F_307";102;104;112;109;2752,91017458149;0,701914632004217
"F_308";42;40;43;40;228,513018977522;0,597636970935739
"F_309";50;52;51;51;827,280237769904;0,65458119471443
"F_310";46;44;48;41;647,576414591812;0,629555718937088
"F_311";37;35;39;40;323,865997000376;0,58865700957525
"F_312";69;63;67;60;1112,58200836556;0,657525230364196
"F_313";21;19;21;21;67,3194008741236;0,529458528398552
"F_314";51;48;51;48;474,660086414405;0,602381789859805
"F_315";75;79;73;81;1983,76767752147;0,682066454255809
"F_316";91;72;85;67;3223,38743044552;0,708217640456078
"F_317";57;61;58;59;750,843379214295;0,636407071189681
"F_318";71;77;68;80;972,868244705804;0,653261402648359
"F_319";37;40;35;41;596,155800460446;0,646601941747577
"F_320";74;91;76;84;2384,49286779981;0,703397289209648
"F_321";23;31;28;33;146,650539255054;0,548750343312277
"F_322";83;81;83;84;3184,79166429169;0,71014750311001
"F_323";60;58;55;54;1430,28055703007;0,661479887435861
"F_324";47;45;50;44;461,467425030522;0,604386186034786
"F_325";38;43;38;42;355,790206712324;0,593553498044263
"F_326";50;62;50;60;677,134598313048;0,635092180546727
"F_327";34;26;38;30;207,758877648744;0,569663562060444
"F_328";55;44;54;46;663,460604744182;0,636948089899582
"F_329";66;61;73;61;1167,65476897793;0,648736403485039
"F_330";25;23;26;25;106,240229033598;0,548574566421086
"F_331";26;34;25;33;192,875442912412;0,583925962006817
"F_332";103;105;105;103;1524,70471836911;0,66353019316987
"F_333";91;89;89;88;2999,53698055284;0,707674144037782
"F_334";60;59;64;60;834,90432033951;0,641858970926811
"F_335";79;85;81;84;2754,37037081146;0,711707432913801
"F_336";71;79;68;73;1797,21784631071;0,669159921853199
"F_337";65;68;65;70;1197,13144479745;0,673634524612274
"F_338";50;61;52;66;1090,27985570063;0,642030848329051
"F_339";32;36;32;41;268,079945879729;0,578655210696529
"F_340";62;65;64;67;809,649054196804;0,640418825791978
"F_341";71;77;75;75;1944,62780452902;0,675114039533707
"F_342";39;46;39;43;330,185626751936;0,601807228915661
"F_343";49;48;48;52;558,939904386941;0,59772636617471
"F_344";33;28;37;32;248,752247016454;0,590338306987736
"F_345";44;47;44;48;363,728443615767;0,614139344262295
"F_346";39;34;37;35;706,682402837528;0,608929750596842
"F_347";89;97;90;94;2459,62162814841;0,672161480235493
"F_348";59;63;61;69;1335,20621522005;0,659405940594061
"F_349";39;39;40;41;236,236184978075;0,589438489526993
"F_350";35;43;37;44;261,172651138586;0,570694087403598
"F_351";77;88;75;82;1883,62235727898;0,689361702127663
"F_352";50;49;49;47;727,35226397275;0,653047883641121
"F_353";51;45;49;43;540,755131342446;0,612288676643341
"F_354";93;80;90;76;2699,10796078932;0,713953903877079
"F_355";26;24;25;24;123,111155045091;0,551045736612272
"F_356";60;61;62;64;1245,73634975208;0,660787123801128
"F_357";92;93;88;87;3462,7638273962;0,704223697350645
"F_358";40;43;43;44;222,443492653834;0,578906702723584
"F_359";31;35;31;36;241,409229694139;0,570585435506901
"F_360";69;75;70;75;1195,88374014777;0,665150086001223
"F_361";36;30;38;31;141,104658955475;0,556184466920293
"F_362";30;33;31;32;343,239483170109;0,580307871042695
"F_363";56;63;52;58;986,003778570282;0,63684657883553
"F_364";38;27;38;28;360,37417311013;0,626495949830155
"F_365";66;87;67;86;931,433105248363;0,662686567164182
"F_366";46;45;45;41;233,945616305526;0,574523147704398
"F_367";76;71;82;70;1797,56480253602;0,675304191077065
"F_368";29;31;30;30;303,57009034837;0,595085629188385
"F_369";54;43;54;41;470,261916591741;0,611632653061224
"F_370";47;56;46;54;567,412943926717;0,610014247913698
"F_371";80;75;75;72;3501,46496849788;0,710652676507206
"F_372";55;62;60;63;1209,96255399973;0,657092742819559
"F_373";34;37;34;36;209,845636699174;0,581405499781754
"F_374";81;93;85;94;2101,76425233923;0,681484850207494
"F_375";67;66;64;72;1876,22255223184;0,659115900593801
"F_376";34;26;33;25;256,033218842426;0,58174406754986
"F_377";30;28;37;30;250,547635590433;0,564592850751188
"F_378";40;35;40;37;208,018179304446;0,584980237154149
"F_379";90;91;91;91;2440,09751309091;0,694956521739133
"F_380";57;62;55;58;1285,17911293878;0,660423093873954
"F_381";27;28;28;24;306,063563614315;0,620272158120764
"F_382";78;82;77;83;3180,74817774016;0,694634372464945
"F_383";87;84;90;89;2513,55038857265;0,678131010295284
"F_384";45;38;45;38;356,139351023039;0,606403965805048
"F_385";95;93;91;91;4967,04348429304;0,719827068572119
"F_386";63;62;60;65;899,211151392213;0,635968169761274
"F_387";60;58;60;59;1258,37327225851;0,636474648261219
"F_388";78;79;76;74;1555,9871025486;0,683310533515734
"F_389";59;69;58;65;1461,49347171307;0,651698831204133
"F_390";33;32;36;35;96,4785495882807;0,566862114620767
"F_391";86;90;85;94;2866,57195919511;0,684950291395271
"F_392";38;54;40;55;627,47879332752;0,630118265440211
"F_393";53;61;54;61;759,569033305203;0,637998935604046
"F_394";81;89;84;92;2019,82165025347;0,667780748663103
"F_395";36;41;38;44;354,030961705637;0,602109492717227
"F_396";59;63;68;64;829,44746870603;0,637761344895463
"F_397";53;49;57;55;525,020637241531;0,611009174311925
"F_398";73;67;75;68;1251,26733572875;0,653760157059501
"F_399";51;49;48;50;570,328088682766;0,635900700190962
"F_400";53;54;57;57;416,384839318261;0,603078780561423
"F_401";85;80;81;81;1961,02868477598;0,685890834191557
"F_402";94;93;92;97;3571,33204632524;0,712680577849118
"F_403";27;26;28;26;149,493220485214;0,561840933589538
"F_404";51;51;55;53;465,682624823508;0,607725844063671
"F_405";29;38;32;38;161,833209565787;0,557477678571428
"F_406";54;48;53;45;610,482325110084;0,639496425904196
"F_407";60;56;58;52;943,753153962379;0,623206487835309
"F_408";28;36;29;40;136,933725505317;0,582224380767361
"F_409";70;74;69;71;2289,41087924481;0,69815386407315
"F_410";22;25;23;25;76,0428888430077;0,545380100996316
"F_411";73;75;78;77;1346,77117629538;0,656481025135537
"F_412";74;70;79;69;1212,17831298521;0,643581897245934
"F_413";78;77;81;74;1378,26431919571;0,671596638655468
"F_414";42;32;46;35;271,214017092034;0,605393394606604
"F_415";31;23;33;23;107,136207752305;0,547572283378249
"F_416";42;42;44;45;389,200605818272;0,593582887700533
"F_417";63;63;64;65;619,263558947951;0,622915042868276
"F_418";59;62;69;65;855,544216926115;0,645071028842017
"F_419";63;65;58;68;1649,16946420117;0,663420033204212
"F_420";31;22;35;24;193,68806553546;0,590716467921553
"F_421";60;71;66;74;864,442368277425;0,646776369031564
"F_422";65;65;60;63;2393,28768330752;0,674885998986663
"F_423";69;84;67;84;2269,55204615032;0,694714881780256
"F_424";75;77;77;78;1636,42281847164;0,6651869936744
"F_425";66;72;68;72;3379,75069631262;0,711834214120306
"F_426";67;61;70;57;1927,41357136383;0,681562340098932
"F_427";51;54;50;55;944,797047310483;0,645348837209305
"F_428";39;42;37;42;363,121117321456;0,605515708657439
"F_429";26;36;28;36;213,476540263554;0,56807089039473
"F_430";60;36;58;35;429,216013832082;0,629522659244868
"F_431";45;44;48;42;304,368396721164;0,608342636760377
"F_432";37;36;37;39;247,154054430609;0,584666406554817
"F_433";51;46;49;48;373,649980260432;0,582422387407083
"F_434";80;89;79;87;3020,50249914043;0,717200119653009
"F_435";76;71;75;72;1204,86319684273;0,645314098078269
"F_436";22;25;24;25;104,627581110069;0,536663980660758
"F_437";59;64;59;63;1284,42462624035;0,638814877970799
"F_438";75;77;77;75;1166,32380336921;0,651380134753316
"F_439";64;55;66;57;915,535333107756;0,633280507131538
"F_440";20;20;19;19;44,8162803366205;0,52687557684701
"F_441";58;64;56;69;1336,71181838034;0,659333406665937
"F_442";110;101;104;99;4670,5098589404;0,725709788728135
"F_443";42;57;46;56;742,562041174773;0,645800786510804
"F_444";69;68;66;67;1287,73894483658;0,651380134753316
"F_445";86;98;87;95;1902,81981035977;0,680672268907564
"F_446";78;83;80;82;1408,11556956579;0,669795507877978
"F_447";56;55;59;54;473,459775032989;0,609239213294708
"F_448";47;39;48;43;367,096108552018;0,606895155166303
"F_449";56;62;58;63;592,366626631327;0,643305607727399
"F_450";60;65;61;65;954,239395322388;0,650425912864199
"F_451";43;44;42;44;705,8424884723;0,630681818181819
"F_452";52;61;50;62;807,138679600701;0,6262341325811
"F_453";65;68;74;73;679,247419467855;0,620207977650162
"F_454";74;62;75;66;1284,54749179939;0,646532197173986
"F_455";62;70;62;68;1325,69301982646;0,665186993674403
"F_456";108;96;104;92;4960,85494144278;0,724262928951187
"F_457";91;83;91;80;1919,10584467639;0,683115847056813
"F_458";106;100;101;99;3579,64152502056;0,712680577849119
"F_459";62;70;66;67;1311,99954579619;0,658753709198815
"F_460";88;85;87;81;3226,11232631289;0,716728446729646
"F_461";52;53;52;51;462,849782716627;0,602593746858347
"F_462";62;51;67;63;854,833230560767;0,642822671456916
"F_463";64;64;63;62;1160,50881317794;0,640418825791979
"F_464";66;80;65;78;2465,27099608436;0,658500411974736
"F_465";88;95;88;95;3432,84539442799;0,700642898889539
"F_466";56;65;58;68;1003,68662462318;0,673180592991923
"F_467";40;41;41;42;217,573083675748;0,595026554822056
"F_468";40;49;39;54;336,221062570918;0,587618254007156
"F_469";53;59;48;58;731,427556942971;0,635226791013143
"F_470";22;26;21;25;102,294563878695;0,575709551937761
"F_471";30;34;31;35;184,729454832332;0,581772299330291
"F_472";69;74;70;72;1475,51436708907;0,669795507877977
"F_473";34;34;34;35;220,915871049553;0,576567910734897
"F_474";48;35;49;38;259,466749031698;0,581715838509316
"F_475";70;71;73;71;1522,65837997282;0,665113182423438
"F_476";63;60;61;58;569,528073669052;0,610542398777692
"F_477";52;50;53;55;634,628685112303;0,606036095242909
"F_478";44;46;43;50;593,453898251168;0,596447584456936
"F_479";90;85;85;83;2845,06167237622;0,698316537542966
"F_480";59;57;59;57;1043,41163620025;0,637117346938777
"F_481";52;42;53;43;579,537742843186;0,623790196690602
"F_482";106;105;100;96;3706,84797617921;0,715317143027629
"F_483";46;48;45;47;320,640221587007;0,582478985472036
"F_484";49;53;47;50;612,052059921048;0,605821710127349
"F_485";60;55;57;53;708,929018267893;0,635395134361585
"F_486";61;67;57;63;1171,68090085643;0,638474648487433
"F_487";76;83;75;79;2457,68234845044;0,707256637168143
"F_488";23;26;25;25;176,834140373177;0,55517991941833
"F_489";55;62;53;55;1138,08683662835;0,631479140328698
"F_490";79;74;77;75;1823,191577668;0,662869781586954
"F_491";78;83;75;82;1951,18790879459;0,677556095631043
"F_492";99;100;97;96;4370,51389857618;0,738177339901481
"F_493";75;63;77;63;1065,02850918909;0,66275984077842
"F_494";76;74;71;76;1015,5109391836;0,649122807017546
"F_495";38;34;40;41;226,493272087291;0,583329278380613
"F_496";68;71;66;73;1160,19058523593;0,641412520064206
"F_497";71;83;75;81;1864,19703116542;0,653510684692545
"F_498";41;52;42;51;250,453627595782;0,603959897224041
"F_499";68;71;66;73;1852,75230215754;0,660277594183742
"F_500";30;30;33;32;127,023804858241;0,554409656384405
"F_501";31;19;32;19;156,924373481099;0,578655210696528
"F_502";49;47;49;50;621,974259639168;0,619054996127032
"F_503";64;62;62;60;1350,46433821917;0,660386712940011
"F_504";72;75;75;72;2185,61472547401;0,679206798866858
"F_505";47;53;46;51;809,421067789606;0,628038558256497
"F_506";48;57;50;58;511,075076028932;0,615716486902926
"F_507";75;65;68;67;1282,52076732295;0,654402532889352
"F_508";64;77;69;77;1355,58617027396;0,679476279544297
"F_509";34;38;33;37;259,999661627464;0,59106596982546
"F_510";56;60;53;60;872,486136856166;0,637286693955665
"F_511";35;42;40;45;236,131832034055;0,586956521739129
"F_512";79;75;81;77;1574,40027654596;0,671183024466719
"F_513";94;94;93;95;2882,97593148319;0,692467652495382
"F_514";53;54;52;52;847,837109584432;0,630449645017092
"F_515";35;35;37;36;244,616232353262;0,597964884277732
"F_516";58;60;57;63;1277,39266660394;0,650390625000002
"F_517";60;68;65;72;792,308333988282;0,638134781220059
"F_518";57;63;56;60;639,472656264051;0,62669245647969
"F_519";46;52;45;52;855,39625279795;0,636170664402464
"F_520";77;71;77;70;1866,52932324483;0,692747760762787
"F_521";55;55;58;59;547,56131996838;0,638712771058663
"F_522";40;37;41;38;305,013715258595;0,576651113569675
"F_523";51;49;50;50;444,888736657;0,623498205648307
"F_524";62;56;66;59;655,852977715207;0,634285714285714
"F_525";67;64;69;68;1075,86381139106;0,646392753154321
"F_526";40;45;43;44;255,862651198463;0,594849402074132
"F_527";57;63;53;62;979,239716688552;0,62965491885078
"F_528";61;69;63;69;1277,35339114509;0,628532480469774
"F_529";71;78;75;78;1579,78375132077;0,651167843563283
"F_530";24;23;27;26;107,344466813186;0,546349466776046
"F_531";62;54;63;56;740,466434022249;0,622656209421907
"F_532";85;91;84;92;2963,88339036182;0,686440677966104
"F_533";34;32;33;32;243,184300365508;0,585465911310802
"F_534";34;26;34;27;128,882101900261;0,550362684785603
"F_535";92;81;87;86;4385,26768705459;0,718145330378006
"F_536";96;101;95;102;2469,3273123787;0,681562340098928
"F_537";67;64;66;59;1852,15709659408;0,671070309001345
"F_538";91;90;96;97;1945,37567893035;0,66056865770333
"F_539";83;87;87;85;3293,82422384089;0,707381837493365
"F_540";65;61;67;54;1149,2746348768;0,652408163265309
"F_541";44;39;39;38;610,228506207031;0,617460726242595
"F_542";22;23;22;23;87,1244604235689;0,538810733066655
"F_543";79;81;77;85;2254,14029872937;0,683934276586034
"F_544";43;41;50;41;405,984102783934;0,593612280267392
"F_545";63;61;63;60;1093,7133206501;0,647824912185898
"F_546";52;50;53;55;403,431965046822;0,59552906110283
"F_547";27;27;28;27;128,797179633144;0,562790479320219
"F_548";74;74;77;74;1363,9441590521;0,64604440612201
"F_549";61;53;61;59;1088,73725679454;0,639428205675272
"F_550";34;37;35;38;163,372858833331;0,570884327825134
"F_551";84;78;89;81;2569,14091803279;0,694634372464945
"F_552";41;38;41;38;293,041994508076;0,604782564826959
"F_553";90;78;91;79;2049,74926357751;0,673218397259506
"F_554";49;50;45;50;594,011835364788;0,626037913206956
"F_555";17;22;18;22;60,2063417056064;0,529552080572489
"F_556";77;67;83;68;1785,35180779505;0,670732389638006
"F_557";98;89;96;88;3570,82849638326;0,712765324930143
"F_558";70;71;77;75;1268,21302684211;0,653368214519296
"F_559";87;89;94;88;2591,02752465566;0,695198329853865
"F_560";47;46;48;46;238,71286239463;0,575543713092322
"F_561";108;98;104;98;4584,72926258762;0,738404681244229
"F_562";51;62;53;63;1273,97958515871;0,653261402648362
"F_563";74;69;71;65;1143,68622607244;0,663163135476021
"F_564";47;36;49;36;307,708935165155;0,593759286775631
"F_565";34;33;34;32;370,069768482844;0,613573548981471
"F_566";68;67;72;72;1331,74400401859;0,663126452041158
"F_567";49;58;56;62;1488,52585971172;0,653688859806974
"F_568";60;63;58;68;955,052983001002;0,65658889254026
"F_569";47;49;50;49;430,234011150391;0,598562013181545
"F_570";48;49;50;51;602,393249299573;0,613542146476277
"F_571";63;57;68;61;1226,2109789527;0,672878311629999
"F_572";81;81;81;81;1328,21094317697;0,653867132104289
"F_573";46;51;46;52;251,497079911912;0,588396976538725
"F_574";83;94;80;97;5682,5826114235;0,750751503006012
"F_575";22;17;26;19;47,9323515896019;0,534748862521189
"F_576";54;59;55;61;1487,30691833703;0,687858618315361
"F_577";68;69;66;68;893,464198989075;0,632278481012658
"F_578";70;62;69;65;926,34372676174;0,628730266953374
"F_579";39;39;40;39;151,450016691968;0,591590998815632
"F_580";30;27;28;27;177,995862380567;0,595736222233264
"F_581";88;93;86;89;2584,95032738473;0,698642112011191
"F_582";24;22;24;23;137,46748701428;0,564273946811012
"F_583";79;67;73;70;2368,61507768734;0,69190811497172
"F_584";61;76;61;77;1200,58630784373;0,646985806033786
"F_585";62;59;60;58;931,889994120857;0,649650463339297
"F_586";58;62;58;65;807,161446698367;0,639291808873721
"F_587";55;59;58;59;699,203004174943;0,623400936037442
"F_588";57;51;56;47;606,320782537355;0,609797039523881
"F_589";58;66;59;68;933,353434722429;0,624928321951727
"F_590";56;56;55;55;918,413480846963;0,640008541989218
"F_591";58;68;51;67;1638,79237023668;0,674164885839618
"F_592";79;83;82;90;1290,04810948366;0,663309909810218
"F_593";118;115;115;111;6370,2322272538;0,749765463756335
"F_594";63;70;64;70;643,200342617543;0,600390644563529
"F_595";76;74;71;71;2938,32752003013;0,703108504398831
"F_596";75;64;79;63;2092,58978469158;0,695682451253486
"F_597";99;97;100;100;2219,33684727313;0,679823069071115
"F_598";52;55;55;60;1126,03301467986;0,63732057416268
"F_599";101;95;101;103;3593,56533546168;0,714038954077076
"F_600";102;105;100;102;3796,69360806745;0,711074203689427
"F_601";55;58;51;56;457,47394568856;0,606618763283067
"F_602";85;87;83;83;2036,76251496585;0,679630364533137
"F_603";84;86;89;94;1323,57331341095;0,650602409638556
"F_604";34;40;36;42;208,446702928723;0,567479289940827
"F_605";82;77;90;78;2284,32674568963;0,682999088422975
"F_606";42;27;41;27;169,178951436547;0,580729545124254
"F_607";90;91;93;95;3168,63384651866;0,699294172548565
"F_608";61;63;61;63;2083,16135609238;0,667557634480459
"F_609";34;36;34;34;296,376788213426;0,610853503184712
"F_610";69;73;69;76;1209,63686338189;0,643893006767647
"F_611";63;68;66;71;1163,52614809299;0,66441279166436
"F_612";36;47;40;49;311,832199086994;0,599160335865653
"F_613";60;59;61;55;968,173224912583;0,653867132104289
"F_614";63;63;64;62;1266,31295506577;0,645974781765279
"F_615";38;32;39;33;452,465643813713;0,60524057151512
"F_616";54;63;57;65;825,441829525812;0,615748112383788
"F_617";88;87;88;89;2509,76794368224;0,663309909810216
"F_618";62;69;62;64;2087,44748597695;0,675152061275066
"F_619";63;55;61;57;1739,9026323222;0,669159921853202
"F_620";58;51;55;52;592,114829470569;0,636170664402464
"F_621";42;38;43;42;199,495606930647;0,57570955193776
"F_622";47;46;44;43;624,146184186029;0,622494547720428
"F_623";75;79;78;84;1412,42309438158;0,672387682988392
"F_624";47;54;48;54;405,64787809503;0,608157467532467
"F_625";76;82;83;84;1569,71237381509;0,660023123933273
"F_626";40;34;38;33;477,482871631438;0,617492531163078
"F_627";74;73;68;70;2494,61520602751;0,692427655518977
"F_628";44;45;48;54;612,621959497054;0,616349614395887
"F_629";69;61;70;60;1546,9966718487;0,66957104557641
"F_630";69;70;73;74;2002,65389564478;0,678246110325321
"F_631";41;45;42;47;259,69408759214;0,605393394606604
"F_632";73;63;78;67;1405,64724036532;0,666148032896205
"F_633";57;60;56;63;500,695816977103;0,621300855143819
"F_634";71;73;73;76;1268,8182270808;0,658138896513865
"F_635";59;59;58;63;1243,59721229331;0,641206675224648
"F_636";64;61;66;61;1825,84201579238;0,699008746355688
"F_637";41;43;45;45;429,566401650098;0,610915762115883
"F_638";50;54;52;54;685,86558036954;0,628466579292268
"F_639";54;49;55;54;1041,00747282311;0,625776478571801
"F_640";31;39;33;39;305,418393864154;0,623141698721282
"F_641";49;48;51;51;1138,87421808514;0,668227424749171
"F_642";93;98;89;93;3328,28172606407;0,712511144130761
"F_643";84;77;85;73;2156,9062576093;0,663309909810216
"F_644";63;58;66;57;1020,74494639394;0,648280337443221
"F_645";51;52;53;54;563,300799467771;0,60692588092345
"F_646";99;104;97;101;3891,05304689789;0,728443823297079
"F_647";59;65;56;62;1032,64251868644;0,650178978197204
"F_648";23;22;27;22;63,9417007426378;0,536351841080936
"F_649";77;80;81;84;2159,42915389404;0,682260542940073
"F_650";40;38;39;41;222,298582056513;0,593142348226213
"F_651";74;82;77;85;3586,82357471062;0,70667295449187
"F_652";48;45;48;42;510,836529529534;0,602018781700396
"F_653";72;70;73;68;2719,83169236376;0,700561009817677
"F_654";75;69;84;71;1554,98635444128;0,662283851720902
"F_655";68;53;68;61;1162,14041695369;0,64403137423445
"F_656";79;81;80;82;2605,93998078729;0,685067718155325
"F_657";48;48;45;47;924,956565959351;0,661772012144634
"F_658";80;82;78;77;2517,13920564613;0,703314755060137
"F_659";24;20;25;22;70,3209608315113;0,542664433479698
"F_660";45;34;41;34;462,51235826482;0,611882400979991
"F_661";94;86;87;83;3406,11189867836;0,715658766640801
"F_662";18;23;19;24;96,8585268210932;0,564220831176165
"F_663";47;46;49;48;479,584866242204;0,617683429513603
"F_664";59;51;65;56;648,630635818475;0,625123846274183
"F_665";101;96;104;92;4678,98039128649;0,724569356301
"F_666";68;69;66;69;904,803671333097;0,63184525378169
"F_667";62;65;62;65;1796,34614064175;0,693188389036662
"F_668";71;66;74;69;1402,97706424569;0,666074008223138
"F_669";36;41;46;47;251,748775124286;0,59922023392982
"F_670";88;82;88;84;1263,64611403922;0,647754903550009
"F_671";43;43;43;41;471,434386614016;0,605423968486439
"F_672";67;75;68;80;888,409815782269;0,623206487835308
"F_673";61;66;62;65;952,113948244232;0,644689432643186
"F_674";49;55;45;53;523,600727981749;0,605576884219033
"F_675";56;52;55;51;764,915179051898;0,636305732484077
"F_676";51;49;52;50;492,685801026522;0,606956609791908
"F_677";63;63;61;61;1255,16623858523;0,655010381379087
"F_678";92;100;94;104;2929,35683342967;0,701791359325608
"F_679";108;94;105;100;3578,22962228413;0,699090272918129
"F_680";52;56;48;52;658,353602311303;0,629489603024576
"F_681";41;36;41;36;270,436301792036;0,575322743197196
"F_682";37;35;39;36;194,26094458264;0,578850796716561
"F_683";45;45;45;48;289,597640227027;0,5760691975012
"F_684";78;81;77;87;3579,40002620197;0,731957503968741
"F_685";54;52;52;50;845,399910693257;0,634520721960516
"F_686";68;62;63;60;783,256621597925;0,639496425904194
"F_687";78;72;80;77;1281,19073021053;0,650461204557789
"F_688";68;68;68;69;1252,8290271225;0,631845253781689
"F_689";85;76;84;73;1513,53680443967;0,665297741273103
"F_690";63;53;67;52;937,677284281374;0,651769694992662
"F_691";47;54;48;56;782,483051230192;0,62728271675998
"F_692";56;51;51;45;743,108817327506;0,634890371782654
"F_693";59;51;66;54;475,164585262837;0,638202725724023
"F_694";98;98;96;102;2874,75684626345;0,698519986015618
"F_695";59;62;65;65;1092,26880309889;0,661406896551727
"F_696";50;56;50;57;565,984447731475;0,603655773201066
"F_697";94;105;95;96;2512,93799296287;0,725051409217373
"F_698";80;74;82;69;3265,68852364212;0,712130212664849
"F_699";35;29;36;28;183,609482395246;0,586525759577277
"F_700";48;45;50;53;396,06515988646;0,581546521781313
"F_701";43;40;48;45;554,454169205704;0,611788721612656
"F_702";68;67;75;72;841,410863835969;0,633615221987315
"F_703";38;44;41;46;292,579785561505;0,594230197283631
"F_704";86;93;87;91;2691,2072381731;0,699171818499943
"F_705";75;66;75;69;1989,59893815067;0,690155440414512
"F_706";83;76;84;78;1166,48154018324;0,639837745516652
"F_707";60;71;59;66;951,435900502422;0,639598783545859
"F_708";37;37;38;42;285,126098825028;0,59520381311752
"F_709";38;37;39;39;224,246590565579;0,573945516349882
"F_710";81;60;78;55;1090,11063906127;0,644585439294549
"F_711";37;40;41;39;149,423665494849;0,564220831176165
"F_712";54;50;52;47;1072,85569202397;0,65587044534413
"F_713";72;68;64;61;1660,04088121338;0,686204922724676
"F_714";33;31;31;30;271,554646011942;0,592966315477073
"F_715";51;55;53;59;909,223139200118;0,636035653650258
"F_716";28;19;30;20;56,4997932383255;0,552671614955511
"F_717";59;61;65;59;1425,93723362245;0,644966912358104
"F_718";72;63;72;65;1314,55837354769;0,655046172340311
"F_719";38;39;46;42;420,728988103325;0,613259668508286
"F_720";74;58;72;61;2148,08753773659;0,672500841467526
"F_721";73;68;71;63;1634,84757429407;0,65386713210429
"F_722";49;49;47;46;651,491336711929;0,630085146641443
"F_723";57;61;55;61;497,467222877839;0,606403965805048
"F_724";31;31;33;31;277,619053235002;0,598024543549834
"F_725";90;87;92;90;2994,78837290576;0,721647002167109
"F_726";64;67;64;66;977,171834577627;0,665741100683071
"F_727";60;57;58;52;1619,56139799819;0,678783760828952
"F_728";47;42;53;42;925,962883831678;0,640726884019242
"F_729";49;51;53;54;734,716887717469;0,64625336927224
"F_730";33;45;36;47;217,734152722481;0,574826180771996
"F_731";60;49;52;45;1050,38863640333;0,674772036474169
"F_732";67;57;71;67;1550,61444829051;0,646218532693657
"F_733";61;55;58;56;888,418412700878;0,650355340964577
"F_734";85;74;83;81;2170,53155008159;0,67284054554639
"F_735";50;49;47;49;440,198225520633;0,588685916322922
"F_736";39;41;40;37;578,342776752033;0,632045131017033
"F_737";53;53;57;56;788,805370338257;0,609517998779742
"F_738";48;60;50;64;681,272604730125;0,632145117063912
"F_739";96;100;97;105;2535,64780250943;0,687621888264313
"F_740";93;101;91;97;4523,21782866242;0,743303571428573
"F_741";85;90;84;84;3331,19959525624;0,711918760021384
"F_742";59;65;58;68;686,288075223417;0,625384735771296
"F_743";66;62;60;61;1128,06129732393;0,652727866710227
"F_744";36;25;36;24;124,285631145108;0,57309494215508
"F_745";28;24;32;27;100,996927733802;0,549656121045392
"F_746";62;72;59;67;1244,80291401071;0,656229472301293
"F_747";64;82;59;83;1527,83707204531;0,668115699715774
"F_748";21;25;23;27;86,0105728243362;0,555257063455303
"F_749";73;62;67;59;794,388401891753;0,620496894409937
"F_750";75;83;77;85;2976,27119715342;0,700110961864164
"F_751";61;60;62;61;584,740028090479;0,617333539317163
"F_752";34;42;34;40;216,144687881014;0,592468122961351
"F_753";55;51;53;55;1147,87082522569;0,664155124653742
"F_754";37;46;36;49;269,426343920741;0,61332241890924
"F_755";47;56;44;55;1452,44132929082;0,653297002724798
"F_756";72;71;73;69;2302,05435897445;0,674013268863155
"F_757";71;72;70;65;1526,67481723131;0,662759840778418
"F_758";71;79;77;80;1841,32993852611;0,649157957437594
"F_759";74;73;77;72;1056,54105854225;0,661042183622832
"F_760";74;80;66;70;2183,66842125305;0,687188306104902
"F_761";65;68;67;68;985,890524818793;0,656409133220174
"F_762";109;95;106;93;4539,70695299655;0,737405425355234
"F_763";76;73;74;76;1578,10147779507;0,665963002055443
"F_764";43;48;48;51;181,638009750322;0,574826180771996
"F_765";64;67;68;69;899,153135374459;0,642478160673135
"F_766";110;94;105;87;4394,3734823446;0,731957503968743
"F_767";90;72;86;76;2251,78127401531;0,695722825140736
"F_768";48;46;46;46;535,625942762277;0,620657520062129
"F_769";94;96;90;90;3997,29717928326;0,706256627783671
"F_770";44;42;44;42;271,315209618354;0,607387140902871
"F_771";57;61;57;62;1073,46271528948;0,626037913206955
"F_772";61;61;58;60;775,10662242361;0,642822671456917
"F_773";33;32;31;31;202,234601823682;0,544587289329033
"F_774";62;59;65;60;886,7836765713;0,621526337619244
"F_775";55;59;57;67;1717,82390751273;0,647614931662258
"F_776";27;24;30;24;156,757970711638;0,564539675064751
"F_777";56;43;56;43;468,11710344718;0,620207977650162
"F_778";113;113;104;109;4559,76946156737;0,723345200024139
"F_779";65;60;63;61;1855,92524022993;0,665482402575781
"F_780";44;51;44;50;788,563410256297;0,637795275590553
"F_781";66;73;65;74;1795,56201011219;0,653439441840188
"F_782";32;35;32;34;204,996401721468;0,587992937021777
"F_783";46;35;47;38;470,488235816845;0,62718426284399
"F_784";53;49;56;51;1800,03400462145;0,674013268863157
"F_785";46;47;46;47;517,037404025178;0,592146208940478
"F_786";59;57;60;55;2045,47731783356;0,688451157181422
"F_787";68;80;65;77;1769,5480710345;0,66166243514737
"F_788";33;37;34;39;181,673798506412;0,558724832214765
"F_789";62;58;63;65;831,72799791943;0,636204426046809
"F_790";63;65;63;67;1129,20170755003;0,661333921774151
"F_791";47;60;51;59;610,959417244426;0,63078137332281
"F_792";75;78;68;75;2529,54419031694;0,710021321961625
"F_793";59;66;62;69;835,25874683436;0,607448695211552
"F_794";52;44;51;43;505,27470083044;0,612695492180312
"F_795";42;39;45;37;554,173589578364;0,625384735771298
"F_796";66;77;69;75;856,698146979097;0,638951071314359
"F_797";77;77;74;82;1777,97592715921;0,662064394985368
"F_798";90;81;88;76;3002,89372679184;0,699824868651493
"F_799";95;92;96;87;2656,93920526587;0,70060195196073
"F_800";82;73;85;74;1005,94894774243;0,647824912185897
"F_801";23;26;23;27;121,999841206668;0,551578172448698
"F_802";78;77;74;81;1803,87727893295;0,660677872692205
"F_803";35;34;39;34;340,221567760079;0,590629157018278
"F_804";29;28;31;27;89,3177017855984;0,554076539101497
"F_805";57;55;60;58;1015,71872555866;0,655475969161794
"F_806";35;40;35;40;143,44369585935;0,575129533678756
"F_807";93;77;92;77;3323,41808132156;0,69726051299948
"F_808";72;69;67;66;1383,86594414721;0,682415893436559
"F_809";38;39;36;37;378,206079032505;0,596714783474363
"F_810";108;92;104;86;3103,63912098325;0,722560424326444
"F_811";79;67;82;66;2612,70196075512;0,694272311345345
"F_812";35;42;41;49;693,804287584665;0,620689655172413
"F_813";71;69;67;68;1930,8376019774;0,671671896010759
"F_814";35;43;39;46;163,540294061548;0,566487099518003
"F_815";63;53;66;56;718,70127059832;0,622236063531609
"F_816";71;69;70;70;1187,75998280562;0,660023123933272
"F_817";39;36;39;35;305,050733611401;0,568933605429262
"F_818";70;65;71;65;1175,4609353031;0,661881625441698
"F_819";66;57;66;58;1166,11562134568;0,658283455054639
"F_820";69;63;74;66;1201,11049234058;0,647020725388604
"F_821";41;38;42;39;196,248531533614;0,578152881601157
"F_822";38;38;40;39;569,050716184129;0,627643979057595
"F_823";55;49;57;50;353,991816446951;0,600992630470746
"F_824";61;50;61;54;721,061737781533;0,637557836515451
"F_825";39;36;39;38;360,889810079127;0,601928098011649
"F_826";74;71;76;72;1608,95789956492;0,652585737615679
"F_827";45;43;48;43;358,287318301979;0,579494368443949
"F_828";84;92;84;91;2474,08396504607;0,693268563497576
"F_829";72;76;74;87;1889,17947455783;0,682532452744252
"F_830";73;61;75;65;1207,74711358074;0,628038558256495
"F_831";54;49;57;49;802,370439148192;0,626757986092958
"F_832";25;30;23;26;107,698160371574;0,583215762588177
"F_833";31;28;31;29;123,740667475896;0,56777493606138
"F_834";19;17;21;19;81,4439604531499;0,52535168061703
"F_835";60;71;65;80;1132,47008841466;0,645383580080755
"F_836";85;87;82;82;4346,51081514112;0,715530619553541
"F_837";59;61;56;58;660,52098675811;0,649333766655835
"F_838";66;52;69;51;627,919111155279;0,621526337619244
"F_839";54;54;53;51;1310,49420194976;0,657056727870655
"F_840";55;57;58;61;765,543053360437;0,625547902316843
"F_841";69;86;73;86;1385,8681626269;0,673520984324963
"F_842";41;41;46;42;758,942139549933;0,636880412261597
"F_843";59;61;65;63;1088,81762034364;0,648666197716575
"F_844";51;55;51;55;635,790326622149;0,652337160581165
"F_845";64;64;72;66;1341,27919528743;0,66254006853101
"F_846";55;54;57;55;1512,23539941329;0,6814848502075
"F_847";103;80;105;85;2459,21826036199;0,677096865292292
"F_848";110;107;106;103;4304,55062889983;0,716000716717438
"F_849";47;43;48;40;769,107324549013;0,620850380651509
"F_850";26;26;27;27;96,1264048587372;0,54523127302497
"F_851";28;35;30;35;207,142033036453;0,549454578788157
"F_852";52;37;56;39;366,95665971698;0,600300450676012
"F_853";56;64;58;62;966,248007210548;0,651946921905595
"F_854";36;32;38;33;327,431264221779;0,568690702087286
"F_855";30;33;31;34;175,39571145452;0,577818479780208
"F_856";48;44;46;43;266,741701141176;0,569068641412702
"F_857";79;82;77;84;2531,60201268743;0,686204922724672
"F_858";87;78;92;82;2627,47394283753;0,702572818378951
"F_859";51;62;53;65;517,795904439616;0,623920058290829
"F_860";43;39;43;38;523,52755043321;0,608466145568977
"F_861";28;32;30;30;115,763006541297;0,562605594143044
"F_862";41;37;42;38;423,357208926289;0,614296694850115
"F_863";77;71;81;71;1808,38480921198;0,671483784237946
"F_864";80;79;81;78;2400,82342431417;0,685224349814234
"F_865";42;40;43;44;359,688256614824;0,612977450529222
"F_866";26;23;26;22;87,2417813252977;0,542590748619535
"F_867";48;47;53;50;510,56271116214;0,63101379092536
"F_868";56;44;59;44;674,881554028886;0,634050880626225
"F_869";82;85;78;86;2902,8766685362;0,697301070265242
"F_870";66;63;64;66;1444,30303220819;0,643064048921791
"F_871";63;68;64;68;1277,34881217741;0,678322865387882
"F_872";35;38;37;38;252,483159601386;0,574220433970397
"F_873";24;34;25;34;66,1704501767582;0,552799040855852
"F_874";71;64;71;61;1865,56487033635;0,681097664905408
"F_875";96;89;90;87;2893,98996950489;0,694111516414801
"F_876";78;83;81;84;2092,86814457049;0,683778234086247
"F_877";66;70;71;71;1004,93921726066;0,639019189765459
"F_878";94;104;95;104;3393,01094872498;0,713911386374466
"F_879";40;50;41;51;348,974072409017;0,614485622020606
"F_880";60;63;66;67;1478,31935781411;0,669982674789028
"F_881";90;79;95;80;3110,38728523327;0,69774751178628
"F_882";49;56;49;53;824,862183794983;0,635630965005304
"F_883";28;32;30;33;114,706296963367;0,550741948821611
"F_884";45;36;43;37;303,727862648157;0,585837853687142
"F_885";60;64;56;64;392,781079286785;0,603899047906905
"F_886";35;42;36;44;200,860492304282;0,560579845686228
"F_887";73;67;72;69;2157,37999058707;0,687267098549562
"F_888";70;69;71;70;1093,97911008775;0,656912707545621
"F_889";76;68;77;70;2201,89964431412;0,687700780174394
"F_890";37;43;41;46;758,556170216318;0,602563458155314
"F_891";98;81;99;86;2213,43658701081;0,698031908699199
"F_892";63;48;63;48;500,55391278969;0,614706183981129
"F_893";46;38;47;40;498,463028966137;0,616857054646495
"F_894";56;62;60;60;746,920907910733;0,634084417645192
"F_895";66;71;70;76;2180,07356933491;0,666889185580776
"F_896";71;66;73;64;1608,27476783786;0,681136363636364
"F_897";83;84;76;75;1983,62052893087;0,671070309001348
"F_898";46;44;46;46;431,308370757989;0,60463004993191
"F_899";73;70;77;75;1220,50354291088;0,655332640900894
"F_900";32;37;34;40;327,353338917255;0,591999999999999
"F_901";36;35;37;37;331,159398110745;0,583698510078877
"F_902";46;51;49;52;257,482995762382;0,58211129455181
"F_903";66;60;69;62;1352,40883016178;0,64954486345904
"F_904";69;63;71;71;1279,97704182737;0,641755888650964
"F_905";36;36;38;38;298,836954639211;0,555823442136498
"F_906";71;74;72;76;1598,70268224247;0,667037614066327
"F_907";67;56;67;53;698,594770402273;0,630085146641438
"F_908";37;41;42;39;323,698515649948;0,61641299876594
"F_909";75;83;74;84;2260,82203770175;0,689123936537136
"F_910";60;69;60;67;1082,76968158211;0,638100814392933
"F_911";62;46;61;44;729,229425732428;0,649861766140838
"F_912";33;26;35;29;133,96261440542;0,560868344717881
"F_913";36;40;40;41;160,42900584205;0,564513090977584
"F_914";84;80;86;84;2484,50039204055;0,680286006128704
"F_915";59;66;54;64;1885,60163792566;0,669907795473598
"F_916";55;42;59;44;530,902906914064;0,60862060212215
"F_917";32;30;31;30;153,204782321206;0,572930606002675
"F_918";44;36;41;37;583,785693970348;0,601777019225942
"F_919";38;45;36;41;513,192737957976;0,602836166147037
"F_920";25;30;26;31;121,524229190205;0,571183533447683
"F_921";99;110;98;107;3016,50553628033;0,712595850918387
"F_922";59;66;64;66;1014,704480484;0,661005734450818
"F_923";52;56;54;58;673,021490046805;0,624309967711696
"F_924";58;64;55;56;1690,71560905831;0,689480646460002
"F_925";42;36;44;38;255,021403732214;0,597279657216879
"F_926";31;33;34;35;432,3772518361;0,580223609699433
"F_927";54;50;54;49;691,772701310917;0,646357901547422
"F_928";43;40;49;46;556,015497587638;0,604599556183174
"F_929";54;71;58;74;526,855452343456;0,597428485996211
"F_930";67;64;70;63;1464,97364200409;0,679091372571241
"F_931";99;102;93;101;3545,83536025566;0,703067268781892
"F_932";38;46;42;45;447,666506066183;0,629787234042554
"F_933";73;68;74;64;1215,20477746394;0,655906330360564
"F_934";67;69;65;72;1377,22467058271;0,680401838923891
"F_935";29;35;31;34;219,444305922712;0,568151658767772
"F_936";36;38;39;42;247,338057971785;0,60009010361916
"F_937";64;71;63;69;594,736492608113;0,608280901156889
"F_938";29;31;31;31;145,834178371282;0,547572283378249
"F_939";31;33;29;35;340,422604870856;0,599669851433144
"F_940";23;29;22;27;108,561292435557;0,573615962486242
"F_941";45;45;43;44;548,101224847754;0,615716486902927
"F_942";72;77;78;78;1805,6135149861;0,680865564832172
"F_943";73;85;71;86;2162,74253372848;0,684637350085666
"F_944";63;60;59;58;868,2429301812;0,638576679273426
"F_945";74;72;86;80;1662,10646172276;0,665260821309658
"F_946";66;62;70;62;1006,11477362234;0,655081967213119
"F_947";79;74;74;74;2159,85515858808;0,693228473949002
"F_948";68;65;72;69;2093,39619496447;0,660787123801126
"F_949";42;48;41;49;734,608635441305;0,63620442604681
"F_950";49;50;46;50;595,922837044621;0,619023030052669
"F_951";72;81;80;84;3533,69041204082;0,722691102001448
"F_952";71;74;76;77;1718,0824451187;0,670619825464311
"F_953";77;71;78;73;1584,55812388489;0,662796483662301
"F_954";53;52;54;54;297,033342795218;0,581913499344691
"F_955";77;69;77;65;1926,81294965777;0,662064394985367
"F_956";49;41;46;40;399,213365015095;0,624082461346245
"F_957";32;37;32;35;161,490370072549;0,567909422521199
"F_958";52;64;54;66;653,419956313488;0,639291808873722
"F_959";56;66;60;67;1950,95658563488;0,689123936537137
"F_960";74;68;73;70;1099,39553106899;0,659043430456299
"F_961";59;64;61;70;1147,11340492763;0,664523281596458
"F_962";80;79;81;78;1702,15232004969;0,656373193166888
"F_963";74;60;72;59;983,778931005139;0,636136906341205
"F_964";78;79;73;69;2386,32744602374;0,704513399153743
"F_965";67;61;69;62;1097,61835328146;0,639155470249522
"F_966";40;48;37;47;582,542695854021;0,619759085974254
"F_967";69;63;65;68;1178,94406758621;0,645939975214184
"F_968";27;29;30;31;210,576671436448;0,580139372822298
"F_969";27;30;29;31;184,768301376634;0,57927035515825
"F_970";44;42;44;41;278,542867745162;0,599040575654605
"F_971";28;28;27;26;242,741448405067;0,586669276695702
"F_972";64;55;66;57;689,364445177144;0,647824912185898
"F_973";65;60;62;57;860,415899451029;0,643823845327606
"F_974";41;33;43;35;179,755282420189;0,581292731416379
"F_975";47;47;45;44;260,562058550765;0,6028968014484
"F_976";62;73;62;72;985,552740003341;0,649052517596103
"F_977";73;67;79;66;1732,0572395664;0,667520463277469
"F_978";59;68;60;68;1183,81161961245;0,638508655126499
"F_979";43;46;43;46;538,314249224401;0,61023161109697
"F_980";42;34;40;35;535,795430950757;0,633916768018617
"F_981";64;63;65;62;864,046700277297;0,615621629949159
"F_982";85;87;82;87;1767,35044601391;0,661698956780926
"F_983";30;28;32;28;127,579091069017;0,550944436784779
"F_984";64;56;60;54;1514,75301081929;0,666518403202493
"F_985";51;39;53;43;1046,06288491891;0,63364871293409
"F_986";83;68;84;71;2846,06556915019;0,697260512999479
"F_987";70;66;67;64;952,142020219185;0,651486332264554
"F_988";74;67;70;65;2654,56668740518;0,715146453498782
"F_989";57;50;56;51;1415,9287129183;0,646671701370163
"F_990";69;69;69;65;783,114659622625;0,623303696771173
"F_991";70;61;67;60;1048,86923866959;0,641412520064206
"F_992";88;82;81;78;5246,27199029278;0,750046924857661
"F_993";68;57;68;55;1297,90542221816;0,64451612903226
"F_994";53;60;57;62;713,434690110866;0,60701807686465
"F_995";85;91;82;96;2444,53700261481;0,718016291327268
"F_996";60;59;61;62;1161,32599872471;0,631612223393045
"F_997";77;88;79;90;1923,51350311877;0,684324694599842
"F_998";77;65;78;66;2255,13826817587;0,693108233117489
"F_999";56;62;55;63;679,146836297111;0,639632910041618
"F_1000";38;38;38;38;364,513943395769;0,596002784130455
