"Roost";"In";"Out";"InLink";"OutLink";"Betweeness";"Closeness"
"R_1";19;19;5;3;5,75;0,515834149526608
"R_2";27;27;15;13;370,302380952381;0,676756139348943
"R_3";23;23;7;8;127,638095238095;0,671959172100936
"R_4";25;25;11;11;58,2833333333333;0,577415032281642
"R_5";25;25;10;13;276,327380952381;0,62640412316638
"R_6";23;23;12;11;153,85;0,623356128353499
"R_7";19;19;9;9;114,235714285714;0,53729313080934
"R_8";16;16;3;3;0;0,354207143924675
"R_9";23;23;9;11;478,319047619048;0,756342747726184
"R_10";21;21;8;9;88,3690476190476;0,562811683685585
"R_11";20;20;9;8;0,666666666666667;0,516396121581872
"R_12";20;20;6;6;6,33333333333333;0,484315929293961
"R_13";25;25;10;13;511,323684648684;0,753936694766979
"R_14";25;25;11;12;427,619047619048;0,713425647200482
"R_15";21;21;10;13;111,705952380952;0,652533039647578
"R_16";21;21;10;7;33,9119047619048;0,513042537071112
"R_17";22;22;11;10;133,492857142857;0,646922342022656
"R_18";22;22;9;8;136,75;0,646745804338928
"R_19";26;26;12;13;563,015873015873;0,671007927519819
"R_20";21;21;12;11;111,843906093906;0,532644117316552
"R_21";25;25;9;10;308,916666666667;0,626321353065539
"R_22";21;21;10;13;25,5428571428571;0,490835663249456
"R_23";23;22;13;14;240,55;0,684971098265896
"R_24";18;18;4;2;0;0,410602910602911
"R_25";17;17;3;3;2,91666666666667;0,454371165644172
"R_26";25;25;11;11;360,802922077922;0,748696888327278
"R_27";18;18;7;6;24,3833333333333;0,432008749544294
"R_28";20;21;8;10;27,45;0,576011666059059
"R_29";23;23;10;10;292,18257020757;0,635473924118515
"R_30";18;18;5;4;24,4833333333333;0,559028187286237
"R_31";31;31;15;15;1360,47778055278;0,83172486401123
"R_32";26;25;12;12;139,96303973804;0,705147277595954
"R_33";23;22;11;10;87,1666666666667;0,504953659316075
"R_34";19;19;9;8;34,75;0,635048231511254
"R_35";21;21;11;10;171,676798201798;0,61622464898596
"R_36";21;21;8;9;77,4761904761905;0,584175499137293
"R_37";20;19;10;9;298,65;0,650116582087505
"R_38";21;21;8;6;56,2166666666667;0,530676220331393
"R_39";23;23;8;8;71,4595238095238;0,640367468251824
"R_40";24;24;11;11;204,286904761905;0,718835304822566
"R_41";21;21;5;5;5,21666666666667;0,472017526389165
"R_42";17;18;5;5;1,83333333333333;0,419024045261669
"R_43";16;16;3;3;0;0,345430695233931
"R_44";24;24;8;9;242,269841269841;0,741900140867116
"R_45";24;24;12;13;204,076984126984;0,607536529095104
"R_46";19;19;9;9;13,0678571428571;0,53486797562627
"R_47";18;18;3;4;4,16666666666667;0,516171185886965
"R_48";21;21;6;7;5,78571428571429;0,489315577578198
"R_49";22;22;9;8;43;0,53565374618601
"R_50";23;23;10;11;205,628571428571;0,609881626351004
"R_51";19;19;4;5;10;0,513153621305619
"R_52";23;22;11;11;177,05467032967;0,659065628476085
"R_53";24;24;10;10;357,745238095238;0,632928294832421
"R_54";21;21;11;11;319,31336996337;0,641060319177712
"R_55";20;20;6;7;5;0,658974002502433
"R_56";20;20;7;7;83,5380952380952;0,553156727739526
"R_57";24;24;10;9;70,7166666666667;0,620094191522763
"R_58";24;24;11;9;89,0833333333333;0,590875093492895
"R_59";21;20;9;9;4;0,520078999341672
"R_60";18;18;5;5;86,75;0,493082284406533
"R_61";21;21;8;9;193,675333000333;0,641494112870483
"R_62";19;19;10;9;7,4;0,483821578034092
"R_63";24;24;10;9;39,64329004329;0,515665796344647
"R_64";25;25;17;14;450,230952380952;0,702014218009479
"R_65";29;29;14;14;855,526190476191;0,76773566569485
"R_66";24;24;13;11;11,152380952381;0,585763717251607
"R_67";19;19;5;6;225,617496392496;0,581452404317959
"R_68";26;26;12;11;871,992879342879;0,697879858657244
"R_69";21;21;5;5;122,5;0,585980961799975
"R_70";26;26;9;9;429,988095238095;0,682308910321001
"R_71";18;18;5;6;75,3357142857143;0,625
"R_72";24;24;9;12;256,825;0,628730600875448
"R_73";19;19;5;4;0,233333333333333;0,505653936419885
"R_74";20;20;8;8;47,8357142857143;0,547407321861647
"R_75";25;25;12;11;199,159523809524;0,596301421562461
"R_76";20;20;8;9;251,67619047619;0,535472209670131
"R_77";20;20;9;8;366,169047619048;0,663122551762731
"R_78";25;24;11;14;1162,89285714286;0,851140240617705
"R_79";19;19;6;5;0;0,465207576798508
"R_80";22;22;10;8;92,3119047619048;0,512487836522867
