"ID";"index"
"F_1";7,84
"F_2";5,20083333333333
"F_3";7,8375
"F_4";0,991666666666667
"F_5";4,25833333333333
"F_6";2,47333333333333
"F_7";1,54
"F_8";4,08333333333333
"F_9";2,385
"F_10";3,41
"F_11";1,8
"F_12";7,28333333333333
"F_13";7,67916666666667
"F_14";1,575
"F_15";1,365
"F_16";8,6625
"F_17";4,025
"F_18";0,35
"F_19";2,6125
"F_20";0,541666666666667
"F_21";6,30416666666667
"F_22";5,4675
"F_23";2,29666666666667
"F_24";1,3325
"F_25";6,4525
"F_26";4,94
"F_27";2,00083333333333
"F_28";2,125
"F_29";1,575
"F_30";4,38
"F_31";4,87666666666667
"F_32";2,25
"F_33";6,60083333333333
"F_34";2,475
"F_35";0,933333333333333
"F_36";9,0125
"F_37";5,535
"F_38";5,06916666666667
"F_39";3,36
"F_40";1,76333333333333
"F_41";5,94833333333333
"F_42";4,25833333333333
"F_43";7,92166666666667
"F_44";2,9
"F_45";6,08666666666667
"F_46";1,3325
"F_47";3,7375
"F_48";2,745
"F_49";0,8
"F_50";4,37833333333333
"F_51";4,13166666666667
"F_52";2,385
"F_53";3,575
"F_54";0,676666666666667
"F_55";3,465
"F_56";3,05
"F_57";3,9675
"F_58";2,25
"F_59";2,385
"F_60";2,7075
"F_61";1,91916666666667
"F_62";2,75333333333333
"F_63";2,16666666666667
"F_64";1,20333333333333
"F_65";1,87
"F_66";3,05
"F_67";4,87666666666667
"F_68";0,906666666666667
"F_69";3,255
"F_70";1,33333333333333
"F_71";1,29833333333333
"F_72";1,295
"F_73";3,41333333333333
"F_74";3,04833333333333
"F_75";3,4125
"F_76";2,295
"F_77";1,435
"F_78";2,08333333333333
"F_79";0,9075
"F_80";2,04
"F_81";1,36666666666667
"F_82";1,33
"F_83";4,2
"F_84";5,20083333333333
"F_85";1,6875
"F_86";1,36666666666667
"F_87";3,96666666666667
"F_88";1,92
"F_89";9,01333333333333
"F_90";4,55
"F_91";3,30416666666667
"F_92";8,84083333333333
"F_93";1,84083333333333
"F_94";0,385
"F_95";0,628333333333333
"F_96";7,2075
"F_97";1,57666666666667
"F_98";5,88
"F_99";2,8975
"F_100";6,38
"F_101";4,2
"F_102";2,79
"F_103";2,41666666666667
"F_104";4,625
"F_105";4,4375
"F_106";1,26666666666667
"F_107";0,7
"F_108";1,07916666666667
"F_109";1,36666666666667
"F_110";1,8
"F_111";7,28333333333333
"F_112";6,97166666666667
"F_113";4,6875
"F_114";1,96
"F_115";6,235
"F_116";2,70666666666667
"F_117";2,08
"F_118";1,17
"F_119";4,8125
"F_120";1,68416666666667
"F_121";1,50333333333333
"F_122";2,04166666666667
"F_123";5,46416666666667
"F_124";3,15166666666667
"F_125";1,11
"F_126";2,55666666666667
"F_127";2,70666666666667
"F_128";3,25
"F_129";2,56666666666667
"F_130";5,135
"F_131";4,14
"F_132";0,440833333333333
"F_133";2,04
"F_134";3,255
"F_135";4,55583333333333
"F_136";4,14166666666667
"F_137";6,67333333333333
"F_138";4,375
"F_139";2,6125
"F_140";0,3325
"F_141";8,4975
"F_142";1,92
"F_143";1,91666666666667
"F_144";2,34083333333333
"F_145";1,46916666666667
"F_146";4,31916666666667
"F_147";6,16333333333333
"F_148";2,20833333333333
"F_149";2,9
"F_150";0,88
"F_151";2,21
"F_152";6,4525
"F_153";5,005
"F_154";4,14166666666667
"F_155";4,62333333333333
"F_156";5,1975
"F_157";3,96666666666667
"F_158";1,23333333333333
"F_159";0,775
"F_160";2,47333333333333
"F_161";7,20666666666667
"F_162";0,520833333333333
"F_163";1,29833333333333
"F_164";1,68666666666667
"F_165";0,676666666666667
"F_166";4,94
"F_167";4,80583333333333
"F_168";2,29666666666667
"F_169";1,6125
"F_170";1,54
"F_171";0,4025
"F_172";1,575
"F_173";2,125
"F_174";3,2025
"F_175";12,3016666666667
"F_176";5,95
"F_177";1,05
"F_178";2,85
"F_179";0,963333333333333
"F_180";0,421666666666667
"F_181";4,68666666666667
"F_182";4,31916666666667
"F_183";3,96666666666667
"F_184";4,75
"F_185";1,46916666666667
"F_186";2,94833333333333
"F_187";10,35
"F_188";1,46916666666667
"F_189";1,33333333333333
"F_190";1,80166666666667
"F_191";0,563333333333333
"F_192";2,89333333333333
"F_193";1,235
"F_194";0,6075
"F_195";2,43
"F_196";5,67166666666667
"F_197";4,255
"F_198";1,75583333333333
"F_199";1,7625
"F_200";0,283333333333333
"F_201";2,52
"F_202";1,05
"F_203";4,62333333333333
"F_204";2,04166666666667
"F_205";0,6075
"F_206";4,44083333333333
"F_207";6,97166666666667
"F_208";4,14166666666667
"F_209";7,59833333333333
"F_210";3,675
"F_211";0,421666666666667
"F_212";2
"F_213";6,38
"F_214";1,235
"F_215";0,853333333333333
"F_216";1,26416666666667
"F_217";8,5
"F_218";5,805
"F_219";6,235
"F_220";4,87666666666667
"F_221";5,94
"F_222";3,68333333333333
"F_223";2,8025
"F_224";0,725
"F_225";0,606666666666667
"F_226";6,815
"F_227";2,47333333333333
"F_228";11,1
"F_229";2,90083333333333
"F_230";3,575
"F_231";9,36333333333333
"F_232";3,05
"F_233";3,4
"F_234";2,75333333333333
"F_235";7,89666666666667
"F_236";1,76333333333333
"F_237";1,7625
"F_238";2,61333333333333
"F_239";2,85166666666667
"F_240";2,52
"F_241";1,6125
"F_242";0,775
"F_243";1,7625
"F_244";2,9
"F_245";3,25
"F_246";5,26666666666667
"F_247";2,16
"F_248";2,29666666666667
"F_249";7,20666666666667
"F_250";2,00083333333333
"F_251";4,0825
"F_252";1,91916666666667
"F_253";5,06666666666667
"F_254";2,38333333333333
"F_255";2,42666666666667
"F_256";4,0625
"F_257";4,49666666666667
"F_258";5,6
"F_259";10,175
"F_260";0,935
"F_261";5,6
"F_262";1,505
"F_263";5,06916666666667
"F_264";3,575
"F_265";3,15
"F_266";4,13666666666667
"F_267";3,04833333333333
"F_268";1,505
"F_269";6,45
"F_270";5,74083333333333
"F_271";2,7075
"F_272";4,6875
"F_273";9,52
"F_274";2,04
"F_275";3,15166666666667
"F_276";10,26
"F_277";0,541666666666667
"F_278";6,82
"F_279";5,87916666666667
"F_280";4,42
"F_281";8,0025
"F_282";7,285
"F_283";0,403333333333333
"F_284";5,87666666666667
"F_285";4,625
"F_286";2,65833333333333
"F_287";3,2025
"F_288";3,68
"F_289";6,0175
"F_290";2,85
"F_291";6,45333333333333
"F_292";6,67333333333333
"F_293";0,385
"F_294";1,8375
"F_295";1,3325
"F_296";1,46916666666667
"F_297";1,505
"F_298";4,68666666666667
"F_299";5,53
"F_300";0,826666666666667
"F_301";0,403333333333333
"F_302";1,2025
"F_303";4,025
"F_304";3,30666666666667
"F_305";3,14666666666667
"F_306";3,62666666666667
"F_307";6,09
"F_308";0,904166666666667
"F_309";2,8975
"F_310";2,1675
"F_311";0,77
"F_312";3,79666666666667
"F_313";0,300833333333333
"F_314";2,99916666666667
"F_315";3,45666666666667
"F_316";8,92666666666667
"F_317";2,8025
"F_318";3,79666666666667
"F_319";1,3325
"F_320";6,8975
"F_321";0,75
"F_322";4,81
"F_323";1,36666666666667
"F_324";4,14166666666667
"F_325";1,07916666666667
"F_326";2,70666666666667
"F_327";0,775
"F_328";1,91916666666667
"F_329";3,15
"F_330";0,44
"F_331";0,725
"F_332";9,265
"F_333";7,28
"F_334";2,4225
"F_335";6,45333333333333
"F_336";4,26
"F_337";5,8725
"F_338";3,79666666666667
"F_339";0,46
"F_340";3,52
"F_341";2,8875
"F_342";2,61333333333333
"F_343";1,68666666666667
"F_344";1,3325
"F_345";2,00083333333333
"F_346";0,749166666666667
"F_347";7,99
"F_348";3,96
"F_349";2,34
"F_350";1,3
"F_351";6,3075
"F_352";2,08333333333333
"F_353";1,3325
"F_354";7,20416666666667
"F_355";0,316666666666667
"F_356";2,77333333333333
"F_357";5,81
"F_358";1,72333333333333
"F_359";2,385
"F_360";5,3325
"F_361";0,906666666666667
"F_362";1,07916666666667
"F_363";4,74
"F_364";1,33
"F_365";3,30666666666667
"F_366";1,6125
"F_367";5,73333333333333
"F_368";1,435
"F_369";0,935
"F_370";3,36
"F_371";4,07583333333333
"F_372";1,76333333333333
"F_373";0,99
"F_374";5,4
"F_375";4,07583333333333
"F_376";0,63
"F_377";0,606666666666667
"F_378";2,00083333333333
"F_379";7,8375
"F_380";2,56666666666667
"F_381";0,878333333333333
"F_382";5,39833333333333
"F_383";4,87166666666667
"F_384";2,70666666666667
"F_385";5,265
"F_386";3,85333333333333
"F_387";1,88
"F_388";7,13
"F_389";3,355
"F_390";1,11
"F_391";4,13666666666667
"F_392";2,16
"F_393";1,11
"F_394";7,92166666666667
"F_395";1,2
"F_396";3,9675
"F_397";5,4
"F_398";3,15166666666667
"F_399";2,04166666666667
"F_400";2,52083333333333
"F_401";4,56
"F_402";7,05
"F_403";0,725
"F_404";1,3325
"F_405";1,47
"F_406";2,25333333333333
"F_407";2,7075
"F_408";1,08
"F_409";3,8525
"F_410";0,403333333333333
"F_411";4,02333333333333
"F_412";5,66166666666667
"F_413";4,625
"F_414";1,235
"F_415";0,88
"F_416";0,676666666666667
"F_417";3,04833333333333
"F_418";3,795
"F_419";2,95
"F_420";0,585
"F_421";5,2
"F_422";4,38
"F_423";6,09166666666667
"F_424";5,945
"F_425";3,52
"F_426";3,68333333333333
"F_427";3,63
"F_428";1,46916666666667
"F_429";0,723333333333333
"F_430";1,84
"F_431";1,65
"F_432";1,88
"F_433";1,2025
"F_434";6,675
"F_435";2,90083333333333
"F_436";0,2
"F_437";4,62333333333333
"F_438";3,2025
"F_439";3,62666666666667
"F_440";0,676666666666667
"F_441";4,5625
"F_442";8,66916666666667
"F_443";3,2025
"F_444";3,85
"F_445";9,975
"F_446";5,395
"F_447";2,94833333333333
"F_448";3,36
"F_449";4,1975
"F_450";1,61333333333333
"F_451";1,57666666666667
"F_452";1,235
"F_453";3,25333333333333
"F_454";4,62
"F_455";4,20083333333333
"F_456";7,84083333333333
"F_457";3,62666666666667
"F_458";7,91166666666667
"F_459";2,25333333333333
"F_460";7,12833333333333
"F_461";1,87833333333333
"F_462";2,61
"F_463";3,5175
"F_464";4,14
"F_465";7,84
"F_466";1,4
"F_467";1,54083333333333
"F_468";2,61
"F_469";2,8025
"F_470";1,26416666666667
"F_471";1,365
"F_472";6,44
"F_473";1,17166666666667
"F_474";1,91916666666667
"F_475";6,525
"F_476";3,7375
"F_477";1,08
"F_478";1,57166666666667
"F_479";4,37833333333333
"F_480";2,08333333333333
"F_481";1,2675
"F_482";7,35583333333333
"F_483";1,435
"F_484";1,96
"F_485";2,75333333333333
"F_486";4,38
"F_487";3,74
"F_488";0,85
"F_489";2,04
"F_490";4,875
"F_491";6,60083333333333
"F_492";7,84
"F_493";5,4
"F_494";3,575
"F_495";0,9075
"F_496";5,4
"F_497";4,75
"F_498";2,20833333333333
"F_499";4,32
"F_500";0,963333333333333
"F_501";1,17166666666667
"F_502";1,725
"F_503";3,63
"F_504";4,50166666666667
"F_505";2,8975
"F_506";2,2525
"F_507";2,89333333333333
"F_508";3,57
"F_509";2,08333333333333
"F_510";3,2025
"F_511";1,46666666666667
"F_512";5,81
"F_513";5,73333333333333
"F_514";3,52
"F_515";0,8525
"F_516";5,535
"F_517";4,75
"F_518";2,16666666666667
"F_519";2,04
"F_520";7,3625
"F_521";4,5625
"F_522";0,606666666666667
"F_523";3,2025
"F_524";3,10083333333333
"F_525";3
"F_526";1,65
"F_527";2,56166666666667
"F_528";1,91916666666667
"F_529";4,44
"F_530";1,20333333333333
"F_531";3
"F_532";4,37833333333333
"F_533";1,8375
"F_534";1,10833333333333
"F_535";6,82333333333333
"F_536";6,82
"F_537";3,575
"F_538";6,9
"F_539";6,4525
"F_540";3,57
"F_541";1,72333333333333
"F_542";0,348333333333333
"F_543";5,8725
"F_544";1,20333333333333
"F_545";4,44
"F_546";2,8025
"F_547";1,3
"F_548";4,62333333333333
"F_549";3
"F_550";1,575
"F_551";4,38
"F_552";1,33
"F_553";5,74
"F_554";1,575
"F_555";0,5
"F_556";6,09
"F_557";8,08333333333333
"F_558";4,07583333333333
"F_559";4,75
"F_560";1,7625
"F_561";6,975
"F_562";3,1
"F_563";3,05
"F_564";1,54083333333333
"F_565";1,05
"F_566";4,68416666666667
"F_567";2,04166666666667
"F_568";4,625
"F_569";1,435
"F_570";1,14083333333333
"F_571";4,55
"F_572";7,0525
"F_573";2,41666666666667
"F_574";4,5625
"F_575";0,96
"F_576";2,56166666666667
"F_577";2,9925
"F_578";4,14
"F_579";1,87833333333333
"F_580";1,23333333333333
"F_581";5,805
"F_582";0,5625
"F_583";8,58333333333333
"F_584";2,90083333333333
"F_585";4,07
"F_586";3,90833333333333
"F_587";1,2675
"F_588";1,91916666666667
"F_589";2,7075
"F_590";2,94833333333333
"F_591";2,9
"F_592";6,74916666666667
"F_593";7,595
"F_594";2,70666666666667
"F_595";2,75333333333333
"F_596";2,7075
"F_597";9,99
"F_598";3,30666666666667
"F_599";10,92
"F_600";4,8125
"F_601";2,385
"F_602";5,95
"F_603";5,395
"F_604";1,43333333333333
"F_605";5,94833333333333
"F_606";1,88
"F_607";8,5
"F_608";2,85
"F_609";0,676666666666667
"F_610";4,94
"F_611";4,26
"F_612";1,235
"F_613";2,16
"F_614";3,15
"F_615";1,76
"F_616";4,5625
"F_617";5,005
"F_618";1,96
"F_619";2,125
"F_620";2,89333333333333
"F_621";1,50333333333333
"F_622";0,963333333333333
"F_623";2,56666666666667
"F_624";2,6125
"F_625";5,94833333333333
"F_626";2,1675
"F_627";3,795
"F_628";2,25
"F_629";2,3375
"F_630";2,475
"F_631";1,725
"F_632";3,05
"F_633";2,0825
"F_634";2,85166666666667
"F_635";5,06666666666667
"F_636";2,04166666666667
"F_637";2,52
"F_638";2,34
"F_639";2,7
"F_640";1,33
"F_641";1,54083333333333
"F_642";5,39833333333333
"F_643";3,685
"F_644";5,67166666666667
"F_645";2,70666666666667
"F_646";7,13
"F_647";3,3
"F_648";1,2025
"F_649";3,74083333333333
"F_650";1,505
"F_651";5,06916666666667
"F_652";3,2025
"F_653";4,14
"F_654";2,945
"F_655";3,41
"F_656";4,38
"F_657";1,92
"F_658";5,7375
"F_659";0,385
"F_660";1,11
"F_661";5,8
"F_662";0,1875
"F_663";3,905
"F_664";4,4375
"F_665";11,4
"F_666";4,025
"F_667";3,79666666666667
"F_668";3,09333333333333
"F_669";2,1675
"F_670";3,685
"F_671";1,68666666666667
"F_672";1,9975
"F_673";3,62666666666667
"F_674";2,385
"F_675";2,7
"F_676";1,36666666666667
"F_677";3,35833333333333
"F_678";6,02083333333333
"F_679";6,5975
"F_680";2,25
"F_681";2,47
"F_682";0,904166666666667
"F_683";1,26666666666667
"F_684";5,20083333333333
"F_685";3,62666666666667
"F_686";4,5625
"F_687";2,95
"F_688";4,625
"F_689";4,56
"F_690";3,62916666666667
"F_691";3,675
"F_692";3,1
"F_693";3,4125
"F_694";7,52083333333333
"F_695";2,34083333333333
"F_696";2,755
"F_697";7,285
"F_698";5,06916666666667
"F_699";0,6525
"F_700";2,04166666666667
"F_701";0,878333333333333
"F_702";2,90083333333333
"F_703";2,66
"F_704";6,73666666666667
"F_705";2,755
"F_706";3,30666666666667
"F_707";3,10083333333333
"F_708";1,36666666666667
"F_709";1,07916666666667
"F_710";2,85166666666667
"F_711";1,47
"F_712";2,34083333333333
"F_713";5,00333333333333
"F_714";1,26666666666667
"F_715";2,20833333333333
"F_716";0,366666666666667
"F_717";2,2525
"F_718";2,94833333333333
"F_719";1,33333333333333
"F_720";4,14166666666667
"F_721";4,14
"F_722";2,5175
"F_723";2,0825
"F_724";0,479166666666667
"F_725";5,95
"F_726";3,96416666666667
"F_727";3,30666666666667
"F_728";0,88
"F_729";2,66
"F_730";1,54
"F_731";1,57666666666667
"F_732";3,685
"F_733";2,2525
"F_734";3,79666666666667
"F_735";2,385
"F_736";1,435
"F_737";2,60583333333333
"F_738";1,725
"F_739";8,55
"F_740";6,45333333333333
"F_741";5,005
"F_742";3,30666666666667
"F_743";2,61333333333333
"F_744";1,33333333333333
"F_745";0,46
"F_746";4,1975
"F_747";4,50166666666667
"F_748";0,3675
"F_749";3,15166666666667
"F_750";6,235
"F_751";2,465
"F_752";1,87833333333333
"F_753";2,00083333333333
"F_754";3,46666666666667
"F_755";1,435
"F_756";3,62666666666667
"F_757";6,36333333333333
"F_758";3
"F_759";6,675
"F_760";5,2
"F_761";3,245
"F_762";6,97166666666667
"F_763";3,465
"F_764";1,725
"F_765";6,825
"F_766";4,75
"F_767";7,13
"F_768";1,4
"F_769";6,67333333333333
"F_770";1,29833333333333
"F_771";4,14
"F_772";2,00083333333333
"F_773";0,826666666666667
"F_774";4,68416666666667
"F_775";2,95
"F_776";0,991666666666667
"F_777";2,99916666666667
"F_778";7,05
"F_779";4,81333333333333
"F_780";1,4
"F_781";5,25
"F_782";0,773333333333333
"F_783";1,36666666666667
"F_784";2,12333333333333
"F_785";1,36666666666667
"F_786";2,29166666666667
"F_787";4,81333333333333
"F_788";0,63
"F_789";2,38333333333333
"F_790";5,135
"F_791";2,38333333333333
"F_792";3,85333333333333
"F_793";2,04
"F_794";2,21
"F_795";0,7
"F_796";4,81
"F_797";4,25
"F_798";5,2
"F_799";3,62916666666667
"F_800";5,73333333333333
"F_801";0,991666666666667
"F_802";4,8125
"F_803";0,6075
"F_804";0,906666666666667
"F_805";3,25333333333333
"F_806";1,20333333333333
"F_807";7,3625
"F_808";2,9925
"F_809";1,40083333333333
"F_810";9,0125
"F_811";2,385
"F_812";1,61
"F_813";2,8
"F_814";1,43
"F_815";3,2025
"F_816";3,9675
"F_817";0,7
"F_818";6,0175
"F_819";4,56333333333333
"F_820";2,61
"F_821";1,50333333333333
"F_822";1,80166666666667
"F_823";1,17166666666667
"F_824";1,33
"F_825";1,50333333333333
"F_826";6,02083333333333
"F_827";1,64833333333333
"F_828";7,28
"F_829";2,2525
"F_830";3,74083333333333
"F_831";2,21
"F_832";0,35
"F_833";0,8525
"F_834";0,5
"F_835";3,30666666666667
"F_836";10,355
"F_837";5,13333333333333
"F_838";3,2
"F_839";4,14166666666667
"F_840";4,31916666666667
"F_841";3,68333333333333
"F_842";1,4
"F_843";3,90833333333333
"F_844";1,3325
"F_845";2,47333333333333
"F_846";2,2525
"F_847";5,2
"F_848";11,7016666666667
"F_849";2,375
"F_850";0,878333333333333
"F_851";0,725
"F_852";1,68666666666667
"F_853";4,75
"F_854";1,07666666666667
"F_855";1,02
"F_856";2,34083333333333
"F_857";4,56
"F_858";4,67416666666667
"F_859";2,8
"F_860";1,54083333333333
"F_861";0,933333333333333
"F_862";1,02
"F_863";8,085
"F_864";3,91
"F_865";1,33
"F_866";0,6075
"F_867";2,755
"F_868";2,95
"F_869";8,91666666666667
"F_870";4,02333333333333
"F_871";5,3325
"F_872";1,92
"F_873";1,11
"F_874";2,565
"F_875";6,8975
"F_876";4,56333333333333
"F_877";3,19
"F_878";5,81
"F_879";1,7625
"F_880";3,685
"F_881";3,74083333333333
"F_882";2,21
"F_883";1,17166666666667
"F_884";1,235
"F_885";2,52
"F_886";1,2025
"F_887";4,255
"F_888";4,875
"F_889";2,75333333333333
"F_890";0,9075
"F_891";9,9
"F_892";1,92
"F_893";1,14
"F_894";5,005
"F_895";2,7075
"F_896";5,06916666666667
"F_897";6,74916666666667
"F_898";2,205
"F_899";5,19333333333333
"F_900";0,991666666666667
"F_901";1,47
"F_902";1,91916666666667
"F_903";2,47
"F_904";4,56333333333333
"F_905";0,746666666666667
"F_906";3,36
"F_907";2,6125
"F_908";0,800833333333333
"F_909";8,84
"F_910";3,91
"F_911";1,95833333333333
"F_912";0,935
"F_913";1,05
"F_914";4,44083333333333
"F_915";2,34
"F_916";0,8525
"F_917";0,606666666666667
"F_918";0,725
"F_919";1,2675
"F_920";0,878333333333333
"F_921";9,9
"F_922";5,395
"F_923";2,56666666666667
"F_924";4,80583333333333
"F_925";2,16416666666667
"F_926";0,7975
"F_927";2,03666666666667
"F_928";1,505
"F_929";2,295
"F_930";3,41333333333333
"F_931";6,97666666666667
"F_932";2,04
"F_933";3,62666666666667
"F_934";3,04833333333333
"F_935";1,54
"F_936";1,36666666666667
"F_937";3,04833333333333
"F_938";0,9075
"F_939";0,75
"F_940";1,33333333333333
"F_941";2,12333333333333
"F_942";3,30416666666667
"F_943";6,235
"F_944";3,62666666666667
"F_945";7,76
"F_946";3,46666666666667
"F_947";4,995
"F_948";4,20083333333333
"F_949";1,14083333333333
"F_950";1,40083333333333
"F_951";6,45333333333333
"F_952";2,47333333333333
"F_953";4,1875
"F_954";2,21
"F_955";5,59
"F_956";2,34
"F_957";1,6875
"F_958";3
"F_959";2,29666666666667
"F_960";2,385
"F_961";2,565
"F_962";6,1425
"F_963";3,62916666666667
"F_964";4,68
"F_965";4,02333333333333
"F_966";1,75583333333333
"F_967";4,2
"F_968";1,14083333333333
"F_969";0,700833333333333
"F_970";1,3325
"F_971";1,11
"F_972";4,5625
"F_973";4,62333333333333
"F_974";1,17166666666667
"F_975";2,34
"F_976";4,14
"F_977";5,39833333333333
"F_978";3,09333333333333
"F_979";0,9625
"F_980";1,16666666666667
"F_981";3,255
"F_982";10,925
"F_983";0,440833333333333
"F_984";3,79666666666667
"F_985";1,6875
"F_986";3,91
"F_987";4,5625
"F_988";5,3325
"F_989";3,35833333333333
"F_990";3,15
"F_991";3,575
"F_992";6,09
"F_993";2,85
"F_994";4,62333333333333
"F_995";6,5975
"F_996";3,35833333333333
"F_997";5,125
"F_998";3,795
"F_999";4,08
"F_1000";0,541666666666667
