"ID";"index"
"R_1";0,1
"R_2";0,24
"R_3";0,0475
"R_4";0,216666666666667
"R_5";0,165
"R_6";0,3125
"R_7";0,075
"R_8";0,0833333333333333
"R_9";0,2
"R_10";0,0566666666666667
"R_11";0,0633333333333333
"R_12";0,04
"R_13";0,0791666666666667
"R_14";0,270833333333333
"R_15";0,291666666666667
"R_16";0,191666666666667
"R_17";0,281666666666667
"R_18";0,166666666666667
"R_19";0,1725
"R_20";0,26
"R_21";0,201666666666667
"R_22";0,110833333333333
"R_23";0,27
"R_24";0,158333333333333
"R_25";0,0125
"R_26";0,245
"R_27";0,09
"R_28";0,116666666666667
"R_29";0,18
"R_30";0,1225
"R_31";0,183333333333333
"R_32";0,315
"R_33";0,0791666666666667
"R_34";0,270833333333333
"R_35";0,25
"R_36";0,133333333333333
"R_37";0,191666666666667
"R_38";0,0633333333333333
"R_39";0,1725
"R_40";0,270833333333333
"R_41";0,18
"R_42";0,06
"R_43";0,0833333333333333
"R_44";0,25
"R_45";0,210833333333333
"R_46";0,105
"R_47";0,0708333333333333
"R_48";0,11
"R_49";0,2
"R_50";0,210833333333333
"R_51";0,326666666666667
"R_52";0,26
"R_53";0,18
"R_54";0,191666666666667
"R_55";0,105
"R_56";0,095
"R_57";0,28
"R_58";0,128333333333333
"R_59";0,16
"R_60";0,0833333333333333
"R_61";0,1425
"R_62";0,22
"R_63";0,133333333333333
"R_64";0,396666666666667
"R_65";0,191666666666667
"R_66";0,165
"R_67";0,1875
"R_68";0,0566666666666667
"R_69";0,1575
"R_70";0,14
"R_71";0,2875
"R_72";0,303333333333333
"R_73";0,110833333333333
"R_74";0,1425
"R_75";0,0425
"R_76";0,146666666666667
"R_77";0,208333333333333
"R_78";0,26
"R_79";0,133333333333333
"R_80";0,0833333333333333
