"ID";"index"
"R_1";0,0875
"R_2";0,28
"R_3";0,116666666666667
"R_4";0,23
"R_5";0,249166666666667
"R_6";0,210833333333333
"R_7";0,1425
"R_8";0,0791666666666667
"R_9";0,24
"R_10";0,1
"R_11";0,133333333333333
"R_12";0,1
"R_13";0,315
"R_14";0,270833333333333
"R_15";0,229166666666667
"R_16";0,14
"R_17";0,3
"R_18";0,0875
"R_19";0,06
"R_20";0,2025
"R_21";0,249166666666667
"R_22";0,166666666666667
"R_23";0,270833333333333
"R_24";0,16
"R_25";0,025
"R_26";0,326666666666667
"R_27";0,105
"R_28";0,195
"R_29";0,2
"R_30";0,0425
"R_31";0,210833333333333
"R_32";0,291666666666667
"R_33";0,0791666666666667
"R_34";0,2475
"R_35";0,210833333333333
"R_36";0,0791666666666667
"R_37";0,26
"R_38";0,165
"R_39";0,26
"R_40";0,128333333333333
"R_41";0,105
"R_42";0,1575
"R_43";0,03
"R_44";0,11
"R_45";0,116666666666667
"R_46";0,22
"R_47";0,0666666666666667
"R_48";0,1225
"R_49";0,210833333333333
"R_50";0,25
"R_51";0,238333333333333
"R_52";0,0791666666666667
"R_53";0,116666666666667
"R_54";0,191666666666667
"R_55";0,27
"R_56";0,133333333333333
"R_57";0,1725
"R_58";0,1575
"R_59";0,145833333333333
"R_60";0,095
"R_61";0,146666666666667
"R_62";0,14
"R_63";0,0875
"R_64";0,26
"R_65";0,35
"R_66";0,183333333333333
"R_67";0,238333333333333
"R_68";0,229166666666667
"R_69";0,0875
"R_70";0,133333333333333
"R_71";0,165
"R_72";0,28
"R_73";0,0475
"R_74";0,1425
"R_75";0,126666666666667
"R_76";0,085
"R_77";0,183333333333333
"R_78";0,29
"R_79";0,0708333333333333
"R_80";0,0791666666666667
