"Foraging";"In";"Out";"InLink";"OutLink";"Betweeness";"Closeness"
"F_1";99;88;102;91;2404,07227330184;0,710905532823346
"F_2";50;52;50;58;798,126051363253;0,638508655126499
"F_3";53;61;49;62;1366,11277888127;0,660714285714288
"F_4";33;38;32;39;191,110892146802;0,583783783783783
"F_5";63;63;59;62;1130,05510780913;0,652692328632878
"F_6";35;40;35;40;174,111752796299;0,606373292867981
"F_7";46;53;45;52;726,029804896167;0,650567102621157
"F_8";82;80;84;78;1890,16728946996;0,704314720812187
"F_9";51;52;52;57;652,432607530169;0,616203879802205
"F_10";69;53;74;57;773,507007387118;0,637931034482759
"F_11";29;25;30;26;241,797256414291;0,564428038720854
"F_12";98;104;87;92;5094,84050957393;0,745949174901066
"F_13";109;112;112;108;3689,13500240612;0,733067534182915
"F_14";107;100;103;98;3670,9880251784;0,703669789392128
"F_15";35;30;35;33;163,729769688775;0,563234699918248
"F_16";88;80;83;81;2924,32298256492;0,715462293203471
"F_17";33;30;32;28;380,061328504325;0,62268855183877
"F_18";18;23;18;23;77,2481724836357;0,522981886713434
"F_19";72;68;67;68;2320,35591242547;0,694151708164451
"F_20";39;38;37;39;242,623230505854;0,587635536558105
"F_21";58;60;57;58;844,984486664066;0,632411901244989
"F_22";63;79;66;82;1742,93188735732;0,682377049180331
"F_23";72;71;70;72;1586,02636211036;0,684168473918506
"F_24";80;82;85;86;1276,34265180735;0,657215223183449
"F_25";81;90;81;82;2281,2830717696;0,697130761447298
"F_26";88;72;88;74;2562,43920957699;0,695803586975451
"F_27";54;63;54;66;1076,31129622479;0,659050676752908
"F_28";93;111;89;112;2998,18140481855;0,690982869527127
"F_29";50;44;48;45;405,695820882343;0,612557740260801
"F_30";56;59;60;62;855,357309541334;0,616432016619187
"F_31";94;102;90;98;2515,12400266751;0,698625826077835
"F_32";106;105;106;105;4085,79722139851;0,736906810917142
"F_33";86;83;89;88;3171,64945774527;0,702819956616056
"F_34";102;113;103;112;3826,0428597817;0,727727460359859
"F_35";34;48;35;48;273,295674536805;0,58829880161355
"F_36";84;89;93;93;2374,00353132549;0,691389353480599
"F_37";76;75;79;73;1914,14624399591;0,670875025182998
"F_38";62;64;66;61;1268,64010712127;0,665556295802804
"F_39";48;53;48;53;418,940652701736;0,642030848329051
"F_40";54;56;53;55;695,845264185047;0,627368068493437
"F_41";19;26;19;26;54,9510441251111;0,538830107604211
"F_42";55;44;60;46;625,801911742071;0,620708937835906
"F_43";94;96;89;95;3529,44991636491;0,712028699722032
"F_44";45;33;45;34;205,348811994351;0,592954583675446
"F_45";42;51;43;56;313,405192778169;0,613391459183987
"F_46";74;65;71;62;807,565941139428;0,64954486345904
"F_47";63;69;66;65;1518,05905555814;0,662320441988954
"F_48";48;39;45;36;669,612995217839;0,619381238762477
"F_49";22;25;23;27;117,058848387123;0,570129548956569
"F_50";70;71;71;70;1461,69795706792;0,671288259735025
"F_51";82;80;81;82;2666,29433584209;0,69566630301061
"F_52";47;48;46;48;327,680260534399;0,615861991019963
"F_53";46;44;46;41;473,834641411424;0,618927151634054
"F_54";30;27;30;29;121,239036309039;0,567414826244591
"F_55";57;69;51;74;1065,78920139775;0,662833130598256
"F_56";71;86;69;84;2421,94843424788;0,702103734245421
"F_57";75;65;74;66;1472,97252143082;0,675304191077063
"F_58";47;47;46;54;379,108849934921;0,585740530821248
"F_59";80;86;78;83;2368,17302066443;0,718386327408705
"F_60";76;71;72;68;2129,26568544982;0,697301070265244
"F_61";23;27;24;28;56,8135168527156;0,549595642845354
"F_62";48;55;50;54;856,290601714671;0,633287197963001
"F_63";67;64;71;70;825,099579773297;0,643685567010311
"F_64";62;65;64;66;1921,11482543008;0,667037614066327
"F_65";46;60;45;57;634,7514160538;0,638978316952014
"F_66";58;54;57;56;1743,54603124984;0,694964579299475
"F_67";96;99;90;89;4756,69490152491;0,75759299283358
"F_68";21;20;19;18;103,416383175648;0,567882520132638
"F_69";66;64;64;64;1263,13991732339;0,659021692522514
"F_70";25;36;26;34;114,599527645909;0,598741384477074
"F_71";69;76;79;71;2369,81030035066;0,684551341350603
"F_72";36;36;37;38;183,177489456685;0,577395459055397
"F_73";68;79;70;77;1948,83236230907;0,693276581963711
"F_74";54;57;60;55;758,95002231494;0,633883248730965
"F_75";89;94;80;88;3208,97370326503;0,715470833283602
"F_76";39;44;42;45;300,818789520879;0,577779491430663
"F_77";39;33;39;34;130,664608205196;0,565178445146385
"F_78";35;37;35;36;213,490962430788;0,627223640701521
"F_79";30;30;31;32;561,408099961367;0,592720045091814
"F_80";40;38;40;38;142,786748849344;0,593594644377982
"F_81";78;75;79;78;1667,50414663896;0,685482948697425
"F_82";50;49;48;48;544,737990834823;0,616888797406472
"F_83";90;93;90;89;3527,54517294978;0,715539161264909
"F_84";90;94;92;94;2693,58536251556;0,702646941598482
"F_85";57;61;55;58;544,904049286472;0,634205180294567
"F_86";48;44;48;47;543,043312687698;0,624667813037362
"F_87";49;55;49;58;626,196018098682;0,637551055139552
"F_88";73;78;72;80;2395,65712351622;0,707206569446415
"F_89";114;128;113;130;5489,49732742051;0,752835378490061
"F_90";71;76;72;77;1428,59354077784;0,667520463277467
"F_91";70;76;70;78;1239,66356852991;0,663831483819524
"F_92";39;34;41;39;244,415190959143;0,582756475071944
"F_93";75;70;67;74;1905,80767185976;0,7335699424795
"F_94";28;26;28;25;79,7900555776573;0,540457684886301
"F_95";45;40;46;42;574,074761375903;0,633313962702733
"F_96";25;39;28;41;141,082827353941;0,568582811610699
"F_97";117;109;111;101;6663,82990691692;0,745503843187983
"F_98";95;107;95;104;2830,1158044195;0,700757575757577
"F_99";46;39;47;43;265,467736540285;0,578817258295027
"F_100";102;86;101;85;2396,2674781345;0,69119003690037
"F_101";81;74;78;72;2756,06128668328;0,727639118189767
"F_102";95;99;99;93;4191,30985513775;0,742870598733381
"F_103";54;57;49;56;1375,25315908048;0,674544226873735
"F_104";98;92;100;91;2211,09757928826;0,685898682900595
"F_105";85;78;88;86;1562,21178242176;0,683762633752369
"F_106";37;38;37;37;222,842571023406;0,581388581737763
"F_107";49;43;49;45;221,910225851863;0,603157672298418
"F_108";25;22;24;22;71,0492990865239;0,552355852078476
"F_109";42;43;42;46;462,763430508382;0,606121891779838
"F_110";53;43;55;45;468,970120873266;0,621590791247537
"F_111";43;56;42;55;714,836446462873;0,623012160898037
"F_112";45;45;45;45;374,222903385474;0,624082461346244
"F_113";52;74;54;73;539,581236721388;0,646971839347203
"F_114";68;60;69;61;915,930344305884;0,637863147813133
"F_115";65;72;71;81;1184,14666545011;0,657886071781365
"F_116";62;76;71;81;1814,1791296367;0,67932226440755
"F_117";45;39;41;34;246,284627000266;0,593353725536779
"F_118";67;50;70;52;789,3717840742;0,652188105237964
"F_119";83;69;78;70;1837,60124030328;0,669578525229283
"F_120";57;54;55;57;913,004932506143;0,656955907013451
"F_121";28;32;28;29;83,9432780335392;0,554666173136538
"F_122";64;64;67;62;858,053437421326;0,660015856236789
"F_123";47;53;53;55;944,728416439023;0,638495052036176
"F_124";60;56;59;60;759,938515516957;0,635968169761275
"F_125";26;33;27;33;139,756413012163;0,580470845721035
"F_126";56;69;56;72;877,977948882825;0,638651522577621
"F_127";64;55;67;62;791,218597772242;0,651656320327027
"F_128";50;47;53;48;765,21993915243;0,599184293654283
"F_129";54;53;59;56;654,57028531572;0,64541832669323
"F_130";59;62;59;61;682,796126673256;0,617938144329896
"F_131";84;80;86;86;2858,72075618585;0,679877045926299
"F_132";90;83;93;90;2125,51066905594;0,665489791160112
"F_133";86;84;91;83;1573,99235261657;0,672048435923311
"F_134";80;73;82;73;2654,48773880518;0,705300935459202
"F_135";24;32;23;29;91,2895177371648;0,56777493606138
"F_136";89;89;83;89;2605,51651695723;0,715445213654812
"F_137";88;88;87;87;2646,63531294064;0,710804368707537
"F_138";64;64;64;69;1372,03383411778;0,680008168266288
"F_139";43;51;44;52;353,131016897955;0,615008926555991
"F_140";43;44;43;47;479,423662173238;0,614378549025234
"F_141";78;82;82;82;4086,51557309289;0,721455911027662
"F_142";54;49;57;51;756,024327167067;0,635233523034371
"F_143";48;43;48;42;626,638324959718;0,626771093660139
"F_144";73;58;74;61;826,993932098355;0,647090575407537
"F_145";57;49;60;49;458,446105694467;0,597196345485159
"F_146";35;31;36;32;137,651811395681;0,608003245929907
"F_147";93;100;91;99;3831,89477595589;0,735351850034354
"F_148";57;66;59;64;683,441917251537;0,638882967384355
"F_149";66;71;67;73;1273,7731140203;0,646936925268749
"F_150";45;35;48;33;270,506257914866;0,603965982830195
"F_151";68;83;71;86;2359,56952935011;0,701536732950228
"F_152";80;65;79;65;1218,53571449423;0,663258531403534
"F_153";83;84;81;78;2249,41238088775;0,687692890168772
"F_154";78;72;80;72;1456,78070751674;0,676905702992662
"F_155";90;92;88;97;2947,46530806218;0,704770191301488
"F_156";83;83;78;81;2359,55728666654;0,682913490788531
"F_157";91;75;96;81;2765,17111932348;0,708418527141865
"F_158";92;89;93;89;2579,62458697253;0,708619527823426
"F_159";38;37;39;34;359,838317894604;0,603692251911087
"F_160";58;42;57;42;567,868188878423;0,650588286371734
"F_161";103;101;111;105;2964,49252745623;0,691844225397637
"F_162";54;49;54;47;447,984075752263;0,61774708852932
"F_163";34;44;35;39;686,639035006296;0,637523931078497
"F_164";42;46;42;44;314,134478027503;0,617492531163079
"F_165";52;57;52;58;594,575038436629;0,634729017091303
"F_166";82;89;85;88;2095,69890969897;0,679969597622264
"F_167";64;65;64;64;901,416087576683;0,631399317406144
"F_168";33;30;34;33;175,350258294399;0,564800331681208
"F_169";36;30;37;31;123,404142736046;0,591258372214603
"F_170";37;33;37;30;221,12611220634;0,597863490828569
"F_171";74;92;72;86;2663,09121462117;0,715744223535738
"F_172";43;45;44;44;217,763636178075;0,595777671755723
"F_173";51;60;49;59;448,200184084508;0,592427132648723
"F_174";65;68;67;67;1237,34325523242;0,64277441770686
"F_175";94;98;95;99;2757,30273748159;0,722368849199178
"F_176";56;52;55;56;269,969484569053;0,594601565367483
"F_177";86;86;88;86;2383,27752641371;0,698747989088621
"F_178";48;36;50;39;419,065507961313;0,589525448733709
"F_179";40;31;42;35;164,130813125654;0,563483558012295
"F_180";23;20;22;22;109,891532459891;0,552055702917772
"F_181";53;58;53;61;660,070617944853;0,625097769295748
"F_182";71;77;68;78;1593,66743218083;0,664965609052588
"F_183";41;47;40;46;381,517316762218;0,616698389834867
"F_184";83;75;81;77;4325,48240171773;0,738887108306011
"F_185";41;41;40;43;486,119812727528;0,630449645017093
"F_186";60;55;60;55;980,113013866632;0,640699489065141
"F_187";30;26;31;27;142,778453654054;0,565034595878659
"F_188";41;41;42;41;223,528175793511;0,586726703210648
"F_189";32;35;33;39;121,685002337974;0,565781276547544
"F_190";56;59;56;58;471,153001240206;0,61206359579704
"F_191";27;30;25;28;77,152246512012;0,573929029663531
"F_192";63;67;63;70;1468,70596509665;0,669018014599199
"F_193";26;26;29;29;86,0748845603792;0,551700016567568
"F_194";28;22;27;22;120,022821986602;0,589600834136649
"F_195";63;63;62;66;1501,12746145072;0,680942913944904
"F_196";117;109;120;118;3577,15693213775;0,703422053231942
"F_197";84;78;79;74;4872,50231225813;0,710105437744348
"F_198";37;36;39;36;232,246697074636;0,579477561437768
"F_199";123;105;119;107;6008,18947200372;0,751269035532998
"F_200";25;20;27;20;35,3360591277151;0,543205401241561
"F_201";70;62;72;59;2107,73562764078;0,670807453416151
"F_202";46;42;46;44;633,62962420653;0,606962755938998
"F_203";95;89;95;90;1666,01669495776;0,678284485685189
"F_204";41;43;41;44;506,497644763489;0,62024648433862
"F_205";96;102;100;100;2771,86719681353;0,690552995391707
"F_206";76;79;74;81;2015,01096909545;0,702729319077101
"F_207";81;70;79;71;1136,10253049743;0,669780539042597
"F_208";66;73;68;75;1299,41454988202;0,664744371742266
"F_209";74;78;76;79;1040,33114009752;0,642471274223976
"F_210";44;54;42;52;483,677635674877;0,623822657022428
"F_211";27;31;26;32;229,972918112974;0,573528145362687
"F_212";53;47;58;49;445,17271260261;0,604099897200217
"F_213";34;34;35;34;150,529510116304;0,556913099629282
"F_214";34;39;31;38;111,560009328523;0,576224260252637
"F_215";31;39;33;41;222,39658766199;0,608942123068483
"F_216";32;29;29;25;608,578606562415;0,64423903697335
"F_217";111;104;101;105;3685,81618948783;0,7231706581408
"F_218";41;39;41;37;365,974793467685;0,597714445264353
"F_219";21;31;24;30;133,776895283818;0,587117501861064
"F_220";85;77;80;81;1602,36371483417;0,703479842732236
"F_221";99;103;105;99;4876,95398902378;0,726880259998548
"F_222";76;75;76;80;879,209875866288;0,639994874915916
"F_223";76;70;73;60;3652,15776901455;0,707214913574425
"F_224";51;57;48;53;570,976987264566;0,645696434342348
"F_225";28;16;29;17;92,2975809683002;0,541776636899382
"F_226";93;101;91;106;3727,05128738598;0,724727048496501
"F_227";64;63;63;62;785,709076740772;0,645182123482306
"F_228";102;92;98;95;3281,55732134264;0,717930291052826
"F_229";70;68;71;72;1086,28420840631;0,654038365013205
"F_230";52;52;60;53;817,1599582877;0,641186098007127
"F_231";93;103;97;99;3452,91486107919;0,713545944787691
"F_232";57;59;59;62;790,549906047686;0,628914980011962
"F_233";71;65;72;69;1148,87962136929;0,629496213990904
"F_234";69;64;68;64;2156,47994960219;0,685341870569406
"F_235";75;71;77;76;701,741775018047;0,64210650355119
"F_236";49;46;50;49;599,435241563712;0,640829635965149
"F_237";45;42;47;47;439,829745536943;0,60828090115689
"F_238";64;65;73;71;660,662804261905;0,617575239292374
"F_239";45;39;47;42;728,744931411468;0,648813647384832
"F_240";53;37;56;39;314,88828287074;0,594247870958786
"F_241";31;37;29;41;427,15219041887;0,57979145305759
"F_242";29;32;28;32;114,69216272282;0,568706889190394
"F_243";35;43;35;41;274,354922293601;0,621397470454076
"F_244";68;65;70;70;1325,98128630615;0,64922123778784
"F_245";42;44;41;44;292,164187567721;0,611239713245563
"F_246";54;63;58;65;737,675458849596;0,632598784194531
"F_247";51;40;53;35;706,800812696249;0,632518677978981
"F_248";52;72;57;74;894,927388102611;0,641858970926811
"F_249";81;89;77;87;2609,9312544814;0,708963167979563
"F_250";60;39;59;39;524,041224642941;0,633414350628765
"F_251";39;39;39;39;138,379030369975;0,582575227431769
"F_252";32;36;32;37;105,557039507834;0,559329625620544
"F_253";72;73;72;71;2234,53314411763;0,688300950806124
"F_254";69;71;73;77;808,376332232497;0,634386410541356
"F_255";80;68;78;64;1588,47330737848;0,679483982134357
"F_256";56;60;58;59;859,091166861865;0,630290539332696
"F_257";63;65;67;67;644,123603058626;0,624186443678471
"F_258";80;76;77;72;1190,10742125093;0,652408163265311
"F_259";96;94;93;86;2827,75303812101;0,705533387478374
"F_260";45;46;43;49;619,541296274337;0,631978491222523
"F_261";90;79;89;78;1953,12648184904;0,677441229656422
"F_262";44;42;48;46;248,935531624884;0,588541410967646
"F_263";85;77;86;77;1937,57566203009;0,676393919902504
"F_264";42;53;42;51;215,653183134599;0,603807796917497
"F_265";33;32;32;31;189,353804977653;0,591398379919686
"F_266";77;85;78;81;2082,91658550964;0,689013035381753
"F_267";45;50;46;52;418,083630563959;0,599298119319715
"F_268";32;33;31;29;231,386869256376;0,580622663076117
"F_269";95;98;91;99;2449,18058499073;0,690203122840958
"F_270";96;89;95;90;2026,87925886301;0,687227700068794
"F_271";74;73;78;72;1514,16052107425;0,669645849625743
"F_272";75;73;73;73;1846,55024345991;0,692739754524656
"F_273";115;118;120;114;4705,06567816089;0,726219755988225
"F_274";52;53;53;54;495,804631905142;0,613247119968896
"F_275";102;101;102;94;2587,6224512224;0,693100218545114
"F_276";50;48;49;52;823,674706885917;0,647111533354209
"F_277";83;75;76;74;1481,50048757336;0,687487813550191
"F_278";95;99;95;95;4520,50585931056;0,726809748999638
"F_279";77;73;77;73;1256,34352242516;0,656689600771288
"F_280";36;35;39;39;189,836403513561;0,586388049188506
"F_281";80;91;78;90;1407,99011814305;0,652216491480057
"F_282";54;48;52;49;468,114347119211;0,62209398870807
"F_283";25;30;24;31;146,465603612283;0,578309068279833
"F_284";91;89;96;90;2229,37748020271;0,682726806765764
"F_285";70;73;69;75;1738,77962939409;0,664118331394384
"F_286";47;49;51;53;860,526859417632;0,646323053698513
"F_287";69;84;78;90;1286,77862658446;0,667186108637581
"F_288";91;89;88;87;3613,98818122622;0,697950628784353
"F_289";71;75;78;82;1303,92108091924;0,670619825464312
"F_290";83;80;81;80;2254,33643928951;0,69881316016509
"F_291";89;80;94;84;2521,8688293353;0,716257393798177
"F_292";73;81;79;76;2410,57883810919;0,683349484124726
"F_293";26;25;28;25;214,106108390977;0,57896261953057
"F_294";39;36;41;35;209,729803611508;0,563563027106309
"F_295";73;77;70;76;2059,38899284679;0,702079062957545
"F_296";79;70;81;68;2013,83198623909;0,702943590946411
"F_297";44;48;50;55;506,518116860472;0,601758894867881
"F_298";61;61;62;60;820,511896661095;0,649685670929982
"F_299";75;88;78;86;2614,15985840729;0,691908114971723
"F_300";18;23;18;20;144,768724659357;0,55245767164069
"F_301";52;59;51;60;849,62252535186;0,650665971928228
"F_302";85;91;82;85;2435,0095296748;0,711394898940151
"F_303";67;73;69;78;870,474500965756;0,652209394687879
"F_304";70;63;68;67;897,625259247311;0,66089641104802
"F_305";64;59;70;66;694,476109675748;0,651097110580059
"F_306";25;20;25;20;87,0812181031583;0,546812994334821
"F_307";91;88;84;84;2088,8263810828;0,683396230717488
"F_308";43;42;40;43;311,414063121997;0,598251357393803
"F_309";80;64;81;62;1395,68356925823;0,677012740580106
"F_310";46;51;48;54;638,630830725991;0,621977793919269
"F_311";48;44;44;43;632,926950016756;0,638161957285524
"F_312";70;68;68;66;1804,06732342626;0,68813500947133
"F_313";21;25;21;25;135,533124150552;0,555277638819409
"F_314";38;40;41;41;626,764701275827;0,626712113924846
"F_315";100;111;99;106;5230,96344212469;0,759821009798826
"F_316";98;102;98;99;2379,89810167422;0,682594633990801
"F_317";70;62;69;61;875,241272426128;0,640815933801598
"F_318";85;88;76;90;3220,7478018651;0,704662481484098
"F_319";33;37;32;39;336,097875355481;0,606054478170309
"F_320";85;94;78;91;3490,92508730834;0,719075782477781
"F_321";40;37;39;40;505,620011341837;0,625045621865129
"F_322";69;70;72;70;1431,52565672992;0,672531023494829
"F_323";49;53;48;46;1135,70354663663;0,669982674789026
"F_324";56;57;55;58;498,041066804557;0,603625377643504
"F_325";37;32;40;31;323,907774405869;0,589595034575016
"F_326";52;49;50;49;735,379168395457;0,627906976744187
"F_327";36;32;35;32;197,888456401626;0,591404215013023
"F_328";42;45;44;45;418,831119773415;0,622416979917343
"F_329";61;70;61;71;780,98372724903;0,648715340158881
"F_330";38;37;37;37;409,602465486583;0,584028373216929
"F_331";26;25;28;25;173,372666586033;0,593788696815096
"F_332";115;111;110;111;3931,75505670973;0,728736079365853
"F_333";87;86;91;83;2459,36472830481;0,70139717756091
"F_334";23;27;25;29;63,3190198258074;0,548278511580257
"F_335";83;75;86;78;1671,17755025321;0,676653533973788
"F_336";27;27;29;30;112,139610867352;0,56418365618117
"F_337";85;77;88;76;1371,56880911192;0,662503453992817
"F_338";73;72;74;70;1602,36097939051;0,678699216450023
"F_339";86;87;86;90;1967,26263494928;0,700659279001268
"F_340";73;81;75;77;2362,68887351072;0,70027454874701
"F_341";19;19;20;20;62,7947560207902;0,534034212401996
"F_342";108;106;106;106;5743,1888200498;0,742548499789405
"F_343";80;93;83;90;2926,50283897882;0,697528278173445
"F_344";34;40;35;40;215,333270698195;0,554219986685406
"F_345";91;95;92;93;3105,68479671979;0,72194252402862
"F_346";51;52;53;50;894,412696650069;0,639053254437872
"F_347";60;70;57;69;608,411240435585;0,643305607727396
"F_348";79;83;76;78;1434,86180846578;0,682299373932843
"F_349";45;42;46;47;378,986608944386;0,614989996408967
"F_350";30;35;29;35;235,350759201501;0,589444286009302
"F_351";88;84;86;86;2549,85421583705;0,696045985020035
"F_352";36;36;38;36;258,938777414353;0,58840275255475
"F_353";67;63;67;61;1455,83500802667;0,665460237807116
"F_354";81;74;79;73;1437,72209257678;0,682144076476615
"F_355";23;22;24;24;64,7808493787347;0,545097397282698
"F_356";56;63;63;66;1517,30315552497;0,681407377934408
"F_357";40;41;40;42;264,959404504268;0,614725096659726
"F_358";63;61;61;65;1333,1678579363;0,668622485972766
"F_359";38;42;38;44;275,874048881505;0,592555978448914
"F_360";104;108;104;102;4827,04512675815;0,740676667572849
"F_361";27;33;27;35;140,729260928501;0,548072966671239
"F_362";44;51;46;54;523,692005040452;0,614693576175239
"F_363";33;45;35;44;547,461178057616;0,62544999217405
"F_364";24;31;25;31;60,9754613835389;0,550741948821611
"F_365";68;63;71;66;995,929159677103;0,661224489795921
"F_366";40;41;38;39;196,137201279096;0,588558747864337
"F_367";78;79;79;81;1098,55430653221;0,642319809683019
"F_368";38;34;39;35;200,732400153552;0,568545059614709
"F_369";40;38;42;38;261,681627131228;0,592954583675446
"F_370";72;69;67;64;978,576235543614;0,664383333887543
"F_371";65;65;64;56;700,064672577267;0,657496380150061
"F_372";70;65;71;65;998,195627380284;0,657438687316282
"F_373";48;58;43;52;577,704898541087;0,632946145723338
"F_374";73;70;78;70;2262,63233533622;0,685780971122609
"F_375";53;59;60;64;683,742560430317;0,6267252195734
"F_376";99;99;102;97;3022,02056393854;0,726862630966243
"F_377";54;49;57;50;558,510377797062;0,607990911580633
"F_378";43;45;45;44;294,961132503236;0,591824644549762
"F_379";102;94;98;97;4689,97617027594;0,74568933343286
"F_380";79;67;81;70;1416,3291538953;0,677632694590472
"F_381";97;97;98;95;2873,90829298646;0,706973013776186
"F_382";83;92;82;86;2246,74140303014;0,702531645569622
"F_383";97;94;98;92;6881,27931229104;0,730922127649199
"F_384";57;64;53;58;809,245051964889;0,638917017534512
"F_385";76;77;77;76;2555,30336250577;0,709239998580104
"F_386";85;81;87;85;3198,33484771743;0,715445213654814
"F_387";59;57;59;60;592,300437591189;0,654817177753263
"F_388";58;47;58;47;433,708680300644;0,633883248730967
"F_389";59;60;56;58;1085,02573598361;0,642960579243767
"F_390";31;36;32;39;111,877463530747;0,584142205589988
"F_391";77;68;76;65;771,729424753366;0,658934755125602
"F_392";46;45;44;43;806,018586869982;0,645926053643979
"F_393";56;45;54;46;604,244515663986;0,638127987565343
"F_394";96;89;99;89;2416,59834098531;0,700683850604947
"F_395";51;57;56;60;992,008304547005;0,672780128629636
"F_396";79;68;78;70;2470,12970124701;0,701840663200792
"F_397";98;102;94;100;4073,96923184762;0,736074270557033
"F_398";56;58;55;57;643,576885042435;0,637103803065412
"F_399";76;73;76;73;2068,75089236071;0,688530239503764
"F_400";51;51;54;52;864,021963407156;0,63588720799474
"F_401";83;80;80;80;3208,27566826336;0,723170658140803
"F_402";85;81;93;79;1953,37103881102;0,666362797523098
"F_403";29;32;26;32;188,406855127523;0,575063320285516
"F_404";55;54;57;56;444,557985337983;0,612445080208439
"F_405";37;43;37;43;283,009334383026;0,604739852901115
"F_406";46;41;45;42;262,114170257367;0,587203777540483
"F_407";48;48;49;52;228,163740806448;0,599388012239754
"F_408";26;27;27;26;53,2675353182141;0,550782434506143
"F_409";61;62;64;69;718,132515201346;0,623485234613103
"F_410";19;19;21;20;42,9665273509314;0,534787030923789
"F_411";20;21;21;20;122,659522875765;0,53909664885867
"F_412";64;61;61;57;1341,22869793726;0,668272125225769
"F_413";27;28;28;29;133,421019986182;0,553457493467281
"F_414";50;44;51;43;351,098325462074;0,621674600952114
"F_415";44;42;51;46;309,133950916045;0,60933830780022
"F_416";66;67;65;69;1082,42559267361;0,674885998986667
"F_417";57;59;58;63;542,420669699029;0,623887587822013
"F_418";89;83;87;85;2904,8450413236;0,715342753484822
"F_419";45;52;50;53;401,644331548971;0,633253745219431
"F_420";33;31;34;28;226,65468654031;0,599807869351157
"F_421";75;63;76;62;1382,86496358235;0,690075984342623
"F_422";58;56;64;57;1628,23810380403;0,652017839660614
"F_423";87;90;81;84;4178,60555414825;0,732252586828253
"F_424";83;82;89;87;2563,71432775664;0,714413415811493
"F_425";41;45;40;44;344,611664384193;0,606397830969385
"F_426";54;52;51;49;1047,42363198132;0,646671701370161
"F_427";70;80;66;77;2129,15259649558;0,695609790063717
"F_428";44;52;44;53;415,768716838573;0,60432525079397
"F_429";26;19;29;22;123,951849758448;0,602508946162196
"F_430";53;48;52;48;374,413793131807;0,615830353840462
"F_431";36;37;33;37;256,170012113821;0,610386965376781
"F_432";53;56;51;52;669,794258434749;0,619855222337124
"F_433";89;83;85;79;3430,9959584745;0,726043824266874
"F_434";88;69;89;66;1096,1419942469;0,674430379746837
"F_435";63;55;62;57;706,410205966544;0,618256833419287
"F_436";32;36;29;36;234,005450952327;0,60184348454726
"F_437";48;54;49;50;543,317136943363;0,648140138408307
"F_438";81;69;80;72;1658,41809151382;0,681717372760879
"F_439";60;56;66;65;1024,56973995419;0,639482780693897
"F_440";30;28;31;27;157,48800419517;0,577289800635653
"F_441";71;66;73;67;1574,67640850093;0,682237246465894
"F_442";61;50;62;52;472,286666507998;0,616457375582363
"F_443";86;76;81;72;1920,77174092174;0,684973773526694
"F_444";80;70;77;71;1091,56862820612;0,651734261172124
"F_445";18;20;21;21;47,9171078921079;0,535719073708296
"F_446";65;58;63;59;1196,25794386684;0,661392300307858
"F_447";45;43;48;44;293,358265494855;0,580617038794981
"F_448";32;29;35;31;132,52436998582;0,572744472260973
"F_449";69;70;68;67;1063,0337046916;0,66790724624762
"F_450";48;52;49;54;579,209923182282;0,619797536940718
"F_451";52;45;55;44;293,627158324059;0,603260869565216
"F_452";57;63;62;65;571,379133080307;0,64825229278422
"F_453";59;57;60;58;688,706243779395;0,642891617954632
"F_454";82;72;79;67;1785,5421074709;0,667780748663104
"F_455";32;43;35;43;304,507899765715;0,605057285620551
"F_456";94;78;91;76;2603,77788928689;0,699710496824805
"F_457";68;81;68;82;1766,62188540219;0,694698778424238
"F_458";61;78;67;79;1231,55874480391;0,666296131614054
"F_459";60;58;62;60;679,477926236023;0,62669245647969
"F_460";105;110;103;104;3337,37452629021;0,694803463584835
"F_461";42;38;48;41;145,864934830792;0,576789838337181
"F_462";41;44;43;49;242,448378543022;0,575692963752664
"F_463";65;62;65;64;1924,54341895702;0,682936833470061
"F_464";57;68;62;66;986,972935261839;0,655218023414703
"F_465";91;92;91;98;2069,82880216442;0,690736024522629
"F_466";50;56;49;57;887,866418909691;0,643996776792912
"F_467";37;41;37;41;292,906086385161;0,61476923076923
"F_468";39;48;32;47;848,793378658869;0,637523931078497
"F_469";62;70;63;65;934,329243596433;0,668659780013835
"F_470";120;101;123;104;7597,30725493412;0,757631296214373
"F_471";74;87;75;86;1421,09079481183;0,654416822246243
"F_472";26;35;28;39;83,2277346068264;0,560108396019249
"F_473";41;43;40;40;275,380023229549;0,61122101441886
"F_474";34;39;34;38;167,819407741131;0,593248018052791
"F_475";83;80;78;75;2369,8364724613;0,708343181281026
"F_476";63;67;65;68;999,295354716835;0,657424265689782
"F_477";31;36;30;36;111,388851791989;0,559340064575129
"F_478";45;39;47;40;782,668144810026;0,630801288122752
"F_479";83;80;90;79;1890,73412257671;0,681252486219244
"F_480";41;51;43;52;272,461469690407;0,592105263157893
"F_481";36;38;37;40;159,441998592946;0,57355009712268
"F_482";64;68;66;70;1439,28700620132;0,656552932800267
"F_483";64;55;57;58;928,420367165808;0,672576301615805
"F_484";44;40;43;39;341,622235086901;0,584370003509728
"F_485";62;60;64;64;2569,29233856003;0,692435654544619
"F_486";83;84;82;82;2613,17674340807;0,677288135593222
"F_487";88;88;97;86;3147,19890626176;0,711124820557847
"F_488";18;23;17;21;44,9640235435733;0,577918759701878
"F_489";28;28;26;27;358,953834279967;0,620130978615108
"F_490";64;64;65;66;821,090276527094;0,662752512687832
"F_491";43;51;40;48;333,747616091216;0,591071798361091
"F_492";34;34;36;37;112,798815909162;0,564779044567982
"F_493";73;77;71;74;1917,49998569708;0,70539223762563
"F_494";70;61;67;57;711,496392997944;0,62514340543585
"F_495";46;50;46;53;524,706053037032;0,628104369695065
"F_496";85;90;82;92;4115,17381513259;0,736001964636545
"F_497";67;69;67;69;914,904668036343;0,652656794425089
"F_498";45;39;47;37;377,30581933391;0,61720640477784
"F_499";32;44;34;44;214,454082834348;0,597875417684901
"F_500";49;50;49;50;282,130433596815;0,60192205340376
"F_501";70;78;71;78;1266,16956924758;0,672387682988392
"F_502";45;37;44;37;643,80581251948;0,647929953518542
"F_503";58;63;65;65;1100,22354714538;0,651387213510254
"F_504";62;75;64;75;1005,31424424945;0,636028904616887
"F_505";106;95;105;97;4142,44426183801;0,727144798136648
"F_506";45;48;46;50;429,069162378171;0,613008795254652
"F_507";62;69;65;64;1597,31342635853;0,691860196684986
"F_508";55;50;56;51;448,045726138487;0,599945950815241
"F_509";61;50;66;53;437,126818973189;0,601795144675809
"F_510";66;67;67;74;1222,24867488504;0,649439297903464
"F_511";42;39;41;37;230,177427105731;0,595842818374304
"F_512";65;75;64;78;1169,19686411497;0,669077757685355
"F_513";56;59;55;63;558,603594220019;0,604721549636803
"F_514";51;52;51;50;662,012968912894;0,616001233235701
"F_515";48;39;50;39;627,738481029957;0,642154657067561
"F_516";61;61;64;57;1508,04365590781;0,65225197775771
"F_517";73;76;79;81;1597,37521015399;0,693677741901886
"F_518";90;93;85;94;2839,86079748255;0,710947693037602
"F_519";59;48;57;44;499,628554345503;0,638066851181608
"F_520";86;93;82;96;1316,58475898828;0,665630205441423
"F_521";53;52;55;58;423,643283063162;0,616172207487818
"F_522";39;40;42;39;311,781669146196;0,606189320388348
"F_523";57;60;61;57;856,44706765665;0,644793459552498
"F_524";57;64;52;65;501,749637512863;0,61895910780669
"F_525";63;67;58;66;1252,47359759005;0,665334665334668
"F_526";35;41;37;39;178,717307745561;0,56013456686291
"F_527";44;44;49;45;451,763875664424;0,630688454213534
"F_528";13;15;14;15;33,8074906605109;0,513999056725122
"F_529";24;32;20;32;376,381543415103;0,640425668312079
"F_530";41;45;44;41;304,047704776687;0,605277242020013
"F_531";90;90;90;87;2441,23783822046;0,689353773964648
"F_532";59;68;63;70;979,449005478034;0,660357611078675
"F_533";42;45;46;44;533,897486959842;0,611951117418248
"F_534";50;57;53;64;608,136658376515;0,639701173959448
"F_535";85;79;83;75;2039,37365238572;0,692099854513546
"F_536";116;105;109;96;3968,1717321978;0,718136726331681
"F_537";50;45;52;51;842,639053262286;0,638665132336021
"F_538";66;74;60;75;1863,91820893309;0,673634524612275
"F_539";98;93;103;94;3776,0356956833;0,706206701541075
"F_540";66;62;65;63;1411,3528148307;0,670244884267032
"F_541";89;91;82;83;2888,58768386794;0,713579923570519
"F_542";60;66;62;71;810,469850857427;0,634037466811937
"F_543";102;86;105;89;2478,16385327873;0,688008631673192
"F_544";45;44;45;44;362,872784496945;0,572799204923358
"F_545";51;52;55;56;576,960966501232;0,635765803988122
"F_546";55;69;58;73;654,637253632477;0,629463160547761
"F_547";37;40;36;41;277,702979263278;0,591871395844852
"F_548";83;73;82;70;1297,98853291259;0,674946794734652
"F_549";75;80;76;79;1169,03075943114;0,661180727144372
"F_550";29;37;27;37;183,423307075624;0,563663720142937
"F_551";37;44;38;46;260,371376242288;0,605864575015414
"F_552";27;32;32;34;262,5860711857;0,60825003805368
"F_553";75;96;77;98;1536,49967238335;0,675959131199677
"F_554";57;48;52;50;606,470839361031;0,628203112718126
"F_555";25;25;25;21;119,173610993741;0,565567737917759
"F_556";97;90;97;89;2730,79705763908;0,717526365562567
"F_557";101;94;102;94;3739,80595742906;0,711589144525965
"F_558";79;74;80;66;3106,60408210272;0,718265808678151
"F_559";22;26;26;26;133,979189514185;0,567511527282022
"F_560";43;36;41;34;165,51702209506;0,565701180667628
"F_561";99;97;99;97;3310,04375838072;0,72041537463042
"F_562";49;55;54;57;1313,78006634906;0,632365197759187
"F_563";74;76;71;79;2420,7559077504;0,671867644091736
"F_564";49;48;52;51;636,59126661659;0,611090154658618
"F_565";52;45;52;47;614,824620388557;0,627525701961934
"F_566";27;28;31;29;61,4919250854193;0,556303191736196
"F_567";42;32;42;33;189,729999348388;0,588408528684178
"F_568";74;73;71;69;1226,40737833349;0,667104428442646
"F_569";40;49;39;50;320,679857434125;0,585614631572776
"F_570";40;45;38;48;832,542582284934;0,642450615762233
"F_571";70;67;66;64;1840,05736387162;0,678008279980998
"F_572";110;112;104;107;6077,34337626504;0,773698884758364
"F_573";54;62;58;63;973,533033598465;0,644218264673325
"F_574";56;53;55;49;496,314724409028;0,633816220788835
"F_575";22;30;19;27;62,525747205803;0,53990272023059
"F_576";61;65;62;69;1222,20178831771;0,660743419022005
"F_577";60;59;58;63;888,85356800669;0,647202366812794
"F_578";72;58;76;57;983,311595564844;0,655440131219248
"F_579";39;37;37;38;414,434905250115;0,625052139818137
"F_580";41;43;43;43;248,408754822209;0,577941048855977
"F_581";44;42;46;45;444,870657728182;0,585900844541757
"F_582";24;29;25;32;131,934078109234;0,550959629384513
"F_583";89;95;89;95;2058,35015465642;0,684559159433537
"F_584";67;63;72;67;950,059434598283;0,659529284904771
"F_585";107;118;102;115;4397,15680287116;0,723895558078309
"F_586";82;79;81;76;2199,37653086422;0,685694674826978
"F_587";75;79;75;79;1432,32192408694;0,67737232876403
"F_588";97;101;102;97;3610,62620735222;0,716685598134756
"F_589";53;50;52;47;596,771406787023;0,619010244547258
"F_590";50;48;52;50;677,463833058618;0,627177700348432
"F_591";54;49;52;47;522,488388498381;0,623907069697727
"F_592";74;83;71;83;992,406572111393;0,649354870161529
"F_593";45;45;46;50;457,89059686667;0,604416658263586
"F_594";75;70;73;69;1985,97776167787;0,704397489834773
"F_595";50;57;44;56;584,254928845072;0,649685670929984
"F_596";68;58;68;56;1004,72582503888;0,655619360131259
"F_597";49;47;48;45;589,857529353043;0,618735483870967
"F_598";36;46;34;41;950,035106168339;0,660074002290551
"F_599";93;99;91;100;1952,09566723299;0,685773125107261
"F_600";82;77;84;73;1940,5152374;0,68834837731689
"F_601";56;48;56;48;624,188418271741;0,627742577368173
"F_602";36;35;35;37;233,463221834927;0,58330657168715
"F_603";90;90;87;87;2331,50525017569;0,695222519920668
"F_604";44;55;48;53;644,26707063943;0,662108274696507
"F_605";62;50;65;51;708,964903100323;0,617893554073416
"F_606";35;37;37;38;368,327383348449;0,617804392863401
"F_607";102;102;107;100;4031,43221939795;0,728860137649265
"F_608";63;57;67;59;1155,32315077852;0,634843301524093
"F_609";28;27;30;27;111,638099239135;0,552126895230375
"F_610";75;77;70;78;1509,68864857363;0,674734057522375
"F_611";77;83;77;81;3272,13518918448;0,719446911683514
"F_612";42;39;42;41;304,389727724323;0,589166183394438
"F_613";74;83;77;84;1855,93517021572;0,675418333427238
"F_614";50;48;49;50;893,859895650525;0,652251977757713
"F_615";31;29;29;29;164,691686039977;0,58623320227686
"F_616";63;68;66;69;833,471908303225;0,630423121825009
"F_617";92;86;90;81;3616,18549844227;0,721247563352831
"F_618";45;61;45;55;1034,97558596593;0,660423093873955
"F_619";36;38;37;38;392,312681696469;0,574842719042503
"F_620";90;75;88;73;1501,79408184293;0,686558616345
"F_621";40;34;43;36;309,056743864768;0,625176006758661
"F_622";45;52;50;51;658,308565082362;0,635226791013142
"F_623";54;56;51;55;508,907881949582;0,6073686770428
"F_624";51;41;58;48;497,574150735413;0,611838680371961
"F_625";72;65;69;61;1803,63759800994;0,67608112071105
"F_626";44;45;46;48;842,958798248979;0,634299138606109
"F_627";77;70;73;70;1527,65697761192;0,670634831837815
"F_628";23;31;22;31;140,821402096553;0,55030710331341
"F_629";76;79;77;77;1448,9031647817;0,661888934285936
"F_630";77;71;75;76;2959,04894595459;0,719205202658929
"F_631";44;45;46;47;290,146814863388;0,584597979167478
"F_632";96;98;100;99;3041,13598432673;0,718498273878022
"F_633";41;39;41;40;325,55977100288;0,600817930315543
"F_634";32;37;31;36;158,536075941335;0,587883364881961
"F_635";47;62;49;62;665,234021821791;0,621461897356142
"F_636";53;54;50;51;687,617220260446;0,610343458205625
"F_637";29;38;29;38;609,790548048911;0,632852587790616
"F_638";59;50;58;53;702,256098689254;0,634071002411882
"F_639";45;48;53;49;384,461111977822;0,614202274823239
"F_640";96;99;90;101;4964,32793633784;0,750187734668338
"F_641";56;53;58;53;554,477851391512;0,617511615688132
"F_642";108;107;108;101;4312,49009438118;0,712917920477659
"F_643";33;34;36;37;183,114384276727;0,59716659692749
"F_644";64;77;64;71;1261,8868389379;0,671596638655466
"F_645";39;48;41;54;226,483929713847;0,577128607053793
"F_646";47;42;46;37;307,678209484773;0,619598924953483
"F_647";87;74;88;72;3010,71783282335;0,686440677966104
"F_648";21;20;23;22;100,629736715906;0,527966176341056
"F_649";86;86;83;81;2112,0776755808;0,68835628237078
"F_650";36;33;38;31;224,906879547781;0,587295832884254
"F_651";82;83;85;81;3262,20212936467;0,712417989921081
"F_652";57;56;58;58;736,186967622906;0,645661657779934
"F_653";77;75;72;77;2004,62379187169;0,69550486180409
"F_654";68;72;61;70;2198,82288449107;0,683388439174554
"F_655";65;57;65;61;844,688666847302;0,645466978236759
"F_656";88;102;89;103;6460,06034324901;0,755940069616105
"F_657";40;34;41;38;301,46838156524;0,608441439795357
"F_658";84;82;88;86;1393,57997078304;0,667111853088483
"F_659";15;22;15;26;50,6129694718006;0,529037952338924
"F_660";34;39;33;36;171,793526996798;0,579270355158249
"F_661";91;89;89;91;3409,98250139044;0,716009269656213
"F_662";39;47;39;49;286,464636607664;0,609567587357116
"F_663";63;54;65;52;1354,60846872945;0,672236864240457
"F_664";66;64;61;60;808,830841706833;0,643692479515461
"F_665";115;108;113;113;5119,96370474432;0,72358970025472
"F_666";63;65;63;64;766,230288914403;0,621751983818266
"F_667";65;72;63;74;1754,38749389101;0,693044121727875
"F_668";61;67;62;67;1072,31823198356;0,647600937800493
"F_669";37;35;36;35;238,742353027233;0,607978577731795
"F_670";89;76;89;75;2846,6524836289;0,707089772325119
"F_671";26;27;28;28;98,8184294146022;0,549006677108235
"F_672";37;33;37;35;183,410166161118;0,599088473993522
"F_673";24;23;23;23;152,784512081538;0,569544478440166
"F_674";41;52;43;51;540,886889707483;0,624850146465542
"F_675";46;46;46;45;425,020599566172;0,606361024561971
"F_676";67;77;62;69;1145,30116177533;0,666177647372636
"F_677";41;50;39;51;411,57220858759;0,60428260343576
"F_678";81;87;85;92;2716,31190240457;0,691054567255038
"F_679";117;111;111;104;7646,44343953856;0,764687121260446
"F_680";35;45;38;47;338,889152172293;0,608905007161795
"F_681";34;37;34;40;251,781859352091;0,633950290851404
"F_682";31;32;32;32;100,487265397812;0,556768254734945
"F_683";45;44;48;47;237,281132008842;0,582682829618251
"F_684";80;67;75;69;1243,67059516209;0,674696082845568
"F_685";111;117;103;114;6905,24625990933;0,755444646098006
"F_686";72;57;72;55;1533,4155930236;0,68662153338603
"F_687";68;77;66;77;1841,79899499582;0,686393513959189
"F_688";48;50;47;48;338,136254348672;0,612001102704688
"F_689";70;71;71;68;2833,18641650668;0,700413657715772
"F_690";31;39;31;37;123,019308360386;0,561172901921132
"F_691";93;94;95;89;2256,69844288841;0,677372328764028
"F_692";54;56;56;56;963,841803852253;0,642044602497914
"F_693";64;63;64;59;1313,84518242221;0,670020120724347
"F_694";95;98;92;100;2524,91632834167;0,696936224638105
"F_695";92;89;96;85;2097,02005118261;0,695997491900931
"F_696";36;39;34;39;474,654127694213;0,603631456510135
"F_697";99;91;96;92;3866,86663270976;0,727700955456547
"F_698";84;92;84;95;2956,81320756048;0,712672104249401
"F_699";35;29;35;31;129,832151030837;0,561288510160126
"F_700";64;76;68;76;1584,62567048639;0,661297440423658
"F_701";44;47;44;47;648,041182018057;0,640193104626823
"F_702";47;48;49;51;646,276792789324;0,624231946845514
"F_703";53;60;55;63;462,652384256986;0,616241890877686
"F_704";92;96;92;101;2499,17441747577;0,692427655518975
"F_705";56;53;56;54;856,251062692117;0,652855835838454
"F_706";67;73;66;71;1336,76208175609;0,664228723404257
"F_707";64;61;67;58;1113,25738778958;0,656891109942141
"F_708";34;32;35;33;186,784429640058;0,615242494226329
"F_709";42;41;45;42;244,368107330773;0,591818801157176
"F_710";39;28;36;28;343,217969626503;0,620554710066155
"F_711";28;30;28;30;88,1228354162178;0,558012232700596
"F_712";61;69;61;70;1087,46293519524;0,651698831204133
"F_713";73;65;70;62;731,874755294185;0,639039628133097
"F_714";30;18;31;18;66,742790541219;0,549923392386946
"F_715";61;56;57;56;1351,45177987141;0,655389964682859
"F_716";33;33;34;32;133,258540119989;0,553171461003904
"F_717";58;60;63;63;764,649397316251;0,635139287720006
"F_718";57;61;60;62;886,68944137762;0,667446133288796
"F_719";35;48;38;53;547,513650129892;0,630098393743169
"F_720";44;40;44;40;326,455429294968;0,619221272947035
"F_721";90;84;89;83;2039,54062569128;0,688799255352161
"F_722";56;55;63;59;646,073239615782;0,611426764456865
"F_723";51;58;53;56;555,551204431638;0,610996717701983
"F_724";40;43;43;49;312,206052210506;0,572263275476885
"F_725";101;100;99;99;4602,63199963566;0,734774933804064
"F_726";41;45;42;45;225,969493333444;0,569977748616419
"F_727";42;57;41;58;513,611918532816;0,625874490967944
"F_728";32;28;31;26;167,453838520978;0,58324413739418
"F_729";53;50;52;56;1036,08973772061;0,660954712362308
"F_730";89;88;81;86;3701,94988193733;0,705948861695741
"F_731";51;54;47;49;405,699327814281;0,615053101431429
"F_732";77;73;78;68;2415,25380709642;0,703438563548884
"F_733";38;48;37;48;158,546026406545;0,578203075260933
"F_734";84;80;79;76;2711,48022487829;0,701462843768287
"F_735";32;28;31;28;134,464092737656;0,567710405182701
"F_736";38;33;41;32;309,371862164362;0,594583870647752
"F_737";56;47;45;39;807,924373900503;0,666688911875612
"F_738";47;48;47;47;373,320619803037;0,598466392427812
"F_739";107;106;104;101;3463,65512945254;0,721629626062463
"F_740";78;67;75;67;1083,19339139693;0,6537601570595
"F_741";92;84;95;81;2334,19391917177;0,692099854513545
"F_742";74;79;69;78;2046,20602340138;0,701380762930029
"F_743";48;61;49;63;1168,31352787837;0,67339991686421
"F_744";41;41;43;41;376,476393803243;0,615716486902927
"F_745";76;66;76;67;781,079554215433;0,646860127559006
"F_746";86;85;82;88;2567,00550682108;0,706881301963561
"F_747";101;88;96;87;3682,66121644342;0,716300191204591
"F_748";26;38;27;36;76,4747100551073;0,608527918781726
"F_749";76;76;72;69;1126,20977857326;0,673384786491866
"F_750";74;67;71;67;1540,375224497;0,68545943164275
"F_751";65;66;72;70;977,232484660618;0,646964856230033
"F_752";52;52;49;50;658,493770120761;0,621739085336127
"F_753";102;85;103;89;1976,05518216351;0,68524785074081
"F_754";41;47;37;45;313,114542457828;0,604709348076107
"F_755";92;85;94;82;3405,09360495863;0,709769094138546
"F_756";76;63;72;65;2210,93058597659;0,703281746823266
"F_757";48;48;49;50;223,310792359433;0,602793728692537
"F_758";83;78;86;87;1693,46879184623;0,675266152199629
"F_759";44;35;42;39;232,355054453124;0,608077262536393
"F_760";54;49;57;49;510,185460509328;0,642485047269923
"F_761";33;29;33;30;231,139442923054;0,569826029090217
"F_762";94;69;95;68;2165,95702754162;0,666444296197468
"F_763";31;27;30;25;105,067189548036;0,54419668797211
"F_764";41;44;44;47;293,722369555894;0,589525448733709
"F_765";63;69;64;63;1550,13788542375;0,671634265224944
"F_766";106;87;106;88;1821,64435555749;0,688680545980976
"F_767";87;96;86;91;3576,61627617586;0,74900657286382
"F_768";31;25;33;25;131,323667827981;0,556592472908599
"F_769";28;30;27;30;140,024069353214;0,577262002215052
"F_770";31;37;32;37;268,723382309873;0,637897089341781
"F_771";32;31;34;33;79,8126441225277;0,554696971099122
"F_772";42;35;41;34;399,895797842774;0,587186520376175
"F_773";68;66;65;64;2123,87001492316;0,695117708454136
"F_774";37;37;37;37;186,561372781536;0,567527647326161
"F_775";54;50;54;46;1475,98890442682;0,658724751082495
"F_776";47;40;48;42;382,181051539214;0,587462756782185
"F_777";82;70;84;67;1616,75473849484;0,668637403089968
"F_778";35;35;37;36;230,776415191051;0,600240336471059
"F_779";52;50;54;54;724,390625488765;0,614284103835944
"F_780";46;43;45;41;515,915283839534;0,617269965501261
"F_781";67;68;69;75;2014,12881057384;0,6698179623856
"F_782";23;17;23;17;115,475214346709;0,544122586443233
"F_783";51;47;53;53;383,723392491565;0,586950774081726
"F_784";48;49;51;52;507,735981247781;0,617753455152582
"F_785";42;49;40;44;352,485035409068;0,608824604883597
"F_786";96;88;92;89;2772,38330342083;0,714200605295141
"F_787";82;71;79;70;2656,18833818987;0,701569577583484
"F_788";46;41;53;42;518,720755946202;0,597636970935738
"F_789";76;66;78;69;1287,2148178624;0,656445077209508
"F_790";62;69;68;69;1704,44858586646;0,678937531857058
"F_791";46;46;45;46;261,945889956696;0,58495169317849
"F_792";87;77;89;76;2029,76426248103;0,682742359869242
"F_793";36;49;38;47;466,721610671611;0,630967293704016
"F_794";34;44;34;43;247,683224603408;0,593676954161878
"F_795";48;44;49;47;633,946825742367;0,63644761571051
"F_796";80;78;87;81;1346,54274040851;0,672267022577138
"F_797";82;83;82;85;1542,93817007452;0,672538569424968
"F_798";67;69;69;69;1878,36902155862;0,686307063443903
"F_799";43;45;42;45;208,85184861758;0,571701082550431
"F_800";55;66;54;64;577,310624097097;0,619214876033057
"F_801";39;44;45;43;493,648104054683;0,595688858412092
"F_802";73;84;73;85;1556,34034057387;0,677739962234716
"F_803";31;23;31;24;86,8592559100321;0,548700109849872
"F_804";29;20;30;20;75,3487987330285;0,542188291482742
"F_805";97;103;100;104;3123,00014884825;0,710728514513377
"F_806";39;31;40;34;270,608137324586;0,575952955194049
"F_807";87;83;84;79;2070,68113578146;0,682765690853174
"F_808";41;37;39;37;236,543184758942;0,579455153612651
"F_809";73;62;73;61;1406,2289514895;0,662965093129233
"F_810";94;86;93;84;2328,28011569485;0,693741970579047
"F_811";58;52;63;55;1104,37048076302;0,653133274492501
"F_812";87;76;82;73;2577,99295553105;0,704207150158022
"F_813";36;37;35;36;362,301306299752;0,580611414622805
"F_814";40;49;43;53;301,995052140928;0,61094689634084
"F_815";52;54;50;53;655,640631171164;0,629383846444622
"F_816";70;70;72;71;1998,48881385645;0,691118311060892
"F_817";23;33;22;31;132,764134114483;0,563854605659241
"F_818";31;39;30;40;370,734645398528;0,615198292142212
"F_819";59;71;63;67;797,833774739934;0,649502633118784
"F_820";73;65;74;69;2073,36247444838;0,689655172413794
"F_821";54;51;51;51;608,715182134364;0,644204417217478
"F_822";39;46;41;47;323,630311333418;0,596382305533997
"F_823";37;41;36;42;394,823734232594;0,628618172665494
"F_824";47;44;49;48;616,354174051341;0,628624765340689
"F_825";38;44;35;40;681,30749270448;0,668234874413323
"F_826";82;77;84;76;2478,40210899307;0,691620704774653
"F_827";87;98;92;98;2159,17503647945;0,677870261467477
"F_828";86;85;87;85;2186,73657793007;0,707390185757786
"F_829";62;78;66;72;1224,65614045385;0,699179974104451
"F_830";53;59;52;60;814,848041661636;0,640206780167904
"F_831";54;52;55;49;788,405887224048;0,631312865343095
"F_832";46;41;47;42;613,169483352586;0,602067157507758
"F_833";42;46;46;46;235,90356769603;0,601034814695971
"F_834";26;30;29;32;230,663287586571;0,597101160531951
"F_835";55;53;55;58;996,317021706713;0,62921206777099
"F_836";98;101;90;99;5023,48382262947;0,750206513304465
"F_837";85;77;88;73;2000,46288933385;0,683224857803973
"F_838";40;26;41;28;123,885107644069;0,56087359290346
"F_839";36;40;34;38;186,085896360449;0,582716817514557
"F_840";62;57;57;51;503,54833613285;0,625972534071328
"F_841";65;54;66;57;745,708684599841;0,631698757469411
"F_842";36;37;41;39;157,408854540173;0,572481901014306
"F_843";51;57;55;59;791,728345761139;0,662825800886864
"F_844";58;58;59;55;967,959568422252;0,661560196017844
"F_845";36;42;38;43;461,079357906401;0,615311967479006
"F_846";92;97;94;99;2637,37361649801;0,689108091329242
"F_847";83;86;86;84;2594,28753944077;0,698275862068967
"F_848";82;73;82;70;1715,04093628339;0,687338027199965
"F_849";44;39;42;37;215,249155490705;0,58772196456411
"F_850";36;45;34;43;429,962659038437;0,600138169949036
"F_851";39;39;42;40;348,744926396146;0,571728347958793
"F_852";45;50;44;53;229,444311164662;0,597029791726844
"F_853";50;47;54;48;1431,17338700502;0,671935429628392
"F_854";46;34;49;36;420,343950554729;0,602103444465649
"F_855";75;68;73;62;1694,90013144573;0,685240016919511
"F_856";74;66;79;65;2394,27073105353;0,692107845967325
"F_857";65;69;71;73;942,362155244805;0,63466853022458
"F_858";47;46;48;48;698,255926955699;0,61933644000372
"F_859";83;69;82;66;2148,26018907904;0,696062150894757
"F_860";41;46;43;49;243,17627592479;0,574247940218431
"F_861";49;57;56;57;1136,7104357608;0,657200811359033
"F_862";74;64;72;65;1395,54908441013;0,662269216745667
"F_863";106;98;100;97;2775,42814597547;0,677402949652485
"F_864";62;60;60;56;997,240479772477;0,654295382600155
"F_865";46;43;45;43;633,262662534338;0,635361458554168
"F_866";56;62;63;61;525,121650247892;0,622513942692159
"F_867";67;70;70;73;1143,79265583886;0,662137531068768
"F_868";48;46;50;53;561,024361705943;0,621075536213864
"F_869";59;58;63;59;777,707341957862;0,634151502327552
"F_870";63;79;57;78;2224,9874682957;0,679260677900802
"F_871";61;61;67;63;803,345960855649;0,633200228180263
"F_872";28;33;27;33;337,195862259051;0,584370003509728
"F_873";35;36;38;39;156,37651083447;0,586204535896958
"F_874";68;55;72;57;1272,48019451814;0,664832848998427
"F_875";67;67;66;68;1441,92327009414;0,654960280603606
"F_876";68;66;74;70;1216,1615109666;0,664007976071788
"F_877";47;49;52;54;389,672921325125;0,606005459508643
"F_878";101;105;101;107;2669,7428530793;0,711040463113444
"F_879";50;49;50;50;374,613033478044;0,609301143583227
"F_880";46;41;46;41;617,914281881607;0,646664724730559
"F_881";68;70;66;67;903,473185219941;0,646114045488845
"F_882";43;37;46;37;229,960727326187;0,588639666889263
"F_883";41;32;44;36;249,177238284661;0,570411678498695
"F_884";52;61;53;61;779,964457376757;0,613699191153884
"F_885";38;35;40;37;395,962748709669;0,621069100931501
"F_886";23;18;22;17;104,887826921916;0,587416699333593
"F_887";16;13;17;13;24,8939994645877;0,524739993696818
"F_888";67;65;67;67;898,629061296687;0,656869513758757
"F_889";60;58;62;61;719,620309953011;0,623387969049005
"F_890";80;82;80;86;1551,93188392393;0,676676450666066
"F_891";98;106;107;113;2500,36406362487;0,701569577583485
"F_892";61;66;61;64;816,617836906826;0,646058332794414
"F_893";82;80;81;82;1867,78633610111;0,676630618833679
"F_894";63;67;65;72;781,675011979036;0,624049973971889
"F_895";48;53;48;52;1386,12007117175;0,661976653008939
"F_896";85;76;85;78;1274,30342871283;0,665748495012996
"F_897";74;69;77;69;1181,32732915567;0,661297440423656
"F_898";35;34;33;30;212,609510192633;0,593013247326295
"F_899";72;68;73;69;1487,43138807568;0,67549444976616
"F_900";106;112;110;114;4025,69554261555;0,714788270508129
"F_901";30;31;30;31;100,058088166788;0,55491265263801
"F_902";39;38;38;36;177,291322784967;0,565045248868777
"F_903";60;61;61;52;1549,19455340216;0,686778876450843
"F_904";73;81;71;79;1960,70242303344;0,690068039741657
"F_905";46;44;46;46;267,745221164438;0,578309068279833
"F_906";46;30;48;32;190,40258603411;0,575366923601178
"F_907";50;51;50;48;414,801195609459;0,593577009536447
"F_908";98;90;86;82;5897,97625394834;0,750075082590853
"F_909";87;87;80;90;4071,98737711353;0,709265175718853
"F_910";65;60;63;64;1060,51706320158;0,678591644967737
"F_911";43;56;42;57;638,329781360578;0,637591745558985
"F_912";36;29;37;34;134,391985938235;0,56133056133056
"F_913";51;51;48;53;998,445555163092;0,655397130860743
"F_914";73;70;70;71;1055,82582691837;0,656898308985502
"F_915";91;93;95;95;1475,06130931263;0,689417204375286
"F_916";87;92;90;90;2973,39601968811;0,712604322704901
"F_917";94;88;92;90;2916,59151586392;0,702120182733983
"F_918";49;49;55;49;366,872269443855;0,609319725125035
"F_919";54;56;56;56;698,371322800655;0,625743814594426
"F_920";30;32;30;34;172,485287396015;0,570726691042046
"F_921";100;111;104;113;3628,72614609962;0,712638211865415
"F_922";83;83;81;84;1262,32531524487;0,652976741652597
"F_923";42;47;39;42;442,252586304507;0,631845253781695
"F_924";65;80;64;81;1465,89889213845;0,655303982770121
"F_925";38;42;39;41;275,239486920877;0,601777019225941
"F_926";36;34;38;37;450,980629244885;0,57984754092017
"F_927";52;62;50;59;849,707629558963;0,653175978292852
"F_928";35;35;33;38;212,318347990009;0,562668969660558
"F_929";65;65;66;73;904,34328596866;0,64910874791536
"F_930";46;54;46;54;599,850964785742;0,633923472301544
"F_931";110;100;108;100;4221,75687814852;0,721925133689842
"F_932";44;57;47;57;526,383180335327;0,649720882337004
"F_933";81;81;78;75;1803,53587722657;0,679037520391519
"F_934";89;110;83;102;4151,94677975223;0,742401347568681
"F_935";37;39;35;40;344,042572678977;0,624472573839664
"F_936";36;33;38;36;165,880788960865;0,569555302166476
"F_937";45;54;46;50;601,633705220706;0,641035238757289
"F_938";84;81;85;79;1812,7304002529;0,673127674149608
"F_939";27;29;26;29;223,194314829517;0,577156392628111
"F_940";33;38;33;39;307,745764169828;0,586084167709636
"F_941";41;42;36;40;442,673365727596;0,618927151634056
"F_942";35;37;36;37;407,846571961066;0,599477932131176
"F_943";63;75;61;78;1295,63977204766;0,653190214133931
"F_944";50;52;48;51;425,41097890454;0,613642645809232
"F_945";65;72;69;76;1061,31463320148;0,649967469095644
"F_946";77;71;71;73;2588,73237039152;0,703017792425614
"F_947";79;68;79;65;3658,07409868268;0,715095262523716
"F_948";65;70;71;69;1029,31037684674;0,644197493712788
"F_949";35;34;31;31;275,441634177853;0,590239483220417
"F_950";46;43;46;44;294,010756778192;0,609084442637942
"F_951";82;77;84;76;1592,25208730273;0,676401552766998
"F_952";60;69;64;75;952,504856869658;0,658138896513864
"F_953";73;77;75;76;1444,40378675479;0,666740823136821
"F_954";48;47;46;44;415,271696223843;0,616463715649168
"F_955";65;69;64;67;814,870645461877;0,66013215859031
"F_956";49;40;54;40;584,301039518875;0,621172081454997
"F_957";36;47;35;45;259,488979919291;0,57314426138591
"F_958";56;50;52;49;498,033617202061;0,638100814392933
"F_959";64;65;58;60;2253,01786221044;0,697788125727595
"F_960";71;57;74;58;818,348398829907;0,642202817806826
"F_961";46;49;46;48;604,542224331532;0,626266847769303
"F_962";60;71;63;70;1642,31645616985;0,670432302443941
"F_963";63;64;62;67;1965,05150829719;0,673702667161212
"F_964";36;36;36;37;275,109151038619;0,594012308363144
"F_965";62;64;62;66;1053,32007788975;0,642361111111113
"F_966";50;56;53;59;1090,76201948628;0,625123846274183
"F_967";70;73;72;75;1114,61988509525;0,664449617559035
"F_968";26;28;29;31;198,775221042959;0,568383322112329
"F_969";32;30;32;30;175,06470997037;0,57194110743218
"F_970";26;24;25;24;60,9098535335274;0,53596337494188
"F_971";38;42;40;41;515,124359797412;0,636278714279653
"F_972";76;77;76;74;2809,79878278807;0,706256627783672
"F_973";67;61;71;63;886,407476335851;0,655404297195345
"F_974";37;36;38;35;166,377036334492;0,579752198009458
"F_975";63;71;67;70;902,145734838638;0,650849666105654
"F_976";78;84;75;85;1987,0890294596;0,68354430379747
"F_977";68;65;72;68;1081,76691151907;0,660517703064567
"F_978";63;85;64;89;1623,91789322089;0,66951869268489
"F_979";53;53;54;54;294,925669976931;0,595694778477867
"F_980";27;33;29;36;180,852268674975;0,552819434452991
"F_981";65;68;71;69;1058,83070017199;0,629370629370628
"F_982";91;81;93;83;1504,90248401632;0,668078466339725
"F_983";19;23;18;23;70,8403812186768;0,577250883596404
"F_984";63;57;64;58;473,629970586492;0,625515262196712
"F_985";30;32;30;32;202,835305391656;0,55687170768416
"F_986";44;38;48;44;361,079426752;0,59149175523254
"F_987";76;74;79;77;1854,46474783514;0,676371022342593
"F_988";80;75;76;75;2407,6542373716;0,687582449096651
"F_989";33;26;33;24;162,544508399421;0,564571579274551
"F_990";52;55;46;49;521,233459273716;0,638100814392938
"F_991";65;51;62;50;560,519466600368;0,620073241884426
"F_992";70;77;69;77;1758,33117131834;0,674734057522375
"F_993";64;62;66;63;1301,56222872633;0,65142260960289
"F_994";69;75;75;78;2005,47207438077;0,678922151619156
"F_995";95;111;96;112;2988,68612138987;0,702185984395868
"F_996";25;25;27;28;114,658430388254;0,55962728859925
"F_997";86;99;84;95;3506,21943243003;0,723982993525947
"F_998";63;67;64;69;1527,11599927743;0,663522848034008
"F_999";87;73;86;65;1618,73784295449;0,669122572002681
"F_1000";69;69;71;69;1075,97362830219;0,664412791664361
