"Foraging";"In";"Out";"InLink";"OutLink";"Betweeness";"Closeness"
"F_1";105;89;105;85;3223,73440273727;0,720259552992073
"F_2";40;47;41;45;268,853384896733;0,561867266591676
"F_3";65;64;63;67;878,933507880116;0,627545411715437
"F_4";30;36;36;39;281,680276094936;0,600480865558003
"F_5";64;62;66;64;673,538945945741;0,639735311382679
"F_6";41;41;42;45;371,74137233248;0,59425965399296
"F_7";43;42;44;43;556,229549139752;0,625417362270451
"F_8";88;103;96;107;4559,83471601684;0,759503294475418
"F_9";49;46;51;50;693,411879598328;0,608064925183869
"F_10";75;71;68;73;1560,69143140241;0,684872029250458
"F_11";46;49;47;45;1187,85284842341;0,627381201590957
"F_12";110;89;106;92;2414,53633347403;0,709937226104467
"F_13";106;104;99;103;4637,39698535918;0,745893479342958
"F_14";97;111;89;101;4435,20984819748;0,72295259920396
"F_15";27;33;27;32;273,062153954792;0,589061962557122
"F_16";52;56;54;56;430,250921019309;0,627217077381886
"F_17";27;32;27;31;82,7910115805122;0,556649331352154
"F_18";17;13;18;13;30,6469055944056;0,517728352407688
"F_19";71;69;72;73;1549,97993891339;0,665815051374621
"F_20";37;43;40;42;402,214058399699;0,610355888193064
"F_21";56;52;53;52;693,964127632254;0,630880959898958
"F_22";57;61;61;64;665,610584108139;0,633280507131538
"F_23";64;67;65;64;761,985211127305;0,638951071314359
"F_24";74;77;80;81;1294,15153174437;0,663456749128344
"F_25";93;78;94;82;3298,52256669814;0,702778754836442
"F_26";82;70;92;67;1858,54435948922;0,671897769308375
"F_27";64;59;66;60;1002,15356071936;0,642065234856195
"F_28";104;105;106;112;4510,4051687621;0,724350453172209
"F_29";49;53;47;48;329,115659688826;0,60704881506988
"F_30";50;64;52;68;867,582225467246;0,626070607896386
"F_31";70;71;77;72;1692,65513375806;0,678476427641634
"F_32";64;57;67;60;741,349734055803;0,631645502924284
"F_33";89;94;96;92;3016,37828784118;0,695037105751395
"F_34";109;101;100;97;4030,16686257949;0,73044114062881
"F_35";35;37;39;41;346,247138804524;0,574137931034481
"F_36";86;87;86;85;2760,46925413599;0,693509198195072
"F_37";34;33;33;32;151,423300694184;0,556623485165064
"F_38";76;65;80;70;865,79982913138;0,640487257573329
"F_39";40;45;42;49;167,744392464122;0,579914860681113
"F_40";39;49;37;48;587,866027776112;0,608157467532466
"F_41";31;30;34;32;248,612422124789;0,568933605429262
"F_42";60;64;57;67;1137,85088361882;0,652514696276944
"F_43";41;45;43;46;349,456868015091;0,604721549636803
"F_44";45;38;44;33;322,510184985127;0,58638231265897
"F_45";50;45;50;42;220,60781021611;0,610076335877862
"F_46";42;48;42;47;234,927671405301;0,618129318345879
"F_47";68;80;65;78;1330,60015336143;0,658066641049571
"F_48";58;47;63;52;1436,24477689823;0,671408569028286
"F_49";34;37;36;43;304,073765454213;0,578906702723584
"F_50";57;60;56;59;1036,04998822559;0,666889185580776
"F_51";59;51;65;51;1983,15313280566;0,687898089171979
"F_52";42;45;43;45;439,33444618078;0,603929471032744
"F_53";92;90;91;90;4141,02572555316;0,724262928951186
"F_54";100;110;100;109;5503,71366021223;0,752920487375961
"F_55";58;59;57;59;937,027840880387;0,658681318681321
"F_56";65;60;63;62;778,098117082002;0,627184262843989
"F_57";83;84;82;84;3538,33688658734;0,723738227481289
"F_58";77;71;84;69;1203,42051288694;0,656229472301295
"F_59";61;63;63;66;808,537878584965;0,645800786510803
"F_60";70;77;72;75;1709,16111854302;0,672199170124483
"F_61";39;36;41;35;275,201030090502;0,591620194443073
"F_62";54;54;55;58;810,402404087558;0,626365013846074
"F_63";68;69;62;62;1739,45382721362;0,67242539824995
"F_64";72;80;68;77;2224,09451375956;0,68315477547299
"F_65";102;97;104;100;2037,33872008428;0,682921271505075
"F_66";59;54;62;54;689,647477095389;0,641481164383564
"F_67";73;83;73;88;1792,04388282713;0,656337257049002
"F_68";19;20;19;20;60,1111573823236;0,528082463327607
"F_69";75;79;78;79;1493,55087152417;0,661443389980139
"F_70";46;48;43;44;247,187708436784;0,596239928379588
"F_71";84;70;84;76;2682,65429191953;0,699090272918129
"F_72";44;52;46;59;682,116762960392;0,638848920863311
"F_73";74;55;78;58;1971,67492809136;0,671596638655466
"F_74";66;62;60;59;1183,63591246429;0,665445462114907
"F_75";77;83;84;83;939,139776595559;0,666111018503086
"F_76";53;40;56;48;441,677238864221;0,630914162412506
"F_77";38;50;38;51;324,689283016956;0,615116219405818
"F_78";39;43;39;42;471,865107845989;0,63241190124499
"F_79";37;28;38;30;109,622916773086;0,563637218486999
"F_80";28;29;27;27;84,3025372014603;0,56977186311787
"F_81";57;62;63;63;1365,22927388136;0,655117765998145
"F_82";39;39;40;40;178,149781732755;0,600480865558003
"F_83";89;95;87;94;2493,21588761973;0,692067890543818
"F_84";71;76;67;70;1790,81660582403;0,675913396481738
"F_85";54;50;52;51;676,794530057271;0,648490749756575
"F_86";55;53;52;55;1485,29295778973;0,657813871817385
"F_87";55;42;53;42;442,815173447823;0,621816484257481
"F_88";59;59;62;63;863,961857997284;0,641206675224649
"F_89";107;96;106;96;3027,16301318841;0,694795409760057
"F_90";75;80;78;88;1518,60135677408;0,688411622832206
"F_91";73;67;70;61;1195,86228849328;0,662979758876232
"F_92";35;34;39;37;306,00461492241;0,5799429151952
"F_93";72;69;68;67;2251,45768106713;0,710779082177165
"F_94";45;44;44;44;479,524468522237;0,611351930236115
"F_95";50;32;49;33;422,409766626127;0,634050880626224
"F_96";35;32;37;35;291,296345920397;0,597190395536514
"F_97";102;95;101;104;2912,99573627576;0,705093518409601
"F_98";102;112;109;113;3809,07541433381;0,710568431035507
"F_99";34;30;38;33;171,398286476276;0,558516585911293
"F_100";90;94;89;89;3516,11448919358;0,710905532823342
"F_101";80;84;83;81;2109,7523784857;0,682221716366952
"F_102";53;44;52;44;826,799067346472;0,635698377346485
"F_103";49;50;49;51;1070,5185815883;0,648736403485039
"F_104";41;48;40;48;252,380148162571;0,571483052867425
"F_105";83;83;86;86;1474,29410902761;0,675228117607302
"F_106";62;57;62;59;925,726226598631;0,64723032069971
"F_107";92;91;92;91;1675,20036134761;0,666370205669818
"F_108";24;29;26;28;191,204774827953;0,558646721655249
"F_109";40;46;41;45;304,586988227026;0,590803804642451
"F_110";58;41;57;42;672,950908270788;0,634755903844118
"F_111";45;45;47;50;340,004673854737;0,620753935376968
"F_112";46;50;50;52;248,650032163137;0,59487892020643
"F_113";65;67;66;70;1681,44960057111;0,68872802481903
"F_114";76;82;76;77;2790,7761815309;0,679206798866864
"F_115";102;95;97;89;2482,75882944967;0,701832445407178
"F_116";72;74;71;78;2287,85732181683;0,689837725860286
"F_117";41;37;42;35;340,64274918128;0,600420715215866
"F_118";87;85;87;85;2538,53092600436;0,680517711171664
"F_119";79;76;75;75;1524,12575041378;0,673256205773337
"F_120";87;91;85;92;2106,94669521005;0,697463346520829
"F_121";38;34;38;35;130,399165592938;0,56629977797723
"F_122";46;50;47;53;569,891883799542;0,627315541601256
"F_123";58;61;54;57;924,228133220682;0,650885003800632
"F_124";48;51;51;55;640,266655347323;0,612069845808229
"F_125";37;30;34;29;432,076597004151;0,606158669161145
"F_126";65;60;64;65;1633,54981426313;0,668376449598575
"F_127";47;61;53;62;546,39877831631;0,64555735056543
"F_128";58;64;61;70;390,707342220655;0,615274071032641
"F_129";47;53;49;55;551,994131023526;0,583584850550091
"F_130";61;67;56;68;2049,08829202251;0,673558826834478
"F_131";73;67;70;63;1013,30413032813;0,651521739130438
"F_132";100;100;95;101;4423,57304588002;0,736454109841508
"F_133";71;67;68;60;1059,80423815556;0,661333921774151
"F_134";66;67;68;64;1834,17802084608;0,653083460448902
"F_135";32;31;32;30;165,237709119633;0,589148810693924
"F_136";83;85;90;85;2327,6225129404;0,688332567753796
"F_137";94;93;94;97;3269,488631901;0,711242954612876
"F_138";68;64;70;70;2189,08119474079;0,688411622832208
"F_139";63;56;61;55;862,547407234371;0,650567102621157
"F_140";34;33;37;33;254,78770482009;0,574220433970397
"F_141";95;87;97;88;2590,67187041251;0,682843472317157
"F_142";51;44;54;45;1112,75232753194;0,629687992436181
"F_143";49;48;52;49;768,110046887199;0,652053304324183
"F_144";77;76;81;75;2400,48289195466;0,682532452744251
"F_145";45;58;45;56;420,539987087137;0,644758780186094
"F_146";54;47;58;45;696,341158151819;0,614107883817427
"F_147";100;94;98;93;3107,24897736646;0,716728446729645
"F_148";54;53;46;51;1288,00336296072;0,678783760828952
"F_149";66;65;67;65;1528,30605066104;0,673899600876949
"F_150";36;39;36;40;297,332225595737;0,56118340979309
"F_151";70;74;75;77;667,024802561946;0,632478632478632
"F_152";76;78;78;76;1555,76533667771;0,655726944535611
"F_153";80;77;81;76;1851,44513877793;0,682999088422974
"F_154";73;81;71;80;1669,69523406092;0,658681318681321
"F_155";93;87;89;91;2870,51985849343;0,688253530830177
"F_156";76;62;72;58;1580,89165169335;0,679900181488205
"F_157";87;82;84;78;1642,54174984239;0,674392439243926
"F_158";92;99;94;106;1784,01698936584;0,67809265229934
"F_159";35;36;37;37;169,70437869471;0,56273764258555
"F_160";52;47;53;49;393,755568308995;0,634487138774216
"F_161";106;119;103;117;3771,56989832663;0,715915198566739
"F_162";35;41;39;40;283,150919992768;0,595292481875061
"F_163";47;42;45;43;900,319561871006;0,642202817806826
"F_164";47;48;47;50;563,127199748016;0,613040143185885
"F_165";44;41;43;43;555,951795054506;0,632712302739221
"F_166";79;82;76;82;2337,31403386699;0,690990835206644
"F_167";56;46;59;48;585,969539053278;0,60514891468955
"F_168";36;36;39;36;310,078770430951;0,578013500482159
"F_169";40;34;41;34;121,019162204073;0,565045248868777
"F_170";70;66;65;63;1487,76532109225;0,671671896010759
"F_171";89;91;86;89;2825,2789215049;0,690791748300106
"F_172";30;34;29;33;146,718841781691;0,593024981449417
"F_173";42;55;43;52;393,738891047101;0,608003245929907
"F_174";49;55;50;55;553,543320421794;0,638542665388305
"F_175";110;112;102;109;5076,36131760325;0,743487968246095
"F_176";40;39;42;39;224,843242613683;0,591678594343811
"F_177";116;111;114;102;5288,53305415071;0,744503788349276
"F_178";42;35;42;35;376,807879018143;0,609579985762229
"F_179";42;38;43;37;718,316804611026;0,647440051847053
"F_180";26;27;28;27;109,3631442857;0,54014598540146
"F_181";52;52;53;50;525,148264771309;0,627874089980622
"F_182";71;63;74;65;1124,11874981354;0,665815051374621
"F_183";36;37;35;35;144,952608388324;0,562078019504875
"F_184";72;68;71;67;1081,39957434724;0,639053254437871
"F_185";44;51;44;54;647,304898386885;0,628367753433275
"F_186";49;53;52;55;545,647764350823;0,589699444143833
"F_187";22;25;25;26;186,961344533569;0,596774193548386
"F_188";47;46;44;46;319,739389223957;0,629357412851745
"F_189";42;33;41;33;258,946788249439;0,588512518409425
"F_190";56;54;53;54;645,47969517734;0,636069400965672
"F_191";24;30;24;30;69,2623059372223;0,547247329498768
"F_192";67;65;65;61;887,539345232856;0,636643653744026
"F_193";25;31;28;34;133,710499180098;0,54192848424574
"F_194";25;32;24;30;530,744920603231;0,608960682718686
"F_195";65;58;65;59;1684,71782314443;0,680054458815526
"F_196";93;87;97;90;2515,08374327505;0,705093518409601
"F_197";72;73;71;68;1070,0412864641;0,657886071781364
"F_198";32;35;33;36;132,587174921571;0,559507140856902
"F_199";86;91;86;86;3472,89780129636;0,712087912087915
"F_200";29;27;31;31;114,424838919003;0,550160624139514
"F_201";62;65;64;68;1666,19850187956;0,655081967213117
"F_202";46;43;47;42;1018,5102671725;0,612476370510396
"F_203";102;98;99;100;3399,28102303813;0,701462843768287
"F_204";41;43;40;48;622,658234048101;0,616825315153074
"F_205";109;101;104;97;4499,74452576583;0,7482211958557
"F_206";70;70;79;68;1839,32123965842;0,680788233289802
"F_207";68;90;69;88;2229,31313274417;0,690354160668012
"F_208";74;73;74;70;1726,67503973102;0,687030775402606
"F_209";64;84;66;80;1292,97450874148;0,666111018503086
"F_210";44;36;46;41;299,225366060808;0,603807796917496
"F_211";23;23;22;23;56,9546351946389;0,540755108484822
"F_212";57;56;59;56;650,433766697487;0,638406646075196
"F_213";36;30;36;30;146,778644178407;0,577762783748613
"F_214";32;35;32;35;98,9799872317259;0,557322175732217
"F_215";37;39;34;40;342,85167629497;0,634957627118647
"F_216";69;66;72;68;1405,28245411769;0,675304191077063
"F_217";85;87;85;87;2418,15620090136;0,714294226300426
"F_218";34;32;38;34;270,692517601446;0,588050622976551
"F_219";25;36;27;37;228,121055837784;0,583613261282312
"F_220";60;61;60;59;1077,19938083492;0,651876019575859
"F_221";74;79;74;76;1898,29189345186;0,689480646460004
"F_222";76;72;82;75;900,360684110753;0,652408163265308
"F_223";67;68;60;67;1141,6013657297;0,663640389725422
"F_224";85;80;94;81;1604,27212244469;0,672953856517349
"F_225";27;33;25;33;421,371278935357;0,598621791670827
"F_226";85;88;87;87;3308,27051937363;0,708008504606664
"F_227";65;62;68;60;1038,29062765201;0,660605058687389
"F_228";102;104;102;105;3158,40158890251;0,70584079133302
"F_229";51;66;55;72;505,597430828989;0,622817955112219
"F_230";53;44;50;45;338,206328290021;0,613699191153885
"F_231";98;89;97;86;2286,358684838;0,69254766031196
"F_232";49;53;51;56;303,972382430334;0,608188321241945
"F_233";94;107;97;111;1929,51934268715;0,671333370666966
"F_234";51;58;49;60;776,324873972355;0,641755888650965
"F_235";79;69;82;70;2036,77174578681;0,678783760828947
"F_236";49;53;53;55;863,911289776493;0,646811265781809
"F_237";63;59;59;59;587,017460670328;0,623271290423209
"F_238";62;59;61;60;1359,18179167715;0,672727272727279
"F_239";54;51;57;54;475,140093805568;0,611507855539684
"F_240";39;46;41;46;403,86933329413;0,625743814594425
"F_241";34;41;34;40;471,723654800593;0,613699191153885
"F_242";91;83;89;85;2334,50113869168;0,690911186675123
"F_243";48;38;52;35;405,481847213485;0,600240336471059
"F_244";70;68;71;65;2304,18677996735;0,691628685167028
"F_245";44;44;46;45;530,657140985553;0,612695492180313
"F_246";55;55;58;59;1509,92528842641;0,661297440423657
"F_247";45;49;47;53;833,529006847915;0,640726884019244
"F_248";92;88;98;86;1362,26764924668;0,65404550166403
"F_249";78;77;82;74;2146,11161462268;0,710442100272611
"F_250";51;56;49;57;710,684346518894;0,642891617954633
"F_251";55;56;54;57;695,67637829676;0,628895184135977
"F_252";30;36;30;36;195,22913009271;0,59375928677563
"F_253";80;77;76;78;1500,83289773645;0,679322264407549
"F_254";73;69;72;74;1224,64851825556;0,655153568696035
"F_255";105;107;98;112;4783,99941354891;0,718705035971225
"F_256";53;48;57;49;455,972383172275;0,610449129239229
"F_257";99;79;100;86;2867,34551107964;0,699824868651491
"F_258";100;81;102;81;2315,32218434015;0,679553313304237
"F_259";85;103;89;105;3793,69543088176;0,722560424326444
"F_260";39;36;38;39;276,280520955729;0,58253559453812
"F_261";75;63;72;61;1002,50372310017;0,654938811188813
"F_262";48;47;48;45;394,984347218735;0,609115390478125
"F_263";84;86;86;81;3415,37119845232;0,694071329319133
"F_264";43;41;44;44;325,199276992202;0,579746590579359
"F_265";43;49;43;46;326,344059409796;0,619598924953484
"F_266";79;76;82;79;2295,55295867163;0,68624420401855
"F_267";86;94;83;90;5310,56583223806;0,759888438133875
"F_268";30;25;32;25;94,9856190278443;0,549303519061584
"F_269";99;95;94;95;3761,46298549886;0,712130212664849
"F_270";74;81;75;83;1756,42455789778;0,695158016816471
"F_271";69;66;72;70;1256,49478839303;0,673067205659427
"F_272";73;70;69;71;1066,02397739487;0,645557350565429
"F_273";101;100;100;104;2604,40845461378;0,7011346356299
"F_274";44;41;45;46;745,513461890342;0,604569065510111
"F_275";94;102;92;92;2496,60048078138;0,69998832184982
"F_276";56;57;62;58;908,731224301847;0,641412520064209
"F_277";62;76;59;75;1042,95766105518;0,65010845986985
"F_278";88;92;93;98;1929,31960599141;0,672538569424966
"F_279";86;87;81;85;1837,260804129;0,671333370666966
"F_280";27;33;27;34;143,420437212919;0,581546521781313
"F_281";81;72;80;69;879,247225164857;0,65301231070923
"F_282";85;88;89;89;2014,7359124092;0,690354160668012
"F_283";21;29;23;28;108,206740694196;0,557270360728894
"F_284";76;82;76;80;1652,5288583786;0,670920080591002
"F_285";52;59;51;57;1887,19407031935;0,694232105628913
"F_286";39;45;41;44;307,874344005292;0,61476923076923
"F_287";70;67;69;72;742,374110524867;0,622203768100897
"F_288";75;75;73;75;1216,27407506152;0,641549823397197
"F_289";59;80;60;76;1146,66115184784;0,667371819851919
"F_290";69;63;70;64;1348,93181432851;0,65504617234031
"F_291";81;72;91;74;2089,31030613758;0,688569787478463
"F_292";63;65;66;70;684,19138204445;0,650143717121321
"F_293";31;28;34;29;346,738075987848;0,601263918146256
"F_294";43;47;42;44;767,085698464195;0,618448204704911
"F_295";74;81;76;86;1326,87668016232;0,673294018534121
"F_296";61;48;56;52;1005,55163476708;0,662320441988953
"F_297";37;36;40;36;501,850544808399;0,584751963318859
"F_298";87;80;91;83;1664,14263531759;0,690592776081575
"F_299";68;68;63;70;1992,71783822845;0,690473447759479
"F_300";24;28;25;28;134,889968119394;0,553948523635691
"F_301";76;75;74;74;1809,89862331138;0,67721161450684
"F_302";79;76;75;74;2775,78382682493;0,709391088230076
"F_303";76;75;79;76;2501,82790300403;0,703397289209647
"F_304";52;55;54;55;2038,97399989829;0,684090390321851
"F_305";97;80;96;77;4149,23257254424;0,733031674208148
"F_306";18;12;17;13;49,3325805015196;0,559193954659949
"F_307";110;102;107;101;4116,45338360295;0,745429672926255
"F_308";46;43;47;44;256,946741591059;0,601354401805868
"F_309";60;54;64;56;911,927487821216;0,65839191564148
"F_310";33;36;35;36;304,863524694667;0,586468372388825
"F_311";31;33;32;35;255,12271473823;0,563319392885672
"F_312";58;56;56;55;1632,50739332688;0,69507740476605
"F_313";31;32;36;35;226,710156993933;0,558855065031933
"F_314";49;46;49;42;1022,29510586372;0,657705601580076
"F_315";78;95;79;99;2127,69776519178;0,711580696859982
"F_316";84;84;89;87;3717,13108090715;0,724788391777513
"F_317";60;59;61;61;643,157206687062;0,628104369695064
"F_318";76;93;83;99;1809,90830047673;0,685890834191557
"F_319";28;29;28;32;178,34542342461;0,599489923488521
"F_320";82;81;79;78;2252,63421835916;0,710821227394015
"F_321";35;31;35;30;262,022254286908;0,571537544696066
"F_322";62;65;60;62;929,962683756958;0,661991275056605
"F_323";31;34;37;37;485,79346639527;0,579886808881148
"F_324";38;43;39;46;395,608308940324;0,602714932126696
"F_325";29;32;32;30;508,630433386;0,591912309287511
"F_326";58;57;55;57;784,886557204243;0,627775450356095
"F_327";28;25;26;26;217,496234068416;0,580870239364278
"F_328";41;46;46;45;408,285111698387;0,622010065895296
"F_329";53;68;56;65;501,640770856991;0,621719738616325
"F_330";34;32;35;33;144,956628498983;0,56118340979309
"F_331";17;24;18;25;69,2504639258103;0,530419008008496
"F_332";68;75;67;73;1222,7615955979;0,649404117009753
"F_333";88;80;85;74;1994,34627876056;0,680247403960734
"F_334";20;18;20;19;55,864492237446;0,549202858713579
"F_335";73;79;75;85;2100,68983932442;0,687543014452858
"F_336";77;82;75;83;1875,44613584953;0,690115710091534
"F_337";76;72;76;74;1391,65619436184;0,652514696276945
"F_338";68;82;68;84;964,978491788266;0,658319604612853
"F_339";87;82;86;84;2183,65264333967;0,678476427641634
"F_340";44;52;45;54;363,047938000525;0,586267605633802
"F_341";28;24;29;24;141,044786800202;0,555514365152919
"F_342";101;102;96;101;3276,1486918124;0,725182989534819
"F_343";86;77;86;82;3503,82705215904;0,694634372464947
"F_344";24;33;27;36;172,138133241861;0,562949049072551
"F_345";79;82;79;79;2003,05494837924;0,700315457413255
"F_346";43;46;44;48;537,371649293412;0,596269584680427
"F_347";59;52;64;51;1042,12047886726;0,630416491375684
"F_348";80;81;75;75;2697,09527965516;0,700847705349316
"F_349";59;59;59;53;2272,56362022214;0,678630059439571
"F_350";29;29;29;28;103,349951425885;0,550640760644895
"F_351";60;68;58;67;707,893816497167;0,637931034482759
"F_352";39;41;34;39;535,970024886239;0,63667746561156
"F_353";59;56;57;54;670,68244125462;0,624667813037362
"F_354";79;73;77;72;2203,95785332952;0,689956834532375
"F_355";20;20;20;23;41,2561726573407;0,536471851785555
"F_356";52;47;52;46;370,287165171059;0,582365800340052
"F_357";36;35;37;37;206,99386551036;0,574000478812544
"F_358";58;48;60;51;1152,39440271066;0,669197275873623
"F_359";45;48;47;52;329,667449440997;0,627381201590957
"F_360";109;105;105;98;4039,92587210065;0,737632291410292
"F_361";38;36;40;36;329,07200894015;0,605699272433305
"F_362";27;29;27;33;183,629376416819;0,561709305594602
"F_363";21;31;21;32;91,586057351571;0,547272312257476
"F_364";116;118;113;115;4113,41757268269;0,723432502564723
"F_365";74;68;70;72;1421,29762109841;0,683466362599778
"F_366";53;45;52;44;338,170524485378;0,610200549730224
"F_367";77;80;78;78;1337,89099371627;0,665408525754885
"F_368";29;24;31;24;66,9676401897614;0,5557719054242
"F_369";33;33;34;35;224,291269522285;0,597279657216878
"F_370";71;73;71;75;1940,88072246462;0,682921271505076
"F_371";72;84;72;86;2317,61201279662;0,675494449766158
"F_372";67;60;70;62;1394,94955708391;0,660495867768596
"F_373";44;38;44;37;310,903285636068;0,584523867570333
"F_374";85;84;82;82;2358,58716878681;0,691828254847647
"F_375";64;77;61;76;1258,64151827885;0,659877800407333
"F_376";91;96;96;101;4494,61722302365;0,728311057108145
"F_377";91;92;86;92;5652,67890620106;0,757391963608795
"F_378";48;51;52;50;896,857284687435;0,661260963097805
"F_379";89;87;90;91;2341,44103611223;0,704969126727436
"F_380";59;53;60;55;862,562994971998;0,659478490483006
"F_381";108;94;112;90;3336,04966979041;0,710357904716758
"F_382";85;76;81;80;1285,0519198083;0,680363223609537
"F_383";76;74;78;76;2062,52407274475;0,672349971957378
"F_384";45;40;44;36;271,168985704485;0,609921139659119
"F_385";83;92;88;91;2669,89195545143;0,710779082177166
"F_386";78;71;72;69;1993,14436897753;0,693188389036664
"F_387";56;48;54;50;706,79581335943;0,628301886792454
"F_388";39;43;40;43;371,56070247702;0,609548990695072
"F_389";48;51;49;49;529,271404361695;0,623206487835308
"F_390";49;46;47;45;433,004568429232;0,599969971472899
"F_391";62;60;63;61;876,627457308756;0,649826539462275
"F_392";48;57;48;63;751,061832028388;0,633046417067119
"F_393";46;45;45;44;477,267273874904;0,611383108935127
"F_394";102;105;96;108;3410,66916137514;0,710905532823346
"F_395";66;70;68;71;884,059221355401;0,669907795473599
"F_396";61;59;62;59;1105,99585878852;0,643236572409725
"F_397";91;99;92;97;3912,60490797783;0,725402396224136
"F_398";58;58;58;59;1364,41634925533;0,656373193166888
"F_399";79;73;76;68;1291,58405550597;0,676180269614758
"F_400";72;53;69;51;1034,17021786819;0,637761344895464
"F_401";83;94;87;107;3567,87747520923;0,706173421300664
"F_402";71;78;75;80;2214,83708322579;0,690115710091536
"F_403";28;23;28;24;96,4090573225252;0,543821448013065
"F_404";39;45;41;47;302,795770683336;0,586927784577722
"F_405";29;27;29;26;84,0372071826962;0,561761949390815
"F_406";54;59;53;59;754,457646837178;0,625352112676056
"F_407";49;53;52;55;729,92706075636;0,624472573839662
"F_408";33;30;37;30;163,110802122648;0,549807374793616
"F_409";56;53;58;53;1038,45835579566;0,639360000000002
"F_410";20;24;20;25;147,998409651679;0,543821448013065
"F_411";20;17;21;17;59,6946969671343;0,53510690532518
"F_412";80;72;80;74;1519,62017270482;0,662064394985367
"F_413";18;22;18;22;71,5239889470695;0,557114973510548
"F_414";36;38;36;37;116,194136087561;0,566139315230223
"F_415";35;34;37;34;153,546563705482;0,565178445146385
"F_416";71;80;73;83;1233,97336566848;0,657886071781364
"F_417";67;71;62;70;1510,98252096255;0,672274562584123
"F_418";60;75;56;74;2136,61122534857;0,664744371742266
"F_419";46;49;42;46;570,439289693619;0,624765478424015
"F_420";35;29;36;33;202,764080405422;0,575598982090554
"F_421";65;65;67;66;1040,65379727928;0,645905172413795
"F_422";93;96;95;100;3460,26065013847;0,72527073628169
"F_423";94;91;90;87;2504,28813589875;0,677900927391995
"F_424";68;69;68;70;1398,98838943862;0,649333766655837
"F_425";60;63;68;66;1357,98530373447;0,65393846825224
"F_426";64;66;66;65;1614,0473565537;0,687779690189331
"F_427";76;74;77;73;1896,81148476871;0,698153864073149
"F_428";51;48;52;48;406,883347000386;0,613385182153089
"F_429";32;31;31;29;394,078148495368;0,608713313699603
"F_430";59;51;57;50;575,717078354966;0,614674665436085
"F_431";30;33;30;31;174,705244293817;0,594171292624899
"F_432";47;43;44;45;978,038654770455;0,617397126229592
"F_433";89;105;88;105;2973,70107037855;0,716000716717437
"F_434";82;75;85;80;1259,91384756839;0,653938468252238
"F_435";81;67;80;70;1571,98402656736;0,674278643343275
"F_436";25;20;26;23;111,852340817243;0,534438946101378
"F_437";45;40;47;45;269,727023692868;0,585465911310801
"F_438";67;70;74;72;1601,95862861423;0,67786259541985
"F_439";73;63;73;66;1043,40287291765;0,642478160673135
"F_440";24;26;24;24;269,7514196717;0,612038597028641
"F_441";48;59;50;61;656,315378591058;0,64559211589208
"F_442";58;56;59;56;672,984602918125;0,642168416541677
"F_443";63;58;65;60;259,309636939806;0,595292481875061
"F_444";70;84;68;80;2946,81750181232;0,705052049638302
"F_445";67;58;64;59;849,857277206709;0,649650463339296
"F_446";72;63;66;62;928,32678426219;0,644793459552498
"F_447";52;57;58;61;757,998419101113;0,638746803069055
"F_448";32;30;29;33;89,8483467481564;0,57670659546832
"F_449";98;93;100;89;3257,39765224112;0,719870293640789
"F_450";51;51;50;54;400,518963296179;0,610573494957725
"F_451";33;37;31;38;184,968743774404;0,590600059119123
"F_452";62;57;65;59;1199,31798771827;0,680749574105627
"F_453";55;56;58;58;715,859017213649;0,638440645470524
"F_454";105;104;104;102;4119,19759883396;0,722255693457047
"F_455";50;36;53;40;281,733125525217;0,615116219405818
"F_456";81;76;84;74;2185,2540425901;0,655475969161793
"F_457";70;73;69;68;1081,04087206366;0,647405087217154
"F_458";39;40;33;39;294,116736548352;0,617460726242596
"F_459";87;80;87;83;1408,6942090001;0,668115699715769
"F_460";93;97;96;91;3127,84518816884;0,726281352235553
"F_461";55;67;58;65;957,815454042154;0,639428205675273
"F_462";90;95;95;98;1570,27857286734;0,66162591754512
"F_463";86;71;92;72;3507,61719776802;0,717071420026324
"F_464";59;60;58;60;699,70010995288;0,629423500997586
"F_465";104;101;105;99;4162,1273109037;0,720735886490715
"F_466";52;55;52;52;766,255745569081;0,628829206882082
"F_467";34;37;34;39;183,790995675394;0,594495412844036
"F_468";47;59;47;57;664,116380358851;0,636170664402465
"F_469";72;62;70;63;746,334987349623;0,64531409807827
"F_470";93;92;95;89;2759,89211198409;0,694232105628912
"F_471";74;84;72;80;2431,56853077149;0,687267098549563
"F_472";33;32;34;31;62,8087995904556;0,557270360728895
"F_473";43;40;44;42;457,260185487909;0,61203859702864
"F_474";31;47;34;45;273,113473710946;0,613573548981473
"F_475";72;71;76;74;1584,6368568229;0,666000000000001
"F_476";55;62;56;61;888,597320556901;0,64065840102608
"F_477";46;44;46;44;589,855805272175;0,634890371782652
"F_478";58;56;57;55;1161,94998605921;0,665334665334667
"F_479";77;86;78;88;1927,09972283545;0,666444296197467
"F_480";64;58;66;61;554,274978393997;0,619470855725505
"F_481";40;35;41;36;210,915340910233;0,567479289940828
"F_482";58;70;58;73;1048,77011141999;0,659950454170111
"F_483";54;60;55;58;1900,87840483484;0,679938744257276
"F_484";44;51;40;48;365,768719733456;0,591095113653172
"F_485";45;52;45;46;1194,13301204371;0,654903031958486
"F_486";58;56;58;56;1077,39118720499;0,63793103448276
"F_487";70;77;70;79;906,877759061098;0,637252817350627
"F_488";82;59;85;63;1167,290859479;0,660859977949287
"F_489";28;24;28;23;169,177213846457;0,569257799515645
"F_490";67;62;66;63;586,924638567432;0,623595505617977
"F_491";41;49;44;48;644,811953855322;0,634957627118645
"F_492";32;49;32;52;211,332348932285;0,570151241320269
"F_493";76;76;71;70;2291,63721109153;0,706881301963562
"F_494";61;51;63;55;710,866872309129;0,628433633885511
"F_495";50;54;48;50;263,167261003433;0,606219974715548
"F_496";64;66;62;67;852,940755968167;0,665113182423437
"F_497";81;84;84;86;2619,89843024879;0,693108233117488
"F_498";47;48;48;50;433,249279238309;0,61555840821566
"F_499";49;47;50;48;323,280397389077;0,606496003237882
"F_500";44;37;45;42;944,87083225309;0,614328174643847
"F_501";89;86;87;80;2646,06556165101;0,713868873935571
"F_502";35;34;39;37;466,571727812516;0,568017057569296
"F_503";59;50;57;54;436,132893608851;0,619086965502994
"F_504";67;69;71;71;1451,40462667819;0,666963391565596
"F_505";123;114;121;108;6183,89785559585;0,744318887371168
"F_506";50;52;48;49;400,426920675677;0,625547902316844
"F_507";59;61;61;64;723,252493037771;0,640384615384617
"F_508";48;35;47;36;304,234348260921;0,627611119836658
"F_509";50;51;49;50;1025,60902363519;0,65889853797956
"F_510";53;62;60;65;988,508442569115;0,656157635467982
"F_511";39;42;39;40;429,449827212173;0,628334818386709
"F_512";81;79;81;78;2423,39600345785;0,701380762930029
"F_513";84;67;82;68;1925,67953052865;0,676447353571834
"F_514";54;64;54;62;1281,41002725722;0,669122572002681
"F_515";37;41;39;37;302,081357799486;0,5688256227758
"F_516";39;43;39;43;233,952926485428;0,584837545126352
"F_517";69;67;72;72;1104,48423408017;0,674923995045605
"F_518";84;88;82;83;2063,15733021762;0,702737557887337
"F_519";68;70;64;67;1095,41908739338;0,669496258237467
"F_520";88;86;85;86;2674,67681597933;0,707381837493366
"F_521";44;53;48;57;392,296936402278;0,617047560222359
"F_522";33;31;34;31;121,640684087929;0,558022622538751
"F_523";68;72;67;74;843,642351633233;0,661991275056603
"F_524";62;53;61;55;1204,41518406316;0,679823069071117
"F_525";56;59;55;63;1111,19882763993;0,63912139467932
"F_526";35;23;34;24;168,070545192196;0,565471698113207
"F_527";37;35;38;38;274,198205878983;0,602139735797879
"F_528";19;16;21;19;44,8461222987539;0,532586965213915
"F_529";27;22;29;22;83,315814032847;0,56018691588785
"F_530";36;36;40;39;139,607774131733;0,570205479452054
"F_531";88;84;86;88;2057,77721068477;0,676982154958212
"F_532";86;89;90;87;4138,5643309319;0,706506364922209
"F_533";41;43;41;42;359,155973722312;0,590978555582942
"F_534";58;66;61;65;1311,56847268524;0,673520984324963
"F_535";70;75;67;70;1198,49374469991;0,658572762731421
"F_536";90;98;94;107;3305,38510025633;0,715359828141787
"F_537";45;54;49;54;599,434224207044;0,611133768352364
"F_538";30;28;33;30;122,171750153665;0,564141176470587
"F_539";81;85;83;84;2186,0511025047;0,716043483454788
"F_540";58;78;59;73;1008,96441875551;0,657453109575519
"F_541";99;99;103;96;4971,9235293214;0,723650851140895
"F_542";43;46;43;46;230,886683521047;0,603018108651911
"F_543";84;79;81;78;3528,27255206397;0,701257677683537
"F_544";50;38;51;37;403,767648576424;0,590222047166559
"F_545";46;50;48;52;544,990773039798;0,60874422383588
"F_546";64;65;64;76;875,522612158435;0,649193111664683
"F_547";22;26;26;29;69,3450908968862;0,548123085364181
"F_548";83;84;82;83;1829,48484586005;0,685302692505576
"F_549";70;70;71;76;1047,87245183771;0,661589403973514
"F_550";36;43;37;45;266,223311329182;0,594849402074132
"F_551";43;34;39;30;254,473303751651;0,60612802103347
"F_552";38;35;45;39;107,086193486177;0,569447083412501
"F_553";97;87;97;82;1627,21814107166;0,67824611032532
"F_554";46;55;47;58;567,217154664104;0,628730266953375
"F_555";19;23;21;23;62,1269661093477;0,540462558045174
"F_556";83;93;89;94;1225,02226217535;0,652053304324179
"F_557";91;88;97;90;1531,69914787422;0,680247403960735
"F_558";73;76;72;79;2421,7970155939;0,698113207547176
"F_559";19;17;20;18;62,9499846146034;0,530489423842819
"F_560";35;32;37;32;191,32726708717;0,592819701315398
"F_561";97;98;95;98;3228,41543391483;0,718016291327268
"F_562";48;54;55;55;995,503783549672;0,639940212459298
"F_563";74;72;76;78;2215,69551522907;0,683934276586037
"F_564";38;39;41;40;188,163253986622;0,566701333081213
"F_565";39;37;38;37;295,240812375488;0,600661388916723
"F_566";44;39;40;38;136,919671379252;0,583272514961319
"F_567";50;45;45;39;380,389239845867;0,617969998453528
"F_568";79;73;82;67;2553,56637079873;0,699824868651489
"F_569";63;55;62;58;1203,79624655783;0,629522659244867
"F_570";42;37;45;39;234,008668373685;0,568987612131567
"F_571";62;64;64;69;908,271675337424;0,653297002724798
"F_572";96;102;100;110;2729,08963355027;0,715189118243651
"F_573";39;50;43;49;304,488264681649;0,602049015668942
"F_574";70;79;68;84;1347,57465933548;0,66360365347357
"F_575";26;23;25;20;61,9160299238086;0,539295514867966
"F_576";55;46;57;47;486,272361663181;0,620979020979022
"F_577";74;74;77;77;932,643012863809;0,649333766655834
"F_578";68;72;68;73;1869,8404661273;0,678553234844627
"F_579";40;38;40;38;140,792788565705;0,602866482273068
"F_580";36;32;34;29;119,046430639365;0,556597641378029
"F_581";33;38;34;36;377,879548454373;0,610386965376781
"F_582";26;25;28;26;133,327694987003;0,539538233043792
"F_583";80;75;86;77;1377,89463789289;0,652941176470591
"F_584";80;75;85;77;1197,55436902086;0,665815051374619
"F_585";102;104;93;101;3624,65065608184;0,719956759353795
"F_586";64;70;65;78;1549,1316384876;0,660277594183742
"F_587";46;46;49;48;825,130000881227;0,627249895353705
"F_588";66;64;66;63;1636,79344931148;0,677517802644968
"F_589";50;43;47;44;186,238344994704;0,589757465440054
"F_590";41;41;42;41;278,325845700132;0,589438489526993
"F_591";46;42;46;44;387,736964119468;0,603200161014389
"F_592";88;98;91;103;3049,79579883067;0,696814694257154
"F_593";26;30;28;29;131,522508879234;0,574468085106382
"F_594";84;92;86;87;2253,72593842048;0,688569787478462
"F_595";48;49;48;50;397,017843926629;0,618512021463213
"F_596";82;74;79;73;962,760266518443;0,689440993788824
"F_597";51;51;55;55;384,156788835335;0,62278559925191
"F_598";42;44;44;43;306,987682318677;0,577846331823001
"F_599";92;100;89;100;5718,54971270548;0,730975609756102
"F_600";86;84;90;90;2802,48752388233;0,681020280633986
"F_601";58;59;56;60;1051,9251683473;0,662100961007404
"F_602";41;44;42;45;350,316180993908;0,599370031498424
"F_603";91;98;88;90;2801,67358185823;0,702325853887165
"F_604";48;56;46;51;305,365602658854;0,620786080472269
"F_605";59;51;61;55;662,982471145756;0,623855120732722
"F_606";40;37;43;39;191,959208898004;0,572438162544168
"F_607";67;67;71;69;1915,25491690875;0,682610181072775
"F_608";58;56;56;66;1330,20862855619;0,659297145685533
"F_609";27;21;25;19;36,7662206715377;0,544092951481869
"F_610";64;61;66;57;1230,930697522;0,66718610863758
"F_611";47;57;46;58;392,556818687523;0,632378540908374
"F_612";81;83;83;92;1642,84858785416;0,671483784237945
"F_613";79;93;78;88;3589,49398375288;0,727692120917814
"F_614";56;51;59;55;664,393410815518;0,601354401805868
"F_615";23;18;24;19;101,994022812873;0,543747448632468
"F_616";91;97;100;96;2047,09277895642;0,679745974143798
"F_617";69;71;70;73;1278,16499392013;0,661224489795921
"F_618";80;87;80;88;1498,96167182681;0,672010762935143
"F_619";44;42;42;42;340,440623767204;0,603594985146769
"F_620";65;63;66;68;833,725401695011;0,634621492853361
"F_621";36;39;34;39;183,089558478256;0,601294076340471
"F_622";48;44;49;45;427,660367472101;0,610324814173708
"F_623";57;58;60;54;1482,79880055428;0,651521739130436
"F_624";50;51;52;50;626,315916020569;0,594406981356604
"F_625";106;112;108;105;3896,13057816667;0,719567827130854
"F_626";38;29;35;24;347,116005908974;0,597994712425798
"F_627";55;63;64;71;988,221118394922;0,628895184135977
"F_628";30;38;30;41;359,933550956524;0,582875480138085
"F_629";81;76;77;76;1300,92870230769;0,668600111544898
"F_630";42;47;43;45;265,102536913029;0,612664179485869
"F_631";38;41;37;40;195,546481917995;0,585637518319491
"F_632";98;101;97;100;3805,31918095892;0,723650851140895
"F_633";92;84;92;78;3261,16472615442;0,717973288614726
"F_634";48;42;49;44;774,520194963798;0,647509992438158
"F_635";65;48;71;50;1137,95297886842;0,644550782300126
"F_636";47;42;50;45;483,254872716039;0,597101160531951
"F_637";33;32;36;34;149,723552211552;0,562869753028453
"F_638";54;54;54;52;386,077332433019;0,61720640477784
"F_639";81;81;86;85;1788,00567834298;0,676294708338036
"F_640";107;98;105;95;4178,20421914611;0,728045669865179
"F_641";46;51;45;58;666,101812520684;0,632245134750278
"F_642";106;96;105;97;6592,77835093658;0,735550374279056
"F_643";43;33;41;32;296,585408984518;0,598293157658331
"F_644";75;75;74;77;1435,59485461798;0,664928725941541
"F_645";50;56;46;57;1016,26081625684;0,645974781765277
"F_646";51;51;53;54;239,057653546299;0,583584850550091
"F_647";61;61;59;55;1330,78651833078;0,660204868377582
"F_648";26;26;25;25;97,9156946677026;0,552824533087387
"F_649";55;72;55;71;1240,51656933895;0,65081433224756
"F_650";30;24;31;27;255,406924484421;0,577512284420463
"F_651";84;84;82;82;1972,69909262477;0,6584280771132
"F_652";57;62;58;61;427,592190809068;0,613730609737366
"F_653";81;79;84;79;3012,62761568055;0,706589649888013
"F_654";56;60;53;60;1549,57066730495;0,665260821309663
"F_655";63;62;68;63;789,987146833178;0,630814565354662
"F_656";93;79;93;83;2949,14881173012;0,706298238378604
"F_657";41;40;41;40;372,945401474313;0,626136007521156
"F_658";79;86;78;84;3348,17089118209;0,705923919444122
"F_659";19;20;19;21;56,4687615841686;0,533701362300775
"F_660";45;53;45;54;605,9289559719;0,625613192777372
"F_661";80;75;82;73;2564,07069170654;0,691030666359236
"F_662";51;43;53;43;355,208084185865;0,586985261714732
"F_663";49;53;50;51;755,001546180117;0,642168416541678
"F_664";65;67;62;65;949,948142525266;0,648841740636503
"F_665";95;101;95;102;4061,96289340513;0,730663741086125
"F_666";59;56;60;62;536,438181157449;0,62580914595949
"F_667";32;47;32;46;315,111625664319;0,63294614572334
"F_668";42;50;42;49;289,963179955412;0,605423968486439
"F_669";35;27;35;29;236,656062568033;0,586324953536142
"F_670";73;99;79;100;2402,02031286742;0,708887706226718
"F_671";25;31;27;31;99,642545694577;0,552875524604529
"F_672";89;88;93;87;3316,32608728255;0,708678174509342
"F_673";32;29;33;32;191,430968929535;0,567291311754684
"F_674";47;56;50;56;548,148815376981;0,626430474996081
"F_675";51;43;53;42;465,177214849735;0,601746812569018
"F_676";67;70;71;72;953,789750284952;0,644862829478216
"F_677";45;42;48;41;406,341097559582;0,620979020979022
"F_678";79;70;82;72;1471,87326489067;0,638678742674481
"F_679";99;99;97;95;4117,98597180694;0,739269856931427
"F_680";52;62;52;64;1072,3708628348;0,640555703980766
"F_681";45;42;43;44;268,532862703229;0,589728453364816
"F_682";35;36;36;34;126,098291488689;0,561419940991897
"F_683";98;94;99;93;2252,92875948018;0,69134948096886
"F_684";83;86;86;87;3043,51366797097;0,70265517847723
"F_685";104;91;112;88;1899,56120796237;0,676371022342587
"F_686";87;80;83;77;3800,94243945562;0,723956760673958
"F_687";57;53;62;55;1082,12514258288;0,638917017534511
"F_688";47;48;46;46;455,517414563334;0,612789449470939
"F_689";55;55;58;58;710,507025706761;0,630748184783753
"F_690";60;67;56;64;942,101786369242;0,660568657703331
"F_691";97;97;99;92;3291,56678702852;0,711622937195779
"F_692";62;57;63;55;856,547093417464;0,664744371742266
"F_693";46;46;46;48;425,953841179688;0,620946855899721
"F_694";113;113;118;113;2611,05367065394;0,700888681010293
"F_695";69;61;65;63;1250,4169446915;0,677632694590472
"F_696";35;38;33;37;390,89678867793;0,582450685064619
"F_697";48;40;53;42;354,216273173353;0,623563068920677
"F_698";62;69;67;73;1251,41534087166;0,638474648487431
"F_699";26;31;28;32;134,168666590813;0,54580222181752
"F_700";69;69;73;67;1533,49762602479;0,649228269699434
"F_701";51;44;54;46;723,399729637107;0,624472573839662
"F_702";44;43;47;46;301,923079674933;0,576928629866691
"F_703";66;57;69;58;609,33259838005;0,629489603024575
"F_704";85;84;90;84;1514,48596226064;0,694714881780253
"F_705";50;47;50;49;726,582414008821;0,631479140328698
"F_706";83;79;81;74;1559,72426769555;0,686833963561364
"F_707";63;54;65;58;1066,83950593388;0,651627982823289
"F_708";43;52;44;53;479,46233027489;0,628862193778524
"F_709";32;34;33;35;213,951133534257;0,578794901506372
"F_710";44;42;45;40;468,584546505234;0,609270176865215
"F_711";47;45;50;46;328,387516283675;0,623012160898037
"F_712";72;69;72;71;968,773580425076;0,650673035171517
"F_713";69;71;69;71;1314,23715509261;0,674696082845567
"F_714";32;27;32;27;129,440691722765;0,576651113569674
"F_715";63;59;64;58;888,369787338784;0,643823845327606
"F_716";36;39;34;42;350,503239505659;0,592233968975396
"F_717";53;47;52;49;725,805503235852;0,625384735771299
"F_718";67;62;67;70;2462,52268753605;0,700151851419228
"F_719";35;37;35;36;247,724099299272;0,581687612208257
"F_720";25;36;26;36;118,678891938975;0,553462603878116
"F_721";67;86;72;86;1487,5706108579;0,68667659525719
"F_722";80;66;81;68;1484,5362908219;0,653974142163552
"F_723";57;56;60;56;508,69380204017;0,600150187734667
"F_724";46;39;46;41;338,304925499719;0,619278851120984
"F_725";104;106;103;111;2792,15404567897;0,69246765249538
"F_726";44;42;45;43;319,502902096479;0,580392156862744
"F_727";49;58;48;55;1088,74082990818;0,669496258237465
"F_728";27;30;26;31;178,85787898564;0,552824533087387
"F_729";55;56;59;54;1403,50871961306;0,667260380719143
"F_730";76;78;78;79;2877,1151067283;0,677441229656422
"F_731";33;46;34;44;230,108458085251;0,618543934781486
"F_732";82;95;81;95;2031,42217012731;0,688451157181418
"F_733";54;41;53;40;432,784564954814;0,616952292728114
"F_734";66;58;66;58;686,416499439676;0,613259668508286
"F_735";51;47;51;47;761,841239439551;0,651840574193901
"F_736";81;84;80;84;1570,10578180624;0,653510684692544
"F_737";36;36;37;36;247,645254089898;0,591766215815972
"F_738";50;49;45;47;728,769334346911;0,651982378854628
"F_739";102;103;95;107;4544,99503001997;0,742750929368031
"F_740";78;87;74;86;1835,96831791148;0,662686567164182
"F_741";81;72;81;72;1760,5333353697;0,675532514369437
"F_742";78;85;80;84;1522,59756736121;0,674430379746839
"F_743";77;85;86;86;2013,7899749279;0,686715930572265
"F_744";77;90;80;89;4060,7441782497;0,737541528239205
"F_745";57;66;55;66;1045,09967443261;0,653368214519296
"F_746";112;111;108;111;5440,7788663321;0,749624812406205
"F_747";76;73;73;74;2359,53015722588;0,691668589891533
"F_748";27;33;27;34;192,086573367174;0,582818804997811
"F_749";65;69;63;66;1388,17543106222;0,661589403973512
"F_750";48;51;50;54;432,738133108799;0,623920058290829
"F_751";57;51;58;55;647,969355311665;0,638678742674482
"F_752";47;43;49;44;303,700221476166;0,612257405515832
"F_753";66;71;68;74;2459,73809261535;0,701627063092594
"F_754";51;49;53;49;505,676639748326;0,635968169761274
"F_755";94;100;99;100;2555,25604379309;0,701750278054208
"F_756";59;67;63;71;1366,28160247359;0,666666666666668
"F_757";84;89;78;88;3320,60757014935;0,701421800947868
"F_758";75;76;75;79;1997,22303207324;0,670844991606047
"F_759";38;39;41;41;213,81042086448;0,586669276695702
"F_760";61;53;62;56;844,890488790002;0,650390625000001
"F_761";39;38;36;40;466,449193658859;0,616539806624151
"F_762";81;84;75;81;2116,32617896348;0,686047842508872
"F_763";28;28;28;28;105,200067167321;0,550969758249839
"F_764";45;40;48;45;245,198697978307;0,602836166147038
"F_765";60;60;59;61;851,289492718204;0,629027180186798
"F_766";81;90;79;95;1705,20135028972;0,693428968070342
"F_767";71;77;77;82;1213,7631778006;0,644065975393543
"F_768";22;26;21;26;59,262992064919;0,539927036886908
"F_769";28;23;31;23;92,537227334297;0,547822510624686
"F_770";34;31;35;28;252,670261773508;0,618480111437858
"F_771";34;32;37;35;103,037171195677;0,564353639017041
"F_772";48;46;48;52;396,165620958223;0,589583435794028
"F_773";58;49;54;50;736,937342781404;0,634823130692652
"F_774";33;41;33;41;264,790875016695;0,591620194443072
"F_775";53;51;53;56;1173,23688815701;0,642306043720533
"F_776";39;37;39;36;399,397216144685;0,606465320989527
"F_777";74;68;73;74;3433,96884208029;0,717543544622016
"F_778";38;35;40;33;292,916663168699;0,592995647012267
"F_779";63;57;69;64;2413,02324684884;0,675152061275068
"F_780";50;58;51;59;809,759997140939;0,653938468252244
"F_781";45;48;45;50;563,127964201102;0,61464315012305
"F_782";27;24;28;26;101,112244411594;0,548022857142857
"F_783";50;47;49;44;472,254860344058;0,625678496868476
"F_784";32;39;35;41;294,522975784848;0,576318446228546
"F_785";40;42;42;42;326,078283456465;0,605301691492047
"F_786";84;95;86;97;2755,38029144092;0,70830132939439
"F_787";71;63;71;63;1476,2683893132;0,687621888264315
"F_788";90;90;88;93;2590,28331091031;0,700561009817675
"F_789";65;68;69;75;2013,81068224546;0,665297741273102
"F_790";82;82;81;79;2585,82537467275;0,712257144554695
"F_791";65;60;69;63;633,325094624635;0,619246861924685
"F_792";71;86;68;87;1135,42904641209;0,652727866710227
"F_793";32;31;34;32;193,293002469495;0,553692670084522
"F_794";64;67;68;69;1550,06065588392;0,669047884808575
"F_795";55;53;52;52;543,705223718538;0,648245281998597
"F_796";72;73;77;78;1428,64625104212;0,662393634655766
"F_797";76;73;81;75;1087,78713762916;0,630880959898957
"F_798";79;71;80;71;1935,14294570372;0,675456389452335
"F_799";30;34;30;34;139,342439765463;0,576124567474047
"F_800";48;54;47;58;409,113224411593;0,603139464681021
"F_801";30;34;31;34;294,895333370413;0,597964884277732
"F_802";70;68;72;65;1479,76406485613;0,679553313304237
"F_803";31;25;28;24;99,0216977751617;0,566513869854921
"F_804";26;38;26;36;303,611612702692;0,602593746858352
"F_805";83;86;91;86;1378,4406327123;0,663787375415284
"F_806";39;39;43;45;351,307217850004;0,582733812949638
"F_807";84;86;86;86;2254,86565558079;0,706922986201209
"F_808";42;36;42;38;278,34126058371;0,613071494323412
"F_809";70;62;69;62;1252,79901550333;0,672576301615806
"F_810";95;88;91;90;2026,95909985648;0,687898089171977
"F_811";57;47;63;46;943,327514150392;0,622010065895293
"F_812";74;76;76;78;1317,85246606329;0,675837185703013
"F_813";35;36;31;37;229,573349017508;0,619342839429635
"F_814";39;29;43;30;108,320240526241;0,564699232182391
"F_815";66;61;66;59;2026,87665596262;0,682338209346012
"F_816";71;77;73;74;1093,67310457713;0,649404117009753
"F_817";36;35;37;39;351,578981834263;0,583840646763745
"F_818";38;43;38;44;259,384425107887;0,571728347958793
"F_819";54;72;58;74;753,950460584358;0,651026392961878
"F_820";35;32;36;33;107,909391126589;0,564699232182391
"F_821";72;64;72;64;1877,74801549516;0,695440306300037
"F_822";49;41;50;41;755,277457992143;0,657128761716829
"F_823";40;39;44;41;215,131079528203;0,572738999570015
"F_824";35;30;33;30;236,618332523567;0,605913570887035
"F_825";31;32;30;35;160,067337492645;0,592761075949366
"F_826";82;71;79;68;1902,3392832434;0,676752850852438
"F_827";88;82;88;86;2910,01957325507;0,701134635629901
"F_828";72;84;73;85;2094,5096540079;0,682882369695248
"F_829";83;80;84;85;1779,54716495309;0,679784519421606
"F_830";40;43;40;41;493,320387461354;0,628203112718127
"F_831";47;45;48;46;349,001872806712;0,599130391323902
"F_832";41;50;41;51;477,996532933591;0,611196084429488
"F_833";53;49;52;45;771,733212824942;0,649474482609171
"F_834";25;23;25;25;199,452073018951;0,558126542204012
"F_835";63;62;63;62;1071,54811931708;0,641687185526176
"F_836";89;80;84;83;2371,45969413931;0,695924764890284
"F_837";85;93;82;92;4249,04222595065;0,733390431909951
"F_838";44;46;46;46;214,431502515011;0,588888343076091
"F_839";41;38;39;36;328,409239730808;0,61530565108043
"F_840";74;74;67;73;987,64422975499;0,641687185526176
"F_841";50;43;48;40;336,855530093805;0,605515708657439
"F_842";36;40;38;41;284,534407209272;0,580083228491241
"F_843";73;62;70;64;1212,55776226218;0,672123794572777
"F_844";52;59;59;58;877,117254536988;0,660932848164078
"F_845";41;32;44;33;302,370103883733;0,603534209333936
"F_846";100;83;100;81;2159,82964671736;0,666444296197466
"F_847";74;80;72;82;2172,0676009443;0,663456749128343
"F_848";61;72;60;76;1649,01982102564;0,648070061628286
"F_849";53;48;51;47;552,043392266216;0,624765478424015
"F_850";33;29;37;28;270,83373509244;0,580251694094868
"F_851";33;31;33;33;166,65091423244;0,546673354918145
"F_852";36;36;33;35;408,888569217303;0,610978033739361
"F_853";56;64;53;62;845,569790673675;0,661406896551729
"F_854";50;47;49;45;480,019511193303;0,611913633811443
"F_855";58;59;57;61;930,963207998466;0,619855222337124
"F_856";77;76;77;84;2361,15913742539;0,688174512055112
"F_857";87;86;91;88;1420,35853781613;0,677211614506837
"F_858";45;49;46;48;337,92551525074;0,587186520376174
"F_859";60;66;64;72;1339,66044265442;0,666259100761408
"F_860";67;64;71;68;1391,14528151112;0,666333166583294
"F_861";43;45;40;42;543,117479426262;0,625221654323568
"F_862";59;76;61;73;1369,74851414688;0,671521398162676
"F_863";100;91;97;87;4386,15013051064;0,721733895243833
"F_864";78;64;78;65;2044,9998176529;0,694151708164452
"F_865";43;47;45;48;669,03949786695;0,620529012888865
"F_866";54;68;55;68;1005,44612486692;0,65223068552775
"F_867";63;65;62;65;660,471565873237;0,636846578835529
"F_868";57;59;56;58;1148,23453941776;0,670694864048341
"F_869";48;46;50;46;381,526773880109;0,600180234304595
"F_870";58;60;60;62;1257,43521544607;0,633447820343462
"F_871";65;70;68;71;957,962661530074;0,643720131020781
"F_872";41;41;42;40;440,788015552297;0,632445265101558
"F_873";40;38;41;41;670,712680546264;0,638576679273427
"F_874";65;63;63;57;792,712292806955;0,658753709198816
"F_875";62;64;66;69;1196,2145323989;0,654259673634233
"F_876";87;95;89;103;3661,68050438894;0,708761972330618
"F_877";57;49;58;54;778,90415409711;0,635428813739003
"F_878";116;104;120;107;4612,04709339118;0,720302830018629
"F_879";56;42;53;39;328,773718851535;0,606588068613064
"F_880";59;45;57;43;446,771203624722;0,615305651080428
"F_881";69;67;62;63;1662,76748735781;0,662357036300349
"F_882";53;50;50;55;508,276687174562;0,62856543624161
"F_883";23;23;25;22;177,400892078057;0,583499634947674
"F_884";42;41;43;41;485,175752558264;0,605913570887034
"F_885";46;50;50;48;1355,80416297348;0,664486447536175
"F_886";19;26;19;26;109,173458599346;0,571210749511602
"F_887";10;18;9;17;15,3148797760211;0,512745936698033
"F_888";75;73;77;76;915,852009047578;0,655691079144564
"F_889";67;63;70;61;1957,23661692145;0,682687927107064
"F_890";84;77;85;85;2248,29536013145;0,696531288129688
"F_891";97;89;91;85;2318,12521808485;0,688411622832207
"F_892";75;75;75;75;1485,60840074265;0,67828448568519
"F_893";107;102;95;100;2431,85575096568;0,69403114687663
"F_894";54;54;54;55;953,916762659174;0,662174105170134
"F_895";44;49;44;49;1212,16189230601;0,655046172340315
"F_896";81;70;83;77;1422,06375349377;0,670694864048339
"F_897";80;85;76;79;2002,13118849003;0,680054458815522
"F_898";28;31;30;31;197,51258951754;0,601384569077956
"F_899";76;80;80;79;1922,11996436953;0,697706902572463
"F_900";88;78;90;78;1903,42961962318;0,681794915543428
"F_901";29;30;31;31;252,535368915573;0,590251107828655
"F_902";43;46;41;44;295,930505547788;0,586755420684253
"F_903";70;75;71;77;1929,16503986808;0,690354160668017
"F_904";93;99;90;94;3667,54038400431;0,72924143804368
"F_905";53;54;51;54;646,842301868799;0,638134781220059
"F_906";42;41;46;47;295,974182998862;0,601143315615283
"F_907";61;72;59;70;1049,20312733782;0,641858970926809
"F_908";75;78;73;79;1853,94277212584;0,671145448438027
"F_909";83;97;87;95;1966,85071981548;0,695601717535107
"F_910";47;46;47;49;437,291757268241;0,612007351439656
"F_911";63;50;67;50;924,285254468621;0,649932230956902
"F_912";50;35;46;31;388,921469286723;0,634252155970587
"F_913";42;46;46;45;370,383380291424;0,61319693094629
"F_914";98;86;96;88;4239,26386352008;0,734874026849755
"F_915";82;75;84;73;1218,78937274392;0,666963391565597
"F_916";80;79;83;76;1528,19434527622;0,667148978796818
"F_917";71;70;74;69;1922,94676950301;0,68817451205511
"F_918";41;55;41;55;490,050045839498;0,603990326481256
"F_919";58;43;57;42;543,78102935755;0,634185049992067
"F_920";24;26;28;24;153,076433231028;0,583925962006818
"F_921";94;91;92;89;2615,95370353777;0,692267713807244
"F_922";24;21;23;22;109,101567866553;0,566701333081213
"F_923";51;52;50;51;1148,95341604444;0,652514696276948
"F_924";67;68;65;69;2306,3842819738;0,665113182423438
"F_925";44;46;44;44;378,838963309854;0,605515708657439
"F_926";47;51;42;51;573,484111086184;0,626561438352585
"F_927";47;53;45;54;744,656929497211;0,646601941747578
"F_928";53;47;55;46;838,349964843601;0,644100580270797
"F_929";63;60;62;60;1513,51991940517;0,649615259564324
"F_930";52;55;51;58;1166,81841645707;0,659696235967429
"F_931";102;110;101;112;4059,17159973011;0,724481779174475
"F_932";34;30;34;30;65,0277299692189;0,559324406289366
"F_933";77;79;76;81;1848,237726939;0,685616242493568
"F_934";98;87;94;82;4943,9492505179;0,722255693457047
"F_935";44;32;44;31;527,318149406992;0,62226836231508
"F_936";38;36;39;36;152,571956848958;0,593524111298147
"F_937";51;44;51;44;564,124895021024;0,63415150232755
"F_938";73;79;68;77;2004,21543784455;0,68452007080455
"F_939";34;34;36;34;478,369269155467;0,584523867570334
"F_940";42;34;35;30;764,459997096016;0,597666766377503
"F_941";49;42;49;44;544,651716017102;0,606128021033471
"F_942";33;31;35;31;135,109396422464;0,579858759794911
"F_943";75;72;74;71;1243,5708268652;0,683778234086244
"F_944";69;65;73;69;963,151400734892;0,643305607727396
"F_945";74;78;72;80;2521,63003437561;0,691708499221051
"F_946";74;88;72;85;1236,50471901263;0,673142792969848
"F_947";93;81;90;76;2593,8311088078;0,700888681010292
"F_948";53;69;54;69;1174,72556167943;0,64510574180703
"F_949";25;39;28;40;220,467890381958;0,578264434904249
"F_950";41;45;38;44;295,326164403933;0,592233968975396
"F_951";73;78;77;78;2690,61496753815;0,691908114971723
"F_952";77;65;75;68;1894,27347498104;0,709853150165802
"F_953";85;75;85;79;1822,07938870722;0,673104997192591
"F_954";50;51;51;51;637,254215720529;0,621043361135574
"F_955";90;93;96;93;2307,04881474058;0,695238647567131
"F_956";46;46;46;45;617,337706919495;0,629985811130381
"F_957";46;51;45;50;568,116636402072;0,630847760879862
"F_958";74;73;71;67;1452,64544930272;0,688095511422341
"F_959";76;65;80;66;1257,44349717597;0,670619825464314
"F_960";68;72;71;74;658,770347102214;0,626856306212089
"F_961";53;56;55;54;797,48819661238;0,665667166416794
"F_962";77;74;80;76;1773,11596610991;0,675152061275065
"F_963";56;64;58;66;627,3043848375;0,621268656716417
"F_964";37;36;40;39;404,406268796588;0,60054102795311
"F_965";64;63;61;65;1463,43708655996;0,672878311629998
"F_966";61;55;56;57;1608,53455335588;0,666148032896207
"F_967";65;63;67;61;688,603913641961;0,640350408632019
"F_968";29;25;30;29;171,781172780145;0,55361596009975
"F_969";18;25;19;27;92,2945178261331;0,533630091253061
"F_970";15;22;14;21;28,2635451765247;0,526227997015057
"F_971";28;20;27;21;74,3351269003901;0,561525129982668
"F_972";78;91;78;88;1734,89269179791;0,67671464860288
"F_973";71;79;74;77;1422,54221048184;0,671333370666968
"F_974";38;37;38;36;173,737194754887;0,579550398839738
"F_975";64;68;63;66;1215,75921609763;0,626299566375841
"F_976";84;88;78;91;2177,2595326265;0,695480652085632
"F_977";56;51;57;48;1354,579014616;0,653867132104291
"F_978";72;74;73;72;1230,35147101091;0,664965609052587
"F_979";44;49;46;52;264,314611255047;0,593289122042957
"F_980";33;38;33;41;264,354075916753;0,601656210790462
"F_981";49;53;47;51;653,031652462066;0,639155470249525
"F_982";99;104;99;99;6429,12237016883;0,737496155029223
"F_983";28;28;27;26;281,599819533292;0,585408731321417
"F_984";65;65;73;72;610,199894787803;0,640350408632019
"F_985";30;37;30;39;258,621715719874;0,576152256452155
"F_986";62;61;64;59;1456,5512964653;0,679745974143799
"F_987";73;74;70;69;1220,50163411831;0,654545454545458
"F_988";72;76;73;69;1222,09789050975;0,66356692128861
"F_989";29;27;29;27;164,91421783607;0,565178445146385
"F_990";59;64;56;62;721,353577190217;0,646601941747575
"F_991";67;63;72;64;674,189730637097;0,64583557806271
"F_992";70;79;74;80;1561,50932415911;0,637422236401339
"F_993";78;72;76;68;1935,38397775512;0,678630059439571
"F_994";56;59;46;58;1326,4392845116;0,666222074024676
"F_995";97;92;96;91;2279,23509478231;0,696531288129687
"F_996";18;17;19;18;78,3993431489678;0,564114629899769
"F_997";92;80;92;82;3813,01402014238;0,712595850918389
"F_998";52;48;53;44;626,923584129388;0,632478632478633
"F_999";78;85;76;86;1819,76204881147;0,664449617559031
"F_1000";51;50;52;50;813,137645190059;0,653439441840186
