"ID";"index"
"F_1";6,97666666666667
"F_2";5,33333333333333
"F_3";6,09
"F_4";1,36166666666667
"F_5";4,0825
"F_6";2,90083333333333
"F_7";2,475
"F_8";4,07583333333333
"F_9";2,38333333333333
"F_10";3,3
"F_11";0,628333333333333
"F_12";6,82333333333333
"F_13";6,52666666666667
"F_14";2,38333333333333
"F_15";1,46916666666667
"F_16";6,74916666666667
"F_17";3,57
"F_18";0,35
"F_19";1,7625
"F_20";0,52
"F_21";5,81
"F_22";4,81333333333333
"F_23";3,2
"F_24";1,2025
"F_25";5,32
"F_26";4,02333333333333
"F_27";3,05
"F_28";4,4375
"F_29";1,8
"F_30";4,26
"F_31";4,68416666666667
"F_32";1,2
"F_33";7,67666666666667
"F_34";2,2525
"F_35";1,3
"F_36";5,74083333333333
"F_37";4,14
"F_38";2,70416666666667
"F_39";1,92
"F_40";1,84
"F_41";5,26666666666667
"F_42";4,75
"F_43";5,3325
"F_44";1,4
"F_45";7,59833333333333
"F_46";2,65833333333333
"F_47";3,90833333333333
"F_48";3,2025
"F_49";0,458333333333333
"F_50";3,15166666666667
"F_51";2,70666666666667
"F_52";1,64833333333333
"F_53";2,205
"F_54";0,563333333333333
"F_55";3,795
"F_56";2,99916666666667
"F_57";4,14
"F_58";2,24583333333333
"F_59";2,95
"F_60";4,255
"F_61";2,21
"F_62";2,8025
"F_63";2,7
"F_64";0,700833333333333
"F_65";1,02083333333333
"F_66";3,15166666666667
"F_67";6,30666666666667
"F_68";0,963333333333333
"F_69";2,755
"F_70";1,32583333333333
"F_71";1,07916666666667
"F_72";1,80166666666667
"F_73";4,0825
"F_74";4,375
"F_75";3,62666666666667
"F_76";1,17166666666667
"F_77";1,68666666666667
"F_78";2,475
"F_79";0,316666666666667
"F_80";2,90083333333333
"F_81";2,04166666666667
"F_82";0,935
"F_83";3,8525
"F_84";5,3325
"F_85";0,75
"F_86";2,21
"F_87";6,01333333333333
"F_88";2,94833333333333
"F_89";8,085
"F_90";5,53333333333333
"F_91";2,99666666666667
"F_92";8,16666666666667
"F_93";2,04166666666667
"F_94";0,991666666666667
"F_95";1,3325
"F_96";4,26
"F_97";1,4625
"F_98";5,135
"F_99";2,38333333333333
"F_100";4,31916666666667
"F_101";4,31916666666667
"F_102";2,21
"F_103";2,755
"F_104";5,46666666666667
"F_105";4,94083333333333
"F_106";0,421666666666667
"F_107";0,826666666666667
"F_108";1,57166666666667
"F_109";1,725
"F_110";3,15166666666667
"F_111";8,25
"F_112";3,91
"F_113";4,5
"F_114";2,3375
"F_115";4,31916666666667
"F_116";5,07
"F_117";1,7625
"F_118";3,19583333333333
"F_119";3,79666666666667
"F_120";2,29666666666667
"F_121";0,991666666666667
"F_122";2,12
"F_123";3,255
"F_124";2,65833333333333
"F_125";1,65
"F_126";3,45
"F_127";2,66
"F_128";2,8975
"F_129";1,88
"F_130";5,4675
"F_131";3,7375
"F_132";1,11
"F_133";1,84
"F_134";2,85
"F_135";4,25833333333333
"F_136";3,795
"F_137";8,58
"F_138";2,08
"F_139";3,1
"F_140";0,385
"F_141";6,45
"F_142";1,365
"F_143";2,8
"F_144";3,10083333333333
"F_145";1,65
"F_146";4,31916666666667
"F_147";4,62333333333333
"F_148";2,1675
"F_149";2,42916666666667
"F_150";0,991666666666667
"F_151";4,75
"F_152";5,46666666666667
"F_153";4,625
"F_154";4,56333333333333
"F_155";3,85333333333333
"F_156";8,0025
"F_157";1,725
"F_158";0,963333333333333
"F_159";1,05
"F_160";3,41
"F_161";7,13
"F_162";0,775
"F_163";1,435
"F_164";1,725
"F_165";0,606666666666667
"F_166";4,68666666666667
"F_167";2,90083333333333
"F_168";1,875
"F_169";1,07916666666667
"F_170";1,8
"F_171";0,541666666666667
"F_172";1,72333333333333
"F_173";1,6875
"F_174";3,91
"F_175";9,01
"F_176";5,46416666666667
"F_177";2,75333333333333
"F_178";3,46666666666667
"F_179";0,9625
"F_180";0,2975
"F_181";3,8525
"F_182";3,35833333333333
"F_183";2,8025
"F_184";4,875
"F_185";0,991666666666667
"F_186";3,795
"F_187";8,58333333333333
"F_188";1,96
"F_189";0,8
"F_190";1,955
"F_191";0,700833333333333
"F_192";5,8
"F_193";1,72333333333333
"F_194";0,541666666666667
"F_195";3,57333333333333
"F_196";4,9375
"F_197";6,52166666666667
"F_198";1,26416666666667
"F_199";2,0825
"F_200";1,10833333333333
"F_201";3,3075
"F_202";1,17
"F_203";7,125
"F_204";1,29833333333333
"F_205";0,88
"F_206";4,62
"F_207";7,76
"F_208";3,41333333333333
"F_209";8,25
"F_210";1,61
"F_211";0,6075
"F_212";1,07916666666667
"F_213";4,38
"F_214";2,21
"F_215";0,878333333333333
"F_216";0,440833333333333
"F_217";6,45333333333333
"F_218";7,12833333333333
"F_219";7,125
"F_220";4,44083333333333
"F_221";5,51833333333333
"F_222";4,74833333333333
"F_223";2,43
"F_224";0,316666666666667
"F_225";0,226666666666667
"F_226";7,52
"F_227";1,88
"F_228";9,0125
"F_229";3,63
"F_230";3,05
"F_231";9,8875
"F_232";3,1
"F_233";3,575
"F_234";1,91916666666667
"F_235";6,30666666666667
"F_236";1,96
"F_237";1,61333333333333
"F_238";2,655
"F_239";1,91666666666667
"F_240";1,72333333333333
"F_241";0,75
"F_242";0,963333333333333
"F_243";1,435
"F_244";2,29666666666667
"F_245";2,385
"F_246";4,38
"F_247";1,54083333333333
"F_248";2,98666666666667
"F_249";2,8975
"F_250";0,749166666666667
"F_251";4,38
"F_252";0,800833333333333
"F_253";5,06666666666667
"F_254";3,04833333333333
"F_255";3,78
"F_256";3,62916666666667
"F_257";4,4375
"F_258";8,0025
"F_259";8,92666666666667
"F_260";1,72333333333333
"F_261";5,4675
"F_262";3,04833333333333
"F_263";4,56333333333333
"F_264";4,625
"F_265";3,795
"F_266";4,44
"F_267";2,75333333333333
"F_268";2,21
"F_269";5,06666666666667
"F_270";7,89666666666667
"F_271";2,33333333333333
"F_272";4,26
"F_273";7,83333333333333
"F_274";1,84
"F_275";1,65
"F_276";8,33
"F_277";0,458333333333333
"F_278";7,26833333333333
"F_279";6,74916666666667
"F_280";3,25
"F_281";5,20083333333333
"F_282";7,84
"F_283";0,385
"F_284";4,50166666666667
"F_285";2,755
"F_286";2,8025
"F_287";4,14
"F_288";3,8525
"F_289";5,39833333333333
"F_290";3,62666666666667
"F_291";6,6
"F_292";4,375
"F_293";0,520833333333333
"F_294";1,14083333333333
"F_295";1,29833333333333
"F_296";1,20333333333333
"F_297";0,825
"F_298";4,25833333333333
"F_299";4,0825
"F_300";0,800833333333333
"F_301";0,27
"F_302";1,955
"F_303";4,5625
"F_304";4,49666666666667
"F_305";2,12333333333333
"F_306";2,8
"F_307";6,74666666666667
"F_308";1,2025
"F_309";2,29166666666667
"F_310";1,6875
"F_311";0,88
"F_312";6,02083333333333
"F_313";0,421666666666667
"F_314";1,96
"F_315";3,46666666666667
"F_316";7,2075
"F_317";3,68
"F_318";4,87666666666667
"F_319";0,878333333333333
"F_320";6,52666666666667
"F_321";1,02083333333333
"F_322";5,80833333333333
"F_323";1,84083333333333
"F_324";2,29666666666667
"F_325";0,75
"F_326";2,475
"F_327";0,628333333333333
"F_328";1,95833333333333
"F_329";4,6875
"F_330";1,725
"F_331";0,541666666666667
"F_332";9,71666666666667
"F_333";6,675
"F_334";4,0825
"F_335";6,96
"F_336";5,26166666666667
"F_337";5,4
"F_338";3,465
"F_339";0,6525
"F_340";3,46666666666667
"F_341";3,575
"F_342";2,7075
"F_343";1,96
"F_344";0,541666666666667
"F_345";2,70666666666667
"F_346";1,11
"F_347";5,33
"F_348";3,8525
"F_349";1,96
"F_350";1,05
"F_351";5,135
"F_352";1,76333333333333
"F_353";1,54083333333333
"F_354";4,74833333333333
"F_355";0,316666666666667
"F_356";3,7375
"F_357";8,585
"F_358";1,435
"F_359";1,47
"F_360";4,74833333333333
"F_361";0,563333333333333
"F_362";0,955833333333333
"F_363";4,68
"F_364";0,8
"F_365";4,44
"F_366";2,56666666666667
"F_367";5,53333333333333
"F_368";0,585
"F_369";1,54
"F_370";3,46666666666667
"F_371";3,30666666666667
"F_372";2,00083333333333
"F_373";1,36666666666667
"F_374";3,4125
"F_375";3,79166666666667
"F_376";0,35
"F_377";0,421666666666667
"F_378";0,8
"F_379";10,92
"F_380";2,80333333333333
"F_381";0,77
"F_382";5,74083333333333
"F_383";4,14166666666667
"F_384";1,435
"F_385";5,005
"F_386";4,625
"F_387";4,025
"F_388";7,36333333333333
"F_389";2,61
"F_390";1,14083333333333
"F_391";5,8725
"F_392";2,52
"F_393";1,84083333333333
"F_394";8,33
"F_395";2,25
"F_396";3,36
"F_397";3,20333333333333
"F_398";3,63
"F_399";2,90083333333333
"F_400";4,02333333333333
"F_401";4,86666666666667
"F_402";6,44583333333333
"F_403";0,676666666666667
"F_404";1,84083333333333
"F_405";1,14
"F_406";1,26416666666667
"F_407";3,30666666666667
"F_408";0,8525
"F_409";2,9
"F_410";0,35
"F_411";3,85
"F_412";6,23
"F_413";2,475
"F_414";1,46666666666667
"F_415";0,479166666666667
"F_416";3,23
"F_417";3,25333333333333
"F_418";4,38
"F_419";3,91
"F_420";0,775
"F_421";4,25833333333333
"F_422";3,41333333333333
"F_423";6,235
"F_424";5,06666666666667
"F_425";1,9975
"F_426";2,8
"F_427";4,68416666666667
"F_428";2,70416666666667
"F_429";0,366666666666667
"F_430";2,61333333333333
"F_431";1,11
"F_432";1,235
"F_433";1,84083333333333
"F_434";7,52
"F_435";4,875
"F_436";0,240833333333333
"F_437";3,20333333333333
"F_438";3,46666666666667
"F_439";3,46666666666667
"F_440";1,07916666666667
"F_441";3,74
"F_442";11,7016666666667
"F_443";3,045
"F_444";8,16416666666667
"F_445";8,92666666666667
"F_446";3,79666666666667
"F_447";4,4375
"F_448";2,8975
"F_449";2,475
"F_450";3
"F_451";2,47
"F_452";2,00083333333333
"F_453";2,00083333333333
"F_454";5,87916666666667
"F_455";7,6
"F_456";6,815
"F_457";4,62333333333333
"F_458";7,05333333333333
"F_459";2,70666666666667
"F_460";5,265
"F_461";2,2
"F_462";2,3375
"F_463";5,06916666666667
"F_464";3,14666666666667
"F_465";9,09833333333333
"F_466";2,125
"F_467";2,8975
"F_468";3
"F_469";3,62916666666667
"F_470";0,749166666666667
"F_471";1,05
"F_472";4,625
"F_473";1,235
"F_474";1,9975
"F_475";6,82
"F_476";2,385
"F_477";1,45666666666667
"F_478";1,33333333333333
"F_479";6,235
"F_480";2,12333333333333
"F_481";1,46916666666667
"F_482";10,2641666666667
"F_483";1,68666666666667
"F_484";0,935
"F_485";2,925
"F_486";4,38
"F_487";3,1
"F_488";0,175
"F_489";1,23333333333333
"F_490";6,09
"F_491";4,31916666666667
"F_492";7,755
"F_493";5,06666666666667
"F_494";2,475
"F_495";2,56166666666667
"F_496";5,4
"F_497";5,60333333333333
"F_498";2,0625
"F_499";3,35833333333333
"F_500";1,46916666666667
"F_501";0,88
"F_502";1,6875
"F_503";3,15166666666667
"F_504";3,685
"F_505";2,16
"F_506";1,3325
"F_507";3,2025
"F_508";5,2
"F_509";1,36666666666667
"F_510";3,15
"F_511";1,1375
"F_512";4,50166666666667
"F_513";5,4675
"F_514";3,2025
"F_515";1,14
"F_516";2,9925
"F_517";3,46666666666667
"F_518";2,34
"F_519";1,61333333333333
"F_520";5,805
"F_521";3,8525
"F_522";1,54083333333333
"F_523";2,52
"F_524";3,62916666666667
"F_525";3,35833333333333
"F_526";1,84083333333333
"F_527";2,85
"F_528";2,99916666666667
"F_529";5,26666666666667
"F_530";1,40083333333333
"F_531";2,95
"F_532";4,44
"F_533";1,3
"F_534";0,403333333333333
"F_535";6,235
"F_536";5,59583333333333
"F_537";3,355
"F_538";5,2
"F_539";5,33333333333333
"F_540";4,375
"F_541";2,42666666666667
"F_542";0,563333333333333
"F_543";5,135
"F_544";1,54083333333333
"F_545";4,25833333333333
"F_546";4,615
"F_547";0,5
"F_548";4,56
"F_549";3
"F_550";1,26666666666667
"F_551";5,19333333333333
"F_552";1,2025
"F_553";4,62333333333333
"F_554";1,0725
"F_555";0,6075
"F_556";6,235
"F_557";5,95
"F_558";3,96416666666667
"F_559";7,76
"F_560";1,05
"F_561";7,6
"F_562";2,8025
"F_563";4,08333333333333
"F_564";1,365
"F_565";0,8525
"F_566";3,355
"F_567";3,15166666666667
"F_568";4,14166666666667
"F_569";2,16416666666667
"F_570";2,6125
"F_571";5,4
"F_572";9,71666666666667
"F_573";2,95
"F_574";5,3325
"F_575";0,46
"F_576";4,02
"F_577";3,52083333333333
"F_578";2,385
"F_579";1,26666666666667
"F_580";1,47
"F_581";9,1
"F_582";0,6975
"F_583";5,4
"F_584";3,5175
"F_585";3,9675
"F_586";5,67
"F_587";2,2525
"F_588";1,5375
"F_589";3,85333333333333
"F_590";3,91
"F_591";3,46166666666667
"F_592";8,25
"F_593";6,75
"F_594";2,295
"F_595";2,8025
"F_596";2,43
"F_597";7,51333333333333
"F_598";2,25333333333333
"F_599";4,75
"F_600";7,75833333333333
"F_601";1,9975
"F_602";6,74916666666667
"F_603";5,135
"F_604";0,826666666666667
"F_605";6,3075
"F_606";1,2675
"F_607";6,08666666666667
"F_608";1,95833333333333
"F_609";0,385
"F_610";2,70666666666667
"F_611";4,80583333333333
"F_612";1,23333333333333
"F_613";5,6025
"F_614";1,95833333333333
"F_615";1,17
"F_616";5,13
"F_617";4,50166666666667
"F_618";2,52
"F_619";2,95
"F_620";2,85166666666667
"F_621";1,88
"F_622";2,75
"F_623";1,8
"F_624";1,435
"F_625";3,7375
"F_626";1,95833333333333
"F_627";4,14166666666667
"F_628";2,29666666666667
"F_629";2,42916666666667
"F_630";3
"F_631";0,75
"F_632";4,38
"F_633";3,2
"F_634";4,25
"F_635";3,57333333333333
"F_636";3,2025
"F_637";1,17166666666667
"F_638";2,16666666666667
"F_639";3,36
"F_640";1,75583333333333
"F_641";1,87
"F_642";4,94083333333333
"F_643";3,675
"F_644";3,1
"F_645";3,15
"F_646";9,18666666666667
"F_647";4,4375
"F_648";0,479166666666667
"F_649";6,74666666666667
"F_650";0,991666666666667
"F_651";5,805
"F_652";2,80333333333333
"F_653";6,29416666666667
"F_654";2,94833333333333
"F_655";2,655
"F_656";4,94
"F_657";0,8525
"F_658";4,56333333333333
"F_659";0,24
"F_660";1,47
"F_661";4,9275
"F_662";0,163333333333333
"F_663";3,7375
"F_664";3,3075
"F_665";10,735
"F_666";4,875
"F_667";6,89333333333333
"F_668";2,1675
"F_669";1,96
"F_670";4,31666666666667
"F_671";0,800833333333333
"F_672";2,8
"F_673";3,41333333333333
"F_674";1,95833333333333
"F_675";2,125
"F_676";0,541666666666667
"F_677";2,66
"F_678";6,97666666666667
"F_679";11,5
"F_680";1,65
"F_681";1,3
"F_682";0,700833333333333
"F_683";1,57666666666667
"F_684";4,74833333333333
"F_685";3,46166666666667
"F_686";3,04833333333333
"F_687";2,99666666666667
"F_688";2,6125
"F_689";4,0825
"F_690";3,15166666666667
"F_691";3,1
"F_692";2,2525
"F_693";2,755
"F_694";7,67666666666667
"F_695";3,36
"F_696";2,42916666666667
"F_697";9,1875
"F_698";5,06916666666667
"F_699";1,02083333333333
"F_700";2,42916666666667
"F_701";1,11
"F_702";2,99666666666667
"F_703";2,04166666666667
"F_704";5,805
"F_705";4,875
"F_706";4,025
"F_707";4,08
"F_708";1,3
"F_709";1,14083333333333
"F_710";2,85166666666667
"F_711";1,36666666666667
"F_712";1,92
"F_713";3,96666666666667
"F_714";1,29833333333333
"F_715";2,20833333333333
"F_716";0,226666666666667
"F_717";2,295
"F_718";4,0825
"F_719";0,63
"F_720";3,575
"F_721";4,2
"F_722";1,725
"F_723";2,00083333333333
"F_724";1,08
"F_725";6,08666666666667
"F_726";2,655
"F_727";1,88
"F_728";1,20333333333333
"F_729";2,61333333333333
"F_730";2,52
"F_731";1,725
"F_732";3,25333333333333
"F_733";1,57666666666667
"F_734";4,14166666666667
"F_735";2
"F_736";1,76333333333333
"F_737";2,7
"F_738";2,6125
"F_739";7,12833333333333
"F_740";4,68666666666667
"F_741";6,74666666666667
"F_742";3,52
"F_743";3,575
"F_744";1,54
"F_745";0,991666666666667
"F_746";3,09333333333333
"F_747";3,46666666666667
"F_748";0,9625
"F_749";8,1675
"F_750";3,79666666666667
"F_751";3,05
"F_752";2,52
"F_753";1,84083333333333
"F_754";2,12
"F_755";3,15
"F_756";4,4375
"F_757";6,0175
"F_758";3,52083333333333
"F_759";4,0825
"F_760";3,52
"F_761";3,05
"F_762";11,4066666666667
"F_763";3,91
"F_764";2,34
"F_765";2,99916666666667
"F_766";7,285
"F_767";7,12
"F_768";1,53333333333333
"F_769";7,67666666666667
"F_770";0,676666666666667
"F_771";4,31666666666667
"F_772";2,42916666666667
"F_773";0,991666666666667
"F_774";2,385
"F_775";1,76
"F_776";0,75
"F_777";2,25333333333333
"F_778";8,085
"F_779";3,52083333333333
"F_780";1,1375
"F_781";3,15166666666667
"F_782";0,749166666666667
"F_783";1,575
"F_784";1,61
"F_785";1,505
"F_786";3,355
"F_787";4,26
"F_788";0,904166666666667
"F_789";2,75333333333333
"F_790";3
"F_791";3,04833333333333
"F_792";4,44
"F_793";3,685
"F_794";1,6875
"F_795";1,26666666666667
"F_796";5,4675
"F_797";3,4125
"F_798";4,87666666666667
"F_799";3,35833333333333
"F_800";4,87666666666667
"F_801";0,75
"F_802";3,68333333333333
"F_803";1,14
"F_804";0,991666666666667
"F_805";2,04166666666667
"F_806";1,4
"F_807";7,6
"F_808";2,755
"F_809";1,54
"F_810";7,44
"F_811";3,36
"F_812";0,878333333333333
"F_813";3,20333333333333
"F_814";0,800833333333333
"F_815";2,94
"F_816";4,74
"F_817";0,749166666666667
"F_818";3,685
"F_819";3,40583333333333
"F_820";3,19583333333333
"F_821";2,85166666666667
"F_822";2,12333333333333
"F_823";1,20333333333333
"F_824";1,6125
"F_825";1,29833333333333
"F_826";2,66
"F_827";1,84
"F_828";5,06916666666667
"F_829";2,65833333333333
"F_830";3,74
"F_831";1,2025
"F_832";0,725
"F_833";0,9625
"F_834";0,285
"F_835";6,2775
"F_836";7,52
"F_837";4,81
"F_838";3,575
"F_839";3,1
"F_840";3,74
"F_841";3,575
"F_842";2,475
"F_843";3,30416666666667
"F_844";1,72333333333333
"F_845";3,4125
"F_846";2,43
"F_847";4,73333333333333
"F_848";5,0625
"F_849";1,105
"F_850";0,825
"F_851";1,14
"F_852";0,9625
"F_853";2,295
"F_854";2,38333333333333
"F_855";1,46916666666667
"F_856";1,505
"F_857";4,68666666666667
"F_858";4,94083333333333
"F_859";3,255
"F_860";1,65
"F_861";0,963333333333333
"F_862";1,65
"F_863";7,91666666666667
"F_864";4,44083333333333
"F_865";2,29166666666667
"F_866";0,723333333333333
"F_867";3,85333333333333
"F_868";2,45833333333333
"F_869";6,23333333333333
"F_870";4,02333333333333
"F_871";3,91
"F_872";1,4
"F_873";0,991666666666667
"F_874";2,9
"F_875";10,0833333333333
"F_876";7,75
"F_877";2,34
"F_878";8,245
"F_879";2,125
"F_880";2,99916666666667
"F_881";3,15166666666667
"F_882";2,25333333333333
"F_883";1,07916666666667
"F_884";1,64833333333333
"F_885";2,04166666666667
"F_886";1,87833333333333
"F_887";4,42
"F_888";7,36
"F_889";3,3075
"F_890";1,40083333333333
"F_891";7,6
"F_892";2,8025
"F_893";1,02083333333333
"F_894";3,91
"F_895";3,15166666666667
"F_896";4,68416666666667
"F_897";8,5
"F_898";1,8375
"F_899";5,66666666666667
"F_900";1,36666666666667
"F_901";0,906666666666667
"F_902";2
"F_903";2,2525
"F_904";5,3325
"F_905";0,7
"F_906";4,31916666666667
"F_907";2,9
"F_908";1,2
"F_909";9,62
"F_910";2,70666666666667
"F_911";3,10083333333333
"F_912";0,963333333333333
"F_913";1,26
"F_914";7,0525
"F_915";2,42916666666667
"F_916";0,8525
"F_917";1,10833333333333
"F_918";1,235
"F_919";0,628333333333333
"F_920";0,775
"F_921";9,80833333333333
"F_922";5,25666666666667
"F_923";4,1975
"F_924";4,0825
"F_925";1,46916666666667
"F_926";0,826666666666667
"F_927";1,80166666666667
"F_928";1,435
"F_929";2,125
"F_930";2,29166666666667
"F_931";6,08666666666667
"F_932";1,05
"F_933";2,205
"F_934";3,685
"F_935";1,505
"F_936";1,05
"F_937";4,2
"F_938";0,6075
"F_939";0,725
"F_940";0,933333333333333
"F_941";2,51333333333333
"F_942";4,1875
"F_943";4,20083333333333
"F_944";4,8125
"F_945";6,37833333333333
"F_946";3,8525
"F_947";6,375
"F_948";3,10083333333333
"F_949";0,585
"F_950";1,11
"F_951";4,875
"F_952";2,70666666666667
"F_953";4,93333333333333
"F_954";2,47333333333333
"F_955";6,38
"F_956";1,46916666666667
"F_957";0,725
"F_958";4,50166666666667
"F_959";4,68
"F_960";2,6125
"F_961";2,85166666666667
"F_962";3,575
"F_963";6,88
"F_964";4,2
"F_965";3,35833333333333
"F_966";1,365
"F_967";2,90083333333333
"F_968";0,775
"F_969";0,875
"F_970";1,96
"F_971";0,75
"F_972";4,75
"F_973";6,23
"F_974";1,505
"F_975";1,365
"F_976";4,75
"F_977";5,87666666666667
"F_978";4,56333333333333
"F_979";0,878333333333333
"F_980";1,80166666666667
"F_981";1,61
"F_982";7,13
"F_983";0,773333333333333
"F_984";3,25333333333333
"F_985";1,87833333333333
"F_986";5,13
"F_987";5,3325
"F_988";4,56
"F_989";2,34
"F_990";2,94833333333333
"F_991";4,19333333333333
"F_992";8,58
"F_993";2,84666666666667
"F_994";3,52083333333333
"F_995";8,0025
"F_996";3,2025
"F_997";4,56333333333333
"F_998";2,7075
"F_999";4,14166666666667
"F_1000";0,826666666666667
