"Roost";"In";"Out";"InLink";"OutLink";"Betweeness";"Closeness"
"R_1";20;19;6;7;8,7;0,550522648083624
"R_2";24;24;13;12;97,5651931401931;0,687953555878084
"R_3";22;22;7;6;44,7657259407259;0,632421614409607
"R_4";23;23;10;10;15,25;0,64271186440678
"R_5";23;23;11;13;144,407306582307;0,630738522954092
"R_6";22;23;9;9;168,929853479854;0,649315068493151
"R_7";19;19;9;10;40,7960678210678;0,529608938547486
"R_8";19;19;5;6;16,7127344877345;0,447380840018877
"R_9";22;22;10;12;85,9516594516594;0,586270871985158
"R_10";19;19;4;4;6,79365079365079;0,507766470273165
"R_11";19;19;6;6;5,28120213120213;0,543577981651376
"R_12";19;19;4;4;0,2;0,59886291850916
"R_13";27;27;15;17;944,102258852259;0,803389830508474
"R_14";26;26;14;15;218,38770951271;0,706935123042506
"R_15";19;20;5;5;10,602380952381;0,546397694524496
"R_16";22;22;9;10;84,7993506493507;0,618798955613577
"R_17";26;26;15;14;458,229714729715;0,748815165876777
"R_18";18;18;5;4;8,08333333333333;0,457971014492754
"R_19";21;21;7;8;121,645634920635;0,563614744351962
"R_20";21;21;8;8;4,23333333333333;0,447803495512518
"R_21";24;24;9;11;464,388461538462;0,644459551325629
"R_22";18;18;5;7;0,5;0,478546188793539
"R_23";27;28;14;16;394,532226107226;0,75658419792498
"R_24";19;19;6;6;0,5;0,56094674556213
"R_25";16;16;3;4;0;0,370602032838155
"R_26";28;28;11;8;374,498551448551;0,737169517884915
"R_27";23;23;10;11;322,697041847042;0,608472400513479
"R_28";23;23;11;12;350,769114219114;0,698599852616065
"R_29";22;22;8;7;205,888239538239;0,592870544090056
"R_30";24;24;10;10;115,067857142857;0,553092182030338
"R_31";21;21;6;4;67,388344988345;0,610431423052157
"R_32";22;22;11;12;208,366666666667;0,676659528907923
"R_33";19;19;6;5;27,8166666666667;0,44674835061263
"R_34";28;29;14;12;334,732511932512;0,694505494505495
"R_35";23;23;11;9;204,397619047619;0,573155985489722
"R_36";21;22;7;6;197,940148740149;0,588454376163874
"R_37";21;21;12;12;473,774961149961;0,65244322092223
"R_38";21;21;8;8;9,8;0,525790349417637
"R_39";23;23;8;8;59,5269841269841;0,682014388489209
"R_40";27;27;13;12;809,44849039849;0,786069651741293
"R_41";20;20;9;10;75,8294011544012;0,477341389728097
"R_42";23;23;7;8;26,0996031746032;0,5925
"R_43";17;17;3;2;5,5;0,435862068965517
"R_44";22;22;9;8;91,1928571428571;0,555035128805621
"R_45";28;28;12;11;310,120612720613;0,725880551301684
"R_46";19;19;5;3;0;0,434065934065934
"R_47";17;17;3;2;1;0,42876526458616
"R_48";23;23;9;8;101,031493506494;0,520593080724876
"R_49";23;23;10;11;60,3620490620491;0,666666666666667
"R_50";19;19;7;6;15,6928571428571;0,519167579408543
"R_51";25;25;12;11;335,381476856477;0,722010662604722
"R_52";22;22;7;7;90,4333333333333;0,604591836734694
"R_53";23;23;9;11;202,681868131868;0,69757174392936
"R_54";24;24;13;14;136,920046620047;0,629900332225914
"R_55";23;22;13;11;187,553740703741;0,610431423052157
"R_56";20;21;6;8;84,7;0,577696526508227
"R_57";22;22;7;5;0;0,525790349417637
"R_58";23;23;8;9;110,406590631591;0,667135819845179
"R_59";22;21;9;8;214,629315129315;0,639676113360324
"R_60";18;18;5;5;75,8934065934066;0,545454545454545
"R_61";24;23;9;11;1083,18041125541;0,796638655462184
"R_62";24;24;10;12;198,346603396603;0,669491525423729
"R_63";21;21;7;7;1;0,481462671406805
"R_64";28;28;16;17;696,142377067377;0,76083467094703
"R_65";26;26;14;13;624,713292263292;0,720912547528517
"R_66";22;22;9;9;52,5984126984127;0,612403100775194
"R_67";18;18;5;4;45,5797619047619;0,497899159663865
"R_68";23;23;11;12;949,096284271284;0,691970802919708
"R_69";23;23;12;12;192,712443112443;0,657876474670367
"R_70";21;21;11;11;70,5138888888889;0,522026431718062
"R_71";20;20;11;14;635,244474969475;0,766370250606305
"R_72";24;24;12;10;257,429365079365;0,627814569536424
"R_73";21;21;7;6;126,428571428571;0,558962264150944
"R_74";22;22;9;9;104,241666666667;0,604977664326739
"R_75";26;25;12;10;359,533305583306;0,663400979706088
"R_76";21;21;8;9;191,409704184704;0,542955326460481
"R_77";21;22;7;8;202,058608058608;0,542024013722127
"R_78";22;20;11;9;200,911111111111;0,710644677661169
"R_79";23;23;8;7;153,723076923077;0,506680919294495
"R_80";23;23;10;9;129,144003219003;0,556011730205279
