"Roost";"In";"Out";"InLink";"OutLink";"Betweeness";"Closeness"
"R_1";18;18;4;3;0;0,461313868613139
"R_2";21;21;11;9;233,866666666667;0,632421614409607
"R_3";20;20;8;10;11,9535714285714;0,511879049676026
"R_4";28;26;15;14;274,853643578644;0,617589576547232
"R_5";25;25;14;13;344,757142857143;0,626569729015202
"R_6";25;25;12;13;67,5630952380952;0,612007746933505
"R_7";19;18;5;4;6,83333333333333;0,463569682151589
"R_8";22;22;6;6;110,819047619048;0,493236212278876
"R_9";23;23;10;9;110,616666666667;0,608082103912765
"R_10";19;19;8;7;34,9833333333333;0,533783783783784
"R_11";16;16;2;1;0;0,399157894736842
"R_12";18;18;6;6;4,30833333333333;0,493236212278876
"R_13";22;22;8;8;200,161904761905;0,629064366290644
"R_14";24;24;11;11;176,678571428571;0,626569729015202
"R_15";24;24;12;13;342,261976911977;0,680545585068199
"R_16";26;26;12;14;323,478571428571;0,648426812585499
"R_17";24;24;13;12;613,21277056277;0,717095310136158
"R_18";22;22;8;8;215,114285714286;0,556991774383079
"R_19";22;22;7;7;342,560714285714;0,580882352941177
"R_20";20;20;9;11;213,623556998557;0,587724736515809
"R_21";27;26;13;13;397,683333333333;0,656055363321799
"R_22";20;20;4;6;4;0,550203134068485
"R_23";23;23;11;10;604,720562770563;0,71064467766117
"R_24";23;23;10;8;43,7928571428572;0,603053435114504
"R_25";16;16;3;3;0;0,398152036959261
"R_26";22;21;12;10;321,258333333333;0,662473794549266
"R_27";24;24;11;11;135,867965367965;0,580882352941177
"R_28";23;23;10;8;354,9;0,629064366290644
"R_29";24;24;11;13;187,056024531024;0,633689839572193
"R_30";26;26;10;8;284,537012987013;0,604591836734694
"R_31";21;22;7;6;255,944516594517;0,677626876340243
"R_32";22;22;7;6;145,373448773449;0,646657571623465
"R_33";17;17;4;7;31,3666666666667;0,477101157523905
"R_34";19;21;9;10;127,616666666667;0,649315068493151
"R_35";20;20;10;11;169,45119047619;0,543266475644699
"R_36";17;18;4;5;33,95;0,542644533485976
"R_37";27;27;11;10;341,415873015873;0,655148583275743
"R_38";18;18;5;4;0;0,470705064548163
"R_39";21;21;10;7;165,938095238095;0,591391141609482
"R_40";20;20;7;7;71,3511904761905;0,596601636249213
"R_41";18;18;6;6;0;0,432679141944318
"R_42";19;18;6;5;1,875;0,497637795275591
"R_43";16;16;3;4;4;0,365458750963763
"R_44";23;23;9;11;445,221428571429;0,562945368171021
"R_45";20;20;10;12;7,26666666666667;0,525790349417637
"R_46";18;18;6;5;18,5282828282828;0,461089494163424
"R_47";16;16;4;4;38,3333333333333;0,406343763394771
"R_48";20;20;7;9;86,334632034632;0,542955326460481
"R_49";25;25;8;12;243,242063492064;0,676176890156919
"R_50";21;21;7;6;61,0833333333333;0,556338028169014
"R_51";24;24;9;9;45,0666666666667;0,560283687943263
"R_52";21;21;8;8;387,498196248196;0,657876474670368
"R_53";21;21;12;11;39,602380952381;0,540478905359179
"R_54";25;25;11;12;470,413095238095;0,640973630831643
"R_55";23;23;12;13;430,509523809524;0,658790826963169
"R_56";22;22;9;7;83,952380952381;0,60536398467433
"R_57";21;21;7;7;1,25;0,480243161094225
"R_58";20;21;10;11;275,628571428571;0,59622641509434
"R_59";21;21;9;9;105,302380952381;0,598484848484849
"R_60";19;18;5;4;109,464285714286;0,509951586874664
"R_61";18;18;6;5;64,5583333333333;0,52549889135255
"R_62";24;24;9;8;168,890476190476;0,665263157894737
"R_63";22;22;8;9;128,916666666667;0,566308243727599
"R_64";30;30;17;16;702,628210678211;0,736596736596737
"R_65";23;23;11;12;192,370634920635;0,663865546218488
"R_66";21;21;6;7;72,0714285714286;0,536502546689304
"R_67";18;18;5;6;58,5833333333333;0,487403598971722
"R_68";19;19;8;6;110,378643578644;0,537110481586402
"R_69";21;21;9;10;322,209523809524;0,624094799210006
"R_70";25;26;12;12;347,235714285714;0,59622641509434
"R_71";28;28;15;17;794,397258297258;0,726993865030675
"R_72";22;22;8;8;119,665079365079;0,653342522398346
"R_73";19;19;7;6;75,8678571428571;0,570397111913358
"R_74";21;21;11;10;233,264285714286;0,625742574257426
"R_75";21;21;8;10;3,5;0,557975279576221
"R_76";19;19;7;7;192,781168831169;0,524916943521595
"R_77";23;22;9;9;179,434199134199;0,637096774193548
"R_78";24;24;11;11;17,9761904761905;0,597730138713745
"R_79";18;18;5;5;48,0833333333333;0,451428571428572
"R_80";19;19;6;5;5,28333333333333;0,422648238965671
