"ID";"density";"cell_id";"lon";"lat"
"F_1";0,000266465902237826;2653532;464207,635595852;947573,929937113
"F_2";0,000393213055567777;7191653;466762,373376334;939762,681768499
"F_3";0,000341966300319688;4843881;464102,646371997;943803,327428064
"F_4";0,000420297367527489;1171819;463392,71923926;950124,337469759
"F_5";0,000484543453286929;6672010;468522,192747625;940657,824804467
"F_6";0,000252083200489846;3853443;464937,56067599;945508,599915578
"F_7";0,000528140358285573;6965570;469297,113209415;940152,744097022
"F_8";0,000245050495623336;3375833;458988,171324182;946328,730965292
"F_9";0,000367778258840821;904831;464752,57966253;950584,410985452
"F_10";0,000377137014279388;2036517;458433,228283804;948634,099342841
"F_11";0,000241053185849412;2102079;466692,38056043;948524,081763001
"F_12";0,000330816549295096;5279334;462617,79877747;943053,207565521
"F_13";0,000367188140846128;3658309;462442,816737711;945843,653454181
"F_14";0,00030408397594589;3875620;459623,106154165;945468,593522909
"F_15";0,000385027849795572;6965955;471221,915646764;940152,744097022
"F_16";0,000504525454474458;7046059;465042,549899845;940012,72172268
"F_17";0,000311495531154837;2297644;471341,90333117;948189,028224399
"F_18";0,000326385266080557;5944339;461417,921933408;941908,024575372
"F_19";0,000290970179519703;2157138;466013,2855;948429,6599
"F_20";0,000271172733070457;3277179;459568,111798812;946498,758134135
"F_21";0,000440868422295382;221691;462427,81827716;951759,598770103
"F_22";0,000352147392841278;4826309;463392,71923926;943833,332222566
"F_23";0,000215029581946616;4121619;469517,090630826;945048,526399885
"F_24";0,000233497351195532;2398621;467852,26150969;948014,000256472
"F_25";0,00039700854980913;7053746;459903,2855;939999,6599
"F_26";0,000277387727078769;5118673;458188,253428141;943328,25151512
"F_27";0,000280334302821516;984721;472026,833029656;950449,389410195
"F_28";0,000437466809558492;6478213;458188,253428141;940987,877543986
"F_29";0,000408297041940805;869531;462552,805448417;950644,420574456
"F_30";0,000331451674525662;6315847;459758,092299122;941267,922292669
"F_31";0,000528542252255927;7607645;469647,077288933;939047,567499542
"F_32";0,000501122553264286;6591371;472026,833029656;940797,847178809
"F_33";0,000416079911848021;3661120;461972,864973787;945838,652655097
"F_34";0,000239110473161626;3395333;469337,109104217;946298,72617079
"F_35";0,000353455049909451;6830914;464167,63970105;940382,780854868
"F_36";0,000404427769971966;1238915;464797,575044182;950009,319090836
"F_37";0,000365021683429522;2065101;470626,976711583;948589,092151088
"F_38";0,000315171022423954;5670660;458373,234441601;942378,099689233
"F_39";0,000304414162482791;4230746;463202,73873895;944858,496034708
"F_40";0,000279069764764007;1417529;471841,852016196;949704,270346735
"F_41";0,000462914882779431;7502366;466152,435980602;939227,596266552
"F_42";0,000264362571244925;548985;472096,825845559;951199,509272738
"F_43";0,00038443368637097;4120065;461747,888065525;945048,526399885
"F_44";0,000442893754531404;5725460;470921,946435749;942288,085305727
"F_45";0,000404162853654613;6358128;467812,265614888;941197,911105498
"F_46";0,000347264774165128;1950313;463162,742844148;948784,123315349
"F_47";0,000513509979491789;7210464;459143,15541654;939727,676174914
"F_48";0,00041695755792508;6229821;465377,515518812;941417,946265178
"F_49";0,000475466779763101;6712136;465802,471901084;940587,813617297
"F_50";0,000391276625063397;1964051;459228,146692995;948759,119319931
"F_51";0,000354798137320076;4324245;465897,462151239;944698,470464032
"F_52";0,000385742573853144;1495748;470761,96285654;949569,248771478
"F_53";0,000392669652685589;7206935;470546,984921979;939737,677773081
"F_54";0,0003813788971721;1990000;458248,247270344;948714,112128179
"F_55";0,000474638081657104;891883;458113,261125387;950604,414181787
"F_56";0,000427441057008242;5394487;471906,84534525;942858,17640126
"F_57";0,00043377826027428;5641236;471026,935659604;942433,108479152
"F_58";0,000410041749181417;3036524;461867,875749931;946913,824458076
"F_59";0,000451405269247854;6166978;470711,967988038;941527,963845017
"F_60";0,00033496843444109;872999;465367,516545112;950639,419775372
"F_61";0,000280507535523211;5075081;458103,262151687;943403,263501375
"F_62";0,000398000789392853;231194;466367,413915163;951744,596372852
"F_63";0,000443628187025454;47329;462117,850092444;952059,64671512
"F_64";0,000326422263079994;152456;464852,569399535;951879,61794811
"F_65";0,000512335395818522;6967763;465738,2855;940149,6599
"F_66";0,000407781045132099;1873871;458603,210836713;948914,144091523
"F_67";0,000357374877994512;1571985;459773,090759673;949434,22719622
"F_68";0,000454584771415795;6321083;471411,896147074;941262,921493585
"F_69";0,000412837349909449;1060536;458928,177481979;950314,367834937
"F_70";0,000254808680453651;244280;459173,152337642;951719,592377434
"F_71";0,000325907998888469;2568033;457938,279085628;947718,953110538
"F_72";0,000349522516804069;4556650;465922,459585491;944298,406537342
"F_73";0,000336578929059076;5139853;462412,819816609;943293,245921535
"F_74";0,000421970331793066;5919826;469577,084473029;941953,031767125
"F_75";0,00027323274710907;1999296;461152,949130344;948699,109730928
"F_76";0,000319154431380409;3911108;462762,783896127;945408,583933906
"F_77";0,000306000821838636;5261727;461733,2855;943084,6599
"F_78";0,000189941652956989;5059861;469153,2855;943434,6599
"F_79";0,000225076478823137;950547;460932,971708933;950504,398200114
"F_80";0,000412716022059652;1049860;463647,693068623;950334,371031271
"F_81";0,00032393507541969;1013581;471076,930528107;950399,381419359
"F_82";0,000359005666301849;6047310;467897,256891343;941732,996607446
"F_83";0,000367440063781797;1008296;459178,151824492;950404,382218442
"F_84";0,000378480598749645;1500446;465202,533479053;949559,24717331
"F_85";0,00029576186227596;2193739;460193,047655095;948364,056192325
"F_86";0,000314017233550037;2380642;465107,543228898;948044,005050974
"F_87";0,000437876146359751;6494717;468082,237904802;940962,873548568
"F_88";0,000437784104650246;6724902;471531,88383148;940567,810420962
"F_89";0,000359576329749493;1831607;465157,538097401;948989,156077778
"F_90";0,00032827434713246;4289113;464537,601727969;944758,480053036
"F_91";0,0003378796929359;1724188;465487,504229518;949174,185643872
"F_92";0,000168630051625316;1045009;468442,200958021;950344,372629439
"F_93";0,000371672351167479;3344189;460543,011734613;946383,739755212
"F_94";0,000413049451049265;930729;463517,706410516;950539,4037937
"F_95";0,000293953353848718;423059;467042,344639948;951414,543633333
"F_96";0,00024325576361746;5300998;469262,116801463;943018,201971936
"F_97";0,000336354871878956;5975957;459733,094864871;941853,015785452
"F_98";0,0002631122496211;2076299;468517,193260774;948569,088954754
"F_99";0,000395475571491475;5333396;471476,889476127;942963,193182016
"F_100";0,00037230018289143;3135045;460623,003524217;946743,797289232
"F_101";0,000497040578927727;6916060;468672,177353133;940237,757681443
"F_102";0,000296236718554606;2582125;470297,010579466;947698,949914204
"F_103";0,000302877137471659;2365926;464152,641240499;948069,009046392
"F_104";0,000322024995389048;3616336;470451,994671824;945918,665440435
"F_105";0,000401231650372052;1821736;459378,131298503;949004,158475029
"F_106";0,000444272013402856;5708050;471021,936172754;942318,090100229
"F_107";0,000476831113088185;1127234;458343,237520499;950199,349456014
"F_108";0,000256567637457201;4083655;468522,192747625;945113,536787972
"F_109";0,000285836315833658;4211348;467887,257917642;944893,501628293
"F_110";0,000289374137972995;213956;467327,315390413;951774,601167354
"F_111";0,000325325143936291;5991365;464148,2855;941829,6599
"F_112";0,000252138375211152;1943366;472001,835595404;948799,1257126
"F_113";0,000489114434684142;7059436;459303,138995749;939987,717727262
"F_114";0,000306244193300077;955552;471431,894094475;950499,397401031
"F_115";0,000442682381206555;6717802;465082,545794647;940577,812019129
"F_116";0,000201616389355695;4824223;467487,298969621;943838,33302165
"F_117";0,000386841836893806;6654299;467117,336942702;940687,829598969
"F_118";0,000370202628712338;7264316;466952,353876644;939637,661791409
"F_119";0,000350956764885762;695589;464342,621740809;950944,468519473
"F_120";0,00052064453044837;7110124;465817,470361635;939902,704142841
"F_121";0,000282222881895797;6595074;461492,914236162;940787,845580641
"F_122";0,000278811999956287;3803752;463407,717699811;945593,6135
"F_123";0,00032632097214318;5401735;464572,598135921;942843,174004009
"F_124";0,00030066507896176;1862623;460463,019945009;948934,147287858
"F_125";0,000309913926857665;5907096;464027,654069243;941973,034963459
"F_126";0,000297123574296819;2493876;464802,574531033;947848,973886712
"F_127";0,000387479686040277;5721417;465232,530400155;942293,086104811
"F_128";0,000265427944703462;3882433;464637,591464974;945458,591924742
"F_129";0,000325058652847347;5880435;461447,918854509;942018,042155212
"F_130";0,000372609569450062;3405195;460548,2855;946279,6599
"F_131";0,000510403401441311;6550162;469332,109617367;940867,858365979
"F_132";0,000367996684174444;4123952;466657,384152478;945043,525600802
"F_133";0,000380364348958416;7291324;471266,911028416;939592,654599656
"F_134";0,000407857022139883;1850749;459193,150285043;948954,150484192
"F_135";0,000560823659712081;7269769;465167,537071102;939627,660193242
"F_136";0,000261141062208941;4240463;468213,2855;944844,6599
"F_137";0,000208435642145103;189162;459558,112825112;951814,607560023
"F_138";0,000458522142563262;5853550;472271,807885318;942068,050146048
"F_139";0,000209066595783143;3260610;463872,669976885;946528,762928637
"F_140";0,00027724892611536;2611729;458543,216994509;947643,941124284
"F_141";0,000396297219287779;117279;463267,732068003;951939,627537113
"F_142";0,000531850757713388;7205810;464922,562215439;939737,677773081
"F_143";0,000367578658538314;1306930;470796,959264492;949894,300711913
"F_144";0,000241598723152512;5628920;467547,292811824;942453,111675487
"F_145";0,000260038154251619;2247680;468448,2855;948274,6599
"F_146";0,000407476865303954;7117076;471526,88434463;939892,702544674
"F_147";0,000466078381904583;6169697;469782,06343389;941522,963045934
"F_148";0,000390172047068712;544347;463432,715134062;951204,510071821
"F_149";0,000363180565757259;1730855;469772,064460189;949164,184045704
"F_150";0,000178338754033994;905737;469282,114748864;950584,410985452
"F_151";0,000442314077672154;6878184;468117,234312754;940302,76806953
"F_152";0,000229593698305177;6194428;462712,789027625;941477,955854181
"F_153";0,000388276303748995;1606798;459538,114877711;949374,217607216
"F_154";0,000262972494262802;1549119;461642,89884167;949474,233588889
"F_155";0,000303194386563299;4343387;459933,074338881;944663,464870447
"F_156";0,000387227502447963;1590455;464972,557083941;949404,222401718
"F_157";0,000425732483282461;6393538;470561,98338253;941137,901516495
"F_158";0,000388697641849262;5953733;464812,573504733;941893,022178121
"F_159";0,000202762076498002;863234;460118,055352341;950654,422172623
"F_160";0,000410882451864382;5783383;470037,037263253;942188,069324055
"F_161";0,000356222063274423;4480191;461278,2855;944429,6599
"F_162";0,000344691745330239;2849515;470946,94387;947238,876398511
"F_163";0,000345172705342812;65191;464277,628411756;952029,641920618
"F_164";0,000444618141598836;7241376;468452,199931721;939677,668184078
"F_165";0,000157275455299889;1303461;467977,248680947;949899,301510997
"F_166";0,000144729508824934;1306197;467132,335403253;949894,300711913
"F_167";0,000283090312043951;5437556;469377,104999019;942783,164415006
"F_168";0,000434972487612209;7061923;471736,862792341;939987,717727262
"F_169";0,000270435085905022;6719990;461497,913723012;940572,811220046
"F_170";0,000403509574355899;1189378;464037,653042943;950094,332675258
"F_171";0,00029855164300354;4001411;464002,656634991;945253,559162314
"F_172";0,000307269223563162;2189045;465772,474979983;948374,057790493
"F_173";0,000328743538005074;4391273;466962,352850344;944583,452085109
"F_174";0,00019837797634435;3528109;465067,547334096;946068,689412944
"F_175";0,000447211232330841;6893879;459443,124627556;940272,763275029
"F_176";0,000346446291430581;3943882;466857,363626489;945353,575143986
"F_177";0,000365773656766969;5839609;460667,998905869;942088,053342383
"F_178";0,000209128676008331;2883268;465412,511926764;947178,866809507
"F_179";0,000356136743972389;1841217;469632,078828382;948974,153680527
"F_180";0,000202411537523213;23594;459643,104101566;952099,653107789
"F_181";0,000332655092600221;3515045;472371,797622324;946093,693408362
"F_182";0,000287722651002504;5357167;459608,107693614;942918,185990263
"F_183";0,000222474357728026;3345923;469212,12193296;946383,739755212
"F_184";0,000255991563133161;3190001;459428,126167005;946648,782106644
"F_185";0,000230558411113626;2491578;467837,263049139;947853,974685796
"F_186";0,000294809642337499;2244266;465902,46163809;948279,042607904
"F_187";0,000287557805186026;1535428;465812,470874785;949499,237584307
"F_188";0,000344785160017758;4777062;464082,648424596;943918,345806987
"F_189";0,000225128585748596;4415289;470841,954646145;944543,44569244
"F_190";0,000330811815757531;1479048;459888,078957229;949594,252766896
"F_191";0,00039405657380686;5857994;465442,508847866;942058,048547881
"F_192";0,000328598890520064;1820822;469332,109617367;949009,159274112
"F_193";0,000208248271641462;6845124;462592,801343219;940357,77685945
"F_194";0,000223014796319191;5274794;468967,147077298;943063,209163688
"F_195";0,000333830078897797;46557;458258,246244045;952059,64671512
"F_196";0,000422156732231087;6317003;465537,499098021;941267,922292669
"F_197";0,000504353837800277;7322995;469847,056762943;939537,645809737
"F_198";0,000170439498985133;4444030;469297,113209415;944493,437701604
"F_199";0,000293115324324274;3758617;470132,027513408;945673,626285338
"F_200";0,000327777190463793;332503;464538,2855;951569,6599
"F_201";0,000442009199459856;6735826;468052,2409837;940547,807224628
"F_202";0,000264994111758648;1952859;461367,927064905;948779,122516266
"F_203";0,000192045296288553;3298522;464607,594543873;946463,75254055
"F_204";0,000486456966305462;6361295;469122,131169656;941192,910306415
"F_205";0,000335953263248464;4532934;463542,703844768;944338,412930011
"F_206";0,000284708457858597;2135776;460877,97735358;948464,072173998
"F_207";0,000459729155954792;5685068;472311,80378012;942358,096492898
"F_208";0,000254846200591301;1325351;461227,941433098;949859,295118328
"F_209";0,000279014942895043;4168964;459318,1374563;944963,512815464
"F_210";0,00013831330646216;621008;469087,134761704;951074,489295647
"F_211";0,000301843414175318;2797482;472231,811990516;947328,890782016
"F_212";0,00043548827944746;1414948;458938,2855;949704,6599
"F_213";0,000332841963567056;6220015;459923,075365181;941432,948662428
"F_214";0,000291556573972277;4843145;460423,024050207;943803,327428064
"F_215";0,00025769727502655;6246879;463517,706410516;941387,941470676
"F_216";0,00032658157806468;4692503;462512,809553614;944063,368980412
"F_217";0,00041120334054788;1256115;463647,693068623;949979,314296334
"F_218";0,000326226445346165;5711938;461412,922446558;942308,088502062
"F_219";9,35401788418115e-05;2383;469787,06292074;952139,659500458
"F_220";0,000348041109544338;5079478;465562,496532272;943398,262702291
"F_221";0,000312305697106991;2878794;472091,826358709;947188,868407675
"F_222";0,000334699713495475;4347185;464397,616096162;944658,464071363
"F_223";0,000311674086488004;5566056;458253,246757195;942558,128456243
"F_224";0,000389945662537013;3736697;462207,840855749;945708,631878923
"F_225";0,00024640667571541;4802078;458438,227770654;943873,338615235
"F_226";0,000524561574435563;7491455;469697,072157435;939247,599462887
"F_227";0,000390580537703507;1412861;463027,756699191;949709,271145819
"F_228";0,00026887695021496;3784305;467847,26202284;945628,619093585
"F_229";0,000213249080601144;1440142;468708,2855;949664,6599
"F_230";0,000279868629735966;3612608;466337,416994062;945923,666239519
"F_231";0,000397251178512432;6046706;464878,2855;941734,6599
"F_232";0,000307699591515213;5436201;462602,800316919;942783,164415006
"F_233";0,000348432081674655;3363768;471286,908975818;946353,73496071
"F_234";0,000317048402843144;1922463;469162,127064458;948834,131306186
"F_235";0,00035943975454488;1799292;463357,722831308;949044,164867698
"F_236";0,000275778186988823;6273063;463712,686397676;941342,934278923
"F_237";0,000375341676681908;5596486;465152,538610551;942508,120465407
"F_238";0,000386372705960896;991890;464297,626359157;950434,387012944
"F_239";0,00015629994517029;1329600;467947,251759845;949854,294319244
"F_240";0,000451351286918558;7278291;464203,2855;939614,6599
"F_241";0,000496233657302062;7308289;468942,149643046;939562,649805155
"F_242";0,00034528488687844;5018486;465627,489861325;943503,279483047
"F_243";0,000238848265160926;5999810;462797,780304079;941813,009392784
"F_244";0,000430106957227982;6361978;458013,271388382;941187,909507331
"F_245";0,000366080560983842;1668711;464077,648937745;949269,20082646
"F_246";0,000238332647845321;5326615;466622,387744527;942973,194780183
"F_247";0,000476446259291297;6805150;466072,444190998;940427,788046621
"F_248";0,000327404287639737;5473463;460088,058431239;942718,154026919
"F_249";0,000485092152532051;918009;458018,270875232;950559,406990034
"F_250";0,000302149175762803;4224245;459748,093325422;944868,497632875
"F_251";0,000343029150686074;1877903;464238,2855;948909,6599
"F_252";0,000343425128571181;2840795;470921,946435749;947253,878795762
"F_253";0,000357217486778533;5573357;465707,481650929;942548,126858076
"F_254";0,000515509856002593;7046844;468967,147077298;940012,72172268
"F_255";0,00024637905282233;3818576;464902,564268038;945568,609504582
"F_256";0,000325364621379318;6003658;467512,296403873;941808,0085937
"F_257";0,000289380095908357;3526153;469812,060354991;946073,690212028
"F_258";0,000324513929305123;1831116;462702,790053924;948989,156077778
"F_259";0,00035447259346311;828162;459058,164140086;950714,431761627
"F_260";0,000527689320517779;7343241;469402,10243327;939502,640216151
"F_261";0,000339925727447847;3802584;472091,826358709;945598,614299084
"F_262";0,000273085488554674;5277898;469962,044960499;943058,208364605
"F_263";0,000300050014963652;5543544;461892,873184182;942598,134848912
"F_264";0,000267453788032157;5802397;463432,715134062;942153,06373047
"F_265";0,000326406021492688;1917753;460138,053299742;948839,132105269
"F_266";0,000291645591604334;7039360;460598,006089966;940022,723320848
"F_267";0,000279299140868225;3825413;470037,037263253;945558,607906415
"F_268";0,000222673057756912;4740595;470571,982356231;943983,356195074
"F_269";0,000285861817649373;749277;471331,90435747;950854,454135968
"F_270";0,000525672232872462;7075241;465702,482164079;939962,713731844
"F_271";0,000390005066151145;552043;458338,238033649;951189,50767457
"F_272";0,000231804634647385;4892253;459038,166192685;943718,313843643
"F_273";0,000384303513112829;5040162;472331,801727521;943468,273889462
"F_274";0,000230241178508688;2439264;467717,275364733;947943,989069301
"F_275";0,000334304890171996;6424228;464237,632516954;941082,892726575
"F_276";0,000391084640509617;2841745;461147,949643494;947248,877996678
"F_277";0,000352375310298339;4553645;465422,510900465;944303,407336426
"F_278";0,000300725185254585;6629814;460892,975814131;940727,835991638
"F_279";0,000365212763192203;5909317;460608,005063666;941968,034164376
"F_280";0,000355463258811198;5422276;465602,492427074;942808,168410424
"F_281";0,000324940348246589;5935066;458628,208270964;941923,026972623
"F_282";0,000292654027376224;3960690;463747,682805628;945323,570349485
"F_283";0,000336027769814874;2838019;471566,880239432;947258,879594845
"F_284";0,000421008450069736;3079949;461117,952722392;946838,812471821
"F_285";0,00044465601499102;6895278;466437,406731067;940272,763275029
"F_286";0,00033713371007021;701509;464892,565294337;950934,466921306
"F_287";0,000387092287390705;242748;466037,447783046;951724,593176518
"F_288";0,000298153834836188;6725653;460762,989156024;940562,809621879
"F_289";0,000378795169596637;6948398;470586,980816781;940182,748891523
"F_290";0,000454053943106685;6578511;465827,469335336;940817,850375143
"F_291";0,000388672738776624;1504448;470686,970553787;949554,246374227
"F_292";0,000417230520269288;148970;461947,867539535;951884,618747194
"F_293";0,000226673825903561;3554963;468612,183510929;946023,682221191
"F_294";0,00033476978421185;4657417;461382,925525456;944123,378569416
"F_295";0,000298054349920032;2327234;459518,11693031;948134,019434479
"F_296";0,000276880547505786;930302;461382,925525456;950539,4037937
"F_297";0,000403329974722956;1436437;464707,584280878;949669,26475315
"F_298";0,000248544888351971;4363067;471181,919751962;944633,460075945
"F_299";0,000500928048207376;7554255;464147,641753649;939137,581883047
"F_300";0,000260029331351801;2734790;463797,677674131;947433,907562772
"F_301";0,000234651463689577;679379;470441,995698124;950974,473313975
"F_302";0,000344488539690559;3888598;466412,409296816;945448,590326575
"F_303";0,000472169293581286;6744136;466027,448809346;940532,804827377
"F_304";0,00021547153928236;2752791;466652,384665628;947403,90276827
"F_305";0,000371204510086192;4164575;466422,408270516;944973,514413631
"F_306";0,000364563563453831;7426985;466897,359521291;939357,617042726
"F_307";0,000335649183254497;6040169;461242,939893649;941742,998205613
"F_308";0,000600154216303307;7539864;464817,572991583;939162,585878465
"F_309";0,000358958763983593;2134790;470471,992619225;948469,072973081
"F_310";0,000375709838221066;7143149;471166,921291411;939847,695352921
"F_311";0,000582702181023393;7391768;465112,542715749;939417,62663173
"F_312";0,000522527443534501;6579795;472246,810451067;940817,850375143
"F_313";0,00048885864354435;6277695;472346,800188072;941337,93347984
"F_314";0,000505592543196411;7527102;459108,159008589;939182,5890748
"F_315";0,000426176755102309;5867618;469988,2855;942044,6599
"F_316";0,000341982137638441;5049810;462472,813658812;943448,270693127
"F_317";0,000472578213375205;6210316;469527,089604527;941452,951858763
"F_318";0,000536584296485878;6780264;472366,798135473;940472,795238373
"F_319";0,000528221237729262;7386825;469448,2855;939429,6599
"F_320";0,000266198915589893;7353607;463132,745923046;939482,637019817
"F_321";0,000166484043958062;629494;467942,252272995;951059,486898396
"F_322";0,000353911460358499;4748298;465512,501663769;943968,353797824
"F_323";0,00035967712161969;1744170;463722,685371377;949139,180050286
"F_324";0,000415889907136412;605155;462447,816224561;951099,493291065
"F_325";0,000390781297790414;6049592;464782,576583632;941727,995808362
"F_326";0,000331598522458023;4787381;472101,82533241;943903,343409737
"F_327";0,000363291758769358;1315676;470951,94335685;949879,298314662
"F_328";0,000525639892962958;7331606;469327,110130516;939522,643412486
"F_329";0,000419348717460392;5687628;470586,980816781;942353,095693814
"F_330";0,000313768373199245;3879169;462842,775685731;945463,592723826
"F_331";0,000434040621056624;6433215;465597,492940224;941067,890329324
"F_332";0,000354511277152797;2681948;461037,960932788;947523,921946277
"F_333";0,000412417243731515;7282691;471676,868950138;939607,656996907
"F_334";0,000298819288193103;5116395;461322,931683253;943333,252314204
"F_335";0,000374315270178723;1637940;469997,041368451;949324,20961638
"F_336";0,000197051716234514;507969;470367,00339537;951269,520459908
"F_337";0,000356031479868583;4375712;461782,884473477;944608,456080527
"F_338";0,000353274702705629;5076058;462987,760804389;943403,263501375
"F_339";0,000406282016708832;886958;462537,806987866;950614,415779954
"F_340";0,000217050849169239;3485251;468652,179405731;946143,701399198
"F_341";0,000370031972617231;5646822;469907,050605146;942423,106880985
"F_342";0,000400606819367787;6494411;466552,394928623;940962,873548568
"F_343";0,000371221083608923;4152958;466437,406731067;944993,517609966
"F_344";0,000218810516120996;4264610;458223,249836093;944798,486445704
"F_345";0,000210595120270958;3211912;467307,317443012;946613,776513058
"F_346";0,000207040878085467;7132570;461847,87780253;939862,697750172
"F_347";0,000404039522181563;1407411;464827,571965284;949719,272743986
"F_348";0,000275568086372428;3967392;468207,225076059;945313,568751317
"F_349";0,0003317552676674;5968842;467732,273825284;941868,018182703
"F_350";0,00037443007397876;6384057;466732,376455232;941152,903913746
"F_351";0,000221363770269884;2575996;468703,2855;947709,6599
"F_352";0,00029340274240537;7480879;460393,027129105;939262,601860137
"F_353";0,000348982672619754;1938708;463237,735146902;948804,126511684
"F_354";0,000495163776402431;7142127;466057,445730447;939847,695352921
"F_355";0,000409399868152066;7503489;471766,859713442;939227,596266552
"F_356";0,000358151280394384;439858;463887,668437435;951384,538838832
"F_357";0,000324430109532271;4672154;462442,816737711;944098,374573998
"F_358";0,000368676997885459;5844175;468972,146564148;942083,052543299
"F_359";0,000185639118000532;801236;469677,074210034;950764,439752463
"F_360";0,000329648121060343;2675173;470736,965422289;947538,924343528
"F_361";0,000407204260833748;6946237;459783,089733373;940182,748891523
"F_362";0,000243452089203136;276256;459278,141561497;951664,583587514
"F_363";0,000356984108908998;5501656;470327,007500568;942673,146835166
"F_364";0,000369085323159223;6285242;466508,2855;941324,6599
"F_365";0,000489835999528944;6989694;459193,150285043;940107,736905269
"F_366";0,000446910641494231;5989641;470052,035723804;941833,012589118
"F_367";0,000439726616526969;3457658;461412,922446558;946188,708590951
"F_368";0,000388958505807028;6373705;458548,21648136;941167,906310997
"F_369";0,000298115544620008;2453304;465293,2855;947919,6599
"F_370";0,00026238294052266;1434441;469252,117827762;949674,265552234
"F_371";0,000346218531747783;7511376;467627,284601429;939212,593869301
"F_372";0,000369030749699176;2053459;470516,988000878;948609,095347423
"F_373";0,000515149358445635;7050606;458728,198007969;940002,720124513
"F_374";0,000286981464910129;4089359;467992,247141497;945103,535189805
"F_375";0,000354608814873191;3049991;471101,927962358;946893,821261741
"F_376";0,000257111684483547;647503;470836,955159294;951029,482103895
"F_377";0,000423762511385363;1737286;458353,2364942;949149,181648454
"F_378";0,000513791439159325;7378868;458713,199547418;939437,629828064
"F_379";0,000516308863656349;7104155;465022,551952444;939912,705741008
"F_380";0,00032579193065074;4082457;462532,807501015;945113,536787972
"F_381";0,000322188277397172;5279482;463357,722831308;943053,207565521
"F_382";0,000299961808018495;2847925;462997,759778089;947238,876398511
"F_383";0,000501778935881246;7580396;464127,643806248;939092,574691294
"F_384";0,000287935729706112;4072629;471491,887936678;945133,539984307
"F_385";0,000415300699212959;141140;466372,413402014;951899,621144444
"F_386";0,000348749280730062;3418898;470961,942330551;946258,719778121
"F_387";0,000503290072768814;7245160;458323,239573098;939667,666585911
"F_388";0,000423363728393875;855085;462947,764909587;950669,424569874
"F_389";0,000421344529420006;1722700;458048,267796334;949174,185643872
"F_390";0,000251546214300004;1374605;460573,008655714;949774,281533906
"F_391";0,000321763358293547;2328006;463377,720778709;948134,019434479
"F_392";0,000334354656502789;6118318;459813,086654475;941607,976630355
"F_393";0,000370006177560704;1659918;463687,688963425;949284,203223711
"F_394";0,000406104009364274;5269576;471926,843292651;943073,210761856
"F_395";0,00033653517675507;6973200;463872,669976885;940137,741699771
"F_396";0,000243044973677613;270796;461027,961959088;951674,585185682
"F_397";0,000361301893001401;3990289;466492,40108642;945273,562358648
"F_398";0,000324035340134411;2185545;462797,780304079;948379,058589576
"F_399";0,000375857352737121;6120892;458158,25650704;941602,975831271
"F_400";0,000396837443958458;6410138;466412,409296816;941107,896721993
"F_401";0,000318998455971984;428824;466817,367731687;951404,542035166
"F_402";0,000205466743219504;2773381;467927,253812444;947368,897174685
"F_403";0,00033645835344279;2948428;471663,2855;947069,6599
"F_404";0,000508335232755619;7033100;458348,237007349;940032,724919015
"F_405";0,00032836493610968;4086312;467282,320008761;945108,535988889
"F_406";0,000332777589365071;5221202;462457,815198262;943153,223547194
"F_407";0,000501142903217104;7605510;458973,172863632;939047,567499542
"F_408";0,000290686691359597;3700471;469902,051118296;945773,64226701
"F_409";0,000409319866537003;7489486;459853,082549277;939247,599462887
"F_410";0,000317566352996205;2582373;471536,88331833;947698,949914204
"F_411";0,000523643219527037;6899366;472351,799674923;940267,762475945
"F_412";0,000331399140310382;3817617;460108,05637864;945568,609504582
"F_413";0,000343121674525381;5849069;464392,616609312;942073,050945132
"F_414";0,000359983166069215;700301;458853,185179225;950934,466921306
"F_415";0,000215515609136556;3301256;463752,682292478;946458,751741466
"F_416";0,000384779773012755;6738025;464522,603267418;940542,806425544
"F_417";0,000495490978549123;6940265;458973,172863632;940192,750489691
"F_418";0,000451152567839711;96759;462342,827000706;951974,633130699
"F_419";0,000385392540086555;2786653;461662,896789071;947343,893179267
"F_420";0,000245081104392401;5277789;469417,100893821;943058,208364605
"F_421";0,000202225508782795;3017307;467457,30204852;946948,830051661
"F_422";0,000381749015468833;7150421;463952,661766489;939832,69295567
"F_423";0,000444539621666784;7582406;459653,103075267;939087,573892211
"F_424";0,000361239390702629;5729148;460313,035339501;942278,08370756
"F_425";0,000238577090205937;1902741;472226,812503666;948869,136899771
"F_426";0,000354308885154227;3212696;471226,915133614;946613,776513058
"F_427";0,000334795916857309;5739008;466037,447783046;942263,081310309
"F_428";0,000414719338581403;6201364;468342,211221015;941467,954256014
"F_429";0,000387463425277844;1014758;462437,817250861;950394,380620275
"F_430";0,00054381637795829;7382956;464627,592491274;939432,629028981
"F_431";0,000502270510708234;6483303;469112,132195955;940982,876744903
"F_432";0,000239785723765414;3076657;459183,151311342;946843,813270905
"F_433";0,000354344964830182;4881447;463107,748488795;943738,317039977
"F_434";0,000408624879373236;6172312;468332,212247315;941517,96224685
"F_435";0,000494286334304048;6396223;469462,096275473;941132,900717411
"F_436";0,000225235241415225;2299738;467287,319495611;948184,027425315
"F_437";0,000317059952954946;2205265;459723,09589117;948344,052995991
"F_438";0,000215861830855578;5434383;468037,24252315;942788,165214089
"F_439";0,00028755457746748;4066118;467987,247654647;945143,541582474
"F_440";0,000294904165829832;2351715;465722,48011148;948094,01304181
"F_441";0,000347400978562578;6160326;466502,40006012;941537,965443184
"F_442";0,000362503366913646;4404639;461167,947590895;944558,448089691
"F_443";0,000330411812848099;2209175;464747,58017568;948339,052196907
"F_444";0,000282983067234639;3064333;470187,021868761;946868,817266323
"F_445";0,000315061898132643;5912916;464077,648937745;941963,033365292
"F_446";0,000192633126559541;3193946;464627,592491274;946643,78130756
"F_447";0,000286035826389971;5814085;463772,68023988;942133,060534135
"F_448";0,000434859616593063;7366299;468492,195826523;939462,633823482
"F_449";0,000330652493165153;2285802;470232,017250413;948209,031420733
"F_450";0,000467325119865549;1246369;458493,222126007;949994,316693585
"F_451";0,000355242812426527;4910516;463202,73873895;943688,309049141
"F_452";0,000366723190413029;5500683;465462,506795267;942673,146835166
"F_453";0,000201399132495484;211863;471386,898712823;951779,601966438
"F_454";0,000310918217081539;1906170;460323,034313201;948859,135301604
"F_455";0,000336103545063459;2188914;465117,542202599;948374,057790493
"F_456";0,000306437578170402;4642700;460423,024050207;944148,382564834
"F_457";0,000319999268841045;1924073;462687,791593373;948829,130507102
"F_458";0,000360030059821332;404557;461682,894736472;951444,548427835
"F_459";0,000432200858668407;3605874;461717,891144423;945933,667837686
"F_460";0,000266529348683743;4648014;457943,278572479;944138,380966667
"F_461";0,000321852563004647;5169305;464422,613530413;943243,237930699
"F_462";0,000298492201822333;4740818;471686,867923838;943983,356195074
"F_463";0,000345608181259306;4123807;465932,458559191;945043,525600802
"F_464";0,000257746516293075;3898742;459033,166705835;945428,587130241
"F_465";0,000355144671363835;416172;461657,89730222;951424,545231501
"F_466";0,000288746802043889;4035351;459403,128732754;945193,54957331
"F_467";0,000272863777549217;4772938;457988,273954131;943923,346606071
"F_468";0,000514105691068157;7079613;458513,220073408;939952,712133677
"F_469";0,000379081370535023;4026948;460962,968630034;945208,551970561
"F_470";0,000383996586053092;1614732;470157,024947659;949364,216009049
"F_471";0,000305613155544339;7179374;463467,711542014;939782,684964834
"F_472";0,000456502244534521;5986852;470631,976198434;941838,013388202
"F_473";0,000415463955918017;5702129;470466,993132375;942328,091698396
"F_474";0,000324822562905792;4695350;462222,839316299;944058,368181329
"F_475";0,000334442703550652;2088127;469557,086525628;948549,085758419
"F_476";0,000350457253652939;5952774;460018,065615336;941893,022178121
"F_477";0,000423944277630009;74347;466482,402112719;952014,639523368
"F_478";0,000435454492956623;244898;462262,835211102;951719,592377434
"F_479";0,000368892295496192;4355319;461492,914236162;944643,461674112
"F_480";0,000365019711442113;2100581;459203,149258744;948524,081763001
"F_481";0,000493473997698261;6890131;469752,066512788;940282,764873196
"F_482";0,000330004741297039;4235439;472141,821227212;944853,495235624
"F_483";0,000247881823367915;4844432;466857,363626489;943803,327428064
"F_484";0,000304280595283278;5714338;458888,181587177;942303,087702978
"F_485";0,000346369011320268;5334987;464907,563754888;942958,192382932
"F_486";0,000378115009593094;300941;466502,40006012;951624,577194845
"F_487";0,000438243260475101;1237725;458848,185692375;950009,319090836
"F_488";0,000306952797790616;2072855;465822,469848485;948574,089753837
"F_489";0,000353680439786032;2626884;461692,893710172;947618,937128866
"F_490";0,000363294738061888;6301114;458718,199034269;941292,926288087
"F_491";0,0003341662887386;2194343;463212,737712651;948364,056192325
"F_492";0,000415597224666518;6752978;466662,383639329;940517,802430126
"F_493";0,000465821821079624;5905652;471331,90435747;941978,035762543
"F_494";0,000330688059992271;6278085;459773,090759673;941332,932680756
"F_495";0,000526734203566616;6985877;469157,127577608;940117,738503436
"F_496";0,000449698855555975;6347215;471346,902818021;941217,914301833
"F_497";0,000262322303447762;685261;470801,958751342;950964,471715808
"F_498";0,000224198832184102;4740599;470591,980303632;943983,356195074
"F_499";0,00050628914277884;6913862;472206,814556265;940242,758480527
"F_500";0,000268095123689093;1188093;472136,821740361;950099,333474341
"F_501";0,000543725227024538;7182697;465557,497045422;939777,68416575
"F_502";0,000465831310637247;6126538;471861,849963597;941597,975032188
"F_503";0,000283677723816109;2996099;463093,2855;946984,6599
"F_504";0,000436059562127817;6411097;471206,917186213;941107,896721993
"F_505";0,000508646020366258;7174818;469737,068052238;939792,686563001
"F_506";0,000355175575538086;419532;463932,663819088;951419,544432417
"F_507";0,000453984002774396;6527368;471561,880752582;940907,864758648
"F_508";0,000411791800000083;3600133;462062,855737091;945943,669435853
"F_509";0,000405849441395086;3164146;460877,97735358;946693,789298396
"F_510";0,000356824065413171;7273080;467197,328732306;939622,659394158
"F_511";0,00031128396865803;2699755;462922,767475336;947493,917151775
"F_512";0,000173052395752132;7559672;462182,843421497;939127,58028488
"F_513";0,000397378604960984;1386930;464098,2855;949754,6599
"F_514";0,000331102530627987;5697397;461332,930656954;942333,09249748
"F_515";0,000279901784759227;6423727;461732,889604974;941082,892726575
"F_516";0,00020513839380016;2877504;465642,488321876;947188,868407675
"F_517";0,00030272175851939;2395015;464347,621227659;948019,001055556
"F_518";0,000248748602839032;2018909;472066,828924458;948669,104936426
"F_519";0,000236321396854665;4433089;458168,25548074;944508,440098854
"F_520";0,000275913374232099;3777609;463417,716673511;945638,620691753
"F_521";0,000324969489790385;2522374;462042,85778969;947798,965895876
"F_522";0,000289234892239876;4642045;471671,869463287;944153,383363917
"F_523";0,000389531628310741;245752;466532,396981222;951719,592377434
"F_524";0,000364679370764834;543374;458568,214428761;951204,510071821
"F_525";0,000323084092663653;6047194;467317,316416713;941732,996607446
"F_526";0,000464867281172704;5931751;471101,927962358;941933,02857079
"F_527";0,000350481014740099;5655458;469512,091143976;942408,104483734
"F_528";0,000376922007922564;6495840;459173,152337642;940957,872749484
"F_529";0,000367159292358323;2821601;462102,851631893;947283,883590263
"F_530";0,000421029008701319;875478;463237,735146902;950634,418976289
"F_531";0,000398308153330918;582092;463332,725397057;951139,499683734
"F_532";0,00032503114218171;5550177;466007,450861945;942588,133250745
"F_533";0,000346966272494656;4713230;464472,608398916;944028,363386827
"F_534";0,000452700652804151;76457;462507,810066764;952009,638724284
"F_535";0,000334338616867349;5563720;461097,954774991;942563,129255326
"F_536";0,000326145516307421;1038618;465537,499098021;950354,374227606
"F_537";0,000307079165953144;5685355;459223,147206145;942353,095693814
"F_538";0,000285092331691271;5348207;458383,233415301;942933,188387514
"F_539";0,000303121950499448;5264588;461512,912183563;943078,211560939
"F_540";0,000305088482993853;2391634;461967,865486936;948024,001854639
"F_541";0,00032869877002993;2454472;471131,92488346;947918,985073883
"F_542";0,000421533435536835;6936253;467962,250220396;940202,752087858
"F_543";0,000262616071378271;546049;471941,841753201;951204,510071821
"F_544";0,000468595473762867;6189963;469437,098841222;941487,957452348
"F_545";0,000443041118709559;6520870;468122,233799604;940917,866356816
"F_546";0,000297114702301803;2829492;457983,274467281;947268,881193013
"F_547";0,000213040751231709;2799284;466717,377994682;947323,889982932
"F_548";0,000269135138252134;2332021;468928,2855;948129,6599
"F_549";0,000324670340454616;2516362;461033,2855;947809,6599
"F_550";0,000443510185925266;6942105;468172,228668107;940192,750489691
"F_551";0,000443811977612161;7246770;466372,413402014;939667,666585911
"F_552";0,000223440987650262;2584431;467302,317956162;947693,94911512
"F_553";0,000305264983274035;4513285;466972,351824045;944373,418523597
"F_554";0,000496392542220819;6930043;465962,455480293;940212,753686025
"F_555";0,000308434086627602;1387247;465682,484216678;949754,278337572
"F_556";0,000268471828033668;3531307;466532,396981222;946063,68861386
"F_557";0,000564626146628863;7423644;464717,583254578;939362,61784181
"F_558";0,000371285587638701;335715;466072,444190998;951564,567605842
"F_559";0,00031708887745066;6093022;464057,650990344;941652,983822108
"F_560";0,000251367570418915;1898657;466332,417507212;948874,137698855
"F_561";0,000328731538787938;3896044;460068,060483838;945433,587929324
"F_562";0,000245556772228672;4084629;458868,183639776;945108,535988889
"F_563";0,000301526036597021;4479412;471906,84534525;944433,4281126
"F_564";0,00020655823751256;5222481;468852,158879742;943153,223547194
"F_565";0,00024178988404546;458781;471351,902304871;951354,53404433
"F_566";0,000229269182676031;3491123;468962,147590448;946133,699801031
"F_567";0,00036501764608809;1462707;465332,52013716;949624,257561398
"F_568";0,000335994126279304;3962892;460233,043549897;945318,569550401
"F_569";0,000354919608587013;4145429;472366,798135473;945008,520007216
"F_570";0,000604979191739905;7598059;465292,524242358;939062,569896793
"F_571";0,000387089425346646;1221061;462677,792619673;950039,323885338
"F_572";0,000338140042360319;390812;465582,494479673;951469,552423253
"F_573";0,000499887769362023;7030132;458033,269335783;940037,725718098
"F_574";0,000271543357839152;1156131;472101,82533241;950154,342264261
"F_575";0,000242122894398809;1062712;469807,060868141;950314,367834937
"F_576";0,000352908171093431;4765609;464917,562728589;943938,349003322
"F_577";0,000406992275246162;6058366;465077,546307797;941712,993411111
"F_578";0,000446483637255406;7233812;459683,099996368;939687,669782245
"F_579";0,000351661732435894;5121340;471521,88485778;943328,25151512
"F_580";0,00023176315296436;4185374;468742,170169036;944938,508820046
"F_581";0,00037890826126965;1949583;459513,11744346;948784,123315349
"F_582";0,000304739796912228;632039;466143,2855;951054,6599
"F_583";0,000236232542047874;2081755;466747,374915783;948559,087356586
"F_584";0,000470811528209833;6640327;469882,053170895;940712,833594387
"F_585";0,000336338204409156;2177306;465177,536044802;948394,060986827
"F_586";0,000353952358846941;4637910;465522,50063747;944158,384163001
"F_587";0,000362419065844158;4425024;461417,921933408;944523,442496105
"F_588";0,000464008999915288;6937439;459368,132324802;940197,751288774
"F_589";0,000525517110243328;7014922;469132,130143356;940067,7305126
"F_590";0,000316207293610297;7103870;463597,69820012;939912,705741008
"F_591";0,00030339616968265;3828551;471201,917699363;945553,607107331
"F_592";0,000256715870556257;5071726;470377,002369071;943413,265099542
"F_593";0,00030168771751964;234274;467242,324113959;951739,595573769
"F_594";0,000398692506172346;5733995;470022,038802702;942273,082908476
"F_595";0,000440740654522811;7515231;472376,797109174;939207,593070218
"F_596";0,000310917921955716;2041556;469102,133222255;948629,098543757
"F_597";0,000226346762191713;2543834;467667,280496231;947763,960302291
"F_598";0,000450583945880922;6832844;459293,140022048;940377,780055785
"F_599";0,000242189392264537;2093359;466667,383126179;948539,084160252
"F_600";0,000237103975399118;2989438;458838,186718675;946993,837243413
"F_601";0,000253381397693298;5848810;463097,749515095;942073,050945132
"F_602";0,000324847731698766;3784027;466457,404678468;945628,619093585
"F_603";0,000272571358748793;726931;461277,936301601;950889,459729553
"F_604";0,000299072909895914;1870643;471511,885884079;948924,145689691
"F_605";0,000342261911485752;3762922;462607,799803769;945663,624687171
"F_606";0,000294572802369414;5078502;460682,99736642;943398,262702291
"F_607";0,000314507691695192;1039621;470551,98440883;950354,374227606
"F_608";0,000454782266996798;1472962;458508,220586558;949604,254365063
"F_609";0,000195842691457051;440631;467752,271772685;951384,538838832
"F_610";0,000325391213844908;2310483;462912,768501635;948164,024228981
"F_611";0,000195076921852049;571332;467632,284088279;951159,502880069
"F_612";0,000232684884640359;3368740;467097,338995301;946343,733362543
"F_613";0,000451409645936728;5531071;472151,820200912;942623,13884433
"F_614";0,000328047953000033;256980;464572,598135921;951699,5891811
"F_615";0,000194784318242468;183581;460702,995313821;951824,60915819
"F_616";0,000304791222795029;1450032;460058,061510138;949644,260757732
"F_617";0,000336795725053615;3654434;472116,82379296;945853,655052348
"F_618";0,000235793350857848;6862671;463177,741304699;940327,772064948
"F_619";0,000346186764194897;2826334;471241,913594165;947278,88279118
"F_620";0,000358129123108744;1037363;459263,143100947;950354,374227606
"F_621";0,000268179942918241;4694501;457978,27498043;944058,368181329
"F_622";0,000414590724076935;3539126;462052,856763391;946048,686216609
"F_623";0,000287320178792339;5054381;470801,958751342;943443,269894044
"F_624";0,000181096055083736;3208672;465632,489348176;946618,777312142
"F_625";0,000513005303494487;6776658;468862,157853442;940477,796037457
"F_626";0,000333332689688885;1222783;471288,2855;950039,6599
"F_627";0,00041720943500585;1232795;463248,2855;950019,6599
"F_628";0,000160579150231033;4580565;469297,113209415;944258,400144674
"F_629";0,000332340624741081;2254498;458963,173889931;948259,039411569
"F_630";0,00038758080001496;2926161;462002,861894888;947103,854823253
"F_631";0,00025880107516266;1676896;461427,920907108;949254,19842921
"F_632";0,00026765161780184;6568984;461767,886012926;940832,852772394
"F_633";0,000342023790956404;2917551;462527,808014165;947118,857220504
"F_634";0,000358977540003828;1774685;471046,933607005;949089,17205945
"F_635";0,00024861698010572;328255;472346,800188072;951579,570003093
"F_636";0,000435969254023174;1423662;458933,17696883;949689,267949485
"F_637";0,000210624339149763;2078951;467252,323087659;948564,08815567
"F_638";0,000421591126060147;3152720;461847,87780253;946713,792494731
"F_639";0,000209274544114157;3043387;467132,335403253;946903,822859908
"F_640";0,000430167334175855;3097410;461273,2855;946809,6599
"F_641";0,000272499726914334;3587103;469537,088578227;945968,673431271
"F_642";0,0003454654390967;4449046;465327,52065031;944483,436103436
"F_643";0,000328133026219286;2229246;463427,715647212;948304,046603322
"F_644";0,000265234096184543;4173659;468267,218918262;944958,51201638
"F_645";0,000239053145875936;7019192;461432,920393959;940057,728914433
"F_646";0,000388832941495502;584735;462022,859842289;951134,498884651
"F_647";0,000449680151275363;6622145;466122,439059501;940742,838388889
"F_648";0,000314303359414299;225546;467178,2855;951754,6599
"F_649";0,000379251360809643;1777547;470831,955672444;949084,171260367
"F_650";0,000319269330882001;2623234;457968,27600673;947623,93792795
"F_651";0,000257042311030605;7190463;460812,984024527;939762,681768499
"F_652";0,000308876151235177;5912427;461632,899867969;941963,033365292
"F_653";0,000325956813769706;4730106;461702,892683873;943998,358592325
"F_654";0,000387971165607652;1937939;459393,129759053;948804,126511684
"F_655";0,000221078228836682;857385;459923,075365181;950664,42377079
"F_656";0,000228631825439617;193689;467667,280496231;951809,606760939
"F_657";0,000260932232003494;5524539;468542,190695026;942633,140442497
"F_658";0,000518241507800736;6640786;472176,817635163;940712,833594387
"F_659";0,000464869659959725;5949285;471621,874594785;941903,023776289
"F_660";0,000491710784296363;6442605;468972,146564148;941052,887932073
"F_661";0,000428398036486108;1699506;458278,244191446;949214,192036541
"F_662";0,000262235984874606;1400921;461427,920907108;949729,274342153
"F_663";0,00047513321981284;868633;458063,266256885;950644,420574456
"F_664";0,000403275149166944;1328993;464912,563241738;949854,294319244
"F_665";0,000330893786832528;3851938;471938,2855;945514,6599
"F_666";0,000263445705073793;5588391;468252,220457711;942523,122862658
"F_667";0,000304284027187176;4047868;463887,668437435;945173,546376976
"F_668";0,000381652876967794;976973;462337,827513855;950459,391008362
"F_669";0,000271468232916157;2930699;470167,02392136;947098,85402417
"F_670";0,000331167290354044;2292161;458453,226231205;948194,029023482
"F_671";0,00029096752395139;133817;458808,189797573;951909,622742612
"F_672";0,000491969752837667;7474087;470007,040342151;939277,604257388
"F_673";0,000348548860793859;1112919;459393,129759053;950224,353451432
"F_674";0,000315608408081571;4321615;467272,32103506;944703,471263116
"F_675";0,000297429304003294;2551706;463452,713081463;947748,95790504
"F_676";0,000344938309801864;4788669;464017,655095542;943898,342610653
"F_677";0,000161737574217168;1210527;468107,235339053;950059,327081672
"F_678";0,000398382954325818;6284912;464857,568886386;941322,931082589
"F_679";0,000346602924931164;3234207;462582,802369518;946573,770120389
"F_680";0,000362688415762844;5746658;460712,994287522;942248,078913058
"F_681";0,000306679428311947;5452741;458153,257020189;942753,159620504
"F_682";0,000374174896407308;4221605;461072,95734074;944873,498431959
"F_683";0,000429802065821162;297273;462687,791593373;951629,577993929
"F_684";0,000428134450827451;3698800;461547,908591515;945773,64226701
"F_685";0,000209396086431239;2822458;466387,411862565;947283,883590263
"F_686";0,000314905988487334;495606;466652,384665628;951289,523656243
"F_687";0,000252621943703263;3518192;459058,164140086;946083,691810195
"F_688";0,000415355940910047;776709;463242,734633752;950804,446145132
"F_689";0,000418609342631057;3817907;461557,907565215;945568,609504582
"F_690";0,000329847424836987;3218362;470506,989027177;946603,774914891
"F_691";0,000442093771758184;7146663;459688,099483219;939837,693754754
"F_692";0,000282243891842074;5694967;463707,686910826;942338,093296564
"F_693";0,000411985111919336;3887612;461482,915262461;945448,590326575
"F_694";0,000309076107086862;3176161;462852,774659432;946673,786102062
"F_695";0,00045842832950756;6100196;470876,951054096;941642,98222394
"F_696";0,000498091633373878;6654805;469647,077288933;940687,829598969
"F_697";0,000357542020440314;4036716;466227,428283356;945193,54957331
"F_698";0,000482706059352201;6346882;469682,073696885;941217,914301833
"F_699";0,000355130850462928;3224275;471023,2855;946594,6599
"F_700";0,000319533658412632;3674475;470646,974658984;945818,649458763
"F_701";0,000306336203394191;3437017;459883,079470379;946223,714184536
"F_702";0,000327014680433232;5418388;460688,2855;942814,6599
"F_703";0,000397432274887832;1467323;459363,132837952;949614,25596323
"F_704";0,000286464502053221;2884695;458023,270362083;947173,866010424
"F_705";0,00037508853773356;7456869;471066,931554406;939307,60905189
"F_706";0,000395976251288994;6715381;467502,297430172;940582,812818213
"F_707";0,00041858899096403;7183921;471676,868950138;939777,68416575
"F_708";0,000387184747622745;5718523;465287,524755508;942298,086903895
"F_709";0,00021893182329654;4838694;467217,326679707;943813,329026231
"F_710";0,000412522083204755;3420027;462082,853684492;946253,718979038
"F_711";0,00034354626982678;13096;465252,528347556;952119,656304124
"F_712";0,000416155264359013;6215299;465392,513979363;941442,950260596
"F_713";0,000375147933049068;2821377;460982,966577435;947283,883590263
"F_714";0,000250114055885818;2416207;468632,18145833;947983,99546197
"F_715";0,000310363255704597;2768382;471981,837648003;947378,898772852
"F_716";0,000490616097401854;7110179;466092,442138399;939902,704142841
"F_717";0,000462177090697192;6629067;471681,868436988;940732,836790722
"F_718";0,000343167098177626;120385;464272,628924905;951934,62673803
"F_719";0,000354164941938373;4966144;465367,516545112;943593,293866552
"F_720";0,000447321252174603;5562965;471846,851503046;942568,13005441
"F_721";0,000248431661728345;3429642;466583,2855;946239,6599
"F_722";0,000290432685264677;4824011;466427,407757367;943838,33302165
"F_723";0,000133070251505419;580326;469027,140919501;951144,500482818
"F_724";0,000494514040548037;7384611;458378,233928451;939427,628229897
"F_725";0,000258240708554915;2708807;464608,2855;947479,6599
"F_726";0,000362335372721067;1774422;469732,068565387;949089,17205945
"F_727";0,000243808015849878;6824627;461782,884473477;940392,782453035
"F_728";0,000252443570712848;5200214;459193,150285043;943188,229140779
"F_729";0,000340014597426346;4870063;464287,627385456;943758,320236312
"F_730";0,000228086668072125;3578123;468212,224562909;945983,675828522
"F_731";0,000278042115711231;2134434;468692,175300534;948469,072973081
"F_732";0,00024977251761358;4465230;459098,160034888;944453,431308935
"F_733";0,000322662685558071;2454344;470491,990566626;947918,985073883
"F_734";0,0004074396666819;7305235;468197,226102358;939567,650604238
"F_735";0,000390019677619493;6218330;466023,2855;941439,6599
"F_736";0,000363359975190057;593830;463922,664845387;951119,4964874
"F_737";0,000267730084943376;1967369;461292,934762151;948754,118520848
"F_738";0,000277907868616103;3825404;469992,041881601;945558,607906415
"F_739";0,000462658582922934;6056648;471011,937199053;941717,994210195
"F_740";0,000269134474877872;1656452;460882,97684043;949289,204022795
"F_741";0,000317942975101471;6467075;460598,006089966;941007,880740321
"F_742";0,000435427627433078;819320;458423,229310103;950729,434158877
"F_743";0,000315890070418414;6443891;460877,97735358;941047,88713299
"F_744";0,000575036822804565;7345305;465197,533992203;939497,639417068
"F_745";0,00047340810620246;6678657;458183,253941291;940642,822407217
"F_746";0,000406544436991671;3445930;460872,97786673;946208,711787285
"F_747";0,000409581287372565;6535312;467707,276391033;940892,862361397
"F_748";0,000284771775761902;3303357;459733,094864871;946453,750942383
"F_749";0,000325415093340483;5094068;465887,463177539;943373,258706873
"F_750";0,000321080454954951;5796742;464207,635595852;942163,065328637
"F_751";0,000379366434982392;2763423;461712,891657573;947383,899571936
"F_752";0,000422069608430127;7241755;470347,005447969;939677,668184078
"F_753";0,000315545560523734;98901;458528,218533959;951969,632331615
"F_754";0,000490906434296463;6536159;471941,841753201;940892,862361397
"F_755";0,000407257835390774;3646404;461017,962985387;945863,656650515
"F_756";0,000366708341132907;4190770;466672,382613029;944928,507221879
"F_757";0,000345762869269673;2641470;461997,862408038;947593,933133448
"F_758";0,000273038316346862;3575486;469552,087038778;945988,676627606
"F_759";0,00050279040441376;6886411;465677,484729828;940287,76567228
"F_760";0,000319865651273252;5904941;467777,269206936;941978,035762543
"F_761";0,000447438175683565;1551398;458513,220073408;949469,232789805
"F_762";0,000153439547712968;1460138;467012,347718847;949629,258360481
"F_763";0,000293285025554853;4188090;467797,267154337;944933,508020962
"F_764";0,000383824486736759;1058834;464942,56016284;950319,368634021
"F_765";0,000321827175672647;1035719;465567,496019122;950359,375026689
"F_766";0,000383406601817686;1484054;470392,000829621;949589,251967812
"F_767";0,000506580157560928;6529845;469422,100380671;940902,863959565
"F_768";0,000328283922264073;5666992;469082,135274854;942388,1012874
"F_769";0,000390498107186366;6837288;466987,350284596;940372,779256701
"F_770";0,000345118353001214;2586217;461707,892170723;947688,948316037
"F_771";0,000166676451509883;359800;470297,010579466;951524,561213173
"F_772";0,000371849023643147;5852893;468987,145024699;942068,050146048
"F_773";0,000288269211483359;6848241;463653,2855;940354,6599
"F_774";0,000381620948283462;7470805;468122,233799604;939282,605056472
"F_775";0,00031639935050716;2563219;462917,767988485;947728,954708706
"F_776";0,000335840754814619;5151678;463437,714620912;943273,2427252
"F_777";0,000473745026297432;7447964;470117,029052857;939322,611449141
"F_778";0,000242350284162687;2419031;468227,22302346;947978,994662887
"F_779";0,000539703259428485;7130374;465392,513979363;939867,698549255
"F_780";0,000271584219920066;6307917;463682,689476575;941282,92468992
"F_781";0,000296403624379576;2295620;461222,941946248;948189,028224399
"F_782";0,000463170054207606;6332420;469997,041368451;941242,918297251
"F_783";0,000296040297741104;3361474;459818,086141325;946353,73496071
"F_784";0,000387540550893771;6740934;464542,601214819;940537,80562646
"F_785";0,000249861024509939;2710776;459928,074852031;947473,913955441
"F_786";0,000490574762121267;6815049;471991,836621704;940412,78564937
"F_787";0,000275737869514183;973879;461392,924499157;950464,391807446
"F_788";0,000265185854580716;4379828;467837,263049139;944603,455281443
"F_789";0,000392798494673732;1546808;464612,594030723;949479,234387973
"F_790";0,000322518900137161;5789983;459463,122574957;942173,066926804
"F_791";0,000179642735672814;992832;469007,1429721;950434,387012944
"F_792";0,000410445844899359;7491871;471776,858687143;939247,599462887
"F_793";0,000348144763550319;2995981;462502,810579914;946983,835645246
"F_794";0,000573108730196092;7534006;464578,2855;939174,6599
"F_795";0,000357281237929807;4230260;460772,988129725;944858,496034708
"F_796";0,000243260683540608;4561092;459083,161574337;944288,404939175
"F_797";0,000516916384574634;7314953;458688,202113167;939547,647407904
"F_798";0,000246507800164315;6258250;462272,834184802;941367,938274341
"F_799";0,000342988248439947;889733;461887,873697332;950609,414980871
"F_800";0,00035001183487303;5865840;461098,2855;942044,6599
"F_801";0,000217186544621605;491548;460887,976327281;951294,524455326
"F_802";0,000214694736058251;1884220;466772,372350034;948899,141694273
"F_803";0,000441817007619306;1292917;458833,187231824;949914,303908247
"F_804";0,000275804884113564;5643231;466477,402625869;942428,107680069
"F_805";0,00031483020740566;4364395;463297,728989105;944628,459276861
"F_806";0,000448782219822941;6628356;468127,233286454;940732,836790722
"F_807";0,000482110958906444;6794924;458518,219560258;940442,790443872
"F_808";0,000338277622158151;6234650;460473,018918709;941407,94466701
"F_809";0,000332531119440584;1969346;471176,920265112;948754,118520848
"F_810";0,000361692190652884;6140223;467662,28100938;941572,97103677
"F_811";0,000403504854571487;1183567;464032,653556093;950104,334273425
"F_812";0,000321492933236592;5800465;468297,215839363;942158,064529553
"F_813";0,000242394828461829;354332;472006,835082255;951534,56281134
"F_814";0,000347504718651294;3421845;471171,920778262;946253,718979038
"F_815";0,000257014946341855;6002832;463382,720265559;941808,0085937
"F_816";0,000358137308682209;2713897;461007,964011687;947468,913156357
"F_817";0,000239834776246398;6214702;462407,820329759;941442,950260596
"F_818";0,00034207822852445;2074544;459743,093838571;948569,088954754
"F_819";0,000352103872667063;5601390;460623,003524217;942498,118867239
"F_820";0,000208591780141499;6830599;462592,801343219;940382,780854868
"F_821";0,000230887439343949;3625618;458763,194415921;945898,662244101
"F_822";0,000386067514496312;1297088;465162,537584251;949909,303109164
"F_823";0,000423345982081367;1066331;458853,185179225;950304,36623677
"F_824";0,000211056311335295;4153543;469362,106538468;944993,517609966
"F_825";0,00031972340944423;2355725;471246,913081015;948089,012242726
"F_826";0,000280734989779077;5360041;459453,2855;942914,6599
"F_827";0,000367545370844932;5497719;465167,537071102;942678,14763425
"F_828";0,000365830748175034;1935096;459703,097943769;948809,127310767
"F_829";0,00031293470355134;1774319;469217,121419811;949089,17205945
"F_830";0,000329540755722904;2300494;471066,931554406;948184,027425315
"F_831";0,000373529239178931;7607053;466687,38107358;939047,567499542
"F_832";0,000445404884596654;6007017;469782,06343389;941803,007794616
"F_833";0,000271987113148695;4909889;460068,060483838;943688,309049141
"F_834";0,000149883085264332;623751;468277,217891962;951069,488496564
"F_835";0,000459671056135268;5859104;470991,939251652;942058,048547881
"F_836";0,000497953554356846;6956189;465968,2855;940169,6599
"F_837";0,000341193237651261;2091060;469697,072157435;948544,084959336
"F_838";0,000379184176499278;7503384;471241,913594165;939227,596266552
"F_839";0,000347306967236929;1822457;462982,761317539;949004,158475029
"F_840";0,000370911998339644;1350453;470536,985948279;949819,288725659
"F_841";0,000406702691271973;1247440;463847,672542633;949994,316693585
"F_842";0,000375195228876062;1204142;465232,530400155;950069,32867984
"F_843";0,00033427254114273;2008361;462902,769527935;948684,107333677
"F_844";0,000370222788984356;1672998;470986,939764802;949264,200027377
"F_845";0,00034468436570747;1898269;464392,616609312;948874,137698855
"F_846";0,000311938150795611;4106016;464127,643806248;945073,530395304
"F_847";0,000354175386189483;5052831;463052,754133442;943443,269894044
"F_848";0,000264144369680968;5608387;466557,394415473;942488,117269072
"F_849";0,000401058133669989;6699252;459483,120522358;940607,816813631
"F_850";0,000172677297146311;4969513;467687,278443632;943588,293067468
"F_851";0,000240818874163463;4731931;470826,956185594;943998,358592325
"F_852";0,000338085971170015;2689736;470926,945922599;947513,92034811
"F_853";0,000418416805567856;579092;462857,774146282;951144,500482818
"F_854";0,000440022429551868;5536785;471671,869463287;942613,137246163
"F_855";0,000300540015437433;2459087;465157,538097401;947908,983475716
"F_856";0,000487423548918644;1313076;457953,277546179;949879,298314662
"F_857";0,000465657318900145;5966701;471551,881778881;941873,018981787
"F_858";0,000485168666080259;6669778;471886,847397848;940662,825603551
"F_859";0,000369260811678337;375516;461727,890118124;951494,556418671
"F_860";0,000337827561465233;4610989;461642,89884167;944203,391354754
"F_861";0,000331646630738408;4491683;460638,001984768;944408,424117182
"F_862";0,000278467631922141;3905614;464342,621740809;945418,585532073
"F_863";0,000499162857337144;7198654;458193,252914991;939747,679371249
"F_864";0,000279346084180777;4715252;460058,061510138;944023,362587743
"F_865";0,000210764435259125;911000;466547,395441773;950574,409387285
"F_866";0,000506125903786897;6884299;469642,077802083;940292,766471363
"F_867";0,000467850308391322;6786281;458878,2855;940459,6599
"F_868";0,00041666241796122;1192091;463077,751567694;950089,331876174
"F_869";0,000417139937420027;1238620;463322,726423356;950009,319090836
"F_870";0,000394061499528071;4088043;461412,922446558;945103,535189805
"F_871";0,000427705280902657;5681852;470756,96336969;942363,097291982
"F_872";0,0003488702550731;6081849;466292,42161241;941672,987018442
"F_873";0,000261285841144583;7036529;460967,968116885;940027,724119931
"F_874";0,000386257703109523;5321753;471361,901278571;942983,19637835
"F_875";0,000377039925740341;3786099;462292,832132203;945623,618294502
"F_876";0,000348158669308907;7392205;467297,318469312;939417,62663173
"F_877";0,000314550267069704;5563138;458188,253428141;942563,129255326
"F_878";0,000508704263259218;7261976;469778,2855;939644,6599
"F_879";0,000185283696681843;722831;469827,058815542;950899,46132772
"F_880";0,000301104609241584;4120755;465197,533992203;945048,526399885
"F_881";0,000312704826230582;4709566;460677,99787957;944033,364185911
"F_882";0,000435403476717671;6695141;467977,248680947;940617,818411798
"F_883";0,000331795354355117;5926319;458468,2855;941939,6599
"F_884";0,000345122954988653;3047171;471526,88434463;946898,822060825
"F_885";0,000440344931514334;6344268;471136,92437031;941222,915100916
"F_886";0,000530605427363879;7429402;464457,609938365;939352,616243643
"F_887";0,000377274970376942;989099;464867,567860086;950439,387812027
"F_888";0,000244987193542353;2847277;459758,092299122;947238,876398511
"F_889";0,000289870239538211;2487941;464177,63867475;947858,97548488
"F_890";0,000172194617882869;1071168;468512,193773924;950299,365437686
"F_891";0,000462479817429575;6985721;468377,207628967;940117,738503436
"F_892";0,000296023209957042;4731071;466527,397494372;943998,358592325
"F_893";0,000385218439507585;573106;461977,864460637;951154,502080985
"F_894";0,00034013963517404;5154859;464817,572991583;943268,241926117
"F_895";0,000389522795534753;1791934;470143,2855;949059,6599
"F_896";0,000501338463052653;7315077;459308,138482599;939547,647407904
"F_897";0,000393638054656032;392184;457918,281138227;951464,551624169
"F_898";0,000310291956040333;3709297;470456,994158675;945758,639869759
"F_899";0,000554837210235184;7354100;465597,492940224;939482,637019817
"F_900";0,000368954321772076;1335994;470866,952080396;949844,292721077
"F_901";0,000270626971317353;3566254;466967,352337194;946003,679024857
"F_902";0,000482038505187597;6721651;469802,061381291;940572,811220046
"F_903";0,000357833632693218;2149913;458938,17645568;948439,06817858
"F_904";0,000378869148238067;5971920;468597,185050379;941863,01738362
"F_905";0,000401351355232547;3248644;462142,847526695;946548,766124971
"F_906";0,000498567894375141;1208489;457918,281138227;950059,327081672
"F_907";0,000244967352379556;4720326;470901,948488348;944018,36178866
"F_908";0,000299944905850456;2238442;465832,468822186;948289,044206071
"F_909";0,000336397004958264;7426301;463477,710515714;939357,617042726
"F_910";0,00037823937549191;1492870;470896,949001497;949574,249570561
"F_911";0,00034246289503173;963053;465362,517058262;950484,39500378
"F_912";0,000337573790476055;4971790;464548,2855;943584,6599
"F_913";0,00043724599594344;7471626;472226,812503666;939282,605056472
"F_914";0,000444163829887043;7406991;468602,184537229;939392,622636312
"F_915";0,000351592557753166;4864094;463492,708976265;943768,321834479
"F_916";0,000350425828361331;4922604;465542,498584871;943668,305852806
"F_917";0,00041541165815578;131757;463032,756186041;951914,623541695
"F_918";0,000458952020695257;5763443;472011,834569105;942223,07491764
"F_919";0,000364277053348101;6523048;464487,606859466;940912,865557732
"F_920";0,000329123269889759;5293861;462627,79775117;943028,203570103
"F_921";0,000181560234203157;4984348;469237,119367212;943563,28907205
"F_922";0,000385494912283003;1209932;465132,54066315;950059,327081672
"F_923";0,000324964726278107;4593662;462157,845987246;944233,396149255
"F_924";0,000250692516139766;3874621;469152,128090757;945473,594321993
"F_925";0,000445443306615388;6245448;470888,2855;941394,6599
"F_926";0,000365572080664878;5891859;460468,019431859;941998,038958877
"F_927";0,000274166384263808;4446584;467542,293324974;944488,43690252
"F_928";0,000374455366368095;6442214;467018,2855;941054,6599
"F_929";0,000259254611268276;2175051;468427,20249747;948399,061785911
"F_930";0,00030246162518289;5983186;466827,366705387;941843,014187285
"F_931";0,000417286545459856;1032270;462848,2855;950364,6599
"F_932";0,000319572278260858;3827547;466182,432901704;945553,607107331
"F_933";0,000418303571427789;6269006;457953,277546179;941347,935078007
"F_934";0,000335991324027779;5569309;459993,068181084;942553,127657159
"F_935";0,000412098020934488;6596852;470382,001855921;940787,845580641
"F_936";0,000247589191859058;2369312;466557,394415473;948064,008247308
"F_937";0,000254125752850987;2451231;469452,097301773;947923,985872967
"F_938";0,000411968599605442;5931395;469322,110643666;941933,02857079
"F_939";0,000320298465826709;2304639;462743,2855;948174,6599
"F_940";0,000414296703695903;27913;466712,378507831;952094,652308706
"F_941";0,000221160000194457;4862563;470362,00390852;943773,322633562
"F_942";0,000406392296905006;6148406;465002,554005043;941557,968639519
"F_943";0,000312634867879618;5461786;459803,087680775;942738,157223253
"F_944";0,000485173219083334;6661168;457888,284217126;940672,827201718
"F_945";0,000452805508282182;6765983;459063,163626936;940492,798434708
"F_946";0,00034928035627675;309482;465632,489348176;951609,574797594
"F_947";0,000412321843795041;6689068;466662,383639329;940627,820009966
"F_948";0,00052534414862418;6829039;469317,111156816;940387,781653952
"F_949";0,000356877774423406;1558069;462817,77825148;949459,231191638
"F_950";0,000323763276113835;3668726;470951,94335685;945828,65105693
"F_951";0,000286939777663532;6301716;461728,2855;941294,6599
"F_952";0,000291513253886334;5037805;460548,011221463;943468,273889462
"F_953";0,000393198079581991;5997473;465637,488835026;941818,010191867
"F_954";0,000348024199554718;1932881;463152,743870448;948814,128109851
"F_955";0,000335521586159109;486826;466327,418020361;951304,526053494
"F_956";0,00033967495199334;3514723;470761,96285654;946093,693408362
"F_957";0,000301464427282313;2685268;463112,747975645;947518,921147194
"F_958";0,000342247114874545;3241633;470661,973119535;946563,768522222
"F_959";0,000316079682853664;2678426;457953,277546179;947528,922745361
"F_960";0,000342523323361659;4090200;472196,815582565;945103,535189805
"F_961";0,00028745880743018;2675499;472366,798135473;947538,924343528
"F_962";0,000325627023763916;4607289;472191,816095714;944213,392952921
"F_963";0,000479208098061883;7186484;469967,044447349;939772,683366667
"F_964";0,000358589237139977;6415555;464447,610964664;941097,895123826
"F_965";0,000435686535616895;5551268;471461,891015577;942588,133250745
"F_966";0,000394468662277463;854260;458823,188258124;950669,424569874
"F_967";0,000505051857074204;6489134;469217,121419811;940972,875146735
"F_968";0,000316090153330405;5943856;459003,169784733;941908,024575372
"F_969";0,00036161018661797;7188840;467222,326166558;939767,682567583
"F_970";0,000211816496484447;7045443;461962,866000086;940012,72172268
"F_971";0,000175544483215658;58617;460458,020458158;952039,643518786
"F_972";0,000376537410323737;7069095;464022,654582392;939972,715330011
"F_973";0,000346285076837034;2954195;471446,892555026;947058,847631501
"F_974";0,00043668545959283;6523759;468042,24201;940912,865557732
"F_975";0,000419423947035406;1139795;463047,754646592;950179,346259679
"F_976";0,000389433399180596;3196070;460722,993261222;946638,780508477
"F_977";0,000315549936767123;5299574;462142,847526695;943018,201971936
"F_978";0,000215636958887262;7086073;461762,886526076;939942,71053551
"F_979";0,000301635778235938;4721142;460458,020458158;944013,360989576
"F_980";0,000245947740606474;6310536;462252,836237401;941277,923890836
"F_981";0,00057618474492038;7397539;464917,562728589;939407,625033562
"F_982";0,000346619946262408;4530288;464837,570938985;944343,413729095
"F_983";0,000236057904588028;4305369;458668,204165766;944728,475258534
"F_984";0,000523427658788944;6968507;469457,096788623;940147,743297938
"F_985";0,000490157024538679;1028413;458088,263691136;950369,376624857
"F_986";0,000353005653249614;576434;464092,647398296;951149,501281901
"F_987";0,000325631553147516;5205457;470881,950540947;943183,228341695
"F_988";0,000230863363053867;4403686;470926,945922599;944563,448888774
"F_989";0,000308853504833279;4195214;459843,083575577;944918,505623711
"F_990";0,000389764795603257;5275320;471596,877160534;943063,209163688
"F_991";0,000440231875401725;3231063;461387,925012306;946578,770919473
"F_992";0,000606912468722533;7531189;465017,552465594;939177,588275716
"F_993";0,000556221547348186;7563268;465637,488835026;939122,579485796
"F_994";0,000292114884500456;5262617;466182,432901704;943083,212360023
"F_995";0,000215104776969465;3364066;458253,246757195;946348,734161627
"F_996";0,000327431573996992;870112;465457,507308417;950644,420574456
"F_997";0,000340705433581443;193010;464272,628924905;951809,606760939
"F_998";0,000316074342825105;3802477;471556,881265731;945598,614299084
"F_999";0,00026456308901707;1453235;461547,908591515;949639,259958648
"F_1000";0,00034277648029784;1267470;462322,829053305;949959,3111
