"Roost";"In";"Out";"InLink";"OutLink";"Betweeness";"Closeness"
"R_1";21;21;9;7;24,1378851540616;0,493287542928504
"R_2";26;26;14;14;88,4067226890756;0,634453219113907
"R_3";21;21;7;8;72,3603174603175;0,535835405833145
"R_4";19;19;7;10;312,664449112979;0,574824157167111
"R_5";26;26;11;12;388,714285714286;0,60536398467433
"R_6";22;21;10;8;264,465546218487;0,601217656012177
"R_7";19;19;6;5;77,3119047619048;0,515161395500489
"R_8";20;20;8;6;37,3365079365079;0,430088013791852
"R_9";21;21;9;7;170,444444444444;0,547660311958406
"R_10";15;15;3;4;1,325;0,419135202051464
"R_11";20;19;6;5;11,0880952380952;0,512709572742023
"R_12";19;19;8;8;0;0,433787864921754
"R_13";29;29;15;15;980,677777777778;0,754056633789373
"R_14";22;22;10;9;252,783520074697;0,702222222222222
"R_15";26;26;13;13;672,648179271709;0,735796336541447
"R_16";21;21;7;7;33,4711251167134;0,446664153788164
"R_17";24;24;13;11;567,625;0,645424836601307
"R_18";21;19;6;4;84,5166666666667;0,520078999341672
"R_19";24;24;10;7;382,494841269841;0,696137465119695
"R_20";23;23;10;11;471,078571428571;0,626486915146709
"R_21";23;23;10;14;453,737301587302;0,621884019942272
"R_22";20;20;8;6;13,7833333333333;0,481560499847607
"R_23";24;24;8;9;203,799603174603;0,673582492539434
"R_24";24;24;12;10;203,649463118581;0,551355123880424
"R_25";15;15;1;2;0;0,351241200444609
"R_26";27;27;15;15;591,960714285714;0,735453840186191
"R_27";22;22;10;8;73,1166666666667;0,499052432090967
"R_28";17;17;3;4;4,85833333333333;0,406692406692407
"R_29";26;26;11;14;433,320238095238;0,657876474670368
"R_30";20;20;4;6;13,8611111111111;0,505330490405117
"R_31";22;22;10;12;541,448412698413;0,644021739130435
"R_32";23;23;12;11;265,480532212885;0,679375089580049
"R_33";20;20;4;5;130,583333333333;0,501587301587302
"R_34";26;26;11;11;233,188095238095;0,566714490674318
"R_35";24;25;15;14;106,638888888889;0,568686262747451
"R_36";17;17;3;3;0,583333333333333;0,445279473931423
"R_37";21;21;10;10;245,703851540616;0,586996904024768
"R_38";21;21;6;10;53,8511904761905;0,499315284946803
"R_39";26;26;13;13;118,16626984127;0,639676113360324
"R_40";20;20;8;6;48,4761904761905;0,657055724979207
"R_41";22;22;10;10;51,3964285714286;0,54772359602496
"R_42";19;19;6;7;33,25;0,500845308537616
"R_43";17;17;3;2;1,5;0,364896073903002
"R_44";21;21;8;10;421,575;0,661918726434856
"R_45";19;19;8;8;140,645238095238;0,610274237157204
"R_46";19;19;8;8;30,3166666666667;0,513431542461005
"R_47";16;16;2;2;0;0,385303202731263
"R_48";17;17;4;6;6,85952380952381;0,506789265476318
"R_49";20;20;8;10;66,5577264239029;0,555816135084428
"R_50";19;19;5;4;15,5333333333333;0,511326860841424
"R_51";24;24;8;9;163,248015873016;0,585618977020015
"R_52";24;24;11;9;171,494444444444;0,616866215512754
"R_53";22;22;10;9;164,688888888889;0,628230616302187
"R_54";23;23;10;11;64,0194444444444;0,526374236535258
"R_55";22;22;12;10;186,171428571429;0,610903466941616
"R_56";20;20;5;6;30,8333333333333;0,539249146757679
"R_57";25;24;13;13;190,682142857143;0,638986249662982
"R_58";23;23;10;10;406,885714285714;0,60559601379839
"R_59";21;21;6;7;158,346311858077;0,542644533485976
"R_60";16;16;4;4;104,083333333333;0,439010836343429
"R_61";22;22;6;10;235,463492063492;0,62856385094815
"R_62";22;22;7;5;1,66666666666667;0,496127276533389
"R_63";21;21;8;6;21,0801587301587;0,456163988066596
"R_64";23;23;13;16;483,430555555555;0,656964656964657
"R_65";24;24;9;11;285,044631185808;0,633266533066133
"R_66";23;23;10;11;323,900793650794;0,544202066590126
"R_67";22;22;9;9;21,415873015873;0,504255319148936
"R_68";22;21;11;9;123,292857142857;0,518542829012143
"R_69";18;18;5;4;6,56666666666667;0,436987185396884
"R_70";23;23;10;9;161,931746031746;0,537719795802609
"R_71";24;24;13;14;389,929318394024;0,63743948359333
"R_72";26;26;11;15;384,259523809524;0,685268179846754
"R_73";16;16;4;5;6,64285714285714;0,551932929669306
"R_74";22;22;9;9;90,3158263305322;0,501799703578234
"R_75";22;22;7;6;21,8333333333333;0,520593080724877
"R_76";20;20;8;6;3,94285714285714;0,459881633841079
"R_77";19;19;5;4;72,7666666666667;0,501322051824431
"R_78";22;21;12;7;247,154505135388;0,588819875776398
"R_79";18;18;5;4;129,85;0,439132851584213
"R_80";20;20;7;7;69,881746031746;0,560747663551402
