"ID";"index"
"F_1";8,24833333333333
"F_2";1,88
"F_3";6,09166666666667
"F_4";2,1675
"F_5";5
"F_6";0,991666666666667
"F_7";2,80333333333333
"F_8";6,16
"F_9";1,84083333333333
"F_10";4,14166666666667
"F_11";1,50333333333333
"F_12";8,585
"F_13";12,1975
"F_14";8,5
"F_15";1,05
"F_16";5,135
"F_17";1,2675
"F_18";0,403333333333333
"F_19";2,7075
"F_20";0,933333333333333
"F_21";1,26666666666667
"F_22";4,14
"F_23";3,905
"F_24";4,87166666666667
"F_25";4,08
"F_26";5
"F_27";4,02333333333333
"F_28";9,27
"F_29";2,03666666666667
"F_30";2,16416666666667
"F_31";5,535
"F_32";7,75833333333333
"F_33";7,65916666666667
"F_34";6,235
"F_35";1,1375
"F_36";6,82
"F_37";5,00333333333333
"F_38";3,52
"F_39";3,14666666666667
"F_40";1,235
"F_41";0,440833333333333
"F_42";4,38
"F_43";7,67666666666667
"F_44";1,365
"F_45";2,5175
"F_46";1,46916666666667
"F_47";4,4275
"F_48";1,6125
"F_49";0,935
"F_50";4,44083333333333
"F_51";4,0825
"F_52";1,88
"F_53";2
"F_54";0,3675
"F_55";5,005
"F_56";4,1975
"F_57";7,20416666666667
"F_58";1,6125
"F_59";4,13666666666667
"F_60";3,96416666666667
"F_61";0,853333333333333
"F_62";1,54083333333333
"F_63";3,96666666666667
"F_64";4,9375
"F_65";0,991666666666667
"F_66";3,5075
"F_67";4,8125
"F_68";0,9075
"F_69";3,96416666666667
"F_70";1,2675
"F_71";4,9375
"F_72";1,20333333333333
"F_73";3,565
"F_74";4,2
"F_75";5,66666666666667
"F_76";1,68666666666667
"F_77";1,14083333333333
"F_78";2,08
"F_79";0,476666666666667
"F_80";0,746666666666667
"F_81";5,94833333333333
"F_82";2,85
"F_83";7,35583333333333
"F_84";6,82
"F_85";1,84083333333333
"F_86";1,11
"F_87";2,755
"F_88";3,04833333333333
"F_89";8,49333333333333
"F_90";7,59833333333333
"F_91";4,0825
"F_92";1,05
"F_93";3,30666666666667
"F_94";0,749166666666667
"F_95";1,65
"F_96";1,505
"F_97";7,44
"F_98";6,675
"F_99";1,26
"F_100";9,0125
"F_101";4,68416666666667
"F_102";7,13
"F_103";1,955
"F_104";6,08166666666667
"F_105";4,07583333333333
"F_106";1,10833333333333
"F_107";2,125
"F_108";0,5625
"F_109";1,64833333333333
"F_110";1,40083333333333
"F_111";2,125
"F_112";1,65
"F_113";6,16333333333333
"F_114";5,06916666666667
"F_115";6,01333333333333
"F_116";2,56666666666667
"F_117";1,05
"F_118";1,68666666666667
"F_119";4,26
"F_120";2,04166666666667
"F_121";0,541666666666667
"F_122";1,84
"F_123";2,21
"F_124";3,36
"F_125";0,675
"F_126";4,81
"F_127";2,66
"F_128";2,04166666666667
"F_129";1,725
"F_130";3,62916666666667
"F_131";3,96416666666667
"F_132";6,9
"F_133";5,4
"F_134";3,79666666666667
"F_135";0,48
"F_136";9,54
"F_137";7,6725
"F_138";2,69416666666667
"F_139";1,46666666666667
"F_140";2,125
"F_141";7,20416666666667
"F_142";2,85
"F_143";2,07583333333333
"F_144";4,9375
"F_145";2,9
"F_146";1,2675
"F_147";6,16333333333333
"F_148";3,36
"F_149";7,67916666666667
"F_150";1,05
"F_151";5,2
"F_152";5,13333333333333
"F_153";5,60333333333333
"F_154";6,52666666666667
"F_155";6,675
"F_156";7,13
"F_157";5,945
"F_158";7,275
"F_159";1,2675
"F_160";2,52
"F_161";8,575
"F_162";1,02083333333333
"F_163";1,65
"F_164";1,80166666666667
"F_165";2,34083333333333
"F_166";4,68
"F_167";3,1
"F_168";0,826666666666667
"F_169";0,9075
"F_170";0,7
"F_171";6,675
"F_172";1,65
"F_173";1,33333333333333
"F_174";3,1
"F_175";9,98666666666667
"F_176";1,2
"F_177";5,3325
"F_178";1,6125
"F_179";1,4
"F_180";0,5
"F_181";1,76
"F_182";3,20333333333333
"F_183";1,04833333333333
"F_184";4,5
"F_185";1,7625
"F_186";4,025
"F_187";0,63
"F_188";2,66
"F_189";1,14083333333333
"F_190";2,9
"F_191";0,52
"F_192";3,20333333333333
"F_193";0,749166666666667
"F_194";0,826666666666667
"F_195";2,21
"F_196";7,35583333333333
"F_197";3,85
"F_198";1,84
"F_199";8,24833333333333
"F_200";0,991666666666667
"F_201";3,2025
"F_202";2,0825
"F_203";6,825
"F_204";2,565
"F_205";8,4975
"F_206";4,56
"F_207";6,45333333333333
"F_208";5,33
"F_209";5,4675
"F_210";0,99
"F_211";0,963333333333333
"F_212";2,12333333333333
"F_213";0,991666666666667
"F_214";1,2675
"F_215";1,05
"F_216";0,3675
"F_217";8,16416666666667
"F_218";2,70416666666667
"F_219";0,333333333333333
"F_220";3,41
"F_221";7,2075
"F_222";5,4675
"F_223";3,15166666666667
"F_224";3,25333333333333
"F_225";1,50333333333333
"F_226";7,5175
"F_227";2,85166666666667
"F_228";10,2541666666667
"F_229";3,68333333333333
"F_230";1,19583333333333
"F_231";14,3
"F_232";2,9
"F_233";2,99666666666667
"F_234";2,25333333333333
"F_235";5,25666666666667
"F_236";2,66
"F_237";1,84
"F_238";4,02333333333333
"F_239";1,6125
"F_240";1,84
"F_241";0,775
"F_242";1,7625
"F_243";1,435
"F_244";2,43
"F_245";1,17166666666667
"F_246";1,3
"F_247";1,3325
"F_248";4,02
"F_249";7,05
"F_250";2,9
"F_251";1,3
"F_252";0,9625
"F_253";4,07
"F_254";4,20083333333333
"F_255";4,025
"F_256";2
"F_257";3,465
"F_258";11,115
"F_259";7,84083333333333
"F_260";2,61333333333333
"F_261";4,375
"F_262";2
"F_263";4,08333333333333
"F_264";1,6875
"F_265";0,800833333333333
"F_266";5,32583333333333
"F_267";2,8025
"F_268";0,935
"F_269";5,80833333333333
"F_270";9,62833333333333
"F_271";4,44083333333333
"F_272";5,00333333333333
"F_273";6,97166666666667
"F_274";2,125
"F_275";7,59833333333333
"F_276";2,8025
"F_277";5,135
"F_278";9,44666666666667
"F_279";4,44
"F_280";0,725
"F_281";5,7375
"F_282";2,43
"F_283";0,255
"F_284";6,09166666666667
"F_285";4,13666666666667
"F_286";2,08333333333333
"F_287";3,5175
"F_288";5,26666666666667
"F_289";3,685
"F_290";4,5625
"F_291";6,30416666666667
"F_292";5,06916666666667
"F_293";0,653333333333333
"F_294";0,75
"F_295";4,5
"F_296";8,3325
"F_297";2,41666666666667
"F_298";4,44
"F_299";5,26666666666667
"F_300";0,606666666666667
"F_301";2,47333333333333
"F_302";8,245
"F_303";7,2
"F_304";2,66
"F_305";5,135
"F_306";0,4025
"F_307";6,97666666666667
"F_308";1,40083333333333
"F_309";2,94833333333333
"F_310";1,6125
"F_311";1,33
"F_312";4,37833333333333
"F_313";0,255
"F_314";1,50333333333333
"F_315";7,84083333333333
"F_316";7,99583333333333
"F_317";3,79166666666667
"F_318";4,14166666666667
"F_319";1,88
"F_320";3,685
"F_321";1,2
"F_322";4,68666666666667
"F_323";1,11
"F_324";1,88
"F_325";1,4
"F_326";2,2525
"F_327";0,606666666666667
"F_328";1,2675
"F_329";3,25
"F_330";1,29833333333333
"F_331";0,906666666666667
"F_332";10,3583333333333
"F_333";6,52666666666667
"F_334";0,100833333333333
"F_335";5,265
"F_336";1,17
"F_337";5,67166666666667
"F_338";5,19333333333333
"F_339";7,44166666666667
"F_340";5,46
"F_341";0,175
"F_342";7,44
"F_343";4,38
"F_344";1,46916666666667
"F_345";5,87916666666667
"F_346";1,5375
"F_347";2,70666666666667
"F_348";4,32
"F_349";1,65
"F_350";0,991666666666667
"F_351";5,8725
"F_352";0,75
"F_353";1,33333333333333
"F_354";3,30666666666667
"F_355";0,213333333333333
"F_356";2,52
"F_357";2,295
"F_358";1,64833333333333
"F_359";1,61333333333333
"F_360";8,92666666666667
"F_361";0,9075
"F_362";1,68666666666667
"F_363";1,07916666666667
"F_364";0,385
"F_365";6,82333333333333
"F_366";2,56666666666667
"F_367";4,1975
"F_368";0,7
"F_369";2,6125
"F_370";3,30666666666667
"F_371";2,61
"F_372";2,99666666666667
"F_373";2,38
"F_374";4,60833333333333
"F_375";4,94
"F_376";10,5466666666667
"F_377";1,96
"F_378";2,29666666666667
"F_379";9,62
"F_380";3,96666666666667
"F_381";8,40666666666667
"F_382";8,0025
"F_383";5,6
"F_384";1,65
"F_385";7,3625
"F_386";4,32
"F_387";2,5175
"F_388";0,963333333333333
"F_389";1,91666666666667
"F_390";2,75333333333333
"F_391";4,5
"F_392";1,3
"F_393";1,8375
"F_394";6,97166666666667
"F_395";1,76
"F_396";2,9
"F_397";6,01333333333333
"F_398";3,685
"F_399";5,74083333333333
"F_400";2,34
"F_401";4,8125
"F_402";6,51666666666667
"F_403";0,88
"F_404";1,95833333333333
"F_405";1,2675
"F_406";2,8
"F_407";2,25333333333333
"F_408";0,853333333333333
"F_409";4,75
"F_410";0,46
"F_411";0,6975
"F_412";4,255
"F_413";0,255
"F_414";1,47
"F_415";0,75
"F_416";4,0825
"F_417";4,56333333333333
"F_418";6,52666666666667
"F_419";1,95833333333333
"F_420";0,366666666666667
"F_421";4,745
"F_422";2,47333333333333
"F_423";7,44
"F_424";5,67166666666667
"F_425";2,95
"F_426";4,13666666666667
"F_427";2,99916666666667
"F_428";1,60583333333333
"F_429";0,63
"F_430";2,42916666666667
"F_431";1,3
"F_432";1,36666666666667
"F_433";6,30666666666667
"F_434";8,16416666666667
"F_435";6,235
"F_436";0,541666666666667
"F_437";1,76333333333333
"F_438";3,41333333333333
"F_439";3,68333333333333
"F_440";1,08
"F_441";2,385
"F_442";2,42916666666667
"F_443";2,8025
"F_444";3,85
"F_445";0,653333333333333
"F_446";3,52
"F_447";2,34
"F_448";0,35
"F_449";3,0975
"F_450";2,565
"F_451";1,02083333333333
"F_452";2,655
"F_453";3,15
"F_454";3,0975
"F_455";1,96
"F_456";7,44166666666667
"F_457";4,8125
"F_458";1,91916666666667
"F_459";3,62916666666667
"F_460";5,395
"F_461";1,84083333333333
"F_462";1,96
"F_463";4,875
"F_464";3,2025
"F_465";4,68416666666667
"F_466";1,96
"F_467";0,935
"F_468";2,16666666666667
"F_469";4,6875
"F_470";8,4975
"F_471";4,6875
"F_472";0,606666666666667
"F_473";1,92
"F_474";0,991666666666667
"F_475";5,135
"F_476";2,655
"F_477";1,60583333333333
"F_478";2,8025
"F_479";4,62333333333333
"F_480";2,385
"F_481";0,963333333333333
"F_482";4,56
"F_483";1,99333333333333
"F_484";1,955
"F_485";2,20833333333333
"F_486";3,57333333333333
"F_487";6,0175
"F_488";0,421666666666667
"F_489";0,385
"F_490";4,9375
"F_491";1,02
"F_492";0,904166666666667
"F_493";5,4
"F_494";3,46166666666667
"F_495";2,125
"F_496";5,67166666666667
"F_497";4,1975
"F_498";1,91916666666667
"F_499";1,50333333333333
"F_500";1,235
"F_501";4,4375
"F_502";1,36666666666667
"F_503";3,255
"F_504";3,255
"F_505";11,8983333333333
"F_506";2,8975
"F_507";2,94833333333333
"F_508";2,00083333333333
"F_509";2,55666666666667
"F_510";3,74083333333333
"F_511";1,65
"F_512";5,67166666666667
"F_513";2,94833333333333
"F_514";1,33333333333333
"F_515";1,235
"F_516";2,34083333333333
"F_517";3,255
"F_518";6,1625
"F_519";1,80166666666667
"F_520";7,13
"F_521";1,72333333333333
"F_522";1,3
"F_523";3,1
"F_524";2,6125
"F_525";2,465
"F_526";2,2525
"F_527";1,76333333333333
"F_528";0,385
"F_529";0,63
"F_530";0,88
"F_531";8,67
"F_532";3,2
"F_533";1,46666666666667
"F_534";3,15
"F_535";5,3325
"F_536";7,6725
"F_537";3,36
"F_538";5,7375
"F_539";7,20666666666667
"F_540";2,8975
"F_541";6,5975
"F_542";2,755
"F_543";3,52083333333333
"F_544";2,04166666666667
"F_545";3,74
"F_546";2,25333333333333
"F_547";1,54083333333333
"F_548";4,55583333333333
"F_549";6,01333333333333
"F_550";0,8
"F_551";1,3
"F_552";0,8
"F_553";7,3625
"F_554";1,61333333333333
"F_555";0,240833333333333
"F_556";8,58333333333333
"F_557";8,84083333333333
"F_558";5,06916666666667
"F_559";0,46
"F_560";1,08
"F_561";7,91666666666667
"F_562";3,46666666666667
"F_563";3,45666666666667
"F_564";1,10833333333333
"F_565";1,6125
"F_566";0,6975
"F_567";1,645
"F_568";3
"F_569";2,755
"F_570";1,07666666666667
"F_571";3,74
"F_572";10,545
"F_573";2,66
"F_574";3,51333333333333
"F_575";0,440833333333333
"F_576";3,85333333333333
"F_577";3,3075
"F_578";2,85166666666667
"F_579";1,46916666666667
"F_580";1,36666666666667
"F_581";0,8
"F_582";0,35
"F_583";5,395
"F_584";4,5
"F_585";8,3325
"F_586";2,85166666666667
"F_587";3,8525
"F_588";5,13333333333333
"F_589";1,68666666666667
"F_590";2,1675
"F_591";2,34
"F_592";4,37833333333333
"F_593";0,935
"F_594";4,62333333333333
"F_595";1,505
"F_596";3,63
"F_597";1,84083333333333
"F_598";2,385
"F_599";7,3625
"F_600";4,93333333333333
"F_601";2,385
"F_602";0,749166666666667
"F_603";7,20666666666667
"F_604";1,46666666666667
"F_605";2,56666666666667
"F_606";3,46666666666667
"F_607";10,7333333333333
"F_608";3,15
"F_609";1,02083333333333
"F_610";4,5
"F_611";4,08333333333333
"F_612";0,9625
"F_613";3,9675
"F_614";1,88
"F_615";0,48
"F_616";4,8125
"F_617";7,20666666666667
"F_618";2,04166666666667
"F_619";2
"F_620";4,62333333333333
"F_621";1,95833333333333
"F_622";1,14
"F_623";3,95416666666667
"F_624";1,91916666666667
"F_625";4,50166666666667
"F_626";1,3325
"F_627";4,255
"F_628";1,33333333333333
"F_629";3,8525
"F_630";2,84666666666667
"F_631";1,61333333333333
"F_632";10,0825
"F_633";1,2675
"F_634";2,16666666666667
"F_635";1,84
"F_636";1,26666666666667
"F_637";0,826666666666667
"F_638";2,16666666666667
"F_639";1,65
"F_640";8,16416666666667
"F_641";1,505
"F_642";5,87916666666667
"F_643";1,02
"F_644";7,13
"F_645";0,935
"F_646";5,805
"F_647";3,905
"F_648";0,6525
"F_649";4,94083333333333
"F_650";0,775
"F_651";5,535
"F_652";1,725
"F_653";6,1625
"F_654";2,29666666666667
"F_655";5,87916666666667
"F_656";4,87666666666667
"F_657";1,435
"F_658";4,26
"F_659";1,17166666666667
"F_660";2,5175
"F_661";6,3075
"F_662";1,46916666666667
"F_663";3,05
"F_664";2,84166666666667
"F_665";10,355
"F_666";2,85166666666667
"F_667";4,9375
"F_668";3,0975
"F_669";1,645
"F_670";5,95
"F_671";0,963333333333333
"F_672";1,43333333333333
"F_673";0,285
"F_674";1,295
"F_675";0,9075
"F_676";5,535
"F_677";1,3
"F_678";6,235
"F_679";6,52166666666667
"F_680";2,38333333333333
"F_681";1,26666666666667
"F_682";1,6125
"F_683";2
"F_684";5,2
"F_685";7,05333333333333
"F_686";3,3075
"F_687";3,045
"F_688";2,2525
"F_689";2,94833333333333
"F_690";2,125
"F_691";9,1
"F_692";2,0825
"F_693";3,3075
"F_694";8,6625
"F_695";5,07
"F_696";0,628333333333333
"F_697";9,775
"F_698";5,67
"F_699";0,563333333333333
"F_700";2,755
"F_701";2,90083333333333
"F_702";0,99
"F_703";2,95
"F_704";6,9
"F_705";3,62916666666667
"F_706";6,30416666666667
"F_707";4,68666666666667
"F_708";1,6125
"F_709";1,14
"F_710";1,17166666666667
"F_711";1,2
"F_712";3,465
"F_713";3,91
"F_714";0,5
"F_715";3,05
"F_716";1,8
"F_717";3,05
"F_718";4,14166666666667
"F_719";1,54
"F_720";1,02
"F_721";3,62666666666667
"F_722";3,255
"F_723";2,04
"F_724";0,906666666666667
"F_725";5,66166666666667
"F_726";1,68416666666667
"F_727";1,83333333333333
"F_728";0,88
"F_729";1,68416666666667
"F_730";5,81
"F_731";3,05
"F_732";7,43166666666667
"F_733";1,725
"F_734";3,85
"F_735";1,61
"F_736";1,46666666666667
"F_737";1,23
"F_738";1,14
"F_739";7,20666666666667
"F_740";4,875
"F_741";3,36
"F_742";3,1
"F_743";3,41
"F_744";1,23333333333333
"F_745";3,91
"F_746";4,37833333333333
"F_747";4,255
"F_748";0,991666666666667
"F_749";7,36333333333333
"F_750";2,42916666666667
"F_751";2,42666666666667
"F_752";2,21
"F_753";9,18666666666667
"F_754";1,84083333333333
"F_755";7,92166666666667
"F_756";3,51333333333333
"F_757";1,47
"F_758";4,50166666666667
"F_759";1,50333333333333
"F_760";4,9375
"F_761";0,65
"F_762";4,625
"F_763";0,7
"F_764";2,70416666666667
"F_765";1,96
"F_766";4,56
"F_767";6,74916666666667
"F_768";0,63
"F_769";0,653333333333333
"F_770";1,88
"F_771";0,541666666666667
"F_772";1,87833333333333
"F_773";3,46666666666667
"F_774";1,65
"F_775";3,46666666666667
"F_776";1,50333333333333
"F_777";3,68333333333333
"F_778";0,9625
"F_779";2,95
"F_780";0,8525
"F_781";3,5175
"F_782";0,5625
"F_783";1,96
"F_784";2
"F_785";1,36666666666667
"F_786";7,13
"F_787";3,8525
"F_788";0,9625
"F_789";3,62916666666667
"F_790";5,39833333333333
"F_791";2,0825
"F_792";6,30666666666667
"F_793";1,96
"F_794";1,235
"F_795";1,435
"F_796";5,2
"F_797";2,9
"F_798";4,625
"F_799";1,26666666666667
"F_800";2,47
"F_801";1,14083333333333
"F_802";5,25666666666667
"F_803";1,2675
"F_804";0,725
"F_805";7,05
"F_806";1,87833333333333
"F_807";6,67333333333333
"F_808";1,23333333333333
"F_809";2,2525
"F_810";8,84
"F_811";3,685
"F_812";7,67666666666667
"F_813";0,541666666666667
"F_814";1,88
"F_815";3,41
"F_816";2,95
"F_817";0,6525
"F_818";0,628333333333333
"F_819";2,7075
"F_820";2,1675
"F_821";1,725
"F_822";1,33333333333333
"F_823";1,92
"F_824";2,29666666666667
"F_825";1,40083333333333
"F_826";5,67166666666667
"F_827";4,9375
"F_828";5,60333333333333
"F_829";2,7075
"F_830";2,20833333333333
"F_831";2,9
"F_832";1,4
"F_833";1,20333333333333
"F_834";0,676666666666667
"F_835";4,44
"F_836";8,415
"F_837";5,74083333333333
"F_838";1,14
"F_839";0,9075
"F_840";4,14
"F_841";2,00083333333333
"F_842";1,17166666666667
"F_843";3,10083333333333
"F_844";3,25
"F_845";3,68333333333333
"F_846";4,93333333333333
"F_847";4,26
"F_848";4,32
"F_849";2,25
"F_850";1,2675
"F_851";1,3325
"F_852";1,2025
"F_853";3,3075
"F_854";2,385
"F_855";6,3075
"F_856";5,66166666666667
"F_857";5,535
"F_858";1,365
"F_859";4,93333333333333
"F_860";1,07666666666667
"F_861";3,74
"F_862";2,94833333333333
"F_863";6,525
"F_864";3,5175
"F_865";1,8375
"F_866";2,99916666666667
"F_867";3,74083333333333
"F_868";2,42916666666667
"F_869";2,0825
"F_870";4,14
"F_871";2,89333333333333
"F_872";0,333333333333333
"F_873";1,04833333333333
"F_874";2,60583333333333
"F_875";3,685
"F_876";4,93333333333333
"F_877";4,44
"F_878";6,38
"F_879";1,80166666666667
"F_880";1,64833333333333
"F_881";3,685
"F_882";1,76
"F_883";0,775
"F_884";2,04166666666667
"F_885";0,853333333333333
"F_886";0,723333333333333
"F_887";0,0833333333333333
"F_888";6,59333333333333
"F_889";3,52
"F_890";5,74
"F_891";7,99583333333333
"F_892";4,255
"F_893";10,735
"F_894";2,8025
"F_895";2,34083333333333
"F_896";5,8725
"F_897";7,75833333333333
"F_898";0,7
"F_899";3,91
"F_900";10,2641666666667
"F_901";0,9075
"F_902";2,52
"F_903";2,66
"F_904";5,3325
"F_905";3,1
"F_906";0,793333333333333
"F_907";2,42666666666667
"F_908";7,43666666666667
"F_909";8,755
"F_910";3,14166666666667
"F_911";1,3
"F_912";1,505
"F_913";1,76
"F_914";4,8125
"F_915";4,13666666666667
"F_916";7,28333333333333
"F_917";4,875
"F_918";1,10833333333333
"F_919";3,5175
"F_920";1,68666666666667
"F_921";8,925
"F_922";7,285
"F_923";1,7625
"F_924";5,06916666666667
"F_925";1,725
"F_926";0,933333333333333
"F_927";2,61
"F_928";1,2675
"F_929";4,94083333333333
"F_930";3,96416666666667
"F_931";9,99166666666667
"F_932";2,47333333333333
"F_933";6,75
"F_934";5,13333333333333
"F_935";1,47
"F_936";1,33333333333333
"F_937";1,575
"F_938";4,25833333333333
"F_939";1,07916666666667
"F_940";3,04833333333333
"F_941";2,0825
"F_942";1,505
"F_943";6,15583333333333
"F_944";3,35833333333333
"F_945";5,6025
"F_946";4,375
"F_947";4,1975
"F_948";3,85333333333333
"F_949";0,963333333333333
"F_950";1,92
"F_951";5,125
"F_952";5,26666666666667
"F_953";4,625
"F_954";1,7625
"F_955";5,13
"F_956";1,4
"F_957";0,8525
"F_958";3,36
"F_959";1,76333333333333
"F_960";2,52
"F_961";2,79583333333333
"F_962";5,74083333333333
"F_963";3,19583333333333
"F_964";0,8
"F_965";4,26
"F_966";2,51333333333333
"F_967";3,41333333333333
"F_968";0,520833333333333
"F_969";0,775
"F_970";0,35
"F_971";0,800833333333333
"F_972";3,41
"F_973";3,79666666666667
"F_974";0,826666666666667
"F_975";5,74083333333333
"F_976";6,90083333333333
"F_977";2,47333333333333
"F_978";5,6
"F_979";2,21
"F_980";1,11
"F_981";3,3075
"F_982";7,28
"F_983";0,676666666666667
"F_984";2,125
"F_985";0,9075
"F_986";1,3
"F_987";4,625
"F_988";3,5175
"F_989";0,853333333333333
"F_990";3,85333333333333
"F_991";2,6125
"F_992";8,4975
"F_993";2,475
"F_994";3,74
"F_995";8,585
"F_996";0,6525
"F_997";6,38
"F_998";2,755
"F_999";4,375
"F_1000";4,50166666666667
