"ID";"index"
"R_1";0,110833333333333
"R_2";0,165
"R_3";0,1425
"R_4";0,24
"R_5";0,1875
"R_6";0,1225
"R_7";0,0791666666666667
"R_8";0,045
"R_9";0,23
"R_10";0,075
"R_11";0,1725
"R_12";0,1225
"R_13";0,375
"R_14";0,0875
"R_15";0,291666666666667
"R_16";0,191666666666667
"R_17";0,25
"R_18";0,126666666666667
"R_19";0,191666666666667
"R_20";0,22
"R_21";0,22
"R_22";0,105
"R_23";0,25
"R_24";0,09
"R_25";0,0283333333333333
"R_26";0,1575
"R_27";0,146666666666667
"R_28";0,14
"R_29";0,325
"R_30";0,126666666666667
"R_31";0,270833333333333
"R_32";0,210833333333333
"R_33";0,128333333333333
"R_34";0,16
"R_35";0,146666666666667
"R_36";0,110833333333333
"R_37";0,166666666666667
"R_38";0,18
"R_39";0,23
"R_40";0,210833333333333
"R_41";0,12
"R_42";0,1225
"R_43";0,0666666666666667
"R_44";0,105
"R_45";0,1725
"R_46";0,153333333333333
"R_47";0,075
"R_48";0,09
"R_49";0,22
"R_50";0,14
"R_51";0,201666666666667
"R_52";0,210833333333333
"R_53";0,22
"R_54";0,325
"R_55";0,158333333333333
"R_56";0,1575
"R_57";0,315
"R_58";0,191666666666667
"R_59";0,175
"R_60";0,075
"R_61";0,153333333333333
"R_62";0,303333333333333
"R_63";0,166666666666667
"R_64";0,24
"R_65";0,26
"R_66";0,18
"R_67";0,183333333333333
"R_68";0,256666666666667
"R_69";0,158333333333333
"R_70";0,210833333333333
"R_71";0,229166666666667
"R_72";0,281666666666667
"R_73";0,05
"R_74";0,22
"R_75";0,105
"R_76";0,1725
"R_77";0,2
"R_78";0,22
"R_79";0,105
"R_80";0,1
