"Roost";"In";"Out";"InLink";"OutLink";"Betweeness";"Closeness"
"R_1";22;22;9;9;48,2666666666667;0,476047002109069
"R_2";23;22;13;15;170,292857142857;0,593464379616878
"R_3";22;22;7;8;7,03333333333333;0,47211155378486
"R_4";17;17;7;8;33,2777777777778;0,502118644067796
"R_5";22;22;16;16;221,504761904762;0,59886291850916
"R_6";21;22;9;12;798,276190476191;0,664796633941094
"R_7";19;19;7;7;68,7444444444444;0,463569682151589
"R_8";17;17;4;5;103,35;0,417253521126761
"R_9";22;22;12;11;208,730952380952;0,600227934658731
"R_10";17;17;7;6;14,3;0,449928808732795
"R_11";20;19;7;6;66,3214285714286;0,541900080027438
"R_12";21;21;4;5;47,6761904761905;0,523236560326747
"R_13";21;21;9;12;133,266666666667;0,593984962406015
"R_14";22;22;9;10;238,35;0,558501237186285
"R_15";24;24;12;9;902,003968253968;0,65742024965326
"R_16";23;23;11;9;321,557142857143;0,549246813441483
"R_17";22;22;11;9;323,240476190476;0,611849748289661
"R_18";18;18;6;5;116,547619047619;0,454458293384468
"R_19";23;22;9;10;336,835714285714;0,598484848484849
"R_20";22;22;7;9;115,485714285714;0,466765140324963
"R_21";21;22;10;10;183,9;0,569027611044418
"R_22";19;19;10;7;33,2214285714286;0,472817955112219
"R_23";20;21;9;10;22,1666666666667;0,523467697404749
"R_24";17;17;7;7;0,666666666666667;0,413901501921062
"R_25";17;17;3;3;5,65;0,373022743369796
"R_26";26;26;16;12;931,342857142857;0,714393368500377
"R_27";21;21;8;8;47,8261904761905;0,435862068965517
"R_28";24;24;9;9;28,6095238095238;0,483920367534456
"R_29";23;23;10;12;267,398412698413;0,484167517875383
"R_30";18;18;6;5;8,67619047619048;0,386150712830957
"R_31";23;23;11;13;581,728571428571;0,64428435503602
"R_32";23;23;13;10;1348,15714285714;0,722010662604722
"R_33";17;17;5;4;16;0,424921559838637
"R_34";19;19;10;9;138,333333333333;0,442907867688282
"R_35";22;22;8;7;104,683333333333;0,440438580189556
"R_36";23;23;7;7;83,4166666666667;0,478208232445521
"R_37";26;26;12;12;148,67619047619;0,555555555555556
"R_38";20;20;8;7;17,0428571428571;0,520364474695356
"R_39";22;22;10;11;406,813492063492;0,628480509148767
"R_40";25;25;10;10;553,814285714286;0,686956521739131
"R_41";20;20;9;7;177,378571428571;0,414879649890591
"R_42";23;23;8;6;52,7333333333333;0,502811074573035
"R_43";19;19;4;4;19,9261904761905;0,426067415730337
"R_44";22;22;7;10;171,616666666667;0,62931492299522
"R_45";18;18;5;6;0;0,434662998624484
"R_46";21;21;8;8;106,220634920635;0,444569499155881
"R_47";16;16;3;3;0;0,371037181996086
"R_48";19;19;6;6;4,96666666666667;0,351762523191095
"R_49";22;22;9;11;359,55;0,654696132596685
"R_50";23;23;7;10;505,95;0,657876474670368
"R_51";22;22;7;9;5,1;0,506302072206793
"R_52";24;24;11;11;212,904761904762;0,593241551939925
"R_53";24;24;8;9;392,159523809524;0,63496316141996
"R_54";20;20;6;6;0;0,521050895899747
"R_55";26;26;9;10;185,319047619048;0,55445081296058
"R_56";21;21;9;10;295,245238095238;0,557319223985891
"R_57";21;21;6;6;36,35;0,468148148148148
"R_58";20;20;6;3;80,152380952381;0,562945368171022
"R_59";23;23;9;9;106,252380952381;0,597730138713745
"R_60";19;19;4;6;91,6690476190476;0,441135411819451
"R_61";17;17;5;7;20,7166666666667;0,484414920797138
"R_62";21;21;8;8;41,2976190476191;0,508310991957105
"R_63";21;21;9;9;15,4428571428571;0,411815812337098
"R_64";26;25;11;14;589,595238095238;0,684971098265896
"R_65";26;26;14;12;611,8;0,680057388809182
"R_66";24;24;11;10;379,342857142857;0,63649791862495
"R_67";18;18;6;5;129,516666666667;0,49119170984456
"R_68";24;24;11;9;431,62619047619;0,5639500297442
"R_69";19;19;6;6;69,6666666666667;0,531449714093508
"R_70";22;21;10;6;41,5119047619048;0,572809667673716
"R_71";20;20;9;10;34,9095238095238;0,491344459417436
"R_72";20;20;6;8;53,5166666666667;0,489164086687307
"R_73";19;19;6;6;81,7119047619048;0,537597822388567
"R_74";20;20;9;10;31,9833333333333;0,490937338166753
"R_75";23;23;11;11;111,65;0,492365222810845
"R_76";22;22;8;6;28,5333333333333;0,429542365201631
"R_77";20;20;7;5;85,8285714285714;0,462439024390244
"R_78";25;25;10;9;342,738095238095;0,656327887011908
"R_79";24;24;10;9;270,561904761905;0,501852832186342
"R_80";23;23;8;10;118,347619047619;0,503880089295206
