"ID";"density";"cell_id";"lon";"lat"
"F_1";0,000240560632701049;2653532;464207,635595852;947573,929937113
"F_2";0,000364019577484271;7191653;466762,373376334;939762,681768499
"F_3";0,000370946387704273;1399637;469532,089091377;949734,275141237
"F_4";0,000376735995287207;1171819;463392,71923926;950124,337469759
"F_5";0,000465044261810533;6672010;468522,192747625;940657,824804467
"F_6";0,000252537948841082;3853443;464937,56067599;945508,599915578
"F_7";0,000520571881319101;6965570;469297,113209415;940152,744097022
"F_8";0,000245883635803372;3375833;458988,171324182;946328,730965292
"F_9";0,000405464398098157;904831;464752,57966253;950584,410985452
"F_10";0,000371167689457201;2036517;458433,228283804;948634,099342841
"F_11";0,000321620851768581;2102079;466692,38056043;948524,081763001
"F_12";0,000322455711446392;5279334;462617,79877747;943053,207565521
"F_13";0,000353347289176332;3658309;462442,816737711;945843,653454181
"F_14";0,000315474393568437;3875620;459623,106154165;945468,593522909
"F_15";0,000281581177038406;5407367;463682,689476575;942833,172405842
"F_16";0,000461419644776819;7046059;465042,549899845;940012,72172268
"F_17";0,000285320256026201;2297644;471341,90333117;948189,028224399
"F_18";0,000252150298222223;5944339;461417,921933408;941908,024575372
"F_19";0,000265371862596158;63784;471766,859713442;952034,642719702
"F_20";0,000272895253323768;3277179;459568,111798812;946498,758134135
"F_21";0,000394922361313455;221691;462427,81827716;951759,598770103
"F_22";0,00032698988305273;4826309;463392,71923926;943833,332222566
"F_23";0,000286735098592117;4121619;469517,090630826;945048,526399885
"F_24";0,000283488812805746;2398621;467852,26150969;948014,000256472
"F_25";0,000301818488266219;957952;468907,153235095;950494,396601947
"F_26";0,000241660474112665;5118673;458188,253428141;943328,25151512
"F_27";0,000276335003206456;984721;472026,833029656;950449,389410195
"F_28";0,000412394107410178;6478213;458188,253428141;940987,877543986
"F_29";0,000345448519212211;869531;462552,805448417;950644,420574456
"F_30";0,000315001809396272;6315847;459758,092299122;941267,922292669
"F_31";0,000500859205465637;7607645;469647,077288933;939047,567499542
"F_32";0,000427357782375129;6591371;472026,833029656;940797,847178809
"F_33";0,000287782076257861;5631624;466542,395954923;942448,110876403
"F_34";0,000239808781532944;3395333;469337,109104217;946298,72617079
"F_35";0,00032434891044012;6830914;464167,63970105;940382,780854868
"F_36";0,000431670142657095;1238915;464797,575044182;950009,319090836
"F_37";0,000315244505566402;2065101;470626,976711583;948589,092151088
"F_38";0,000268917533001192;5670660;458373,234441601;942378,099689233
"F_39";0,000300280798948978;4230746;463202,73873895;944858,496034708
"F_40";0,000195970859314838;124401;469827,058815542;951929,625938946
"F_41";0,000444458392873153;7502366;466152,435980602;939227,596266552
"F_42";0,00029293173448994;548985;472096,825845559;951199,509272738
"F_43";0,000371230647155379;4120065;461747,888065525;945048,526399885
"F_44";0,000459664868107721;5725460;470921,946435749;942288,085305727
"F_45";0,000356810356349931;6358128;467812,265614888;941197,911105498
"F_46";0,000348719448632689;1950313;463162,742844148;948784,123315349
"F_47";0,000459222634367543;7210464;459143,15541654;939727,676174914
"F_48";0,000331354146011343;6229821;465377,515518812;941417,946265178
"F_49";0,00040546421217716;6712136;465802,471901084;940587,813617297
"F_50";0,000351799688610727;1964051;459228,146692995;948759,119319931
"F_51";0,000332404917165033;4324245;465897,462151239;944698,470464032
"F_52";0,000343655897914857;1495748;470761,96285654;949569,248771478
"F_53";0,000372260726165597;7206935;470546,984921979;939737,677773081
"F_54";0,000387186831479198;1990000;458248,247270344;948714,112128179
"F_55";0,000487446726061981;891883;458113,261125387;950604,414181787
"F_56";0,000468942943829639;5394487;471906,84534525;942858,17640126
"F_57";0,000461939642260207;5641236;471026,935659604;942433,108479152
"F_58";0,000388646694099297;3036524;461867,875749931;946913,824458076
"F_59";0,000415680380048303;6166978;470711,967988038;941527,963845017
"F_60";0,000394053030866795;872999;465367,516545112;950639,419775372
"F_61";0,000248890275628863;5075081;458103,262151687;943403,263501375
"F_62";0,00044745870248406;231194;466367,413915163;951744,596372852
"F_63";0,000388552881061875;47329;462117,850092444;952059,64671512
"F_64";0,000390462684551986;152456;464852,569399535;951879,61794811
"F_65";0,000350824839794689;2645234;466292,42161241;947588,932334364
"F_66";0,000396302827357216;1873871;458603,210836713;948914,144091523
"F_67";0,000338039988976417;1571985;459773,090759673;949434,22719622
"F_68";0,000416133884026952;6321083;471411,896147074;941262,921493585
"F_69";0,000411433450471289;1060536;458928,177481979;950314,367834937
"F_70";0,000288957857866299;244280;459173,152337642;951719,592377434
"F_71";0,000321561294060519;2568033;457938,279085628;947718,953110538
"F_72";0,000345318238262796;4556650;465922,459585491;944298,406537342
"F_73";0,000333400777617656;5139853;462412,819816609;943293,245921535
"F_74";0,000383061150995291;5919826;469577,084473029;941953,031767125
"F_75";0,000260103381451705;1999296;461152,949130344;948699,109730928
"F_76";0,000313490046487766;3911108;462762,783896127;945408,583933906
"F_77";0,000300455444398847;2075981;466927,356442392;948569,088954754
"F_78";0,000323798438164987;2380125;462522,808527315;948044,005050974
"F_79";0,000237362006159635;950547;460932,971708933;950504,398200114
"F_80";0,000380972877138981;1049860;463647,693068623;950334,371031271
"F_81";0,000319020072421233;1013581;471076,930528107;950399,381419359
"F_82";0,000309964783809278;6047310;467897,256891343;941732,996607446
"F_83";0,000371271126895981;1008296;459178,151824492;950404,382218442
"F_84";0,000418001384761124;1500446;465202,533479053;949559,24717331
"F_85";0,000261247302144905;2193739;460193,047655095;948364,056192325
"F_86";0,000348864072672737;2380642;465107,543228898;948044,005050974
"F_87";0,000207815552243993;2692383;469637,078315232;947508,919549026
"F_88";0,000370645866422569;6724902;471531,88383148;940567,810420962
"F_89";0,000409914805185931;1831607;465157,538097401;948989,156077778
"F_90";0,000332192753538423;4289113;464537,601727969;944758,480053036
"F_91";0,000393058452103466;1724188;465487,504229518;949174,185643872
"F_92";0,000267097001351088;1045009;468442,200958021;950344,372629439
"F_93";0,000388016805742994;3344189;460543,011734613;946383,739755212
"F_94";0,000373920058289118;930729;463517,706410516;950539,4037937
"F_95";0,000310996718491304;423059;467042,344639948;951414,543633333
"F_96";0,000262352518821322;5300998;469262,116801463;943018,201971936
"F_97";0,000313260400628985;5975957;459733,094864871;941853,015785452
"F_98";0,000297217725198614;2076299;468517,193260774;948569,088954754
"F_99";0,00044739423005888;5333396;471476,889476127;942963,193182016
"F_100";0,000364436159676333;3135045;460623,003524217;946743,797289232
"F_101";0,000488310648479932;6916060;468672,177353133;940237,757681443
"F_102";0,000285975699806234;2582125;470297,010579466;947698,949914204
"F_103";0,000304130667299071;2365926;464152,641240499;948069,009046392
"F_104";0,000353211242764288;3616336;470451,994671824;945918,665440435
"F_105";0,000364756524140934;1821736;459378,131298503;949004,158475029
"F_106";0,000465243750090548;5708050;471021,936172754;942318,090100229
"F_107";0,000482858648357748;1127234;458343,237520499;950199,349456014
"F_108";0,000251819692330159;4083655;468522,192747625;945113,536787972
"F_109";0,000266474829195114;4211348;467887,257917642;944893,501628293
"F_110";0,000301149121264609;213956;467327,315390413;951774,601167354
"F_111";0,000417840976684797;5646937;470481,991592926;942423,106880985
"F_112";0,000229817328149633;1943366;472001,835595404;948799,1257126
"F_113";0,00043453119587831;7059436;459303,138995749;939987,717727262
"F_114";0,000305492987618886;955552;471431,894094475;950499,397401031
"F_115";0,00038181047237538;6717802;465082,545794647;940577,812019129
"F_116";0,000232102451526717;4824223;467487,298969621;943838,33302165
"F_117";0,000342281092296251;6654299;467117,336942702;940687,829598969
"F_118";0,000344024611493389;7264316;466952,353876644;939637,661791409
"F_119";0,000368787904354167;695589;464342,621740809;950944,468519473
"F_120";0,000474214434095192;7110124;465817,470361635;939902,704142841
"F_121";0,000230639171600333;6595074;461492,914236162;940787,845580641
"F_122";0,000275098304047837;3803752;463407,717699811;945593,6135
"F_123";0,000313035446406548;5401735;464572,598135921;942843,174004009
"F_124";0,000284863396225116;1862623;460463,019945009;948934,147287858
"F_125";0,000278111370303012;5907096;464027,654069243;941973,034963459
"F_126";0,000351031232661362;4816287;471381,899225972;943853,3354189
"F_127";0,000355278528207568;5721417;465232,530400155;942293,086104811
"F_128";0,000269269376391008;3882433;464637,591464974;945458,591924742
"F_129";0,000251941350037194;5880435;461447,918854509;942018,042155212
"F_130";0,00036601349797014;402232;464582,597109621;951449,549226919
"F_131";0,000495886095959128;6550162;469332,109617367;940867,858365979
"F_132";0,000319785424700794;4123952;466657,384152478;945043,525600802
"F_133";0,000345024723220369;7291324;471266,911028416;939592,654599656
"F_134";0,000372453042295065;1850749;459193,150285043;948954,150484192
"F_135";0,000521799503128934;7269769;465167,537071102;939627,660193242
"F_136";0,000373359914766806;1657034;463792,678187281;949289,204022795
"F_137";0,000262090455572003;189162;459558,112825112;951814,607560023
"F_138";0,000471562991002678;5853550;472271,807885318;942068,050146048
"F_139";0,000179407311516551;3260610;463872,669976885;946528,762928637
"F_140";0,000259643143198553;2611729;458543,216994509;947643,941124284
"F_141";0,000373022897370669;117279;463267,732068003;951939,627537113
"F_142";0,000493102841056881;7205810;464922,562215439;939737,677773081
"F_143";0,000340749731844187;1306930;470796,959264492;949894,300711913
"F_144";0,000238584512365027;5628920;467547,292811824;942453,111675487
"F_145";0,00032541404783074;2397566;462577,802882668;948014,000256472
"F_146";0,000244566029287022;2895383;467887,257917642;947158,863613173
"F_147";0,000426583115926985;6169697;469782,06343389;941522,963045934
"F_148";0,000359762222558624;544347;463432,715134062;951204,510071821
"F_149";0,000362740622836231;1730855;469772,064460189;949164,184045704
"F_150";0,000306542240283711;905737;469282,114748864;950584,410985452
"F_151";0,000420906378652495;6878184;468117,234312754;940302,76806953
"F_152";0,00020455694245794;6194428;462712,789027625;941477,955854181
"F_153";0,000362231262496795;1606798;459538,114877711;949374,217607216
"F_154";0,000254175619088919;1549119;461642,89884167;949474,233588889
"F_155";0,000319611855990112;4343387;459933,074338881;944663,464870447
"F_156";0,000251729585704156;4443992;469107,132709105;944493,437701604
"F_157";0,000219403311668296;339298;469462,096275473;951559,566806758
"F_158";0,000321656971694384;5953733;464812,573504733;941893,022178121
"F_159";0,000243222407378554;863234;460118,055352341;950654,422172623
"F_160";0,000392587870210867;5783383;470037,037263253;942188,069324055
"F_161";0,000410753970352765;7072472;466382,412375714;939967,714530928
"F_162";0,000337631548067459;2849515;470946,94387;947238,876398511
"F_163";0,000362418628050934;65191;464277,628411756;952029,641920618
"F_164";0,000431263750801652;7241376;468452,199931721;939677,668184078
"F_165";0,000222107038259577;1303461;467977,248680947;949899,301510997
"F_166";0,000184053150069713;1306197;467132,335403253;949894,300711913
"F_167";0,00028486296164881;5437556;469377,104999019;942783,164415006
"F_168";0,000365054314786065;7061923;471736,862792341;939987,717727262
"F_169";0,000226248525201523;6719990;461497,913723012;940572,811220046
"F_170";0,000396977529564151;1189378;464037,653042943;950094,332675258
"F_171";0,000298755456120101;4001411;464002,656634991;945253,559162314
"F_172";0,000381901055585547;2189045;465772,474979983;948374,057790493
"F_173";0,000333987159406;4445146;460353,031234303;944488,43690252
"F_174";0,000182832939883956;3528109;465067,547334096;946068,689412944
"F_175";0,000398607385510998;6893879;459443,124627556;940272,763275029
"F_176";0,000302186038601539;3943882;466857,363626489;945353,575143986
"F_177";0,000318550827313974;5839609;460667,998905869;942088,053342383
"F_178";0,000227569614291586;2883268;465412,511926764;947178,866809507
"F_179";0,00034917150886405;1841217;469632,078828382;948974,153680527
"F_180";0,000256377416446695;23594;459643,104101566;952099,653107789
"F_181";0,000281844236081485;3515045;472371,797622324;946093,693408362
"F_182";0,000249131787802617;5357167;459608,107693614;942918,185990263
"F_183";0,000218443812817213;3345923;469212,12193296;946383,739755212
"F_184";0,000254079063797162;3190001;459428,126167005;946648,782106644
"F_185";0,000281267723543261;2491578;467837,263049139;947853,974685796
"F_186";0,000375980158627967;2244266;465902,46163809;948279,042607904
"F_187";0,000347876857063301;1535428;465812,470874785;949499,237584307
"F_188";0,000315853705933433;4777062;464082,648424596;943918,345806987
"F_189";0,00028603454760132;4415289;470841,954646145;944543,44569244
"F_190";0,00031965323854407;1479048;459888,078957229;949594,252766896
"F_191";0,00028502143411402;2131419;468142,231747005;948474,073772165
"F_192";0,000351326387072981;1820822;469332,109617367;949009,159274112
"F_193";0,000360989032380276;3312197;460358,030721153;946438,748545132
"F_194";0,000371036496850864;5416394;465242,529373855;942818,170008591
"F_195";0,000339730602034377;46557;458258,246244045;952059,64671512
"F_196";0,00033792006957471;6317003;465537,499098021;941267,922292669
"F_197";0,000482463448962282;7322995;469847,056762943;939537,645809737
"F_198";0,000262954195930246;4444030;469297,113209415;944493,437701604
"F_199";0,00033567441728829;3758617;470132,027513408;945673,626285338
"F_200";0,000280663081170834;4862403;469562,086012478;943773,322633562
"F_201";0,00041372134205693;6735826;468052,2409837;940547,807224628
"F_202";0,000257429139066719;1952859;461367,927064905;948779,122516266
"F_203";0,000435006325797135;3646384;460917,973248382;945863,656650515
"F_204";0,00045854662101858;6361295;469122,131169656;941192,910306415
"F_205";0,000360474763380713;3503077;470631,976198434;946113,696604696
"F_206";0,000260124610902862;2135776;460877,97735358;948464,072173998
"F_207";0,000482568441039132;5685068;472311,80378012;942358,096492898
"F_208";0,00025165362988165;1325351;461227,941433098;949859,295118328
"F_209";0,00028121449236935;4168964;459318,1374563;944963,512815464
"F_210";0,000257493542316195;621008;469087,134761704;951074,489295647
"F_211";0,000278413727573788;2797482;472231,811990516;947328,890782016
"F_212";0,000199521926176569;283957;468732,171195336;951654,581989347
"F_213";0,000318450713836996;6220015;459923,075365181;941432,948662428
"F_214";0,000285166774004808;4843145;460423,024050207;943803,327428064
"F_215";0,000236776174976352;6246879;463517,706410516;941387,941470676
"F_216";0,000336280276935074;4692503;462512,809553614;944063,368980412
"F_217";0,000385026746769903;1256115;463647,693068623;949979,314296334
"F_218";0,00030233767012229;4503167;459958,071773133;944388,420920848
"F_219";0,000184215039513797;2383;469787,06292074;952139,659500458
"F_220";0,000377385325730131;5079478;465562,496532272;943398,262702291
"F_221";0,000286118903764872;2878794;472091,826358709;947188,868407675
"F_222";0,000332998186969803;4347185;464397,616096162;944658,464071363
"F_223";0,000263376510694837;5566056;458253,246757195;942558,128456243
"F_224";0,000375669827457913;3736697;462207,840855749;945708,631878923
"F_225";0,000231255634500657;4802078;458438,227770654;943873,338615235
"F_226";0,000498287968601024;7491455;469697,072157435;939247,599462887
"F_227";0,000350896357830822;1412861;463027,756699191;949709,271145819
"F_228";0,000248246636964349;3784305;467847,26202284;945628,619093585
"F_229";0,00024220903025709;619195;460023,065102186;951074,489295647
"F_230";0,000260082007036342;3612608;466337,416994062;945923,666239519
"F_231";0,000513272217708142;6715748;469337,109104217;940582,812818213
"F_232";0,000295318575765178;5436201;462602,800316919;942783,164415006
"F_233";0,000342647319549471;3363768;471286,908975818;946353,73496071
"F_234";0,000257658082917776;638418;468987,145024699;951044,484501145
"F_235";0,000358119601174259;1799292;463357,722831308;949044,164867698
"F_236";0,00024943377133686;6273063;463712,686397676;941342,934278923
"F_237";0,000359228127032928;5596486;465152,538610551;942508,120465407
"F_238";0,000395846494647869;991890;464297,626359157;950434,387012944
"F_239";0,000219960794569164;1329600;467947,251759845;949854,294319244
"F_240";0,000237820109903597;319980;460023,065102186;951589,57160126
"F_241";0,000478703818604572;7308289;468942,149643046;939562,649805155
"F_242";0,000374197623072326;5018486;465627,489861325;943503,279483047
"F_243";0,000221700761971753;5999810;462797,780304079;941813,009392784
"F_244";0,000416643494599479;6361978;458013,271388382;941187,909507331
"F_245";0,000380643508041097;1668711;464077,648937745;949269,20082646
"F_246";0,000280255470155145;5326615;466622,387744527;942973,194780183
"F_247";0,00041468695954117;6805150;466072,444190998;940427,788046621
"F_248";0,000296699880440126;5473463;460088,058431239;942718,154026919
"F_249";0,000499501933266389;918009;458018,270875232;950559,406990034
"F_250";0,000407904905014037;230958;465187,535018503;951744,596372852
"F_251";0,000329163212220557;4593726;462477,813145663;944233,396149255
"F_252";0,000336755446018963;2840795;470921,946435749;947253,878795762
"F_253";0,000365206026888996;5573357;465707,481650929;942548,126858076
"F_254";0,000507294615883691;7046844;468967,147077298;940012,72172268
"F_255";0,000245768953292853;3818576;464902,564268038;945568,609504582
"F_256";0,000288251235186303;6003658;467512,296403873;941808,0085937
"F_257";0,000311676259464889;3526153;469812,060354991;946073,690212028
"F_258";0,000320887012243262;1831116;462702,790053924;948989,156077778
"F_259";0,000367029102527034;828162;459058,164140086;950714,431761627
"F_260";0,00050360591349112;7343241;469402,10243327;939502,640216151
"F_261";0,000292751202147284;3802584;472091,826358709;945598,614299084
"F_262";0,000327172323506312;5277898;469962,044960499;943058,208364605
"F_263";0,000258937494432552;5543544;461892,873184182;942598,134848912
"F_264";0,00025616026148743;5802397;463432,715134062;942153,06373047
"F_265";0,000300456111187814;1917753;460138,053299742;948839,132105269
"F_266";0,000273801463249549;7039360;460598,006089966;940022,723320848
"F_267";0,000327339296110996;3825413;470037,037263253;945558,607906415
"F_268";0,000318205009021204;4740595;470571,982356231;943983,356195074
"F_269";0,000302472246564372;749277;471331,90435747;950854,454135968
"F_270";0,000476388132317552;7075241;465702,482164079;939962,713731844
"F_271";0,000400835465047908;552043;458338,238033649;951189,50767457
"F_272";0,000209003430103916;4892253;459038,166192685;943718,313843643
"F_273";0,000420857616784455;5040162;472331,801727521;943468,273889462
"F_274";0,000290891672627508;2439264;467717,275364733;947943,989069301
"F_275";0,000288097267770029;6424228;464237,632516954;941082,892726575
"F_276";0,000351152700935136;2841745;461147,949643494;947248,877996678
"F_277";0,000356937585818287;4553645;465422,510900465;944303,407336426
"F_278";0,000277602684081623;6629814;460892,975814131;940727,835991638
"F_279";0,000322445651394978;5909317;460608,005063666;941968,034164376
"F_280";0,000376512811383625;5422276;465602,492427074;942808,168410424
"F_281";0,000289908761477814;5935066;458628,208270964;941923,026972623
"F_282";0,000290839179416474;3960690;463747,682805628;945323,570349485
"F_283";0,00031467424024528;2838019;471566,880239432;947258,879594845
"F_284";0,000397770691948608;3079949;461117,952722392;946838,812471821
"F_285";0,000345008102827506;1355943;468937,150156196;949809,287127491
"F_286";0,000388772974860763;701509;464892,565294337;950934,466921306
"F_287";0,00045360397521837;242748;466037,447783046;951724,593176518
"F_288";0,000281587186200385;6725653;460762,989156024;940562,809621879
"F_289";0,000347472620730002;6948398;470586,980816781;940182,748891523
"F_290";0,000378850226915881;6578511;465827,469335336;940817,850375143
"F_291";0,000348368081516377;1504448;470686,970553787;949554,246374227
"F_292";0,000346539023719391;1173003;469312,111669966;950124,337469759
"F_293";0,000211197010277544;3554963;468612,183510929;946023,682221191
"F_294";0,000319005503858;4657417;461382,925525456;944123,378569416
"F_295";0,000256316118376605;2327234;459518,11693031;948134,019434479
"F_296";0,000265142759892235;930302;461382,925525456;950539,4037937
"F_297";0,000425849678428021;1436437;464707,584280878;949669,26475315
"F_298";0,000286012420718605;4363067;471181,919751962;944633,460075945
"F_299";0,000442971566354082;7554255;464147,641753649;939137,581883047
"F_300";0,000232440645092823;2734790;463797,677674131;947433,907562772
"F_301";0,000276728606856087;679379;470441,995698124;950974,473313975
"F_302";0,000296651299951702;3888598;466412,409296816;945448,590326575
"F_303";0,000406640365421626;6744136;466027,448809346;940532,804827377
"F_304";0,000351950565312665;2752791;466652,384665628;947403,90276827
"F_305";0,000324141568537986;4164575;466422,408270516;944973,514413631
"F_306";0,000342776298711066;7426985;466897,359521291;939357,617042726
"F_307";0,000390361404342449;1933370;465597,492940224;948814,128109851
"F_308";0,000556448986701168;7539864;464817,572991583;939162,585878465
"F_309";0,000312087628092229;2134790;470471,992619225;948469,072973081
"F_310";0,000334674563282304;7143149;471166,921291411;939847,695352921
"F_311";0,000545390243234441;7391768;465112,542715749;939417,62663173
"F_312";0,000443470924791867;6579795;472246,810451067;940817,850375143
"F_313";0,000451138946155066;6277695;472346,800188072;941337,93347984
"F_314";0,0004649157140614;7527102;459108,159008589;939182,5890748
"F_315";0,000367136997241287;1582584;469192,123985559;949419,224798969
"F_316";0,000342792854375634;5049810;462472,813658812;943448,270693127
"F_317";0,000435674505345686;6210316;469527,089604527;941452,951858763
"F_318";0,00043687648378335;6780264;472366,798135473;940472,795238373
"F_319";0,000504728984926234;6689627;469457,096788623;940627,820009966
"F_320";0,000378977437174879;5308979;465592,493453373;943003,199574685
"F_321";0,000211884873367281;629494;467942,252272995;951059,486898396
"F_322";0,000367494045722191;4748298;465512,501663769;943968,353797824
"F_323";0,000366262301969597;1744170;463722,685371377;949139,180050286
"F_324";0,000363365729739658;605155;462447,816224561;951099,493291065
"F_325";0,000316592102289692;6049592;464782,576583632;941727,995808362
"F_326";0,000370841516182058;4787381;472101,82533241;943903,343409737
"F_327";0,000260856956767463;2933117;467732,273825284;947093,853225086
"F_328";0,000502521211791464;7331606;469327,110130516;939522,643412486
"F_329";0,000431145452647558;5687628;470586,980816781;942353,095693814
"F_330";0,000308367163364911;3879169;462842,775685731;945463,592723826
"F_331";0,000351684413551852;6433215;465597,492940224;941067,890329324
"F_332";0,00031083712789636;2681948;461037,960932788;947523,921946277
"F_333";0,000361120292949832;7282691;471676,868950138;939607,656996907
"F_334";0,000271737155521684;5116395;461322,931683253;943333,252314204
"F_335";0,000367482417112158;1637940;469997,041368451;949324,20961638
"F_336";0,000250173057038174;507969;470367,00339537;951269,520459908
"F_337";0,000343437434190049;4375712;461782,884473477;944608,456080527
"F_338";0,000280449767978431;2715743;470237,016737263;947468,913156357
"F_339";0,000343215240074405;886958;462537,806987866;950614,415779954
"F_340";0,000421023781738006;1064602;464732,581715129;950309,367035853
"F_341";0,000363119048476908;5646822;469907,050605146;942423,106880985
"F_342";0,000342633446452335;6494411;466552,394928623;940962,873548568
"F_343";0,000323473403348135;4152958;466437,406731067;944993,517609966
"F_344";0,000222774223140665;4264610;458223,249836093;944798,486445704
"F_345";0,000277136405748641;3211912;467307,317443012;946613,776513058
"F_346";0,000183427672954164;7132570;461847,87780253;939862,697750172
"F_347";0,000430023840089704;1407411;464827,571965284;949719,272743986
"F_348";0,000253149379093956;3967392;468207,225076059;945313,568751317
"F_349";0,00029005211034377;5968842;467732,273825284;941868,018182703
"F_350";0,000322404281616295;6384057;466732,376455232;941152,903913746
"F_351";0,00035663283681305;2668561;466727,376968382;947548,925941695
"F_352";0,000270017391160697;7480879;460393,027129105;939262,601860137
"F_353";0,000350646520290796;1938708;463237,735146902;948804,126511684
"F_354";0,000453859717356771;7142127;466057,445730447;939847,695352921
"F_355";0,00037543942738528;7503489;471766,859713442;939227,596266552
"F_356";0,000349151421104597;439858;463887,668437435;951384,538838832
"F_357";0,000334482550276405;4672154;462442,816737711;944098,374573998
"F_358";0,000321843690166139;5844175;468972,146564148;942083,052543299
"F_359";0,000287144047517822;801236;469677,074210034;950764,439752463
"F_360";0,000320507299383224;2675173;470736,965422289;947538,924343528
"F_361";0,000368906860795583;6946237;459783,089733373;940182,748891523
"F_362";0,000283035231860427;276256;459278,141561497;951664,583587514
"F_363";0,000385533924402544;5501656;470327,007500568;942673,146835166
"F_364";0,000300631085610563;932338;471561,880752582;950539,4037937
"F_365";0,000433100499256535;6989694;459193,150285043;940107,736905269
"F_366";0,000412206401735994;5989641;470052,035723804;941833,012589118
"F_367";0,000443781812761991;3457658;461412,922446558;946188,708590951
"F_368";0,000359925254808317;6373705;458548,21648136;941167,906310997
"F_369";0,000432140403739573;3687049;460892,975814131;945793,645463345
"F_370";0,000367968017519727;1434441;469252,117827762;949674,265552234
"F_371";0,000323865287060369;7511376;467627,284601429;939212,593869301
"F_372";0,000317993255292435;2053459;470516,988000878;948609,095347423
"F_373";0,000455029221095374;7050606;458728,198007969;940002,720124513
"F_374";0,000263662884497582;4089359;467992,247141497;945103,535189805
"F_375";0,000349061296822997;3049991;471101,927962358;946893,821261741
"F_376";0,000285202288030737;647503;470836,955159294;951029,482103895
"F_377";0,000427978990698613;1737286;458353,2364942;949149,181648454
"F_378";0,000466385039393364;7378868;458713,199547418;939437,629828064
"F_379";0,000475080593023121;7104155;465022,551952444;939912,705741008
"F_380";0,000321258429214376;4082457;462532,807501015;945113,536787972
"F_381";0,000305544771410541;5279482;463357,722831308;943053,207565521
"F_382";0,000287080218495188;2847925;462997,759778089;947238,876398511
"F_383";0,000442216376183641;7580396;464127,643806248;939092,574691294
"F_384";0,000283649882539757;4072629;471491,887936678;945133,539984307
"F_385";0,000467347167702805;141140;466372,413402014;951899,621144444
"F_386";0,000358303516113432;3418898;470961,942330551;946258,719778121
"F_387";0,000452993713989207;7245160;458323,239573098;939667,666585911
"F_388";0,000363054308615073;855085;462947,764909587;950669,424569874
"F_389";0,000440557835588724;1722700;458048,267796334;949174,185643872
"F_390";0,000257350967801991;1374605;460573,008655714;949774,281533906
"F_391";0,000319511096630487;2328006;463377,720778709;948134,019434479
"F_392";0,000316651935247373;6118318;459813,086654475;941607,976630355
"F_393";0,00037107477945294;1659918;463687,688963425;949284,203223711
"F_394";0,000451361870410671;5269576;471926,843292651;943073,210761856
"F_395";0,000307996871073837;6973200;463872,669976885;940137,741699771
"F_396";0,00025119859806242;270796;461027,961959088;951674,585185682
"F_397";0,000354410086691009;1225321;469452,097301773;950034,323086254
"F_398";0,000332224465686138;2185545;462797,780304079;948379,058589576
"F_399";0,00035784176004901;6120892;458158,25650704;941602,975831271
"F_400";0,000336056241239972;6410138;466412,409296816;941107,896721993
"F_401";0,000342606847725949;428824;466817,367731687;951404,542035166
"F_402";0,000247448908179224;1233423;466387,411862565;950019,320689003
"F_403";0,000316593032390203;4506660;462897,770041084;944383,420121764
"F_404";0,00045208751711883;7033100;458348,237007349;940032,724919015
"F_405";0,000294499156016755;4086312;467282,320008761;945108,535988889
"F_406";0,000326121721924629;5221202;462457,815198262;943153,223547194
"F_407";0,000464506726219575;7605510;458973,172863632;939047,567499542
"F_408";0,000326725030588424;3700471;469902,051118296;945773,64226701
"F_409";0,000373791087813787;7489486;459853,082549277;939247,599462887
"F_410";0,000303088757350101;4210349;462892,770554234;944893,501628293
"F_411";0,000412557822501345;7191164;464317,624306558;939762,681768499
"F_412";0,000363054219226659;3817617;460108,05637864;945568,609504582
"F_413";0,000298887705791522;5849069;464392,616609312;942073,050945132
"F_414";0,000373826687104128;700301;458853,185179225;950934,466921306
"F_415";0,000189725310752748;3301256;463752,682292478;946458,751741466
"F_416";0,000344219289624942;6738025;464522,603267418;940542,806425544
"F_417";0,000435973983501693;6940265;458973,172863632;940192,750489691
"F_418";0,000401526097494058;96759;462342,827000706;951974,633130699
"F_419";0,000356582621648261;2786653;461662,896789071;947343,893179267
"F_420";0,000275861430595118;5277789;469417,100893821;943058,208364605
"F_421";0,000285084230134438;3017307;467457,30204852;946948,830051661
"F_422";0,000297283892142206;6490327;460657,999932169;940967,874347652
"F_423";0,000408840842959868;7582406;459653,103075267;939087,573892211
"F_424";0,000328146093782053;5729148;460313,035339501;942278,08370756
"F_425";0,000323368778865559;2566658;465587,493966523;947723,953909622
"F_426";0,000348552438507161;3212696;471226,915133614;946613,776513058
"F_427";0,000330819756371954;5739008;466037,447783046;942263,081310309
"F_428";0,000364601454439902;6201364;468342,211221015;941467,954256014
"F_429";0,000325774877024215;1014758;462437,817250861;950394,380620275
"F_430";0,000501165052095249;7382956;464627,592491274;939432,629028981
"F_431";0,000483128261236433;6483303;469112,132195955;940982,876744903
"F_432";0,000233900741155267;3076657;459183,151311342;946843,813270905
"F_433";0,000340528998983916;4881447;463107,748488795;943738,317039977
"F_434";0,00035744937568051;6172312;468332,212247315;941517,96224685
"F_435";0,000468679264036115;6396223;469462,096275473;941132,900717411
"F_436";0,000308317431450012;2299738;467287,319495611;948184,027425315
"F_437";0,00042313585123057;1082037;464757,57914938;950279,362241352
"F_438";0,000214630095352061;5434383;468037,24252315;942788,165214089
"F_439";0,000263458457397155;4066118;467987,247654647;945143,541582474
"F_440";0,000369163350545197;2351715;465722,48011148;948094,01304181
"F_441";0,000303028148243268;6160326;466502,40006012;941537,965443184
"F_442";0,000353217756319264;4404639;461167,947590895;944558,448089691
"F_443";0,000365311341552853;2209175;464747,58017568;948339,052196907
"F_444";0,000297816245511381;3064333;470187,021868761;946868,817266323
"F_445";0,000280692888931136;5912916;464077,648937745;941963,033365292
"F_446";0,000155189576939607;3193946;464627,592491274;946643,78130756
"F_447";0,000267377382716616;5814085;463772,68023988;942133,060534135
"F_448";0,000419528336033894;7366299;468492,195826523;939462,633823482
"F_449";0,000293955746487502;2285802;470232,017250413;948209,031420733
"F_450";0,000467413658957922;1246369;458493,222126007;949994,316693585
"F_451";0,000337090581773327;4910516;463202,73873895;943688,309049141
"F_452";0,000374563449374667;5500683;465462,506795267;942673,146835166
"F_453";0,000253849985066398;211863;471386,898712823;951779,601966438
"F_454";0,000290103819604224;1906170;460323,034313201;948859,135301604
"F_455";0,000385938923440718;2188914;465117,542202599;948374,057790493
"F_456";0,000310150035038531;4642700;460423,024050207;944148,382564834
"F_457";0,000321994498556619;1924073;462687,791593373;948829,130507102
"F_458";0,000324910467856101;404557;461682,894736472;951444,548427835
"F_459";0,000428108532755203;3605874;461717,891144423;945933,667837686
"F_460";0,000267086151279893;4648014;457943,278572479;944138,380966667
"F_461";0,00030663959506807;5169305;464422,613530413;943243,237930699
"F_462";0,000348772154598288;4740818;471686,867923838;943983,356195074
"F_463";0,000310945639611371;4123807;465932,458559191;945043,525600802
"F_464";0,000257726049068524;3898742;459033,166705835;945428,587130241
"F_465";0,000321555159486225;416172;461657,89730222;951424,545231501
"F_466";0,000293070350863952;4035351;459403,128732754;945193,54957331
"F_467";0,000265408458038664;4772938;457988,273954131;943923,346606071
"F_468";0,000456035823828857;7079613;458513,220073408;939952,712133677
"F_469";0,000403138751611579;4026948;460962,968630034;945208,551970561
"F_470";0,000365696717613192;1614732;470157,024947659;949364,216009049
"F_471";0,000270318304871364;7179374;463467,711542014;939782,684964834
"F_472";0,000434935388947046;5986852;470631,976198434;941838,013388202
"F_473";0,0004214969643482;5702129;470466,993132375;942328,091698396
"F_474";0,000332645993284065;4695350;462222,839316299;944058,368181329
"F_475";0,000302215529802554;2088127;469557,086525628;948549,085758419
"F_476";0,000328138968018437;5952774;460018,065615336;941893,022178121
"F_477";0,000471137070550848;74347;466482,402112719;952014,639523368
"F_478";0,000210047614369745;2817017;468232,22251031;947293,885188431
"F_479";0,000354236460773;4355319;461492,914236162;944643,461674112
"F_480";0,000323499210473984;2100581;459203,149258744;948524,081763001
"F_481";0,000480381837394384;6890131;469752,066512788;940282,764873196
"F_482";0,000312680949220913;4235439;472141,821227212;944853,495235624
"F_483";0,000273864149115296;4844432;466857,363626489;943803,327428064
"F_484";0,000257095796021548;5714338;458888,181587177;942303,087702978
"F_485";0,000346111764720837;5334987;464907,563754888;942958,192382932
"F_486";0,00041810136816727;300941;466502,40006012;951624,577194845
"F_487";0,000429949819544641;1237725;458848,185692375;950009,319090836
"F_488";0,000379912481432328;2072855;465822,469848485;948574,089753837
"F_489";0,000329899491397944;2626884;461692,893710172;947618,937128866
"F_490";0,000334135813901075;6301114;458718,199034269;941292,926288087
"F_491";0,000295539087226515;1838053;468337,211734165;948979,154479611
"F_492";0,000365377859306878;6752978;466662,383639329;940517,802430126
"F_493";0,000471524184631788;5905652;471331,90435747;941978,035762543
"F_494";0,000314624981860886;6278085;459773,090759673;941332,932680756
"F_495";0,000519624792216635;6985877;469157,127577608;940117,738503436
"F_496";0,000408381229293967;6347215;471346,902818021;941217,914301833
"F_497";0,000289003147131816;685261;470801,958751342;950964,471715808
"F_498";0,000318651973851685;4740599;470591,980303632;943983,356195074
"F_499";0,000434171281735837;5327535;471221,915646764;942973,194780183
"F_500";0,000246444100689765;1188093;472136,821740361;950099,333474341
"F_501";0,000263494408411584;2848880;467772,269720086;947238,876398511
"F_502";0,00045237288496785;6126538;471861,849963597;941597,975032188
"F_503";0,00029956581968818;2281274;462117,850092444;948214,032219817
"F_504";0,000389169071448166;6411097;471206,917186213;941107,896721993
"F_505";0,00048974237713656;7174818;469737,068052238;939792,686563001
"F_506";0,000260983440654537;4243543;469087,134761704;944838,492838373
"F_507";0,000396418414392544;6527368;471561,880752582;940907,864758648
"F_508";0,000398445188145714;3600133;462062,855737091;945943,669435853
"F_509";0,000396206996262405;3164146;460877,97735358;946693,789298396
"F_510";0,000330847407090109;1652207;468707,173761084;949299,205620962
"F_511";0,000305076485789559;2699755;462922,767475336;947493,917151775
"F_512";0,000169852991943766;7559672;462182,843421497;939127,58028488
"F_513";0,000358541326751999;2601742;466707,379020981;947663,944320619
"F_514";0,000264099503031846;5697397;461332,930656954;942333,09249748
"F_515";0,000216082622303409;6423727;461732,889604974;941082,892726575
"F_516";0,000250031304846155;2877504;465642,488321876;947188,868407675
"F_517";0,000305435929686022;2395015;464347,621227659;948019,001055556
"F_518";0,000232238923583673;2018909;472066,828924458;948669,104936426
"F_519";0,000239885366943328;4433089;458168,25548074;944508,440098854
"F_520";0,000271703063408897;3777609;463417,716673511;945638,620691753
"F_521";0,000321658376224451;2522374;462042,85778969;947798,965895876
"F_522";0,000333270017695427;4642045;471671,869463287;944153,383363917
"F_523";0,000429293073914882;245752;466532,396981222;951719,592377434
"F_524";0,00037710621728966;543374;458568,214428761;951204,510071821
"F_525";0,000288272750416022;6047194;467317,316416713;941732,996607446
"F_526";0,000462655844398623;5931751;471101,927962358;941933,02857079
"F_527";0,000328478982460282;5655458;469512,091143976;942408,104483734
"F_528";0,000340636470383682;6495840;459173,152337642;940957,872749484
"F_529";0,000354258144686344;2821601;462102,851631893;947283,883590263
"F_530";0,000369192122519285;875478;463237,735146902;950634,418976289
"F_531";0,000362962139104698;582092;463332,725397057;951139,499683734
"F_532";0,000345367553296191;5550177;466007,450861945;942588,133250745
"F_533";0,000332578873215514;4713230;464472,608398916;944028,363386827
"F_534";0,00040780067164734;76457;462507,810066764;952009,638724284
"F_535";0,000277431011392905;5563720;461097,954774991;942563,129255326
"F_536";0,000383413465944863;1038618;465537,499098021;950354,374227606
"F_537";0,000215964839971066;6054856;462052,856763391;941717,994210195
"F_538";0,000235671812731178;5348207;458383,233415301;942933,188387514
"F_539";0,000269521176380125;5264588;461512,912183563;943078,211560939
"F_540";0,000304152686838087;2391634;461967,865486936;948024,001854639
"F_541";0,000305729353219134;2454472;471131,92488346;947918,985073883
"F_542";0,000398424241920238;6936253;467962,250220396;940202,752087858
"F_543";0,000292723761792065;546049;471941,841753201;951204,510071821
"F_544";0,000430972223016847;6189963;469437,098841222;941487,957452348
"F_545";0,000405405269114227;6520870;468122,233799604;940917,866356816
"F_546";0,000291160808641646;2829492;457983,274467281;947268,881193013
"F_547";0,000348375344121317;2799284;466717,377994682;947323,889982932
"F_548";0,000406490401168629;6425921;458178,254454441;941077,891927491
"F_549";0,000349012865845339;1518617;468907,153235095;949529,242378809
"F_550";0,000425054895531124;6942105;468172,228668107;940192,750489691
"F_551";0,000413881524400515;7246770;466372,413402014;939667,666585911
"F_552";0,000324539202660383;2584431;467302,317956162;947693,94911512
"F_553";0,000296383111821899;4513285;466972,351824045;944373,418523597
"F_554";0,000439957387762145;6930043;465962,455480293;940212,753686025
"F_555";0,00036477976197427;1387247;465682,484216678;949754,278337572
"F_556";0,000266149026404192;3531307;466532,396981222;946063,68861386
"F_557";0,000521932529311719;7423644;464717,583254578;939362,61784181
"F_558";0,000432317424323361;335715;466072,444190998;951564,567605842
"F_559";0,000276935426516904;6093022;464057,650990344;941652,983822108
"F_560";0,000321729203636605;1898657;466332,417507212;948874,137698855
"F_561";0,000358507474466989;3896044;460068,060483838;945433,587929324
"F_562";0,000244308257573922;4084629;458868,183639776;945108,535988889
"F_563";0,000321965775647765;4479412;471906,84534525;944433,4281126
"F_564";0,000221720118413783;5222481;468852,158879742;943153,223547194
"F_565";0,000277470933016637;458781;471351,902304871;951354,53404433
"F_566";0,000219700035774581;3491123;468962,147590448;946133,699801031
"F_567";0,000409059519548467;1462707;465332,52013716;949624,257561398
"F_568";0,00037077831728968;3962892;460233,043549897;945318,569550401
"F_569";0,000319696504077512;4145429;472366,798135473;945008,520007216
"F_570";0,000573902696327911;7598059;465292,524242358;939062,569896793
"F_571";0,000329028982867555;1221061;462677,792619673;950039,323885338
"F_572";0,000413380610007776;390812;465582,494479673;951469,552423253
"F_573";0,000450664445562566;7030132;458033,269335783;940037,725718098
"F_574";0,000252518128274544;1156131;472101,82533241;950154,342264261
"F_575";0,000328132624586205;1062712;469807,060868141;950314,367834937
"F_576";0,000354882293289006;4765609;464917,562728589;943938,349003322
"F_577";0,000327883595203379;6058366;465077,546307797;941712,993411111
"F_578";0,000402289879864982;7233812;459683,099996368;939687,669782245
"F_579";0,000411086162942668;5121340;471521,88485778;943328,25151512
"F_580";0,000251280625668273;4185374;468742,170169036;944938,508820046
"F_581";0,000338228523513232;1949583;459513,11744346;948784,123315349
"F_582";0,000393670273419648;7590706;472101,82533241;939077,572294043
"F_583";0,000314484253534048;2081755;466747,374915783;948559,087356586
"F_584";0,000449219122505404;6640327;469882,053170895;940712,833594387
"F_585";0,000388944349778508;2177306;465177,536044802;948394,060986827
"F_586";0,000361564979060817;4637910;465522,50063747;944158,384163001
"F_587";0,000347468754729803;4425024;461417,921933408;944523,442496105
"F_588";0,000412077608022831;6937439;459368,132324802;940197,751288774
"F_589";0,000517668701055753;7014922;469132,130143356;940067,7305126
"F_590";0,000283242245823894;7103870;463597,69820012;939912,705741008
"F_591";0,000306060318033198;3828551;471201,917699363;945553,607107331
"F_592";0,000344387228247086;5071726;470377,002369071;943413,265099542
"F_593";0,000314178802639466;234274;467242,324113959;951739,595573769
"F_594";0,00038531008490411;5733995;470022,038802702;942273,082908476
"F_595";0,000396433611778858;7515231;472376,797109174;939207,593070218
"F_596";0,000310420788375348;2041556;469102,133222255;948629,098543757
"F_597";0,000293369276957223;2543834;467667,280496231;947763,960302291
"F_598";0,000399596582058953;6832844;459293,140022048;940377,780055785
"F_599";0,000322237002599974;2093359;466667,383126179;948539,084160252
"F_600";0,000229070612340904;2989438;458838,186718675;946993,837243413
"F_601";0,000243018336317125;5848810;463097,749515095;942073,050945132
"F_602";0,000284614949088178;3784027;466457,404678468;945628,619093585
"F_603";0,000267116313945168;726931;461277,936301601;950889,459729553
"F_604";0,000259825031149127;1870643;471511,885884079;948924,145689691
"F_605";0,000331511938807529;3762922;462607,799803769;945663,624687171
"F_606";0,000273372752130548;5078502;460682,99736642;943398,262702291
"F_607";0,000326284655313954;1039621;470551,98440883;950354,374227606
"F_608";0,000452150268578009;1472962;458508,220586558;949604,254365063
"F_609";0,000223885129473549;440631;467752,271772685;951384,538838832
"F_610";0,000331023967484073;2310483;462912,768501635;948164,024228981
"F_611";0,000220939770492443;571332;467632,284088279;951159,502880069
"F_612";0,000274057144145801;3368740;467097,338995301;946343,733362543
"F_613";0,000483120497212441;5531071;472151,820200912;942623,13884433
"F_614";0,000368829607416756;256980;464572,598135921;951699,5891811
"F_615";0,000229053484346289;183581;460702,995313821;951824,60915819
"F_616";0,000299796704471741;1450032;460058,061510138;949644,260757732
"F_617";0,000289381991167078;3654434;472116,82379296;945853,655052348
"F_618";0,00021018146140053;6862671;463177,741304699;940327,772064948
"F_619";0,000330878547939528;2826334;471241,913594165;947278,88279118
"F_620";0,000361621225644185;1037363;459263,143100947;950354,374227606
"F_621";0,000265701150881274;4694501;457978,27498043;944058,368181329
"F_622";0,000401161924888252;3539126;462052,856763391;946048,686216609
"F_623";0,000366361227725762;5054381;470801,958751342;943443,269894044
"F_624";0,000193474520610629;3208672;465632,489348176;946618,777312142
"F_625";0,000505226657398033;6776658;468862,157853442;940477,796037457
"F_626";0,000231884110539756;293863;460163,050733993;951634,578793013
"F_627";0,000215605875284567;722477;468057,240470551;950899,46132772
"F_628";0,000259552964571708;4580565;469297,113209415;944258,400144674
"F_629";0,000277165812843312;1983238;468012,245088898;948729,11452543
"F_630";0,000369517401688541;2926161;462002,861894888;947103,854823253
"F_631";0,000254824030926284;1676896;461427,920907108;949254,19842921
"F_632";0,00037724408606488;2217940;464997,554518193;948324,049799656
"F_633";0,000332650261094695;2917551;462527,808014165;947118,857220504
"F_634";0,000306263806145143;1774685;471046,933607005;949089,17205945
"F_635";0,000291887090230953;328255;472346,800188072;951579,570003093
"F_636";0,000420022100965806;1423662;458933,17696883;949689,267949485
"F_637";0,000282028777895586;2078951;467252,323087659;948564,08815567
"F_638";0,000402317491407302;3152720;461847,87780253;946713,792494731
"F_639";0,000309769069853865;3043387;467132,335403253;946903,822859908
"F_640";0,000258000642216982;4882687;469307,112183115;943738,317039977
"F_641";0,000288614172930859;3587103;469537,088578227;945968,673431271
"F_642";0,000348106188020625;4449046;465327,52065031;944483,436103436
"F_643";0,000329069037657502;2229246;463427,715647212;948304,046603322
"F_644";0,000427624075979606;3599878;460787,986590275;945943,669435853
"F_645";0,000213484219080122;7019192;461432,920393959;940057,728914433
"F_646";0,000343216869416128;584735;462022,859842289;951134,498884651
"F_647";0,000381595686086569;6622145;466122,439059501;940742,838388889
"F_648";0,000317625118987809;4823575;464247,631490654;943838,33302165
"F_649";0,000289912469319082;4179761;469727,069078537;944948,510418213
"F_650";0,000313410603806173;2623234;457968,27600673;947623,93792795
"F_651";0,000240458557795909;7190463;460812,984024527;939762,681768499
"F_652";0,000365221557267285;2220801;464777,577096781;948319,049000573
"F_653";0,000317317801118769;4730106;461702,892683873;943998,358592325
"F_654";0,000288844064485514;4246634;470017,039315852;944833,49203929
"F_655";0,000259661401460653;857385;459923,075365181;950664,42377079
"F_656";0,000246081157919934;193689;467667,280496231;951809,606760939
"F_657";0,000235681972855552;5524539;468542,190695026;942633,140442497
"F_658";0,00043506641260049;6640786;472176,817635163;940712,833594387
"F_659";0,000469895363512047;5949285;471621,874594785;941903,023776289
"F_660";0,000253957966418216;4452440;467772,269720086;944478,435304353
"F_661";0,000436551215686864;1699506;458278,244191446;949214,192036541
"F_662";0,000254410951199694;1400921;461427,920907108;949729,274342153
"F_663";0,000488712609620624;868633;458063,266256885;950644,420574456
"F_664";0,000432709305602243;1328993;464912,563241738;949854,294319244
"F_665";0,000294067552891336;4792726;469777,06394704;943893,341811569
"F_666";0,000236999762785529;5588391;468252,220457711;942523,122862658
"F_667";0,000302558256799106;4047868;463887,668437435;945173,546376976
"F_668";0,000375475468582243;1151927;465607,491913924;950159,343063345
"F_669";0,000282119248647011;2930699;470167,02392136;947098,85402417
"F_670";0,000316649379414655;2292161;458453,226231205;948194,029023482
"F_671";0,000309056726451401;133817;458808,189797573;951909,622742612
"F_672";0,000472387648043176;7474087;470007,040342151;939277,604257388
"F_673";0,000334468643201495;3773249;470666,972606386;945648,62228992
"F_674";0,000293862268136401;4321615;467272,32103506;944703,471263116
"F_675";0,000284581644331768;2551706;463452,713081463;947748,95790504
"F_676";0,000314478695546727;4788669;464017,655095542;943898,342610653
"F_677";0,000233817817875976;1210527;468107,235339053;950059,327081672
"F_678";0,000402766740074866;1105403;465387,514492513;950239,355848683
"F_679";0,000331794736475021;3234207;462582,802369518;946573,770120389
"F_680";0,000313179738284692;5746658;460712,994287522;942248,078913058
"F_681";0,000258408425605767;5452741;458153,257020189;942753,159620504
"F_682";0,000378589903565109;4221605;461072,95734074;944873,498431959
"F_683";0,000389843063759274;297273;462687,791593373;951629,577993929
"F_684";0,000432355933649913;3698800;461547,908591515;945773,64226701
"F_685";0,000333948967519866;2822458;466387,411862565;947283,883590263
"F_686";0,000344576449851519;495606;466652,384665628;951289,523656243
"F_687";0,000254506296249366;3518192;459058,164140086;946083,691810195
"F_688";0,000367551058098912;776709;463242,734633752;950804,446145132
"F_689";0,000420413160743308;3817907;461557,907565215;945568,609504582
"F_690";0,000346677111769953;3218362;470506,989027177;946603,774914891
"F_691";0,00039749703677753;7146663;459688,099483219;939837,693754754
"F_692";0,000267935060640214;5694967;463707,686910826;942338,093296564
"F_693";0,000415411828834555;3887612;461482,915262461;945448,590326575
"F_694";0,000293266808707004;3176161;462852,774659432;946673,786102062
"F_695";0,00043201895588649;6100196;470876,951054096;941642,98222394
"F_696";0,000483665945175224;6654805;469647,077288933;940687,829598969
"F_697";0,000309718947654797;4036716;466227,428283356;945193,54957331
"F_698";0,000451029969934843;6346882;469682,073696885;941217,914301833
"F_699";0,000346697265439221;5017870;462547,805961566;943503,279483047
"F_700";0,000347582023445464;3674475;470646,974658984;945818,649458763
"F_701";0,000319392735345767;3437017;459883,079470379;946223,714184536
"F_702";0,000353434496088863;2688844;466467,403652169;947513,92034811
"F_703";0,000376323739792166;1467323;459363,132837952;949614,25596323
"F_704";0,000280952282910279;2884695;458023,270362083;947173,866010424
"F_705";0,00035699580306532;7456869;471066,931554406;939307,60905189
"F_706";0,000357967659957491;6715381;467502,297430172;940582,812818213
"F_707";0,000359327202372965;7183921;471676,868950138;939777,68416575
"F_708";0,00035720666820673;5718523;465287,524755508;942298,086903895
"F_709";0,00024894541728249;4838694;467217,326679707;943813,329026231
"F_710";0,000397922594968911;3420027;462082,853684492;946253,718979038
"F_711";0,000430787701081739;13096;465252,528347556;952119,656304124
"F_712";0,000249179454546338;4981007;467057,343100499;943568,289871134
"F_713";0,000334848705210027;2821377;460982,966577435;947283,883590263
"F_714";0,000238718945975557;2416207;468632,18145833;947983,99546197
"F_715";0,000287059230855811;2768382;471981,837648003;947378,898772852
"F_716";0,000447745605735358;7110179;466092,442138399;939902,704142841
"F_717";0,00039487508134299;6629067;471681,868436988;940732,836790722
"F_718";0,000360013702000946;120385;464272,628924905;951934,62673803
"F_719";0,000374833805411133;4966144;465367,516545112;943593,293866552
"F_720";0,000482283150725127;5562965;471846,851503046;942568,13005441
"F_721";0,000320707219390015;2996803;466612,388770826;946983,835645246
"F_722";0,00031018443456993;4824011;466427,407757367;943838,33302165
"F_723";0,000249651260399363;580326;469027,140919501;951144,500482818
"F_724";0,000450199882328508;7384611;458378,233928451;939427,628229897
"F_725";0,000287988619444295;1631390;466297,42109926;949334,211214548
"F_726";0,000213467759838618;7028244;463117,747462496;940042,726517182
"F_727";0,00020045923600392;6824627;461782,884473477;940392,782453035
"F_728";0,000402146557903979;323923;465212,532452754;951584,570802176
"F_729";0,00031639810575325;4870063;464287,627385456;943758,320236312
"F_730";0,00021475189856945;3578123;468212,224562909;945983,675828522
"F_731";0,000291414445093464;2134434;468692,175300534;948469,072973081
"F_732";0,000247185169498391;4465230;459098,160034888;944453,431308935
"F_733";0,000301348695844885;2454344;470491,990566626;947918,985073883
"F_734";0,000391496586640058;7305235;468197,226102358;939567,650604238
"F_735";0,00026014929036948;5674;471716,86484494;952134,658701375
"F_736";0,000354397582151182;593830;463922,664845387;951119,4964874
"F_737";0,000258340142690904;1967369;461292,934762151;948754,118520848
"F_738";0,000325810328772553;3825404;469992,041881601;945558,607906415
"F_739";0,000444146995397343;6056648;471011,937199053;941717,994210195
"F_740";0,000266361581303573;1656452;460882,97684043;949289,204022795
"F_741";0,000301168612964169;6467075;460598,006089966;941007,880740321
"F_742";0,000444705003247866;819320;458423,229310103;950729,434158877
"F_743";0,000285119174934852;6443891;460877,97735358;941047,88713299
"F_744";0,000537686640514983;7345305;465197,533992203;939497,639417068
"F_745";0,00043426126860437;6678657;458183,253941291;940642,822407217
"F_746";0,000429682334213989;3445930;460872,97786673;946208,711787285
"F_747";0,000367336254799768;6535312;467707,276391033;940892,862361397
"F_748";0,000289341714983881;3303357;459733,094864871;946453,750942383
"F_749";0,00036115148262757;5094068;465887,463177539;943373,258706873
"F_750";0,000287827969486906;5796742;464207,635595852;942163,065328637
"F_751";0,00035288601516032;2763423;461712,891657573;947383,899571936
"F_752";0,000403973925061496;7241755;470347,005447969;939677,668184078
"F_753";0,000325965094986482;98901;458528,218533959;951969,632331615
"F_754";0,000425094796763611;6536159;471941,841753201;940892,862361397
"F_755";0,00043939274159427;3646404;461017,962985387;945863,656650515
"F_756";0,000321875750288623;4190770;466672,382613029;944928,507221879
"F_757";0,000203922715423472;5175777;467732,273825284;943233,236332531
"F_758";0,000289053543700759;3575486;469552,087038778;945988,676627606
"F_759";0,000442029733443042;6886411;465677,484729828;940287,76567228
"F_760";0,00031400167244556;4845084;470117,029052857;943803,327428064
"F_761";0,000444260693049094;1551398;458513,220073408;949469,232789805
"F_762";0,000200291932508688;1460138;467012,347718847;949629,258360481
"F_763";0,000271370242955908;4188090;467797,267154337;944933,508020962
"F_764";0,000423638116413467;1058834;464942,56016284;950319,368634021
"F_765";0,000379539315537363;1035719;465567,496019122;950359,375026689
"F_766";0,000361792262477827;1484054;470392,000829621;949589,251967812
"F_767";0,000490076649054764;6529845;469422,100380671;940902,863959565
"F_768";0,000204457468393814;5216449;467742,272798984;943163,225145361
"F_769";0,000349738455171896;6837288;466987,350284596;940372,779256701
"F_770";0,000323595543698065;2586217;461707,892170723;947688,948316037
"F_771";0,000227959494598457;359800;470297,010579466;951524,561213173
"F_772";0,00032498929696293;5852893;468987,145024699;942068,050146048
"F_773";0,000492423046055741;7229218;465762,476006282;939697,671380412
"F_774";0,000364036385428464;7470805;468122,233799604;939282,605056472
"F_775";0,00031533323527707;2563219;462917,767988485;947728,954708706
"F_776";0,000314084150444328;5151678;463437,714620912;943273,2427252
"F_777";0,000456459489855534;7447964;470117,029052857;939322,611449141
"F_778";0,000261029184137477;2419031;468227,22302346;947978,994662887
"F_779";0,000494505567726995;7130374;465392,513979363;939867,698549255
"F_780";0,000246133819540404;6307917;463682,689476575;941282,92468992
"F_781";0,000269033550026056;2295620;461222,941946248;948189,028224399
"F_782";0,00042492397455135;6332420;469997,041368451;941242,918297251
"F_783";0,000304399506318601;3361474;459818,086141325;946353,73496071
"F_784";0,000346478188197344;6740934;464542,601214819;940537,80562646
"F_785";0,000224307680322453;2710776;459928,074852031;947473,913955441
"F_786";0,000404403144870677;6815049;471991,836621704;940412,78564937
"F_787";0,000263605358749147;973879;461392,924499157;950464,391807446
"F_788";0,000257560744966708;4379828;467837,263049139;944603,455281443
"F_789";0,000415693346385754;1546808;464612,594030723;949479,234387973
"F_790";0,000287043804138852;5789983;459463,122574957;942173,066926804
"F_791";0,000312176665341957;992832;469007,1429721;950434,387012944
"F_792";0,000375154621112887;7491871;471776,858687143;939247,599462887
"F_793";0,000336613872679526;2995981;462502,810579914;946983,835645246
"F_794";0,000240986244049419;662777;460058,061510138;950999,477309393
"F_795";0,000374618740352724;4230260;460772,988129725;944858,496034708
"F_796";0,000238326338502052;4561092;459083,161574337;944288,404939175
"F_797";0,000466326856010183;7314953;458688,202113167;939547,647407904
"F_798";0,000200175363828892;6258250;462272,834184802;941367,938274341
"F_799";0,000302755136251009;889733;461887,873697332;950609,414980871
"F_800";0,000335702123488893;5078837;462357,825461256;943398,262702291
"F_801";0,000240646568771838;491548;460887,976327281;951294,524455326
"F_802";0,000279972987603143;1884220;466772,372350034;948899,141694273
"F_803";0,000431953101545841;1292917;458833,187231824;949914,303908247
"F_804";0,000293921185519528;5643231;466477,402625869;942428,107680069
"F_805";0,000305222925275133;4364395;463297,728989105;944628,459276861
"F_806";0,000416957862991565;6628356;468127,233286454;940732,836790722
"F_807";0,000323434650411047;4917728;470212,019303012;943678,307450974
"F_808";0,000316467759181821;6234650;460473,018918709;941407,94466701
"F_809";0,000288309858100837;1969346;471176,920265112;948754,118520848
"F_810";0,000315052607900207;6140223;467662,28100938;941572,97103677
"F_811";0,000396621739821213;1183567;464032,653556093;950104,334273425
"F_812";0,000456356738329779;222451;466227,428283356;951759,598770103
"F_813";0,000287081834467074;354332;472006,835082255;951534,56281134
"F_814";0,000347728203442443;3421845;471171,920778262;946253,718979038
"F_815";0,000242758132100383;6002832;463382,720265559;941808,0085937
"F_816";0,000314732267390123;2713897;461007,964011687;947468,913156357
"F_817";0,000201425280374308;6214702;462407,820329759;941442,950260596
"F_818";0,000301342854827239;2074544;459743,093838571;948569,088954754
"F_819";0,000309336157045536;5601390;460623,003524217;942498,118867239
"F_820";0,000174653703988307;6830599;462592,801343219;940382,780854868
"F_821";0,000232811077452647;3625618;458763,194415921;945898,662244101
"F_822";0,000425400301838657;1297088;465162,537584251;949909,303109164
"F_823";0,000421903181923055;1066331;458853,185179225;950304,36623677
"F_824";0,000278266492478202;4153543;469362,106538468;944993,517609966
"F_825";0,000294080031126224;2355725;471246,913081015;948089,012242726
"F_826";0,000236769512062708;2132269;472391,795569725;948474,073772165
"F_827";0,000364267564081905;5497719;465167,537071102;942678,14763425
"F_828";0,000328141421955479;1935096;459703,097943769;948809,127310767
"F_829";0,000355254225590824;1774319;469217,121419811;949089,17205945
"F_830";0,000299558081635757;2300494;471066,931554406;948184,027425315
"F_831";0,000357963508975267;7607053;466687,38107358;939047,567499542
"F_832";0,000406608711377995;6007017;469782,06343389;941803,007794616
"F_833";0,000263121288891001;4909889;460068,060483838;943688,309049141
"F_834";0,000221862757456937;623751;468277,217891962;951069,488496564
"F_835";0,000462912106498037;5859104;470991,939251652;942058,048547881
"F_836";0,000296334681954421;1945538;468337,211734165;948794,124913517
"F_837";0,000367231627001597;4140121;460353,031234303;945013,5208063
"F_838";0,000359315275743639;7503384;471241,913594165;939227,596266552
"F_839";0,000342558424086433;1822457;462982,761317539;949004,158475029
"F_840";0,000353298147549639;1350453;470536,985948279;949819,288725659
"F_841";0,00039114362543846;1247440;463847,672542633;949994,316693585
"F_842";0,000419830977836626;1204142;465232,530400155;950069,32867984
"F_843";0,00033798599178056;2008361;462902,769527935;948684,107333677
"F_844";0,000317293409968586;1672998;470986,939764802;949264,200027377
"F_845";0,00037700780840603;1898269;464392,616609312;948874,137698855
"F_846";0,000312554179407401;4106016;464127,643806248;945073,530395304
"F_847";0,000341241360319389;5052831;463052,754133442;943443,269894044
"F_848";0,000286505747737161;5608387;466557,394415473;942488,117269072
"F_849";0,000362070730276236;6699252;459483,120522358;940607,816813631
"F_850";0,000209297481922948;4969513;467687,278443632;943588,293067468
"F_851";0,000322738644568399;4731931;470826,956185594;943998,358592325
"F_852";0,000325849060776773;2689736;470926,945922599;947513,92034811
"F_853";0,000370934087414716;579092;462857,774146282;951144,500482818
"F_854";0,000478385437605217;5536785;471671,869463287;942613,137246163
"F_855";0,000330860465002416;2459087;465157,538097401;947908,983475716
"F_856";0,000504406888422097;1313076;457953,277546179;949879,298314662
"F_857";0,000468095531183342;5966701;471551,881778881;941873,018981787
"F_858";0,00026218305162465;670370;468972,146564148;950989,475711226
"F_859";0,000331314707464988;375516;461727,890118124;951494,556418671
"F_860";0,000326079089710339;4610989;461642,89884167;944203,391354754
"F_861";0,000337588558033501;4491683;460638,001984768;944408,424117182
"F_862";0,000281616039417917;3905614;464342,621740809;945418,585532073
"F_863";0,000449208963618454;7198654;458193,252914991;939747,679371249
"F_864";0,000281627450934586;4715252;460058,061510138;944023,362587743
"F_865";0,000250394697630962;911000;466547,395441773;950574,409387285
"F_866";0,000495278462374476;6884299;469642,077802083;940292,766471363
"F_867";0,000339629388435644;4399522;464632,591978124;944568,449687858
"F_868";0,000361137404854774;1192091;463077,751567694;950089,331876174
"F_869";0,00037343368121555;1238620;463322,726423356;950009,319090836
"F_870";0,000391042330237113;4088043;461412,922446558;945103,535189805
"F_871";0,000445253265207323;5681852;470756,96336969;942363,097291982
"F_872";0,000215871402064237;6060664;462042,85778969;941707,992612027
"F_873";0,000243745862594675;7036529;460967,968116885;940027,724119931
"F_874";0,000440399664052748;5321753;471361,901278571;942983,19637835
"F_875";0,000363234983269008;3786099;462292,832132203;945623,618294502
"F_876";0,000323926716079669;7392205;467297,318469312;939417,62663173
"F_877";0,000267062540593648;5563138;458188,253428141;942563,129255326
"F_878";0,00035176815762709;6979072;464182,638161601;940127,740101604
"F_879";0,000273735174224846;722831;469827,058815542;950899,46132772
"F_880";0,000301744844198685;4120755;465197,533992203;945048,526399885
"F_881";0,000307317718727572;4709566;460677,99787957;944033,364185911
"F_882";0,000403733268982547;6695141;467977,248680947;940617,818411798
"F_883";0,000338624870608927;2235250;464397,616096162;948294,045005155
"F_884";0,000326332066009952;3047171;471526,88434463;946898,822060825
"F_885";0,000397750152349873;6344268;471136,92437031;941222,915100916
"F_886";0,000483617255867502;7429402;464457,609938365;939352,616243643
"F_887";0,000416968618269671;989099;464867,567860086;950439,387812027
"F_888";0,000227850820340903;2847277;459758,092299122;947238,876398511
"F_889";0,000279295001744794;2487941;464177,63867475;947858,97548488
"F_890";0,000277368806954529;1071168;468512,193773924;950299,365437686
"F_891";0,000449086059178242;6985721;468377,207628967;940117,738503436
"F_892";0,000306522760677038;4731071;466527,397494372;943998,358592325
"F_893";0,000340984609919285;573106;461977,864460637;951154,502080985
"F_894";0,000340090627620698;5154859;464817,572991583;943268,241926117
"F_895";0,000177539544164299;7437719;462467,814171962;939337,613846392
"F_896";0,000452386597323064;7315077;459308,138482599;939547,647407904
"F_897";0,000402358371313915;392184;457918,281138227;951464,551624169
"F_898";0,000345450059984553;3709297;470456,994158675;945758,639869759
"F_899";0,00052102283236307;7354100;465597,492940224;939482,637019817
"F_900";0,00033718204595027;1335994;470866,952080396;949844,292721077
"F_901";0,000271805944467118;3566254;466967,352337194;946003,679024857
"F_902";0,000465684085117843;6721651;469802,061381291;940572,811220046
"F_903";0,000323762501075836;2149913;458938,17645568;948439,06817858
"F_904";0,00032633488291455;5971920;468597,185050379;941863,01738362
"F_905";0,000385297912589623;3248644;462142,847526695;946548,766124971
"F_906";0,000515719603655817;1208489;457918,281138227;950059,327081672
"F_907";0,000322810178527046;4720326;470901,948488348;944018,36178866
"F_908";0,000378088769426951;2238442;465832,468822186;948289,044206071
"F_909";0,000290248203690276;7426301;463477,710515714;939357,617042726
"F_910";0,000333395541400154;1492870;470896,949001497;949574,249570561
"F_911";0,00039879662580889;963053;465362,517058262;950484,39500378
"F_912";0,000439409192688447;6292128;471886,847397848;941312,929484422
"F_913";0,000390233918436052;7471626;472226,812503666;939282,605056472
"F_914";0,000427485002782877;7406991;468602,184537229;939392,622636312
"F_915";0,000323218494551065;4864094;463492,708976265;943768,321834479
"F_916";0,000373506114364905;4922604;465542,498584871;943668,305852806
"F_917";0,000387072643441151;131757;463032,756186041;951914,623541695
"F_918";0,000480492210646379;5763443;472011,834569105;942223,07491764
"F_919";0,000311750268911148;6523048;464487,606859466;940912,865557732
"F_920";0,000320358728596797;5293861;462627,79775117;943028,203570103
"F_921";0,000251141075937413;4984348;469237,119367212;943563,28907205
"F_922";0,000426341159515857;1209932;465132,54066315;950059,327081672
"F_923";0,000329692022547659;4593662;462157,845987246;944233,396149255
"F_924";0,000271125772632893;3874621;469152,128090757;945473,594321993
"F_925";0,000382477502908495;2020330;464647,590438675;948664,104137342
"F_926";0,00032945527834941;5891859;460468,019431859;941998,038958877
"F_927";0,000268803357385899;4446584;467542,293324974;944488,43690252
"F_928";0,000258948916165542;4499850;457898,283190826;944393,421719931
"F_929";0,000285230888431919;2175051;468427,20249747;948399,061785911
"F_930";0,000280116445182389;5983186;466827,366705387;941843,014187285
"F_931";0,000324185104170717;2979377;466632,386718227;947013,840439748
"F_932";0,000277922280238487;3827547;466182,432901704;945553,607107331
"F_933";0,000408581430151357;6269006;457953,277546179;941347,935078007
"F_934";0,000304514526137495;5569309;459993,068181084;942553,127657159
"F_935";0,000373085050558993;6596852;470382,001855921;940787,845580641
"F_936";0,000357459365258887;2369312;466557,394415473;948064,008247308
"F_937";0,000223111401229114;2451231;469452,097301773;947923,985872967
"F_938";0,000368864018875847;5931395;469322,110643666;941933,02857079
"F_939";0,000351347935014093;2604547;466207,430335955;947658,943521535
"F_940";0,000448105850403108;27913;466712,378507831;952094,652308706
"F_941";0,000325236536838535;4862563;470362,00390852;943773,322633562
"F_942";0,000322532579578429;6148406;465002,554005043;941557,968639519
"F_943";0,000277887687677806;5461786;459803,087680775;942738,157223253
"F_944";0,000457538730358464;6661168;457888,284217126;940672,827201718
"F_945";0,000399648699638321;6765983;459063,163626936;940492,798434708
"F_946";0,000427244445841755;309482;465632,489348176;951609,574797594
"F_947";0,000359976458091101;6689068;466662,383639329;940627,820009966
"F_948";0,000519652949307237;6829039;469317,111156816;940387,781653952
"F_949";0,000329493506491345;1558069;462817,77825148;949459,231191638
"F_950";0,000338179600335756;3668726;470951,94335685;945828,65105693
"F_951";0,000396627610588602;1764670;464547,60070167;949104,174456701
"F_952";0,000274119978328629;5037805;460548,011221463;943468,273889462
"F_953";0,000334061923565977;5997473;465637,488835026;941818,010191867
"F_954";0,000348942263692733;1932881;463152,743870448;948814,128109851
"F_955";0,000379747172990467;486826;466327,418020361;951304,526053494
"F_956";0,000359146190782216;3514723;470761,96285654;946093,693408362
"F_957";0,000291199809138474;2685268;463112,747975645;947518,921147194
"F_958";0,000356671702654576;3241633;470661,973119535;946563,768522222
"F_959";0,000309950015389748;2678426;457953,277546179;947528,922745361
"F_960";0,000307220405298363;4090200;472196,815582565;945103,535189805
"F_961";0,000271067383373565;2675499;472366,798135473;947538,924343528
"F_962";0,000349520023897125;4607289;472191,816095714;944213,392952921
"F_963";0,000460013381300952;7186484;469967,044447349;939772,683366667
"F_964";0,000301411975342814;6415555;464447,610964664;941097,895123826
"F_965";0,000474533145173348;5551268;471461,891015577;942588,133250745
"F_966";0,000402215606300877;854260;458823,188258124;950669,424569874
"F_967";0,000486863430488114;6489134;469217,121419811;940972,875146735
"F_968";0,000280573637971825;5943856;459003,169784733;941908,024575372
"F_969";0,000334098660514005;7188840;467222,326166558;939767,682567583
"F_970";0,000182106183491741;7045443;461962,866000086;940012,72172268
"F_971";0,000223800964997435;58617;460458,020458158;952039,643518786
"F_972";0,000344349015779752;7069095;464022,654582392;939972,715330011
"F_973";0,000328307151954744;2954195;471446,892555026;947058,847631501
"F_974";0,000397834524286346;6523759;468042,24201;940912,865557732
"F_975";0,00036069475341131;1139795;463047,754646592;950179,346259679
"F_976";0,000386683068776133;3196070;460722,993261222;946638,780508477
"F_977";0,000299125437651828;5299574;462142,847526695;943018,201971936
"F_978";0,000189601994664225;7086073;461762,886526076;939942,71053551
"F_979";0,00030076397671576;4721142;460458,020458158;944013,360989576
"F_980";0,000197528047260568;6310536;462252,836237401;941277,923890836
"F_981";0,000536741060115665;7397539;464917,562728589;939407,625033562
"F_982";0,000349046886060897;4530288;464837,570938985;944343,413729095
"F_983";0,000235056111841409;4305369;458668,204165766;944728,475258534
"F_984";0,000513967559845114;6968507;469457,096788623;940147,743297938
"F_985";0,00050313838091338;1028413;458088,263691136;950369,376624857
"F_986";0,000399027238048304;326818;465162,537584251;951579,570003093
"F_987";0,00039308776680942;5205457;470881,950540947;943183,228341695
"F_988";0,000285774061905682;4403686;470926,945922599;944563,448888774
"F_989";0,000325901956304535;4195214;459843,083575577;944918,505623711
"F_990";0,000442265832107932;5275320;471596,877160534;943063,209163688
"F_991";0,00042727757244392;3231063;461387,925012306;946578,770919473
"F_992";0,000568288204426948;7531189;465017,552465594;939177,588275716
"F_993";0,000532518261665496;7563268;465637,488835026;939122,579485796
"F_994";0,000333053133388254;5262617;466182,432901704;943083,212360023
"F_995";0,000217593276846881;3364066;458253,246757195;946348,734161627
"F_996";0,000387482052423646;870112;465457,507308417;950644,420574456
"F_997";0,000357440499376529;193010;464272,628924905;951809,606760939
"F_998";0,000296367724000281;3802477;471556,881265731;945598,614299084
"F_999";0,000254849515409724;1453235;461547,908591515;949639,259958648
"F_1000";0,00029573158208994;1267470;462322,829053305;949959,3111
