"ID";"index"
"R_1";0,095
"R_2";0,3125
"R_3";0,133333333333333
"R_4";0,229166666666667
"R_5";0,326666666666667
"R_6";0,26
"R_7";0,1
"R_8";0,075
"R_9";0,1925
"R_10";0,0666666666666667
"R_11";0,175
"R_12";0,1225
"R_13";0,183333333333333
"R_14";0,22
"R_15";0,2
"R_16";0,1225
"R_17";0,315
"R_18";0,116666666666667
"R_19";0,1725
"R_20";0,183333333333333
"R_21";0,126666666666667
"R_22";0,1575
"R_23";0,325
"R_24";0,2
"R_25";0,04
"R_26";0,425
"R_27";0,2
"R_28";0,1575
"R_29";0,24
"R_30";0,165
"R_31";0,146666666666667
"R_32";0,22
"R_33";0,0933333333333333
"R_34";0,26
"R_35";0,210833333333333
"R_36";0,0875
"R_37";0,24
"R_38";0,1575
"R_39";0,3375
"R_40";0,22
"R_41";0,126666666666667
"R_42";0,110833333333333
"R_43";0,0566666666666667
"R_44";0,183333333333333
"R_45";0,249166666666667
"R_46";0,1425
"R_47";0,0791666666666667
"R_48";0,095
"R_49";0,22
"R_50";0,22
"R_51";0,2
"R_52";0,256666666666667
"R_53";0,22
"R_54";0,183333333333333
"R_55";0,210833333333333
"R_56";0,1225
"R_57";0,116666666666667
"R_58";0,229166666666667
"R_59";0,128333333333333
"R_60";0,095
"R_61";0,105
"R_62";0,315
"R_63";0,116666666666667
"R_64";0,24
"R_65";0,15
"R_66";0,1875
"R_67";0,0875
"R_68";0,145833333333333
"R_69";0,126666666666667
"R_70";0,270833333333333
"R_71";0,18
"R_72";0,3375
"R_73";0,0833333333333333
"R_74";0,175
"R_75";0,095
"R_76";0,0666666666666667
"R_77";0,25
"R_78";0,25
"R_79";0,18
"R_80";0,11
