"ID";"index"
"F_1";8,1675
"F_2";2,55666666666667
"F_3";5,46666666666667
"F_4";0,725
"F_5";2,56666666666667
"F_6";1,26666666666667
"F_7";1,72
"F_8";5,95
"F_9";2,385
"F_10";3,30416666666667
"F_11";1,3
"F_12";7,36333333333333
"F_13";10,1583333333333
"F_14";10,1733333333333
"F_15";1,1375
"F_16";4,49666666666667
"F_17";1,40083333333333
"F_18";0,213333333333333
"F_19";1,84
"F_20";1,36666666666667
"F_21";2
"F_22";3,90833333333333
"F_23";3,2025
"F_24";3,41
"F_25";6,235
"F_26";2,61
"F_27";2,2525
"F_28";8,16666666666667
"F_29";2,24
"F_30";3,575
"F_31";5,0625
"F_32";4,625
"F_33";6,02083333333333
"F_34";7,6
"F_35";0,878333333333333
"F_36";6,59333333333333
"F_37";0,933333333333333
"F_38";4,08
"F_39";2,20833333333333
"F_40";1,64833333333333
"F_41";0,2
"F_42";5,7375
"F_43";2,66
"F_44";1,91666666666667
"F_45";2,08
"F_46";2,61
"F_47";3,255
"F_48";2
"F_49";1,3
"F_50";3,90833333333333
"F_51";2,94833333333333
"F_52";1,3
"F_53";5,06916666666667
"F_54";7,5175
"F_55";5,06916666666667
"F_56";4,94083333333333
"F_57";4,56
"F_58";6,74666666666667
"F_59";4,74833333333333
"F_60";3,465
"F_61";1,10833333333333
"F_62";2,61333333333333
"F_63";2,56666666666667
"F_64";3,9
"F_65";6,23333333333333
"F_66";2,94833333333333
"F_67";6,975
"F_68";0,255
"F_69";2,7075
"F_70";0,725
"F_71";3,35833333333333
"F_72";1,57666666666667
"F_73";2,8
"F_74";3,57
"F_75";5,39833333333333
"F_76";2,61333333333333
"F_77";0,700833333333333
"F_78";2,16416666666667
"F_79";0,800833333333333
"F_80";1,505
"F_81";5,4
"F_82";2,2525
"F_83";7,67666666666667
"F_84";2,75
"F_85";2,38333333333333
"F_86";2,16666666666667
"F_87";2,34
"F_88";4,62333333333333
"F_89";9,36
"F_90";5,67166666666667
"F_91";3,575
"F_92";1,36666666666667
"F_93";4,56333333333333
"F_94";0,653333333333333
"F_95";1,3
"F_96";0,5
"F_97";9,0125
"F_98";7,52083333333333
"F_99";1,08
"F_100";7,59833333333333
"F_101";4,8
"F_102";1,88
"F_103";2,16416666666667
"F_104";1,65
"F_105";8,16666666666667
"F_106";3,96416666666667
"F_107";5,46666666666667
"F_108";0,541666666666667
"F_109";1,08
"F_110";1,84083333333333
"F_111";0,88
"F_112";1,36666666666667
"F_113";3,46666666666667
"F_114";2,295
"F_115";4,94
"F_116";4,38
"F_117";1,3
"F_118";3,15166666666667
"F_119";4,56
"F_120";6,60083333333333
"F_121";1,3
"F_122";2,94833333333333
"F_123";4,37833333333333
"F_124";2,6125
"F_125";1,04833333333333
"F_126";3,7375
"F_127";2,8025
"F_128";4,38
"F_129";2,5175
"F_130";3,15166666666667
"F_131";3,685
"F_132";6,16
"F_133";5
"F_134";2,9
"F_135";1,04833333333333
"F_136";4,3125
"F_137";6,97666666666667
"F_138";5,26666666666667
"F_139";2,34083333333333
"F_140";1,6125
"F_141";7,36
"F_142";2,80333333333333
"F_143";1,84083333333333
"F_144";4,0825
"F_145";1,76333333333333
"F_146";1,23333333333333
"F_147";4,50166666666667
"F_148";2,21
"F_149";2,9
"F_150";1,40083333333333
"F_151";4,62333333333333
"F_152";5,46
"F_153";5,265
"F_154";4,1975
"F_155";6,45
"F_156";4,26
"F_157";6,16
"F_158";7,52
"F_159";1,68666666666667
"F_160";2,5175
"F_161";7,595
"F_162";0,6525
"F_163";0,906666666666667
"F_164";1,14083333333333
"F_165";2,29666666666667
"F_166";4,9375
"F_167";2,125
"F_168";1,11
"F_169";2,125
"F_170";3,41
"F_171";5,135
"F_172";1,65
"F_173";2,42916666666667
"F_174";3,74
"F_175";10,4525
"F_176";2,2525
"F_177";6,74916666666667
"F_178";0,63
"F_179";1,47
"F_180";1,08
"F_181";2
"F_182";4,025
"F_183";1,36666666666667
"F_184";3,685
"F_185";1,505
"F_186";2,385
"F_187";0,54
"F_188";1,3
"F_189";0,9625
"F_190";3,245
"F_191";1,29833333333333
"F_192";2,90083333333333
"F_193";0,6075
"F_194";0,585
"F_195";1,50333333333333
"F_196";5,525
"F_197";5,53
"F_198";0,749166666666667
"F_199";8,75
"F_200";0,63
"F_201";3,15166666666667
"F_202";0,723333333333333
"F_203";6,09
"F_204";1,88
"F_205";6,09166666666667
"F_206";6,09
"F_207";4,025
"F_208";5,26166666666667
"F_209";3,68
"F_210";0,878333333333333
"F_211";0,316666666666667
"F_212";2,2525
"F_213";0,963333333333333
"F_214";1,40083333333333
"F_215";1,65
"F_216";5,33
"F_217";6,82333333333333
"F_218";1,84
"F_219";0,7
"F_220";2,61333333333333
"F_221";5,74
"F_222";5,005
"F_223";3,2
"F_224";6,30666666666667
"F_225";0,226666666666667
"F_226";8,25
"F_227";2,70416666666667
"F_228";7,05
"F_229";3,255
"F_230";2,70666666666667
"F_231";9,1
"F_232";2,56666666666667
"F_233";6,52666666666667
"F_234";3,09333333333333
"F_235";5,8
"F_236";1,105
"F_237";1,2675
"F_238";2,0825
"F_239";1,84083333333333
"F_240";2,29166666666667
"F_241";0,775
"F_242";4,75
"F_243";1,435
"F_244";5,135
"F_245";1,68666666666667
"F_246";4,56
"F_247";1,99333333333333
"F_248";9,0125
"F_249";3,10083333333333
"F_250";1,96
"F_251";1,2025
"F_252";0,99
"F_253";3,74
"F_254";3,35833333333333
"F_255";6,60083333333333
"F_256";3,34333333333333
"F_257";4,3125
"F_258";6,90083333333333
"F_259";6,30666666666667
"F_260";0,986666666666667
"F_261";5,67166666666667
"F_262";1,61
"F_263";5,20083333333333
"F_264";1,36666666666667
"F_265";0,991666666666667
"F_266";4,43333333333333
"F_267";5,46666666666667
"F_268";0,520833333333333
"F_269";8,585
"F_270";5,00333333333333
"F_271";4,02333333333333
"F_272";5,2
"F_273";10,925
"F_274";1,6875
"F_275";7,2075
"F_276";2,945
"F_277";6,97666666666667
"F_278";7,13
"F_279";6,16333333333333
"F_280";0,991666666666667
"F_281";3,79666666666667
"F_282";7,67916666666667
"F_283";0,315
"F_284";5,4675
"F_285";3,565
"F_286";1,40083333333333
"F_287";2,94
"F_288";5,7375
"F_289";5,13333333333333
"F_290";3,05
"F_291";5,4
"F_292";4,44
"F_293";0,749166666666667
"F_294";1,76333333333333
"F_295";4,5625
"F_296";2,6125
"F_297";1,72333333333333
"F_298";5,2
"F_299";4,8125
"F_300";0,269166666666667
"F_301";4,87666666666667
"F_302";4,8125
"F_303";5,53
"F_304";3,68333333333333
"F_305";5,53333333333333
"F_306";0,06
"F_307";6,30416666666667
"F_308";2,21
"F_309";2,9
"F_310";2,34
"F_311";1,6875
"F_312";4,025
"F_313";0,46
"F_314";1,65
"F_315";6,30666666666667
"F_316";5,33333333333333
"F_317";3,5175
"F_318";4,75
"F_319";0,906666666666667
"F_320";6,6
"F_321";0,88
"F_322";5,13333333333333
"F_323";1,76
"F_324";1,91916666666667
"F_325";0,440833333333333
"F_326";1,80166666666667
"F_327";0,585
"F_328";1,02
"F_329";2,66
"F_330";0,935
"F_331";0,498333333333333
"F_332";5,6025
"F_333";7,12833333333333
"F_334";0,213333333333333
"F_335";5,26166666666667
"F_336";3,135
"F_337";5,945
"F_338";3,85
"F_339";5,94833333333333
"F_340";1,7625
"F_341";0,300833333333333
"F_342";7,28
"F_343";6,825
"F_344";0,85
"F_345";6,30666666666667
"F_346";1,725
"F_347";2,385
"F_348";7,28
"F_349";3,20333333333333
"F_350";0,800833333333333
"F_351";4,14166666666667
"F_352";0,8525
"F_353";2,75
"F_354";3,68
"F_355";0,421666666666667
"F_356";2,84166666666667
"F_357";0,9625
"F_358";2
"F_359";1,14083333333333
"F_360";7,19416666666667
"F_361";2,475
"F_362";0,906666666666667
"F_363";1,3325
"F_364";8,16666666666667
"F_365";4,37833333333333
"F_366";3,3075
"F_367";4,8125
"F_368";0,5
"F_369";1,7625
"F_370";2,04166666666667
"F_371";3,35
"F_372";2,9
"F_373";1,33333333333333
"F_374";3,14666666666667
"F_375";3,8525
"F_376";5,81
"F_377";7,59833333333333
"F_378";1,46916666666667
"F_379";7,58333333333333
"F_380";2,85
"F_381";8,25
"F_382";6,82333333333333
"F_383";5,67
"F_384";3,15166666666667
"F_385";7,755
"F_386";5,4
"F_387";2,29666666666667
"F_388";2,04166666666667
"F_389";3,15166666666667
"F_390";2,20833333333333
"F_391";3,3075
"F_392";1,54
"F_393";1,96
"F_394";5,46666666666667
"F_395";2,21
"F_396";1,92
"F_397";6,3075
"F_398";4,50166666666667
"F_399";3,3075
"F_400";2,6125
"F_401";5,39833333333333
"F_402";7,05333333333333
"F_403";0,563333333333333
"F_404";2,16666666666667
"F_405";1,11
"F_406";2,43
"F_407";4,5625
"F_408";0,5625
"F_409";3,3075
"F_410";0,46
"F_411";0,2125
"F_412";4,08333333333333
"F_413";0,240833333333333
"F_414";0,8
"F_415";0,800833333333333
"F_416";5,00333333333333
"F_417";3,30666666666667
"F_418";7,44
"F_419";1,7625
"F_420";0,421666666666667
"F_421";3,25
"F_422";8,82
"F_423";7,59833333333333
"F_424";5,33333333333333
"F_425";1,17166666666667
"F_426";2,85166666666667
"F_427";4,9375
"F_428";1,26416666666667
"F_429";0,35
"F_430";1,96
"F_431";1,365
"F_432";1,575
"F_433";5,4
"F_434";5,00333333333333
"F_435";3,685
"F_436";0,225
"F_437";1,9975
"F_438";3,1
"F_439";4,56333333333333
"F_440";0,563333333333333
"F_441";2,29666666666667
"F_442";3,57
"F_443";4,26
"F_444";4,38
"F_445";3,20333333333333
"F_446";4,5
"F_447";1,505
"F_448";1,26666666666667
"F_449";7,44
"F_450";1,9975
"F_451";1,4
"F_452";2,55
"F_453";3,62916666666667
"F_454";8,08
"F_455";2,85
"F_456";4,875
"F_457";3,68333333333333
"F_458";2,16666666666667
"F_459";5,60333333333333
"F_460";7,6
"F_461";2,04
"F_462";7,74333333333333
"F_463";4,31666666666667
"F_464";1,99333333333333
"F_465";10,2541666666667
"F_466";1,95833333333333
"F_467";0,88
"F_468";1,7625
"F_469";5,74
"F_470";6,82333333333333
"F_471";4,87666666666667
"F_472";1,76333333333333
"F_473";1,02083333333333
"F_474";2,125
"F_475";3,68333333333333
"F_476";3
"F_477";0,935
"F_478";1,53333333333333
"F_479";6,3
"F_480";1,64833333333333
"F_481";1,2675
"F_482";2,80333333333333
"F_483";1,68666666666667
"F_484";2
"F_485";2,84666666666667
"F_486";4,0825
"F_487";5,46666666666667
"F_488";4,025
"F_489";0,541666666666667
"F_490";3,3
"F_491";1,54083333333333
"F_492";1,65
"F_493";4,55583333333333
"F_494";3,63
"F_495";2,755
"F_496";2,475
"F_497";4,14
"F_498";0,8525
"F_499";2,2525
"F_500";1,80166666666667
"F_501";4,80583333333333
"F_502";1,1375
"F_503";3,0975
"F_504";3,1
"F_505";6,09166666666667
"F_506";2,99916666666667
"F_507";3,96666666666667
"F_508";1,05
"F_509";2,33333333333333
"F_510";2,75
"F_511";1,61333333333333
"F_512";5,13333333333333
"F_513";3,20333333333333
"F_514";3,10083333333333
"F_515";0,8
"F_516";2,85166666666667
"F_517";4,0825
"F_518";6,16333333333333
"F_519";4,14166666666667
"F_520";5,74083333333333
"F_521";1,80166666666667
"F_522";1,20333333333333
"F_523";4,255
"F_524";4,4375
"F_525";4,625
"F_526";0,8525
"F_527";0,5
"F_528";0,213333333333333
"F_529";1,045
"F_530";1,46916666666667
"F_531";8,66666666666667
"F_532";5,8725
"F_533";1,6875
"F_534";3,3
"F_535";7,52
"F_536";6,02083333333333
"F_537";2,56666666666667
"F_538";1,14083333333333
"F_539";7,13
"F_540";3,52
"F_541";8,9925
"F_542";1,505
"F_543";4,615
"F_544";1,04833333333333
"F_545";3,36
"F_546";3,05
"F_547";1,57666666666667
"F_548";5,80833333333333
"F_549";4,81333333333333
"F_550";0,963333333333333
"F_551";1,26666666666667
"F_552";1,6125
"F_553";7,43166666666667
"F_554";0,991666666666667
"F_555";0,906666666666667
"F_556";5,2
"F_557";9,63
"F_558";5,66666666666667
"F_559";0,5
"F_560";1,3325
"F_561";10,925
"F_562";2,8025
"F_563";4,94
"F_564";1,96
"F_565";1,20333333333333
"F_566";0,653333333333333
"F_567";1,14
"F_568";5,3325
"F_569";3,245
"F_570";1,65
"F_571";3,68333333333333
"F_572";8,4875
"F_573";3,74
"F_574";2,20833333333333
"F_575";0,7
"F_576";1,54
"F_577";3,4125
"F_578";4,9375
"F_579";1,17166666666667
"F_580";0,8
"F_581";0,700833333333333
"F_582";0,606666666666667
"F_583";5,3325
"F_584";4,56
"F_585";8,1675
"F_586";2,38333333333333
"F_587";1,17166666666667
"F_588";4,56333333333333
"F_589";1,17166666666667
"F_590";1,92
"F_591";1,72333333333333
"F_592";5,46
"F_593";0,63
"F_594";6,38
"F_595";1,14
"F_596";4,0825
"F_597";2,125
"F_598";1,46916666666667
"F_599";6,675
"F_600";5,67166666666667
"F_601";1,68416666666667
"F_602";0,63
"F_603";8,75333333333333
"F_604";3,255
"F_605";2,6125
"F_606";1,23333333333333
"F_607";6,74666666666667
"F_608";3,1
"F_609";0,63
"F_610";3,4125
"F_611";2,21
"F_612";9,3625
"F_613";8,16416666666667
"F_614";1,725
"F_615";0,498333333333333
"F_616";7,3625
"F_617";5,13333333333333
"F_618";5,0625
"F_619";2,90083333333333
"F_620";3,79666666666667
"F_621";1,575
"F_622";2
"F_623";2,70666666666667
"F_624";1,72333333333333
"F_625";5,945
"F_626";1,64833333333333
"F_627";2,80333333333333
"F_628";0,963333333333333
"F_629";6,38
"F_630";0,935
"F_631";0,935
"F_632";8,4975
"F_633";4,025
"F_634";1,725
"F_635";1,92
"F_636";2,08333333333333
"F_637";0,826666666666667
"F_638";1,725
"F_639";7,75833333333333
"F_640";11,4075
"F_641";1,72333333333333
"F_642";5,26666666666667
"F_643";1,17166666666667
"F_644";4,5625
"F_645";1,91666666666667
"F_646";1,4
"F_647";3,57
"F_648";0,3675
"F_649";4,50166666666667
"F_650";0,4025
"F_651";4,94
"F_652";2,4225
"F_653";5,135
"F_654";2,04
"F_655";4,81
"F_656";5,00333333333333
"F_657";2,3375
"F_658";6,375
"F_659";0,421666666666667
"F_660";1,68666666666667
"F_661";5,265
"F_662";1,68666666666667
"F_663";3,905
"F_664";3,36
"F_665";5,74
"F_666";5,33
"F_667";1,84083333333333
"F_668";3,62916666666667
"F_669";1,46916666666667
"F_670";5,88
"F_671";0,676666666666667
"F_672";7,76
"F_673";0,541666666666667
"F_674";1,1375
"F_675";1,29833333333333
"F_676";3,0975
"F_677";1,46666666666667
"F_678";7,28333333333333
"F_679";8
"F_680";2,21
"F_681";1,3325
"F_682";1,14083333333333
"F_683";8,3325
"F_684";2,52083333333333
"F_685";6,08166666666667
"F_686";5,535
"F_687";3,465
"F_688";2,70416666666667
"F_689";2,66
"F_690";2,52
"F_691";9,27333333333333
"F_692";2,7075
"F_693";1,8
"F_694";6,3
"F_695";3,36
"F_696";0,773333333333333
"F_697";2,08333333333333
"F_698";2,08333333333333
"F_699";0,6075
"F_700";4,44
"F_701";1,88
"F_702";1,11
"F_703";1,65
"F_704";4,80583333333333
"F_705";2,3375
"F_706";5
"F_707";1,8375
"F_708";1,65
"F_709";1,46916666666667
"F_710";0,675
"F_711";2,755
"F_712";2,99916666666667
"F_713";3,465
"F_714";0,904166666666667
"F_715";3,3075
"F_716";1,17166666666667
"F_717";2,65833333333333
"F_718";2,29666666666667
"F_719";0,676666666666667
"F_720";2,38333333333333
"F_721";4,94083333333333
"F_722";3,79666666666667
"F_723";3,04833333333333
"F_724";1,36666666666667
"F_725";6,9
"F_726";1,64833333333333
"F_727";2,04166666666667
"F_728";0,8
"F_729";1,9975
"F_730";3,85
"F_731";1,95833333333333
"F_732";8,3325
"F_733";2,04
"F_734";5,33
"F_735";0,853333333333333
"F_736";5,06666666666667
"F_737";2,34083333333333
"F_738";1,7625
"F_739";7,91666666666667
"F_740";5,535
"F_741";6,74916666666667
"F_742";3,8525
"F_743";2,85
"F_744";6,74916666666667
"F_745";5,32583333333333
"F_746";6,09
"F_747";4,02333333333333
"F_748";0,5625
"F_749";5,74
"F_750";3,15166666666667
"F_751";3,15166666666667
"F_752";2,04166666666667
"F_753";4,14166666666667
"F_754";1,5375
"F_755";8,91
"F_756";3,8325
"F_757";3,905
"F_758";5,265
"F_759";0,775
"F_760";3,96416666666667
"F_761";1,17166666666667
"F_762";2,85166666666667
"F_763";0,35
"F_764";1,725
"F_765";2,42916666666667
"F_766";9,45166666666667
"F_767";5,3325
"F_768";1,17166666666667
"F_769";0,725
"F_770";0,825
"F_771";3,04833333333333
"F_772";2,38
"F_773";1,80166666666667
"F_774";1,3975
"F_775";2,90083333333333
"F_776";1,91666666666667
"F_777";4,125
"F_778";0,7
"F_779";3,255
"F_780";1,26666666666667
"F_781";1,07916666666667
"F_782";0,46
"F_783";2,25333333333333
"F_784";1,47
"F_785";0,963333333333333
"F_786";11,115
"F_787";5,59583333333333
"F_788";6,1625
"F_789";1,9975
"F_790";5,80833333333333
"F_791";6,30666666666667
"F_792";4,74833333333333
"F_793";1,76333333333333
"F_794";3,795
"F_795";2,385
"F_796";5,46416666666667
"F_797";3,685
"F_798";5,74
"F_799";1,17166666666667
"F_800";2,75333333333333
"F_801";1,07916666666667
"F_802";5,07
"F_803";1,23333333333333
"F_804";1,26666666666667
"F_805";6,45
"F_806";1,5
"F_807";8,32583333333333
"F_808";2,2525
"F_809";3,41
"F_810";6,02
"F_811";3,2025
"F_812";6,4525
"F_813";1,8
"F_814";1,14083333333333
"F_815";2,04166666666667
"F_816";3,74083333333333
"F_817";0,8525
"F_818";0,42
"F_819";2,65833333333333
"F_820";1,6125
"F_821";5,2
"F_822";1,54
"F_823";1,08
"F_824";2,34083333333333
"F_825";1,80166666666667
"F_826";4,14166666666667
"F_827";5,53333333333333
"F_828";4,75
"F_829";5,46666666666667
"F_830";1,87833333333333
"F_831";2,56666666666667
"F_832";1,7625
"F_833";1,80166666666667
"F_834";0,333333333333333
"F_835";2,65833333333333
"F_836";7,0525
"F_837";5,1975
"F_838";2,34
"F_839";0,746666666666667
"F_840";3,46166666666667
"F_841";1,57666666666667
"F_842";1,40083333333333
"F_843";2,66
"F_844";4,13666666666667
"F_845";2,25333333333333
"F_846";7,12833333333333
"F_847";5,46416666666667
"F_848";4,08
"F_849";2,95
"F_850";1,50333333333333
"F_851";0,878333333333333
"F_852";1,07916666666667
"F_853";2,295
"F_854";2,21
"F_855";3,41
"F_856";4,74833333333333
"F_857";6,8975
"F_858";2,25
"F_859";4,62333333333333
"F_860";4,025
"F_861";1,92
"F_862";3,4125
"F_863";4,87666666666667
"F_864";2,47333333333333
"F_865";1,80166666666667
"F_866";6,23
"F_867";3,96416666666667
"F_868";1,92
"F_869";2,38
"F_870";4,9375
"F_871";5,3325
"F_872";2,2525
"F_873";0,935
"F_874";2,85
"F_875";1,92
"F_876";4,86666666666667
"F_877";3,96
"F_878";6,15583333333333
"F_879";2,42666666666667
"F_880";2,385
"F_881";2,75
"F_882";1,435
"F_883";0,3675
"F_884";1,11
"F_885";1,61333333333333
"F_886";0,479166666666667
"F_887";0,2125
"F_888";6,0175
"F_889";2,8
"F_890";4,25833333333333
"F_891";6,45333333333333
"F_892";3,9675
"F_893";8,415
"F_894";3,52083333333333
"F_895";2,29666666666667
"F_896";5,3325
"F_897";6,6
"F_898";1,2025
"F_899";5,06916666666667
"F_900";7,58333333333333
"F_901";1,2025
"F_902";2,125
"F_903";4,14
"F_904";6,975
"F_905";2,565
"F_906";1,3
"F_907";2,385
"F_908";8,24833333333333
"F_909";11,2
"F_910";2,85166666666667
"F_911";3,575
"F_912";1,33
"F_913";1,02
"F_914";6,23333333333333
"F_915";5,94833333333333
"F_916";6,525
"F_917";5,07
"F_918";2,00083333333333
"F_919";2
"F_920";1,02
"F_921";8,15416666666667
"F_922";0,385
"F_923";1,76
"F_924";3,465
"F_925";1,36166666666667
"F_926";2,42916666666667
"F_927";2,43
"F_928";2,29666666666667
"F_929";2,755
"F_930";2,65833333333333
"F_931";7,84083333333333
"F_932";1,92
"F_933";5,135
"F_934";9,0125
"F_935";1,02083333333333
"F_936";0,48
"F_937";1,07916666666667
"F_938";5,6025
"F_939";1,5375
"F_940";0,676666666666667
"F_941";1,26666666666667
"F_942";0,775
"F_943";4,3125
"F_944";3
"F_945";3,35833333333333
"F_946";3,8525
"F_947";3,36
"F_948";2,0825
"F_949";0,52
"F_950";1,68666666666667
"F_951";4,75
"F_952";4,26
"F_953";6,37833333333333
"F_954";1,235
"F_955";8,25
"F_956";1,2675
"F_957";0,963333333333333
"F_958";4,81
"F_959";5,80833333333333
"F_960";2,75
"F_961";2,08333333333333
"F_962";3,63
"F_963";3,46666666666667
"F_964";1,26666666666667
"F_965";3,90833333333333
"F_966";1,95833333333333
"F_967";3,91
"F_968";0,676666666666667
"F_969";0,725
"F_970";0,46
"F_971";1,26666666666667
"F_972";3,57333333333333
"F_973";3,96
"F_974";0,853333333333333
"F_975";5,46666666666667
"F_976";5,535
"F_977";1,61333333333333
"F_978";5,135
"F_979";2,08333333333333
"F_980";1,05
"F_981";2,34
"F_982";9,8975
"F_983";0,606666666666667
"F_984";3,57
"F_985";1,10833333333333
"F_986";4,025
"F_987";4,875
"F_988";5,20083333333333
"F_989";1,08
"F_990";2,70666666666667
"F_991";3,96
"F_992";4,87666666666667
"F_993";2,16666666666667
"F_994";4,68416666666667
"F_995";7,44166666666667
"F_996";0,421666666666667
"F_997";7,6
"F_998";3,685
"F_999";5,95
"F_1000";3,1
