"ID";"index"
"R_1";0,14
"R_2";0,18
"R_3";0,116666666666667
"R_4";0,368333333333333
"R_5";0,165
"R_6";0,210833333333333
"R_7";0,0666666666666667
"R_8";0,0425
"R_9";0,1575
"R_10";0,0633333333333333
"R_11";0,229166666666667
"R_12";0,26
"R_13";0,333333333333333
"R_14";0,134166666666667
"R_15";0,208333333333333
"R_16";0,095
"R_17";0,22
"R_18";0,249166666666667
"R_19";0,113333333333333
"R_20";0,18
"R_21";0,25
"R_22";0,26
"R_23";0,3375
"R_24";0,146666666666667
"R_25";0,0533333333333333
"R_26";0,23
"R_27";0,126666666666667
"R_28";0,105
"R_29";0,06
"R_30";0,303333333333333
"R_31";0,14
"R_32";0,191666666666667
"R_33";0,134166666666667
"R_34";0,0875
"R_35";0,1
"R_36";0,0425
"R_37";0,1575
"R_38";0,075
"R_39";0,166666666666667
"R_40";0,208333333333333
"R_41";0,126666666666667
"R_42";0,09
"R_43";0,0425
"R_44";0,0266666666666667
"R_45";0,075
"R_46";0,229166666666667
"R_47";0,116666666666667
"R_48";0,24
"R_49";0,165
"R_50";0,095
"R_51";0,128333333333333
"R_52";0,24
"R_53";0,110833333333333
"R_54";0,183333333333333
"R_55";0,0791666666666667
"R_56";0,146666666666667
"R_57";0,0791666666666667
"R_58";0,183333333333333
"R_59";0,105
"R_60";0,3375
"R_61";0,229166666666667
"R_62";0,291666666666667
"R_63";0,1225
"R_64";0,22
"R_65";0,06
"R_66";0,165
"R_67";0,22
"R_68";0,26
"R_69";0,045
"R_70";0,16
"R_71";0,133333333333333
"R_72";0,06
"R_73";0,25
"R_74";0,0633333333333333
"R_75";0,183333333333333
"R_76";0,06
"R_77";0,291666666666667
"R_78";0,22
"R_79";0,126666666666667
"R_80";0,22
