"ID";"index"
"R_1";0,1925
"R_2";0,153333333333333
"R_3";0,0708333333333333
"R_4";0,405
"R_5";0,095
"R_6";0,35
"R_7";0,075
"R_8";0,0633333333333333
"R_9";0,12
"R_10";0,085
"R_11";0,27
"R_12";0,116666666666667
"R_13";0,26
"R_14";0,191666666666667
"R_15";0,373333333333333
"R_16";0,165
"R_17";0,3375
"R_18";0,191666666666667
"R_19";0,075
"R_20";0,183333333333333
"R_21";0,465
"R_22";0,105
"R_23";0,183333333333333
"R_24";0,1225
"R_25";0,105
"R_26";0,3625
"R_27";0,110833333333333
"R_28";0,095
"R_29";0,0633333333333333
"R_30";0,165
"R_31";0,183333333333333
"R_32";0,3375
"R_33";0,2475
"R_34";0,191666666666667
"R_35";0,175
"R_36";0,075
"R_37";0,1725
"R_38";0,09
"R_39";0,116666666666667
"R_40";0,24
"R_41";0,09
"R_42";0,1225
"R_43";0,04
"R_44";0,1
"R_45";0,1875
"R_46";0,153333333333333
"R_47";0,1425
"R_48";0,3875
"R_49";0,1925
"R_50";0,146666666666667
"R_51";0,134166666666667
"R_52";0,25
"R_53";0,116666666666667
"R_54";0,166666666666667
"R_55";0,06
"R_56";0,1725
"R_57";0,05
"R_58";0,126666666666667
"R_59";0,135
"R_60";0,165
"R_61";0,153333333333333
"R_62";0,249166666666667
"R_63";0,0708333333333333
"R_64";0,1875
"R_65";0,0566666666666667
"R_66";0,249166666666667
"R_67";0,095
"R_68";0,281666666666667
"R_69";0,0791666666666667
"R_70";0,1575
"R_71";0,249166666666667
"R_72";0,126666666666667
"R_73";0,146666666666667
"R_74";0,0375
"R_75";0,110833333333333
"R_76";0,0708333333333333
"R_77";0,3
"R_78";0,26
"R_79";0,085
"R_80";0,146666666666667
