"ID";"index"
"F_1";6,74916666666667
"F_2";2,33333333333333
"F_3";5,26166666666667
"F_4";1,02083333333333
"F_5";2,47
"F_6";2,04166666666667
"F_7";1,7625
"F_8";6,59333333333333
"F_9";2,29666666666667
"F_10";2,80333333333333
"F_11";1,08
"F_12";9,89333333333333
"F_13";5,74083333333333
"F_14";7,20666666666667
"F_15";1,10833333333333
"F_16";4,74833333333333
"F_17";0,42
"F_18";0,285
"F_19";2,85166666666667
"F_20";1,07916666666667
"F_21";2,6125
"F_22";4,31916666666667
"F_23";3,35833333333333
"F_24";4,995
"F_25";5,265
"F_26";3,90833333333333
"F_27";2,6125
"F_28";7,67666666666667
"F_29";1,40083333333333
"F_30";3,63
"F_31";5,135
"F_32";4,255
"F_33";6,675
"F_34";6,90083333333333
"F_35";0,906666666666667
"F_36";5,4
"F_37";0,963333333333333
"F_38";4,68416666666667
"F_39";2,66
"F_40";2,565
"F_41";0,606666666666667
"F_42";3,35833333333333
"F_43";1,7625
"F_44";0,675
"F_45";3,05
"F_46";2,125
"F_47";1,7625
"F_48";2,16666666666667
"F_49";0,775
"F_50";3,255
"F_51";4,875
"F_52";0,906666666666667
"F_53";5,67166666666667
"F_54";11,285
"F_55";3,2
"F_56";3,795
"F_57";5,125
"F_58";7,6
"F_59";4,62
"F_60";3,85333333333333
"F_61";0,904166666666667
"F_62";1,84
"F_63";4,50166666666667
"F_64";3,62916666666667
"F_65";6,0175
"F_66";3,91
"F_67";6,02
"F_68";0,333333333333333
"F_69";3,63
"F_70";0,963333333333333
"F_71";2,80333333333333
"F_72";1,08
"F_73";3,8525
"F_74";2,33333333333333
"F_75";5,06916666666667
"F_76";1,7625
"F_77";1,02
"F_78";1,6125
"F_79";0,904166666666667
"F_80";1,3975
"F_81";5,39833333333333
"F_82";0,878333333333333
"F_83";10,08
"F_84";3,14666666666667
"F_85";1,54083333333333
"F_86";1,7625
"F_87";4,14
"F_88";2,85166666666667
"F_89";9,09833333333333
"F_90";6,30666666666667
"F_91";2,3375
"F_92";1,20333333333333
"F_93";4,37
"F_94";0,991666666666667
"F_95";2,21
"F_96";1,2025
"F_97";7,59833333333333
"F_98";7,2
"F_99";3,25333333333333
"F_100";6,525
"F_101";5,3325
"F_102";0,9625
"F_103";2,7075
"F_104";3,1
"F_105";5,4675
"F_106";3,85
"F_107";6,52666666666667
"F_108";0,8
"F_109";0,8525
"F_110";1,7625
"F_111";1,11
"F_112";1,2025
"F_113";2,65833333333333
"F_114";3,8525
"F_115";6,09166666666667
"F_116";3,25
"F_117";1,505
"F_118";5,33333333333333
"F_119";3,7375
"F_120";5,535
"F_121";0,773333333333333
"F_122";2,08
"F_123";4,14166666666667
"F_124";2,655
"F_125";0,853333333333333
"F_126";3,8525
"F_127";4,07
"F_128";3,41333333333333
"F_129";3,90833333333333
"F_130";2,5175
"F_131";4,68666666666667
"F_132";4,44
"F_133";5,13333333333333
"F_134";2,8975
"F_135";0,6525
"F_136";6,7425
"F_137";5,74
"F_138";4,94
"F_139";2,16416666666667
"F_140";1,54083333333333
"F_141";5,39833333333333
"F_142";1,76
"F_143";2,38333333333333
"F_144";2,99916666666667
"F_145";1,54083333333333
"F_146";1,91916666666667
"F_147";6,82333333333333
"F_148";2,125
"F_149";4,62333333333333
"F_150";1,26416666666667
"F_151";6,5875
"F_152";2,9
"F_153";5,81
"F_154";6,6
"F_155";7,44
"F_156";3,68333333333333
"F_157";6,8975
"F_158";7,83333333333333
"F_159";2,3275
"F_160";3,41333333333333
"F_161";8,16666666666667
"F_162";1,6125
"F_163";1,96
"F_164";1,575
"F_165";2,08333333333333
"F_166";2,16666666666667
"F_167";2,61
"F_168";0,7
"F_169";1,08
"F_170";6,675
"F_171";7,52083333333333
"F_172";1,3325
"F_173";3,15166666666667
"F_174";4,8125
"F_175";7,6725
"F_176";1,365
"F_177";4,20083333333333
"F_178";1,33333333333333
"F_179";1,7625
"F_180";0,3675
"F_181";1,76333333333333
"F_182";3,41333333333333
"F_183";0,991666666666667
"F_184";5,32
"F_185";1,02
"F_186";2,0825
"F_187";0,676666666666667
"F_188";2,25
"F_189";1,3
"F_190";2,79
"F_191";0,88
"F_192";2,755
"F_193";0,878333333333333
"F_194";0,5625
"F_195";3,045
"F_196";5,67166666666667
"F_197";3,74
"F_198";0,63
"F_199";6,82333333333333
"F_200";0,7
"F_201";3,14166666666667
"F_202";1,61333333333333
"F_203";4,5625
"F_204";1,10833333333333
"F_205";7,13
"F_206";5,3325
"F_207";4,56
"F_208";4,5625
"F_209";4,81
"F_210";0,853333333333333
"F_211";0,403333333333333
"F_212";1,575
"F_213";0,585
"F_214";1,80166666666667
"F_215";1,14
"F_216";4,31916666666667
"F_217";8,925
"F_218";2,125
"F_219";0,904166666666667
"F_220";2,61333333333333
"F_221";7,20666666666667
"F_222";7,3625
"F_223";2,52083333333333
"F_224";4,5625
"F_225";0,606666666666667
"F_226";8,415
"F_227";4,8125
"F_228";8,00333333333333
"F_229";5
"F_230";2,38333333333333
"F_231";8,00333333333333
"F_232";2,7075
"F_233";9,18666666666667
"F_234";2,835
"F_235";5,25
"F_236";1,435
"F_237";1,68666666666667
"F_238";2,385
"F_239";2,34
"F_240";2,34
"F_241";1,26666666666667
"F_242";7,13
"F_243";1,6125
"F_244";3,30416666666667
"F_245";1,5
"F_246";2,475
"F_247";2,16416666666667
"F_248";8,085
"F_249";3,62916666666667
"F_250";1,65
"F_251";1,1375
"F_252";0,541666666666667
"F_253";5,26666666666667
"F_254";2,56666666666667
"F_255";8,925
"F_256";2,70416666666667
"F_257";4,62
"F_258";9,00583333333333
"F_259";5,94833333333333
"F_260";1,3325
"F_261";4,875
"F_262";1,4
"F_263";3,575
"F_264";1,46916666666667
"F_265";0,583333333333333
"F_266";5,67166666666667
"F_267";6,01333333333333
"F_268";0,9625
"F_269";9,095
"F_270";6,09
"F_271";4,9375
"F_272";3,52
"F_273";7,67666666666667
"F_274";1,725
"F_275";8,92166666666667
"F_276";1,68416666666667
"F_277";4,25833333333333
"F_278";8,8375
"F_279";6,45
"F_280";1,20333333333333
"F_281";4,26
"F_282";8,98333333333333
"F_283";0,479166666666667
"F_284";5,19333333333333
"F_285";3,465
"F_286";1,435
"F_287";3,575
"F_288";5,33
"F_289";3,79666666666667
"F_290";4,74833333333333
"F_291";4,87666666666667
"F_292";5,67166666666667
"F_293";0,333333333333333
"F_294";1,43333333333333
"F_295";5,1975
"F_296";3,15166666666667
"F_297";1,8
"F_298";4,255
"F_299";5,6
"F_300";0,88
"F_301";4,8125
"F_302";5,46416666666667
"F_303";4,75
"F_304";2,21
"F_305";5,135
"F_306";0,269166666666667
"F_307";7,28333333333333
"F_308";2,2525
"F_309";2,5175
"F_310";2,385
"F_311";1,16666666666667
"F_312";1,76333333333333
"F_313";0,403333333333333
"F_314";1,3325
"F_315";5,265
"F_316";6,0175
"F_317";2,47333333333333
"F_318";3,68333333333333
"F_319";1,725
"F_320";7,3625
"F_321";0,46
"F_322";2,61333333333333
"F_323";1,80166666666667
"F_324";1,57666666666667
"F_325";0,775
"F_326";1,84083333333333
"F_327";0,46
"F_328";1,14083333333333
"F_329";2,95
"F_330";0,8525
"F_331";0,48
"F_332";5
"F_333";6,67333333333333
"F_334";0,52
"F_335";3,2025
"F_336";4,1975
"F_337";6,75
"F_338";3,355
"F_339";5,06666666666667
"F_340";1,07916666666667
"F_341";0,385
"F_342";8,085
"F_343";6,97166666666667
"F_344";0,800833333333333
"F_345";6,0175
"F_346";0,6075
"F_347";2,04166666666667
"F_348";6,15
"F_349";3,4125
"F_350";1,02
"F_351";6,9
"F_352";1,235
"F_353";2,475
"F_354";2,70666666666667
"F_355";0,541666666666667
"F_356";2,08
"F_357";1,11
"F_358";1,57166666666667
"F_359";2,60583333333333
"F_360";9,1875
"F_361";2,2525
"F_362";0,8
"F_363";0,628333333333333
"F_364";6,5975
"F_365";6,23
"F_366";1,40083333333333
"F_367";6,665
"F_368";0,749166666666667
"F_369";1,65
"F_370";2,25333333333333
"F_371";3,255
"F_372";3,96666666666667
"F_373";0,991666666666667
"F_374";5,135
"F_375";2,655
"F_376";6,30666666666667
"F_377";4,5625
"F_378";1,96
"F_379";8,5
"F_380";3,465
"F_381";5,88
"F_382";4,25833333333333
"F_383";4,56333333333333
"F_384";1,575
"F_385";7,67666666666667
"F_386";6,45333333333333
"F_387";1,76333333333333
"F_388";2,00083333333333
"F_389";2,385
"F_390";1,72333333333333
"F_391";4,75
"F_392";0,88
"F_393";2,565
"F_394";6,8975
"F_395";2,47333333333333
"F_396";2,08333333333333
"F_397";8,58333333333333
"F_398";4,02
"F_399";4,26
"F_400";3,2025
"F_401";6,235
"F_402";5,33333333333333
"F_403";0,498333333333333
"F_404";2,56666666666667
"F_405";0,9625
"F_406";1,61333333333333
"F_407";2,375
"F_408";1,02
"F_409";2,94833333333333
"F_410";0,403333333333333
"F_411";0,333333333333333
"F_412";4,38
"F_413";0,4025
"F_414";1,14083333333333
"F_415";0,316666666666667
"F_416";3,35833333333333
"F_417";3,2025
"F_418";6,375
"F_419";1,47
"F_420";0,725
"F_421";3,2
"F_422";8,085
"F_423";4,5
"F_424";5,19333333333333
"F_425";2,99916666666667
"F_426";3,30666666666667
"F_427";4,625
"F_428";2,0825
"F_429";0,5
"F_430";1,4
"F_431";0,8525
"F_432";1,505
"F_433";4,5625
"F_434";4,07583333333333
"F_435";4,38
"F_436";0,541666666666667
"F_437";1,40083333333333
"F_438";4,44083333333333
"F_439";3,20333333333333
"F_440";0,75
"F_441";3,30666666666667
"F_442";2,75
"F_443";3,3075
"F_444";3,30666666666667
"F_445";2,94833333333333
"F_446";7,05333333333333
"F_447";2,9
"F_448";0,853333333333333
"F_449";8,75
"F_450";3,575
"F_451";2,29666666666667
"F_452";2,61333333333333
"F_453";1,46916666666667
"F_454";6,16
"F_455";1,91916666666667
"F_456";6,30416666666667
"F_457";7,0525
"F_458";2,61
"F_459";7,28
"F_460";6,825
"F_461";2,61
"F_462";7,0525
"F_463";4,26
"F_464";3,68333333333333
"F_465";7,8375
"F_466";1,57666666666667
"F_467";0,88
"F_468";2,9925
"F_469";5,06666666666667
"F_470";8,585
"F_471";6,74666666666667
"F_472";0,725
"F_473";0,991666666666667
"F_474";0,421666666666667
"F_475";5,8725
"F_476";2,94833333333333
"F_477";2,20833333333333
"F_478";1,87
"F_479";6,08166666666667
"F_480";2,16
"F_481";1,02
"F_482";4,255
"F_483";2,0825
"F_484";2,755
"F_485";2,08
"F_486";4,615
"F_487";4,38
"F_488";2,475
"F_489";0,563333333333333
"F_490";4,37833333333333
"F_491";2,20833333333333
"F_492";1,07916666666667
"F_493";5,87916666666667
"F_494";2,7075
"F_495";2,34083333333333
"F_496";4,56
"F_497";4,68416666666667
"F_498";1,46916666666667
"F_499";2,9
"F_500";0,725
"F_501";4,08333333333333
"F_502";0,963333333333333
"F_503";2,3375
"F_504";4,25833333333333
"F_505";5,39833333333333
"F_506";2,12333333333333
"F_507";3,05
"F_508";1,87833333333333
"F_509";1,87833333333333
"F_510";2,21
"F_511";0,5
"F_512";5,53333333333333
"F_513";3,35
"F_514";2,94833333333333
"F_515";0,725
"F_516";3,9675
"F_517";3,36
"F_518";6,45333333333333
"F_519";2,25333333333333
"F_520";7,13
"F_521";1,91916666666667
"F_522";1,2
"F_523";4,50166666666667
"F_524";3,57333333333333
"F_525";2,66
"F_526";0,991666666666667
"F_527";0,963333333333333
"F_528";0,676666666666667
"F_529";0,285
"F_530";1,47
"F_531";10,8291666666667
"F_532";3,74083333333333
"F_533";2,295
"F_534";2,375
"F_535";6,4525
"F_536";7,11333333333333
"F_537";2,6125
"F_538";1,3325
"F_539";8,0025
"F_540";2,61333333333333
"F_541";6,08666666666667
"F_542";2,2525
"F_543";5,2
"F_544";1,68666666666667
"F_545";2,34
"F_546";2,8025
"F_547";0,563333333333333
"F_548";4,38
"F_549";6,67333333333333
"F_550";1,40083333333333
"F_551";1,29833333333333
"F_552";1,3325
"F_553";5,005
"F_554";1,88
"F_555";0,44
"F_556";8,84083333333333
"F_557";8,92666666666667
"F_558";5,39833333333333
"F_559";0,5
"F_560";1,17166666666667
"F_561";7,6
"F_562";2,42916666666667
"F_563";5,46666666666667
"F_564";1,47
"F_565";0,906666666666667
"F_566";0,676666666666667
"F_567";1,84
"F_568";4,14166666666667
"F_569";1,725
"F_570";1,61333333333333
"F_571";3,52083333333333
"F_572";9,27333333333333
"F_573";1,91666666666667
"F_574";3,15
"F_575";0,585
"F_576";3,20333333333333
"F_577";3,96666666666667
"F_578";3,85333333333333
"F_579";1,2675
"F_580";0,385
"F_581";1,54083333333333
"F_582";0,3675
"F_583";6,52666666666667
"F_584";5,265
"F_585";8,75333333333333
"F_586";3,1
"F_587";1,65
"F_588";5,4675
"F_589";2,20833333333333
"F_590";2,12333333333333
"F_591";2,2525
"F_592";5,87916666666667
"F_593";0,700833333333333
"F_594";7,13
"F_595";1,65
"F_596";4,49666666666667
"F_597";1,65
"F_598";1,88
"F_599";7,59833333333333
"F_600";3,575
"F_601";1,88
"F_602";0,725
"F_603";6,52666666666667
"F_604";1,6875
"F_605";2,42916666666667
"F_606";0,986666666666667
"F_607";4,62333333333333
"F_608";2,79
"F_609";1,46666666666667
"F_610";6,8975
"F_611";1,20333333333333
"F_612";8,41166666666667
"F_613";6,97666666666667
"F_614";0,935
"F_615";0,440833333333333
"F_616";5,87916666666667
"F_617";4,93333333333333
"F_618";6,1625
"F_619";1,26
"F_620";3,36
"F_621";1,8
"F_622";2,66
"F_623";2,90083333333333
"F_624";1,68416666666667
"F_625";10,925
"F_626";1,7625
"F_627";3,74
"F_628";1,50333333333333
"F_629";4,14166666666667
"F_630";1,505
"F_631";1,435
"F_632";7,5175
"F_633";5,67
"F_634";1,54083333333333
"F_635";1,8375
"F_636";2,16416666666667
"F_637";0,749166666666667
"F_638";1,96
"F_639";3,8525
"F_640";10,2675
"F_641";1,57666666666667
"F_642";5,945
"F_643";0,826666666666667
"F_644";6,44583333333333
"F_645";1,76333333333333
"F_646";2,755
"F_647";3,74
"F_648";0,933333333333333
"F_649";3,74083333333333
"F_650";0,9075
"F_651";4,94083333333333
"F_652";1,83333333333333
"F_653";4,81333333333333
"F_654";2,56666666666667
"F_655";6,16
"F_656";6,825
"F_657";1,26666666666667
"F_658";5,135
"F_659";0,385
"F_660";0,991666666666667
"F_661";5,32583333333333
"F_662";1,65
"F_663";2,945
"F_664";3,1
"F_665";7,92
"F_666";3,96666666666667
"F_667";0,826666666666667
"F_668";3,255
"F_669";0,906666666666667
"F_670";4,4375
"F_671";0,725
"F_672";11,31
"F_673";0,44
"F_674";2,56666666666667
"F_675";1,76
"F_676";4,8
"F_677";0,963333333333333
"F_678";4,87166666666667
"F_679";8,33333333333333
"F_680";1,9975
"F_681";0,775
"F_682";0,935
"F_683";5,59583333333333
"F_684";6,09166666666667
"F_685";7,285
"F_686";4,86666666666667
"F_687";2,9
"F_688";2,755
"F_689";3,795
"F_690";1,96
"F_691";8,925
"F_692";3,35833333333333
"F_693";1,88
"F_694";8,4975
"F_695";3,04833333333333
"F_696";1,60583333333333
"F_697";2,00083333333333
"F_698";2,385
"F_699";0,585
"F_700";3,575
"F_701";1,54083333333333
"F_702";1,91916666666667
"F_703";1,715
"F_704";5,13
"F_705";2,75333333333333
"F_706";7,75
"F_707";2,99916666666667
"F_708";2,51333333333333
"F_709";1,76333333333333
"F_710";1,05
"F_711";1,4
"F_712";4,38
"F_713";4,1975
"F_714";0,7
"F_715";1,4
"F_716";1,19583333333333
"F_717";2,8025
"F_718";2,42916666666667
"F_719";1,68416666666667
"F_720";0,963333333333333
"F_721";3,25333333333333
"F_722";2,04
"F_723";2,6125
"F_724";0,88
"F_725";5,20083333333333
"F_726";1,8
"F_727";1,92
"F_728";0,75
"F_729";3,05
"F_730";4,87666666666667
"F_731";2,84666666666667
"F_732";5,06916666666667
"F_733";1,54083333333333
"F_734";4,74833333333333
"F_735";1,435
"F_736";4,625
"F_737";1,11
"F_738";1,65
"F_739";6,23
"F_740";6,52666666666667
"F_741";4,8125
"F_742";5,525
"F_743";3,52
"F_744";6,16333333333333
"F_745";4,44083333333333
"F_746";6,09166666666667
"F_747";5,6025
"F_748";0,826666666666667
"F_749";5,4675
"F_750";3,9675
"F_751";2,125
"F_752";1,4
"F_753";5,26666666666667
"F_754";2,04166666666667
"F_755";6,37833333333333
"F_756";3,465
"F_757";3,4125
"F_758";4,08
"F_759";0,541666666666667
"F_760";2,8025
"F_761";0,9
"F_762";4,025
"F_763";1,505
"F_764";1,65
"F_765";2,85166666666667
"F_766";7,59833333333333
"F_767";5,53
"F_768";0,520833333333333
"F_769";0,421666666666667
"F_770";1,16666666666667
"F_771";1,26
"F_772";1,92
"F_773";2,16666666666667
"F_774";1,17
"F_775";2,00083333333333
"F_776";1,91666666666667
"F_777";5,4
"F_778";1,2025
"F_779";1,36666666666667
"F_780";1,17
"F_781";1,36166666666667
"F_782";0,285
"F_783";1,79666666666667
"F_784";2,115
"F_785";2,20833333333333
"F_786";6,89333333333333
"F_787";5,4
"F_788";6,9
"F_789";4,025
"F_790";5,06916666666667
"F_791";3,8525
"F_792";6,38
"F_793";0,88
"F_794";3,2
"F_795";1,0175
"F_796";5,395
"F_797";4,37833333333333
"F_798";5,135
"F_799";1,29833333333333
"F_800";2,21
"F_801";1,57666666666667
"F_802";5,2
"F_803";0,88
"F_804";0,44
"F_805";5,13333333333333
"F_806";2,3375
"F_807";7,43166666666667
"F_808";1,76
"F_809";2,34083333333333
"F_810";6,51666666666667
"F_811";3,10083333333333
"F_812";6,825
"F_813";1,50333333333333
"F_814";0,9625
"F_815";4,13166666666667
"F_816";4,94
"F_817";1,20333333333333
"F_818";1,23333333333333
"F_819";4,025
"F_820";1,235
"F_821";3,30666666666667
"F_822";1,36666666666667
"F_823";0,8525
"F_824";2,21
"F_825";0,935
"F_826";5,805
"F_827";3,90833333333333
"F_828";3,79666666666667
"F_829";5,67166666666667
"F_830";2,29666666666667
"F_831";2,21
"F_832";1,08
"F_833";1,43333333333333
"F_834";0,541666666666667
"F_835";4,3125
"F_836";8,745
"F_837";5,13333333333333
"F_838";0,853333333333333
"F_839";0,725
"F_840";2,56666666666667
"F_841";1,88
"F_842";1,8
"F_843";3,05
"F_844";5,20083333333333
"F_845";1,4
"F_846";7,52
"F_847";4,68666666666667
"F_848";4,14166666666667
"F_849";1,57666666666667
"F_850";1,36666666666667
"F_851";1,4
"F_852";0,991666666666667
"F_853";3,2
"F_854";2,29666666666667
"F_855";3,25333333333333
"F_856";4,38
"F_857";7,44
"F_858";0,826666666666667
"F_859";4,025
"F_860";3,74
"F_861";2,0825
"F_862";3,30666666666667
"F_863";6,1625
"F_864";2,70416666666667
"F_865";0,700833333333333
"F_866";2,42916666666667
"F_867";3,41
"F_868";1,5375
"F_869";1,575
"F_870";4,80583333333333
"F_871";4,875
"F_872";2,0825
"F_873";1,07666666666667
"F_874";2,66
"F_875";2,25333333333333
"F_876";6,30416666666667
"F_877";3,15166666666667
"F_878";7,67916666666667
"F_879";2,43
"F_880";0,63
"F_881";5,265
"F_882";1,20333333333333
"F_883";0,8525
"F_884";1,8375
"F_885";2,79583333333333
"F_886";0,3325
"F_887";0,2
"F_888";5,6
"F_889";1,99333333333333
"F_890";5,7375
"F_891";9,80833333333333
"F_892";3,68333333333333
"F_893";10,0825
"F_894";2,1675
"F_895";1,57666666666667
"F_896";4,3125
"F_897";5,6025
"F_898";1,02083333333333
"F_899";4,0825
"F_900";9,7125
"F_901";0,5
"F_902";1,96
"F_903";3,46166666666667
"F_904";6,675
"F_905";2,21
"F_906";0,77
"F_907";3,30416666666667
"F_908";6,08666666666667
"F_909";7,65916666666667
"F_910";2,43
"F_911";2,34
"F_912";2,04
"F_913";1,33333333333333
"F_914";4,125
"F_915";5,00333333333333
"F_916";5,73333333333333
"F_917";4,80583333333333
"F_918";1,46916666666667
"F_919";2,125
"F_920";0,479166666666667
"F_921";5,73333333333333
"F_922";0,85
"F_923";1,8
"F_924";4,37833333333333
"F_925";2,21
"F_926";2,94833333333333
"F_927";2,34
"F_928";1,26666666666667
"F_929";2,475
"F_930";3,1
"F_931";8,66666666666667
"F_932";2,12333333333333
"F_933";4,56
"F_934";5,8725
"F_935";0,9625
"F_936";1,05
"F_937";1,725
"F_938";5,4
"F_939";1,02
"F_940";1,02
"F_941";1,23
"F_942";1,02
"F_943";5,06666666666667
"F_944";3,795
"F_945";6,3075
"F_946";5,94833333333333
"F_947";4,81333333333333
"F_948";2,385
"F_949";0,725
"F_950";1,65
"F_951";8,25
"F_952";4,32
"F_953";4,68666666666667
"F_954";1,84
"F_955";6,4525
"F_956";2,04166666666667
"F_957";1,2025
"F_958";4,31666666666667
"F_959";4,19333333333333
"F_960";5,67166666666667
"F_961";2,34083333333333
"F_962";5,45416666666667
"F_963";3,84583333333333
"F_964";1,6125
"F_965";4,2
"F_966";1,79666666666667
"F_967";3,8525
"F_968";0,96
"F_969";0,458333333333333
"F_970";0,151666666666667
"F_971";0,421666666666667
"F_972";3,46666666666667
"F_973";5,20083333333333
"F_974";0,7
"F_975";2,00083333333333
"F_976";6,09166666666667
"F_977";2,34
"F_978";5,00333333333333
"F_979";1,54083333333333
"F_980";0,935
"F_981";3,575
"F_982";6,36333333333333
"F_983";0,385
"F_984";3,90833333333333
"F_985";2,2525
"F_986";2,95
"F_987";3,62916666666667
"F_988";3,90833333333333
"F_989";0,6525
"F_990";2,75
"F_991";4,74833333333333
"F_992";3,685
"F_993";2,61333333333333
"F_994";2,52
"F_995";8,16666666666667
"F_996";0,333333333333333
"F_997";6,0175
"F_998";3,62666666666667
"F_999";5,46666666666667
"F_1000";3,0975
