"ID";"index"
"R_1";0,0791666666666667
"R_2";0,270833333333333
"R_3";0,14
"R_4";0,2
"R_5";0,210833333333333
"R_6";0,183333333333333
"R_7";0,095
"R_8";0,0425
"R_9";0,183333333333333
"R_10";0,134166666666667
"R_11";0,153333333333333
"R_12";0,14
"R_13";0,146666666666667
"R_14";0,146666666666667
"R_15";0,15
"R_16";0,1225
"R_17";0,183333333333333
"R_18";0,105
"R_19";0,045
"R_20";0,158333333333333
"R_21";0,15
"R_22";0,165
"R_23";0,225
"R_24";0,085
"R_25";0,0566666666666667
"R_26";0,26
"R_27";0,085
"R_28";0,095
"R_29";0,201666666666667
"R_30";0,1
"R_31";0,0633333333333333
"R_32";0,208333333333333
"R_33";0,105
"R_34";0,15
"R_35";0,166666666666667
"R_36";0,133333333333333
"R_37";0,1
"R_38";0,1
"R_39";0,116666666666667
"R_40";0,116666666666667
"R_41";0,183333333333333
"R_42";0,2025
"R_43";0,09
"R_44";0,229166666666667
"R_45";0,183333333333333
"R_46";0,095
"R_47";0,0833333333333333
"R_48";0,0566666666666667
"R_49";0,22
"R_50";0,22
"R_51";0,270833333333333
"R_52";0,249166666666667
"R_53";0,116666666666667
"R_54";0,12
"R_55";0,281666666666667
"R_56";0,1725
"R_57";0,249166666666667
"R_58";0,116666666666667
"R_59";0,110833333333333
"R_60";0,0266666666666667
"R_61";0,158333333333333
"R_62";0,2625
"R_63";0,116666666666667
"R_64";0,27
"R_65";0,281666666666667
"R_66";0,208333333333333
"R_67";0,0425
"R_68";0,0791666666666667
"R_69";0,095
"R_70";0,22
"R_71";0,14
"R_72";0,233333333333333
"R_73";0,0791666666666667
"R_74";0,153333333333333
"R_75";0,183333333333333
"R_76";0,0633333333333333
"R_77";0,14
"R_78";0,1575
"R_79";0,134166666666667
"R_80";0,15
