"ID";"density";"cell_id";"lon";"lat"
"R_1";2,80629375310313e-05;1806890;472296,80531957;949034,16326953
"R_2";2,93671084432787e-05;300384;463717,685884527;951624,577194845
"R_3";1,37415747433783e-05;4434888;467162,332324355;944508,440098854
"R_4";2,31067954573893e-05;652137;464958,2855;951019,6599
"R_5";1,88988679650913e-05;783057;465933,2855;950794,6599
"R_6";1,73199198903421e-05;7336689;465692,483190379;939512,641814318
"R_7";7,53779964837755e-06;3256684;458768,193902771;946533,76372772
"R_8";1,3631284460465e-05;2654028;466687,38107358;947573,929937113
"R_9";1,44817398744101e-05;817172;462207,840855749;950734,434957961
"R_10";1,63550509883829e-05;2532448;468837,160419191;947783,963498625
"R_11";2,82306213673889e-05;349907;464407,615069862;951539,563610424
"R_12";1,82909094626599e-05;6180703;466712,378507831;941502,959849599
"R_13";1,88007008700602e-05;1372523;464687,586333477;949779,28233299
"R_14";1,84791061397154e-05;6113886;466702,379534131;941617,978228522
"R_15";1,27051382095236e-05;6428878;458438,227770654;941072,891128408
"R_16";1,28210036703313e-05;4496983;458088,263691136;944398,422519015
"R_17";1,81004516507126e-05;4281362;469357,107051618;944773,482450286
"R_18";3,04563262432768e-05;4871662;472283,2855;943759,6599
"R_19";1,398138719709e-05;700868;461687,894223322;950934,466921306
"R_20";1,37355435525086e-05;4675456;464427,613017263;944093,373774914
"R_21";1,4403226586022e-05;4588673;466262,424691308;944243,397747423
"R_22";1,54867379277764e-05;5239067;464632,591978124;943123,218752692
"R_23";2,22415262367639e-05;3387035;471421,895120775;946313,728568041
"R_24";1,7377766069126e-05;2441835;466047,446756747;947938,988270218
"R_25";1,1705698361596e-05;6750302;467807,266128038;940522,80322921
"R_26";1,56742836176361e-05;2586285;462047,85727654;947688,948316037
"R_27";1,50339620835068e-05;5290814;461917,870618434;943033,204369187
"R_28";1,40880901925558e-05;6361027;467782,268693787;941192,910306415
"R_29";2,33959764544349e-05;1443712;472031,832516506;949659,263154983
"R_30";1,42126130160248e-05;644002;467857,26099654;951034,482902978
"R_31";1,46416127802141e-05;1818541;457928,280111928;949009,159274112
"R_32";1,78872871241997e-05;2627657;465557,497045422;947618,937128866
"R_33";2,12587464822255e-05;7240072;461932,869078984;939677,668184078
"R_34";1,40102496434975e-05;1301149;470941,94438315;949904,30231008
"R_35";8,85651654701554e-06;5918579;463342,724370757;941953,031767125
"R_36";1,80549445555524e-05;7507653;463537,704357917;939217,594668385
"R_37";1,16539776736511e-05;3280742;462857,774146282;946493,757335052
"R_38";1,19769842331427e-05;4080276;466152,435980602;945118,537587056
"R_39";1,1588929199592e-05;7052737;469382,104485869;940002,720124513
"R_40";2,0084574260655e-05;5630593;461387,925012306;942448,110876403
"R_41";2,13894017132186e-05;4549174;472116,82379296;944313,408934593
"R_42";1,08670235472287e-05;5405108;466912,357981842;942838,173204925
"R_43";9,1820579713041e-06;734597;470556,98389568;950879,458131386
"R_44";1,28556794970574e-05;4925132;463657,692042324;943663,305053723
"R_45";1,18268007688438e-05;2798882;464707,584280878;947323,889982932
"R_46";2,34357651498496e-05;5586855;460573,008655714;942523,122862658
"R_47";2,85765999920042e-05;137609;463242,734633752;951904,621943528
"R_48";2,20873416494713e-05;7352458;471911,8448321;939487,6378189
"R_49";1,12701242576605e-05;4575883;460413,2855;944264,6599
"R_50";2,47625847489132e-05;5371873;460513,014813511;942893,181994845
"R_51";2,60424578196199e-05;7413191;470551,98440883;939382,621038144
"R_52";1,28726927769651e-05;7097498;460787,986590275;939922,707339175
"R_53";1,71446955826825e-05;2491838;469137,129630207;947853,974685796
"R_54";1,47945458796714e-05;6877585;465123,2855;940304,6599
"R_55";1,97629288861901e-05;3250382;470831,955672444;946548,766124971
"R_56";1,6922320807978e-05;5860862;465257,527834406;942053,047748797
"R_57";1,72927113158926e-05;745354;466242,426743907;950859,454935052
"R_58";1,54498789084375e-05;1665938;464737,581201979;949274,201625544
"R_59";1,94048728806472e-05;922129;464093,2855;950554,6599
"R_60";1,72225541145401e-05;2152349;471116,926422909;948439,06817858
"R_61";1,24245442852908e-05;1541957;469408,2855;949489,6599
"R_62";1,31229669241559e-05;4505199;470117,029052857;944388,420920848
"R_63";2,38569687613054e-05;7311591;470926,945922599;939557,649006071
"R_64";1,46148079535025e-05;3106237;461832,879341979;946793,805280069
"R_65";1,66730269125335e-05;1998082;469607,081394131;948704,110530011
"R_66";1,93578769811505e-05;7144218;461987,863434337;939842,694553837
"R_67";1,02417398109128e-05;2262070;467772,269720086;948249,037813402
"R_68";1,75957799099664e-05;4429422;468882,155800843;944518,441697022
"R_69";1,29531573754455e-05;6950004;464093,2855;940179,6599
"R_70";2,43964866762076e-05;5215039;460692,996340121;943163,225145361
"R_71";1,99609891557996e-05;286666;467752,271772685;951649,581190263
"R_72";1,15592703924502e-05;2095304;461867,875749931;948534,083361168
"R_73";1,30046050047986e-05;4132962;468133,2855;945029,6599
"R_74";1,74451452511348e-05;5712717;465307,522702909;942308,088502062
"R_75";8,28266905623479e-06;2359312;460133,053812892;948079,010644559
"R_76";1,67555287149664e-05;2271463;471161,921804561;948234,035416151
"R_77";2,29603226140171e-05;3241752;471256,912054716;946563,768522222
"R_78";1,1606157824399e-05;6071755;459398,129245904;941687,989415693
"R_79";6,51158923982364e-06;5882164;470092,031618606;942018,042155212
"R_80";2,16753466113355e-05;5289966;472201,815069415;943038,20516827
