"ID";"index"
"R_1";0,165
"R_2";0,175
"R_3";0,133333333333333
"R_4";0,270833333333333
"R_5";0,183333333333333
"R_6";0,303333333333333
"R_7";0,116666666666667
"R_8";0,105
"R_9";0,14
"R_10";0,128333333333333
"R_11";0,201666666666667
"R_12";0,26
"R_13";0,338333333333333
"R_14";0,270833333333333
"R_15";0,25
"R_16";0,06
"R_17";0,335833333333333
"R_18";0,1725
"R_19";0,126666666666667
"R_20";0,23
"R_21";0,229166666666667
"R_22";0,326666666666667
"R_23";0,303333333333333
"R_24";0,1225
"R_25";0,0708333333333333
"R_26";0,2925
"R_27";0,14
"R_28";0,075
"R_29";0,04
"R_30";0,3375
"R_31";0,14
"R_32";0,146666666666667
"R_33";0,1725
"R_34";0,116666666666667
"R_35";0,14
"R_36";0,095
"R_37";0,126666666666667
"R_38";0,1
"R_39";0,110833333333333
"R_40";0,27
"R_41";0,134166666666667
"R_42";0,105
"R_43";0,06
"R_44";0,04
"R_45";0,15
"R_46";0,22
"R_47";0,133333333333333
"R_48";0,210833333333333
"R_49";0,175
"R_50";0,0425
"R_51";0,1225
"R_52";0,2
"R_53";0,1
"R_54";0,1575
"R_55";0,0425
"R_56";0,09
"R_57";0,158333333333333
"R_58";0,14
"R_59";0,105
"R_60";0,191666666666667
"R_61";0,191666666666667
"R_62";0,23
"R_63";0,110833333333333
"R_64";0,229166666666667
"R_65";0,0133333333333333
"R_66";0,095
"R_67";0,303333333333333
"R_68";0,2
"R_69";0,095
"R_70";0,134166666666667
"R_71";0,22
"R_72";0,146666666666667
"R_73";0,158333333333333
"R_74";0,06
"R_75";0,175
"R_76";0,075
"R_77";0,26
"R_78";0,210833333333333
"R_79";0,1225
"R_80";0,165
