"Roost";"In";"Out";"InLink";"OutLink";"Betweeness";"Closeness"
"R_1";21;21;7;7;0,666666666666667;0,493698573065306
"R_2";23;24;6;11;468,475;0,569506187672714
"R_3";20;20;6;6;48,0277777777778;0,536441828881847
"R_4";24;24;11;14;493,172204968944;0,629984051036683
"R_5";20;20;7;5;7,83333333333333;0,503184713375796
"R_6";22;22;12;13;294,319413919414;0,612561385370897
"R_7";18;18;4;4;1;0,367299496319256
"R_8";18;18;5;4;49,3526556776557;0,479757085020243
"R_9";21;21;6;6;2;0,498842348979162
"R_10";19;19;7;8;292,117094017094;0,511382026108534
"R_11";25;25;10;11;221,516605616606;0,580100354913719
"R_12";22;23;11;10;273,84601956015;0,627482128673551
"R_13";22;22;11;13;129,487395937396;0,630990415335464
"R_14";21;20;10;11;117,213492063492;0,597730138713745
"R_15";23;23;12;11;90,6439255189255;0,582166543846721
"R_16";20;20;8;5;77,25;0,504577389823291
"R_17";24;25;13;13;515,500102675103;0,646657571623466
"R_18";24;24;8;8;292,65;0,582739119744283
"R_19";20;20;5;5;3,33333333333333;0,419431908680648
"R_20";23;23;10;10;124,103174603175;0,566850035876585
"R_21";27;27;16;16;235,386162870946;0,561811070285647
"R_22";22;22;8;9;116,732367149758;0,570465760019256
"R_23";30;30;14;11;470,984209268992;0,659799554565702
"R_24";20;20;6;7;213,4;0,584175499137294
"R_25";20;20;4;5;29,3333333333333;0,393491615474016
"R_26";24;24;10;10;147,483024342807;0,625082421205328
"R_27";18;18;4;3;2;0,433074463225217
"R_28";18;18;5;6;57,9166666666667;0,412999912869217
"R_29";17;17;4;3;0,5;0,361418223408311
"R_30";23;23;11;13;149,918564768565;0,59886291850916
"R_31";18;18;8;8;55,8094877344877;0,526082130965594
"R_32";17;18;4;4;4;0,501852832186342
"R_33";24;24;11;12;19,5761904761905;0,527018012008005
"R_34";23;23;8;9;58,9154761904762;0,539494650580469
"R_35";22;22;11;11;101,127777777778;0,478063540090772
"R_36";19;19;5;6;30,0666666666667;0,498056110118735
"R_37";22;21;10;10;159,510317460317;0,527369826435247
"R_38";18;17;7;6;35,5;0,427296493284053
"R_39";18;18;7;5;33,5;0,460328250946878
"R_40";25;24;10;11;469,787018295714;0,687953555878084
"R_41";23;23;10;11;755,168514818515;0,551483420593368
"R_42";22;22;9;8;5,70952380952381;0,528663841177783
"R_43";16;16;2;1;0;0,366702769611635
"R_44";17;17;4;4;0;0,351605963949262
"R_45";19;19;8;7;186,532575757576;0,606914212548015
"R_46";29;29;11;13;510,571428571429;0,618314636055309
"R_47";18;18;6;5;0;0,401320802641605
"R_48";24;24;11;8;193,843167943168;0,569437770302739
"R_49";19;18;4;4;1;0,512820512820513
"R_50";19;19;10;9;53,8075396825397;0,557188197954626
"R_51";21;21;6;6;306,937728937729;0,527193860527194
"R_52";25;25;12;14;98,3236558127863;0,597956351709348
"R_53";21;21;8;8;293,015076590077;0,574824157167111
"R_54";26;26;12;9;352,215729077686;0,599241466498104
"R_55";17;17;4;4;12,5;0,399831294812315
"R_56";19;20;8;9;3,73452380952381;0,504523682810005
"R_57";20;20;7;8;228,411111111111;0,571497468049192
"R_58";21;21;7;8;387,507173382173;0,561013137649426
"R_59";20;20;7;6;3,28333333333333;0,434026188078015
"R_60";19;19;7;9;520,452675102675;0,61839530332681
"R_61";19;19;8;10;428,272888222888;0,592055958031476
"R_62";26;26;13;12;238,333988957902;0,610588689939456
"R_63";21;22;9;9;353,831748806749;0,524858819621305
"R_64";23;23;11;11;448,599248818814;0,622700998423542
"R_65";18;18;3;4;38,5;0,43666513127591
"R_66";24;23;11;9;124,912323787324;0,582023575638507
"R_67";29;30;14;15;973,877824349564;0,667981961668546
"R_68";22;22;13;14;636,41363708755;0,68935427574171
"R_69";19;19;5;4;48,2;0,416630043069351
"R_70";21;21;8;7;133,845346320346;0,587360594795539
"R_71";19;20;8;8;455,116666666667;0,598107255520505
"R_72";17;17;4;4;0;0,424502955400322
"R_73";21;21;10;9;261,314690864691;0,577766942954656
"R_74";17;17;5;5;48,711704961705;0,424312953182347
"R_75";22;22;8;6;269,962121212121;0,525790349417637
"R_76";19;19;4;5;71,0121212121212;0,45774987928537
"R_77";24;24;14;12;132,438888888889;0,541900080027438
"R_78";24;24;12;13;644,100054896794;0,70567217507816
"R_79";20;20;8;6;95,0474358974359;0,464159811985899
"R_80";21;21;8;7;162,048507048507;0,569437770302739
