"Roost";"In";"Out";"InLink";"OutLink";"Betweeness";"Closeness"
"R_1";20;20;5;6;7,86666666666667;0,484414920797139
"R_2";22;21;9;10;96,3952380952381;0,634538152610442
"R_3";20;20;8;8;101,983333333333;0,522601984564498
"R_4";23;23;13;15;313,165079365079;0,641407307171854
"R_5";21;21;10;9;84,453548085901;0,572118286059143
"R_6";27;29;12;13;476,276911976912;0,64271186440678
"R_7";19;18;7;6;12,1583333333333;0,427027027027027
"R_8";18;18;6;6;2,55119047619048;0,438685793614068
"R_9";23;22;10;10;510,103174603175;0,625742574257426
"R_10";22;22;6;7;28,4087301587302;0,52549889135255
"R_11";22;22;6;6;56,5476317799847;0,504255319148936
"R_12";16;16;4;3;0;0,361832061068702
"R_13";24;24;12;13;421,445346157111;0,668547249647391
"R_14";21;20;8;8;9,35952380952381;0,545454545454545
"R_15";23;23;10;12;218,36380367998;0,610824742268041
"R_16";25;25;12;10;358,94126984127;0,578048780487805
"R_17";22;23;12;12;242,468087304852;0,662473794549267
"R_18";21;21;7;6;84,6333333333333;0,536502546689304
"R_19";22;22;11;9;264,43490953491;0,546082949308756
"R_20";17;17;8;8;165,948046398046;0,553738317757009
"R_21";22;22;8;6;48,502380952381;0,563279857397504
"R_22";22;21;8;7;10,4;0,516902944383861
"R_23";31;31;14;15;801,841466866467;0,785418392709197
"R_24";22;22;9;11;147,900346875347;0,594730238393978
"R_25";16;16;3;3;0;0,424731182795699
"R_26";21;21;7;7;34,1818903318903;0,554710356933879
"R_27";22;22;8;8;91,4659451659452;0,568686262747451
"R_28";20;20;9;7;20,1083333333333;0,494264859228363
"R_29";20;21;7;9;46,6666666666667;0,622455679579777
"R_30";23;23;8;8;34,7428571428571;0,57419745608722
"R_31";23;23;10;9;210,321818704172;0,602287166454892
"R_32";25;26;14;13;478,335714285714;0,705882352941177
"R_33";20;20;4;6;144,915476190476;0,577696526508227
"R_34";23;23;8;6;34,0912698412698;0,517184942716858
"R_35";23;22;11;9;36,9166666666667;0,488659793814433
"R_36";18;18;7;6;5,83333333333333;0,489922480620155
"R_37";25;25;10;10;253,864105339105;0,659248956884562
"R_38";23;23;10;12;323,879761904762;0,606914212548016
"R_39";31;31;13;12;728,064075630252;0,747044917257683
"R_40";23;23;9;10;231,590886564416;0,672817601135557
"R_41";20;20;7;5;16,2678571428571;0,526959421901056
"R_42";20;20;6;8;185,142857142857;0,508038585209003
"R_43";18;18;5;4;0,25;0,42058562555457
"R_44";25;25;10;11;188,806925264278;0,548928778228141
"R_45";21;21;8;8;47,6107142857143;0,496335078534031
"R_46";23;23;7;9;21,334126984127;0,480486568677141
"R_47";16;16;4;4;0;0,459747817652764
"R_48";20;20;10;10;100,090476190476;0,521739130434783
"R_49";22;22;8;8;29,0492063492063;0,571428571428572
"R_50";20;20;8;8;143,859523809524;0,608472400513479
"R_51";21;21;6;7;94,1087301587302;0,588089330024814
"R_52";19;19;10;11;83,4964285714286;0,614785992217899
"R_53";21;21;9;10;63,65;0,52317880794702
"R_54";21;21;13;14;346,591068898422;0,608082103912765
"R_55";25;25;13;14;415,333895679484;0,579108124618204
"R_56";24;23;10;9;155,176731601732;0,584463625154131
"R_57";19;19;9;9;99,6349206349206;0,541404911479155
"R_58";24;24;11;11;271,576623376623;0,583743842364532
"R_59";20;20;6;7;21,4666666666667;0,588089330024814
"R_60";20;20;6;6;134,5;0,479514415781487
"R_61";22;22;13;12;566,589497430674;0,635814889336016
"R_62";21;21;11;11;132,397619047619;0,552769679300291
"R_63";19;19;5;6;42,325;0,527839643652561
"R_64";27;27;16;14;773,869378660555;0,709050112191474
"R_65";21;21;11;11;253,227128427128;0,632843791722297
"R_66";24;24;10;12;260,290476190476;0,617589576547231
"R_67";20;20;5;7;91,7;0,464705882352941
"R_68";24;23;11;10;305,875793650794;0,66713581984518
"R_69";20;20;9;9;90,0361111111111;0,523467697404749
"R_70";22;21;10;8;243,577605727606;0,518599562363239
"R_71";24;24;9;8;480,029978354978;0,630738522954092
"R_72";23;23;12;14;266,983664374841;0,642276422764228
"R_73";17;17;8;9;5,95396825396825;0,449076267171956
"R_74";18;18;9;9;45,2166666666667;0,562945368171021
"R_75";23;23;10;10;194,724639249639;0,636668905305574
"R_76";19;19;10;8;14,2095238095238;0,452938365981844
"R_77";25;25;13;10;438,69880952381;0,594730238393978
"R_78";22;22;13;12;429,998881673882;0,635814889336016
"R_79";20;20;8;7;31,25;0,478546188793539
"R_80";20;19;6;7;29,2501867413632;0,464705882352941
