"Foraging";"In";"Out";"InLink";"OutLink";"Betweeness";"Closeness"
"F_1";82;88;82;92;2387,76129707251;0,68876759551853
"F_2";54;46;57;46;1004,23216768353;0,632879315806146
"F_3";79;82;79;80;2856,52220758301;0,702490477585704
"F_4";39;42;39;43;311,781481964391;0,59710116053195
"F_5";58;54;57;51;883,609357114583;0,647684910043765
"F_6";34;32;33;34;157,807406374349;0,598591900933738
"F_7";43;40;42;41;307,628365547159;0,606250632143217
"F_8";77;78;86;75;2297,81030786471;0,703108504398829
"F_9";57;53;53;51;448,499880163321;0,624537640010419
"F_10";64;68;59;65;1331,18945017773;0,6590434304563
"F_11";31;33;31;38;605,188754533691;0,630947368421055
"F_12";96;93;98;94;2777,82760592358;0,691748413156378
"F_13";103;83;93;82;2112,86119961222;0,693950795947904
"F_14";93;94;93;94;3971,92299048306;0,722778246714098
"F_15";40;40;38;36;470,963574870832;0,609672989879469
"F_16";83;81;86;81;2020,89222764126;0,67966889670031
"F_17";25;33;26;32;274,821735874635;0,623887587822016
"F_18";20;23;19;24;107,825024789965;0,566299777977229
"F_19";56;61;62;61;735,608625554951;0,640521478948494
"F_20";33;31;32;28;524,475050390143;0,634520721960516
"F_21";56;44;56;41;288,6426015345;0,592643859996044
"F_22";77;70;79;74;2305,1281048028;0,68086556483217
"F_23";67;68;69;68;1513,84634711462;0,694312521718991
"F_24";81;83;79;86;2366,11228870712;0,690115710091537
"F_25";96;85;96;86;2270,64243263903;0,685694674826977
"F_26";70;65;65;68;1903,47784573646;0,674089068825913
"F_27";51;59;51;61;820,046096399788;0,615969581749048
"F_28";110;104;107;104;3664,89661476474;0,72238626092197
"F_29";34;49;34;50;355,602007934524;0,64420441721748
"F_30";60;67;56;67;1876,13348937922;0,66737181985192
"F_31";82;86;90;91;2413,15515832527;0,694473409801882
"F_32";88;90;84;84;2227,04367055183;0,690314407462863
"F_33";89;98;85;99;2182,34693495348;0,693709854753778
"F_34";91;101;94;96;2749,95948288784;0,699131043331196
"F_35";41;39;40;42;535,538623604913;0,608311767392296
"F_36";89;92;93;88;2583,85845169861;0,690712145655683
"F_37";65;60;67;63;1245,3624705366;0,633180161622564
"F_38";74;75;70;74;1664,01138922256;0,67009502515372
"F_39";48;45;51;50;337,966452194216;0,583755356447213
"F_40";40;51;43;50;250,173039998264;0,5861816048115
"F_41";36;37;38;39;430,800566185959;0,603564595710401
"F_42";66;62;65;63;1304,3479182574;0,658066641049573
"F_43";97;102;90;93;4287,01694433454;0,732002198204803
"F_44";33;40;34;40;197,526159241061;0,559872968428918
"F_45";54;49;55;51;360,195650850045;0,598950786909817
"F_46";50;46;48;47;650,736864494618;0,638576679273426
"F_47";58;66;60;70;1270,26416150025;0,645765998707178
"F_48";50;56;48;52;497,70075273853;0,606496003237882
"F_49";28;29;27;28;111,190921590307;0,566460331711004
"F_50";57;63;59;62;838,217888486171;0,6388148779708
"F_51";83;80;87;78;2925,68905952298;0,71416656737758
"F_52";43;42;42;42;370,322559603776;0,597190395536514
"F_53";43;43;43;43;452,196900949557;0,616603230120357
"F_54";27;27;26;29;48,9348562813778;0,552595187609477
"F_55";64;65;67;66;993,84256165469;0,660168511481913
"F_56";62;48;69;52;571,478348895263;0,599040575654605
"F_57";92;77;88;83;2243,24466242271;0,683661248930712
"F_58";52;46;54;48;506,089904975152;0,627545411715438
"F_59";71;77;68;74;1353,97838454314;0,689718658305052
"F_60";55;53;54;54;607,934015612172;0,644308287649149
"F_61";28;34;29;34;270,359502640061;0,612194872842406
"F_62";51;58;54;59;862,3329002708;0,616001233235701
"F_63";58;64;62;69;963,122721131115;0,628236033958704
"F_64";62;66;58;64;1258,08477790384;0,656049909702842
"F_65";45;37;47;38;357,588369871827;0,619086965502994
"F_66";64;69;65;70;985,28294083735;0,659696235967424
"F_67";83;83;83;88;2748,34013633364;0,682649051876317
"F_68";32;29;31;28;172,282476438518;0,572274202787854
"F_69";58;65;61;67;937,237830692715;0,640247810296946
"F_70";38;36;39;36;333,153062553038;0,602836166147037
"F_71";66;68;68;64;1252,79408745673;0,657381004606276
"F_72";37;37;39;38;257,353091688476;0,599699849924961
"F_73";58;60;56;65;2398,41347059263;0,688648897058824
"F_74";62;65;68;62;1530,81045830942;0,646357901547423
"F_75";84;80;83;80;2817,41374103082;0,708803878673212
"F_76";39;39;41;44;250,435557110689;0,576900866217516
"F_77";46;43;48;44;364,502552930617;0,614170807930733
"F_78";53;52;58;57;531,477816824925;0,623465779072186
"F_79";32;33;32;32;135,956053146433;0,553283795633913
"F_80";45;42;46;41;198,423102640653;0,572766364070711
"F_81";79;85;76;87;1321,93893397554;0,671183024466717
"F_82";56;59;54;61;721,312760591087;0,604112074178592
"F_83";76;80;72;75;1917,5349586706;0,697991266375548
"F_84";123;108;118;109;5000,51922780829;0,740000000000004
"F_85";45;51;46;52;800,448803288431;0,641687185526179
"F_86";50;49;55;51;869,0717870136;0,648210230344981
"F_87";64;52;65;50;562,004048788316;0,642306043720534
"F_88";51;61;57;62;976,878884895658;0,665002496255619
"F_89";100;102;96;101;3617,50914546061;0,718274415817858
"F_90";67;76;68;76;2143,481933018;0,711580696859979
"F_91";63;54;65;53;831,552902234732;0,635058536843779
"F_92";40;33;43;36;254,543913526274;0,567828723001136
"F_93";75;74;82;78;1016,58378941357;0,662503453992818
"F_94";29;31;28;30;203,805074149555;0,591912309287512
"F_95";56;58;55;59;675,811314706992;0,653403826238626
"F_96";31;32;31;33;383,398780237003;0,587733490219149
"F_97";109;107;106;109;4973,55492548523;0,740274175620603
"F_98";96;88;91;83;2597,06844255526;0,713189362841336
"F_99";44;48;45;49;461,637460072723;0,617142857142857
"F_100";95;99;92;101;4041,59307226358;0,717758352293142
"F_101";84;90;81;88;1787,81999927005;0,683700239534621
"F_102";96;97;89;94;4457,24161710839;0,733480176211457
"F_103";43;54;44;48;1456,04859438209;0,698886492158811
"F_104";93;82;88;76;2599,41878345296;0,70064289888954
"F_105";82;93;79;90;4237,23411889397;0,743257486514976
"F_106";39;35;39;37;243,259274328464;0,576567910734897
"F_107";43;45;41;44;206,222820941026;0,573533633145152
"F_108";20;24;21;27;61,579319949516;0,537964458804524
"F_109";49;48;50;48;246,24354749539;0,574605761395771
"F_110";60;61;66;62;709,671016444392;0,624049973971889
"F_111";54;48;53;45;339,128793882814;0,612507664009809
"F_112";46;43;46;41;277,921732914732;0,608713313699603
"F_113";67;66;68;65;1123,23511616348;0,646079223928862
"F_114";55;61;57;61;834,503375972399;0,625221654323563
"F_115";63;73;62;76;836,905874888835;0,649861766140838
"F_116";76;73;72;70;3228,42035982237;0,696328996282534
"F_117";32;31;36;32;193,277173352853;0,574302960620867
"F_118";50;42;46;40;265,599239739561;0,602109492717227
"F_119";62;69;62;71;1000,46188954073;0,647020725388603
"F_120";48;50;49;53;730,342889765558;0,634084417645194
"F_121";36;37;40;42;277,54306829339;0,564912115357428
"F_122";46;48;49;50;454,270927926461;0,615526802218113
"F_123";70;61;70;59;1639,71850148733;0,654473985914727
"F_124";50;50;54;50;1014,39051653612;0,644758780186095
"F_125";33;27;34;30;321,854011988439;0,585180123010835
"F_126";61;62;59;60;1045,93751258934;0,659043430456296
"F_127";73;78;71;82;1405,68316695366;0,662686567164181
"F_128";42;40;45;42;403,491583515484;0,591649392952323
"F_129";53;57;55;58;742,118103757627;0,621784232365145
"F_130";76;91;76;86;3531,54145230034;0,699661491770752
"F_131";66;68;72;70;908,035415131142;0,631578947368421
"F_132";94;104;92;99;3928,29119227691;0,73262849110799
"F_133";70;82;62;71;2843,75967466186;0,70492767258615
"F_134";82;68;76;64;1204,42231709917;0,662320441988952
"F_135";21;25;21;25;58,0877539217935;0,540681941187084
"F_136";79;88;81;86;1730,912172285;0,672878311629997
"F_137";95;92;94;94;2003,43578254633;0,681058970571531
"F_138";74;65;76;65;1538,22552117144;0,677517802644966
"F_139";44;46;42;42;468,187763931349;0,633983817229893
"F_140";48;52;50;54;648,542000257143;0,599609863452207
"F_141";77;74;77;73;1790,91365080193;0,664670658682637
"F_142";60;50;64;51;1071,77992078023;0,655978112175105
"F_143";56;51;54;49;703,49692828861;0,641755888650966
"F_144";89;86;93;88;2521,62544233837;0,687898089171977
"F_145";40;47;39;46;237,317935010648;0,589293614511133
"F_146";54;50;55;51;621,817212782872;0,63973531138268
"F_147";78;87;73;89;2602,05794938951;0,716385801362499
"F_148";63;63;55;61;898,865438818703;0,642891617954632
"F_149";63;58;66;60;533,977111893572;0,629853412494089
"F_150";38;43;39;41;354,283701893881;0,603625377643504
"F_151";90;85;90;85;3048,91631821719;0,708510638297875
"F_152";79;88;76;90;2780,72034487021;0,712680577849122
"F_153";81;80;79;78;1794,22046719944;0,694392956441151
"F_154";87;81;87;80;2057,9205374198;0,683271587346824
"F_155";82;84;82;83;2249,59200806337;0,689956834532375
"F_156";68;72;65;69;834,952069380776;0,641755888650965
"F_157";80;90;77;85;1579,72088790743;0,674202800742372
"F_158";73;91;73;89;2304,22188037203;0,687819151988071
"F_159";41;44;41;46;355,566320226184;0,604813077039502
"F_160";60;59;61;62;710,896578027254;0,621784232365144
"F_161";88;97;84;95;3335,72549705256;0,706839622641512
"F_162";39;49;40;50;439,893050516081;0,588888343076091
"F_163";36;32;37;34;362,966364283053;0,593113002176923
"F_164";47;45;42;42;378,421142184243;0,591474245115452
"F_165";39;44;38;44;209,913812665247;0,589496459480723
"F_166";72;75;78;74;1168,7385240998;0,650991039913116
"F_167";64;64;62;61;1486,03951599492;0,658572762731419
"F_168";27;26;28;26;87,0934003122713;0,5490016486536
"F_169";20;21;19;21;188,683223822897;0,558308494783904
"F_170";38;35;35;33;455,221044504246;0,619630950534967
"F_171";97;91;94;81;5101,97557766611;0,757535545023699
"F_172";46;41;43;40;437,504022840029;0,62411495210329
"F_173";52;53;52;52;335,390504417932;0,599609863452207
"F_174";76;74;70;68;2697,21586572695;0,695037105751394
"F_175";104;104;101;100;2326,47639608213;0,69966149177075
"F_176";42;43;42;45;471,56567658782;0,607510261997668
"F_177";89;87;79;80;3145,01691886123;0,727736295756697
"F_178";35;33;38;34;157,766271981787;0,564486509393981
"F_179";45;42;43;39;302,338590437043;0,577095267895825
"F_180";22;22;24;22;114,982082540402;0,578655210696527
"F_181";57;51;63;54;521,554399483609;0,617333539317163
"F_182";71;75;70;73;1050,06018781928;0,666963391565597
"F_183";53;59;55;59;433,517362763141;0,61995138852976
"F_184";69;74;67;73;1193,41460079864;0,664155124653742
"F_185";42;49;41;47;428,814196157284;0,639291808873723
"F_186";57;51;54;52;1577,74497716389;0,688411622832206
"F_187";28;33;30;34;198,833814625301;0,572192258126102
"F_188";47;48;46;49;586,792922052908;0,64427366045037
"F_189";54;51;49;48;614,103195789048;0,643133047210303
"F_190";63;60;63;58;627,803344656027;0,643271088216357
"F_191";29;26;30;27;168,778592389575;0,573094942155081
"F_192";71;82;71;89;2062,66383436355;0,69941656942824
"F_193";30;33;30;29;235,424889787874;0,587387917095398
"F_194";32;34;32;32;191,958634540681;0,594141844674628
"F_195";56;52;56;54;710,286863574991;0,645314098078271
"F_196";83;90;83;86;2031,0720115439;0,691987993534984
"F_197";87;94;90;95;2702,98100953932;0,681678607983625
"F_198";35;35;37;34;257,972109016452;0,588946204863669
"F_199";99;112;97;114;3691,06363093547;0,721429860985742
"F_200";40;33;40;39;303,212415345004;0,574000478812544
"F_201";53;53;57;56;1137,21052450493;0,639530541477729
"F_202";38;44;43;46;498,682860955311;0,586009678838538
"F_203";98;101;108;100;2975,25188460883;0,699131043331197
"F_204";61;52;61;53;623,897476363142;0,614674665436086
"F_205";100;96;98;95;3382,42819375433;0,713826366559488
"F_206";81;73;82;71;3197,84719051341;0,722996200470422
"F_207";68;77;64;81;2022,38016174396;0,657525230364198
"F_208";64;73;67;75;842,064082594415;0,632578755738483
"F_209";71;81;74;77;1498,71239713947;0,666926286509042
"F_210";40;47;42;47;805,360891070314;0,656301324865874
"F_211";21;25;21;26;79,0340930094867;0,536183916271581
"F_212";55;54;53;49;692,116960285357;0,627709707822809
"F_213";36;35;38;37;303,023985324531;0,601173461712049
"F_214";38;46;42;53;324,854358897688;0,581659388646287
"F_215";32;28;35;31;64,5876812921449;0,563531236779015
"F_216";22;25;24;26;78,7478995551257;0,544290578887628
"F_217";108;105;102;99;4640,61778572914;0,71935193519352
"F_218";38;38;38;37;255,960838420937;0,575295133890008
"F_219";35;24;36;23;172,488493792584;0,556261890399517
"F_220";66;65;69;63;1919,94452672747;0,678169372631105
"F_221";97;78;101;80;3931,94756335146;0,718446601941752
"F_222";75;73;76;77;2064,39098116011;0,699988321849821
"F_223";70;72;71;77;1327,56503254481;0,662943095725268
"F_224";55;52;52;52;737,361050735615;0,626103306000942
"F_225";22;23;22;24;76,9244953131328;0,538036892419551
"F_226";96;80;94;81;2339,28241011743;0,677441229656421
"F_227";64;65;59;67;2113,10697247502;0,69742277037641
"F_228";99;111;99;111;3072,73149834064;0,714720085852265
"F_229";70;74;70;74;1746,51977668986;0,663530193169871
"F_230";57;48;57;48;478,671807520419;0,608435263665431
"F_231";101;87;101;85;2811,27214118877;0,697260512999478
"F_232";61;51;62;50;717,068444799386;0,628829206882081
"F_233";74;71;72;72;3426,80542952286;0,70175027805421
"F_234";72;73;73;73;1417,8528897686;0,666333166583295
"F_235";92;95;85;95;1520,80250656908;0,672199170124482
"F_236";62;62;61;60;1309,67528986686;0,667260380719138
"F_237";45;56;44;59;444,039674398533;0,607972410995029
"F_238";77;72;77;72;1403,77448975149;0,677364673974462
"F_239";45;48;46;48;303,781612130435;0,606281292671824
"F_240";61;58;58;60;985,33271404094;0,642306043720532
"F_241";42;32;45;35;371,955210636644;0,604264327839104
"F_242";35;40;36;43;347,297386499337;0,616444695839975
"F_243";55;54;57;55;763,647534903585;0,632912729000581
"F_244";69;70;70;71;1993,67804978698;0,695117708454139
"F_245";43;55;39;57;862,713255707942;0,642409302824074
"F_246";61;65;61;71;1066,12883382127;0,671822461331546
"F_247";39;47;38;50;391,341360056664;0,618001855861428
"F_248";76;74;78;72;2547,27661792343;0,685263518920774
"F_249";71;63;70;62;1563,24622852044;0,708426899893633
"F_250";53;55;53;55;356,857480558805;0,587014004504945
"F_251";51;44;52;45;426,711179128475;0,602533172496983
"F_252";25;34;24;37;158,520234252799;0,580870239364277
"F_253";83;83;87;87;1953,78442579058;0,677594392945966
"F_254";63;56;66;57;723,013951017825;0,648736403485039
"F_255";71;72;72;75;1188,81816137923;0,651982378854627
"F_256";64;51;64;56;954,143976205248;0,645453077047329
"F_257";72;75;69;72;884,07689840373;0,670244884267027
"F_258";91;85;87;86;2118,43679593322;0,678630059439572
"F_259";72;86;70;84;2302,32233868904;0,696005573618209
"F_260";30;42;32;42;187,077919164414;0,581236363636362
"F_261";74;57;74;65;1519,44510769714;0,633514770385245
"F_262";49;39;48;40;655,788556857402;0,644169801182164
"F_263";67;66;68;68;1198,56632915056;0,658138896513863
"F_264";56;54;58;57;689,295903517844;0,637693494334806
"F_265";30;26;30;25;52,2496552940713;0,554153376785466
"F_266";64;61;61;56;874,464590588496;0,617969998453527
"F_267";50;52;49;52;852,722370440411;0,63539513436159
"F_268";31;35;33;38;173,460373568966;0,578515587298522
"F_269";86;82;90;79;1039,14968276325;0,646183699870634
"F_270";94;89;90;85;2913,13385054156;0,717930291052823
"F_271";68;68;69;67;1907,36123327445;0,692947976878618
"F_272";82;85;77;78;1995,21732027783;0,701216658867573
"F_273";115;114;112;113;5151,76370012776;0,744457554492955
"F_274";46;56;52;58;864,062835816356;0,61726996550126
"F_275";81;102;87;104;2898,07255410759;0,711496231230342
"F_276";59;63;62;63;1003,46428334514;0,632745698300433
"F_277";85;78;87;77;1410,61566122558;0,677824267782429
"F_278";99;92;97;90;1960,30347902324;0,68373923458621
"F_279";81;82;81;81;2754,85308704889;0,705425444274454
"F_280";47;43;49;41;390,507377540485;0,611882400979991
"F_281";76;88;82;92;3022,55238824941;0,690632561354996
"F_282";109;111;103;110;5298,35802601796;0,747847785402373
"F_283";28;29;27;30;112,111285565421;0,550438495798705
"F_284";78;73;77;77;2153,23190370993;0,675570583262895
"F_285";73;76;75;84;2173,6324362631;0,682765690853174
"F_286";40;34;47;36;294,828690083171;0,584182057404609
"F_287";65;58;61;65;1355,65238053045;0,667223242611457
"F_288";77;78;77;74;1939,20393576999;0,684872029250458
"F_289";64;74;74;79;1511,52431461667;0,666814996106354
"F_290";72;68;72;66;869,284695396244;0,645244631035041
"F_291";89;85;84;82;3348,30957348693;0,716599916312992
"F_292";77;93;83;92;1956,16065876094;0,662283851720901
"F_293";24;21;24;21;92,9811188749538;0,53659191620787
"F_294";24;28;27;28;186,100382593907;0,55789277736411
"F_295";69;62;65;63;929,449306590992;0,649509671127487
"F_296";66;59;65;64;1197,96350239103;0,65857276273142
"F_297";43;57;47;59;680,371765504672;0,628961175236098
"F_298";79;98;78;96;2820,95793434587;0,706464729801405
"F_299";79;66;79;63;1869,82329550367;0,702778754836443
"F_300";24;26;24;27;80,3661492871458;0,543451652386781
"F_301";28;22;27;22;80,4622851027956;0,540048653031805
"F_302";71;62;78;64;1681,51373198702;0,683856246434689
"F_303";72;75;72;76;1920,3107751159;0,682532452744252
"F_304";57;54;54;55;1397,79199951553;0,660132158590309
"F_305";86;81;81;84;2843,07210970891;0,724000483150143
"F_306";21;28;23;28;114,025858032266;0,557996648668776
"F_307";107;102;105;102;3618,14356818694;0,717543544622018
"F_308";30;35;31;33;248,825390695873;0,630615465544452
"F_309";62;58;62;63;840,285590807839;0,655583506507714
"F_310";38;43;38;43;594,749707633803;0,613008795254652
"F_311";38;31;40;33;192,43438156316;0,580027095026126
"F_312";76;72;73;68;1570,18176555009;0,674316571042865
"F_313";36;33;39;35;233,866874427371;0,560920830993823
"F_314";49;45;48;46;444,294869221061;0,592380293521766
"F_315";67;76;68;72;657,000727688398;0,636373288034824
"F_316";98;90;98;91;3532,82083114749;0,708133971291867
"F_317";70;73;74;76;1628,81753621832;0,669384108548777
"F_318";57;77;63;78;898,143789767724;0,666666666666669
"F_319";31;25;33;26;62,4094228530821;0,559193954659949
"F_320";91;100;94;100;3192,45938374918;0,708510638297874
"F_321";36;31;36;33;471,481296122517;0,595795437602503
"F_322";68;60;69;61;1250,18937080961;0,627874089980621
"F_323";36;45;40;48;524,499200572402;0,583698510078877
"F_324";42;38;44;38;574,393983417309;0,630350194552531
"F_325";35;23;34;23;172,331438812789;0,583073929961088
"F_326";39;34;39;35;224,405142748748;0,579046514997825
"F_327";37;31;37;28;239,407688297164;0,582196105094458
"F_328";53;43;54;45;382,13329006553;0,631080227416299
"F_329";71;62;71;72;743,10912798978;0,638134781220059
"F_330";26;35;25;31;146,026540227061;0,587129003820158
"F_331";23;20;24;20;95,7112435090135;0,553769401330377
"F_332";85;83;79;79;1856,1057271795;0,692187770656506
"F_333";83;88;82;90;3428,42040764294;0,703810250689839
"F_334";19;16;19;17;30,722279006683;0,527014551369412
"F_335";67;68;66;70;1431,18298112841;0,66104218362283
"F_336";33;32;35;32;78,5620089340986;0,566380043465935
"F_337";92;96;92;89;3473,54102849658;0,701996837852085
"F_338";82;72;80;69;2580,95499981984;0,688807170765343
"F_339";99;92;101;89;4204,77621270285;0,734738906594756
"F_340";72;76;70;69;2545,60639099274;0,723301556655007
"F_341";19;23;18;21;170,298539412686;0,55535995552673
"F_342";95;100;92;93;3096,60294030889;0,726853816770754
"F_343";91;87;90;87;2876,87524702446;0,69815386407315
"F_344";29;37;29;39;183,011008035465;0,57189199503864
"F_345";99;98;102;95;5630,79191093759;0,745383324006718
"F_346";46;46;47;46;1202,52980171858;0,626626940567665
"F_347";71;54;71;53;1114,01411882504;0,673785971223025
"F_348";65;78;63;79;1448,00187225135;0,686912674765072
"F_349";43;42;46;48;515,616867372346;0,623271290423208
"F_350";33;25;34;26;180,628735140307;0,569555302166475
"F_351";81;71;83;73;1551,33900978039;0,674392439243926
"F_352";31;32;35;36;674,995271970138;0,631712072508834
"F_353";65;58;64;60;999,710789807163;0,664854971992681
"F_354";65;65;65;67;745,996635655588;0,634252155970584
"F_355";25;24;27;25;123,71176229824;0,532515991471216
"F_356";58;65;53;64;1724,63507745101;0,672312265156194
"F_357";30;38;31;40;253,912584758654;0,587618254007156
"F_358";41;48;45;49;422,265850934792;0,64137820341341
"F_359";57;50;59;48;506,854252894447;0,625580545843552
"F_360";95;101;89;93;3572,32365266007;0,715829700841945
"F_361";31;31;32;30;121,178193850692;0,544290578887628
"F_362";44;39;46;41;230,665061559603;0,573561073632839
"F_363";41;35;42;37;330,217925330434;0,590076786769047
"F_364";21;26;22;25;71,0485856028031;0,563690224291155
"F_365";71;70;65;73;700,780141121274;0,659478490483005
"F_366";47;49;46;50;318,043512183732;0,622559202326547
"F_367";72;63;72;68;790,318908190635;0,652550215012794
"F_368";26;30;28;28;159,830129158513;0,585637518319491
"F_369";47;49;45;46;502,913801810024;0,616001233235702
"F_370";60;64;57;59;814,392297982157;0,628697293895531
"F_371";80;71;78;71;2082,96457738955;0,6842856327416
"F_372";40;49;41;51;639,464662738935;0,620979020979021
"F_373";43;45;42;46;541,794116255851;0,606465320989527
"F_374";97;95;102;99;2610,57714463258;0,712087912087914
"F_375";74;70;76;73;974,100859662859;0,656265396616852
"F_376";100;95;97;95;3322,94956303113;0,722996200470419
"F_377";53;48;51;50;673,612297559216;0,646915978630407
"F_378";42;41;43;41;147,935745996835;0,577401021096233
"F_379";110;93;110;101;3837,18675593972;0,71707142002632
"F_380";66;65;72;66;1510,52566367599;0,683427398665987
"F_381";111;97;111;100;3211,60772285227;0,708761972330617
"F_382";90;96;82;92;2126,76190857187;0,688846750560249
"F_383";81;84;82;83;2350,42957780886;0,68001588292019
"F_384";60;60;57;56;564,553501271047;0,614611638041527
"F_385";84;91;78;89;3546,6341257553;0,713062098501072
"F_386";87;80;88;79;1751,31106060272;0,674734057522374
"F_387";59;55;58;50;1376,33402095469;0,664081542211396
"F_388";40;40;41;41;283,742970093901;0,58715776068962
"F_389";61;51;57;55;800,59415923661;0,657958287596055
"F_390";47;45;47;45;317,992524880922;0,610511305764921
"F_391";69;74;69;70;1298,53916857606;0,657669519420675
"F_392";26;33;27;34;133,339664696311;0,551603552201721
"F_393";43;33;44;34;206,148029221706;0,588570306362921
"F_394";86;97;80;96;2712,34654605675;0,697382198952881
"F_395";56;52;57;52;725,635413270715;0,648806624452026
"F_396";44;57;47;61;700,897173228272;0,622753246753246
"F_397";97;79;97;78;2087,61122338454;0,66957104557641
"F_398";64;66;72;68;1023,08574258463;0,627709707822808
"F_399";84;74;82;72;2087,38723019598;0,696005573618209
"F_400";52;44;54;48;749,103246240027;0,644897520038739
"F_401";80;83;82;88;2838,50349300114;0,69835721775603
"F_402";82;94;81;94;1865,709556514;0,691389353480594
"F_403";23;24;22;22;243,499621844161;0,59302498144942
"F_404";56;55;56;55;768,637250042167;0,642926096749976
"F_405";48;42;46;39;264,975848874291;0,599310103484476
"F_406";47;44;48;48;341,381685153624;0,593201049037557
"F_407";48;41;47;43;916,737941569611;0,656409133220173
"F_408";24;25;24;28;115,075977137342;0,5612096811947
"F_409";71;75;74;71;2114,08627801855;0,662393634655764
"F_410";24;29;26;31;200,657963949349;0,55180667433832
"F_411";20;12;21;12;28,1858719496877;0,531712942428813
"F_412";74;79;74;81;1685,21732309695;0,654903031958484
"F_413";15;18;16;18;56,6096507352405;0,525766413753784
"F_414";36;30;39;32;144,20370990478;0,583869082407947
"F_415";35;24;36;23;132,499208943483;0,553003044561306
"F_416";59;47;60;49;581,825493728038;0,640418825791978
"F_417";65;79;66;80;840,03189281285;0,657056727870653
"F_418";88;96;91;97;2463,49071228426;0,674278643343273
"F_419";35;38;37;41;108,491705471028;0,569203741512748
"F_420";32;26;29;26;228,007207577758;0,580504576049585
"F_421";60;63;58;63;1044,6938772335;0,655332640900893
"F_422";58;46;59;46;848,811197526849;0,6388148779708
"F_423";77;84;75;79;3120,62810488968;0,712003326008199
"F_424";88;95;86;97;2734,76764180804;0,700520072459537
"F_425";46;55;41;55;604,636401798269;0,598352882455701
"F_426";62;57;62;62;839,189954318479;0,638134781220058
"F_427";63;61;64;60;1026,77108648997;0,646811265781809
"F_428";38;46;40;47;168,576057401129;0,583812213889158
"F_429";29;23;31;22;158,993649315191;0,560763401627841
"F_430";46;45;46;46;406,951098946218;0,614958448753463
"F_431";37;36;35;36;249,401179144839;0,607356368426386
"F_432";37;40;38;40;319,948431750799;0,563637218486999
"F_433";70;90;68;92;2312,96365288815;0,690990835206642
"F_434";75;79;72;75;3002,07095052769;0,708259482453037
"F_435";74;80;73;78;1291,45729870804;0,650073206442168
"F_436";21;26;23;30;87,9252765379904;0,538883394767599
"F_437";44;40;46;39;297,700472665357;0,583840646763744
"F_438";68;71;65;74;1208,81314468504;0,678937531857061
"F_439";70;66;60;68;986,750055073438;0,665815051374623
"F_440";26;22;27;24;160,520941339679;0,571047492021149
"F_441";74;72;71;73;1974,79816084239;0,693830304433389
"F_442";54;55;53;56;265,921542511659;0,607571841265013
"F_443";59;59;64;63;971,565670837849;0,65301231070923
"F_444";90;75;89;78;1908,54406487503;0,694433180791289
"F_445";20;20;22;22;40,5612616026778;0,526875576847011
"F_446";62;62;59;64;932,67393290137;0,664818101153507
"F_447";45;47;48;52;748,588311358535;0,63364871293409
"F_448";27;22;24;22;313,884055034736;0,639564660691428
"F_449";51;46;51;46;726,485612747571;0,626626940567665
"F_450";60;61;62;63;746,79700241032;0,634856749457184
"F_451";33;35;32;36;279,620598308992;0,593994648696857
"F_452";60;64;62;62;569,70335579212;0,629919604855237
"F_453";51;64;54;67;1318,80281163106;0,66607400822314
"F_454";72;74;72;75;2642,2452784043;0,719481454807349
"F_455";45;46;46;46;238,577977503104;0,58211129455181
"F_456";101;93;99;90;2281,10676172588;0,662649936432481
"F_457";98;85;97;86;4095,35298206981;0,744503788349277
"F_458";59;48;60;47;619,1349256387;0,636643653744026
"F_459";61;66;63;62;1023,34052072993;0,663236514522823
"F_460";103;95;97;89;3576,51647027203;0,723257918552038
"F_461";44;53;43;49;697,866284662781;0,611507855539685
"F_462";112;117;107;117;6922,40196530969;0,749343667958497
"F_463";63;60;64;59;1604,1494842103;0,65063772048847
"F_464";61;61;65;65;1070,37394054275;0,618735483870967
"F_465";102;112;101;105;3950,53287104957;0,716428614115823
"F_466";42;52;44;51;580,159426696891;0,622591534666321
"F_467";37;26;39;27;112,931015421213;0,58906196255712
"F_468";53;56;54;55;1085,85701077065;0,63217845277646
"F_469";65;66;68;66;557,848745260462;0,619855222337124
"F_470";90;92;93;90;3419,64476001625;0,695399965195199
"F_471";73;74;71;69;1667,56860006817;0,683271587346828
"F_472";34;39;35;40;133,897814048021;0,576678853184528
"F_473";41;41;41;40;363,351876054335;0,596863330843913
"F_474";34;33;38;39;212,31596652406;0,588137173134474
"F_475";89;93;85;94;2016,01894870082;0,682649051876318
"F_476";53;59;53;59;723,41748026131;0,656804733727818
"F_477";40;39;37;41;396,079770493375;0,623920058290831
"F_478";53;44;55;48;801,61584202221;0,638440645470525
"F_479";82;86;79;82;2720,52560717889;0,692827833323703
"F_480";45;55;47;55;650,024213240584;0,625026068821689
"F_481";37;39;36;39;264,260688428982;0,610355888193065
"F_482";63;62;63;60;1426,94503282806;0,653938468252239
"F_483";53;49;58;51;607,183944211121;0,633481293595435
"F_484";58;51;61;53;574,362283309922;0,626332288401254
"F_485";49;54;53;53;660,106174485149;0,631845253781691
"F_486";78;76;74;75;2517,43415923795;0,700029197080295
"F_487";78;71;85;69;1079,5255457507;0,659007201363314
"F_488";31;35;32;32;649,622390134934;0,62353063559763
"F_489";20;21;21;21;55,8172098868783;0,533796419983971
"F_490";77;83;73;80;2530,77277759303;0,692547660311961
"F_491";50;49;51;48;1325,74683654268;0,656265396616855
"F_492";38;38;38;40;267,000378801123;0,576817591300581
"F_493";73;59;69;59;1883,68324758142;0,706964675355315
"F_494";63;69;67;69;775,772756689752;0,628071462251794
"F_495";40;45;41;48;581,504433342022;0,630217642729471
"F_496";74;73;73;74;1438,1301858227;0,661115094027465
"F_497";75;81;68;73;2897,89155164978;0,699008746355689
"F_498";61;59;59;54;1667,04628547771;0,67310499719259
"F_499";56;61;51;60;992,378025769183;0,655942219304007
"F_500";33;35;31;37;312,985212802201;0,590018702628209
"F_501";76;99;86;99;2738,03059771228;0,716043483454787
"F_502";29;25;31;26;125,995767650093;0,544537815126051
"F_503";62;60;61;59;534,74617503323;0,630582294461102
"F_504";57;45;55;46;404,117553061397;0,594406981356604
"F_505";104;85;101;87;5544,17955294507;0,754674220963174
"F_506";38;40;39;41;239,008833469678;0,572848473264203
"F_507";72;69;71;67;1354,82134631841;0,661991275056602
"F_508";55;57;53;56;492,581929593844;0,625547902316845
"F_509";66;59;63;60;718,305687483028;0,63782920989625
"F_510";57;60;59;63;552,904011542683;0,626528692380056
"F_511";44;36;47;37;374,000576220524;0,607387140902871
"F_512";94;84;92;82;3920,88028270225;0,718834322719917
"F_513";57;68;60;70;545,137700168185;0,638678742674481
"F_514";45;49;44;46;403,137647106967;0,617206404777841
"F_515";25;37;26;36;276,832430326747;0,597011952191233
"F_516";54;44;55;45;692,034692246671;0,623822657022429
"F_517";84;70;83;70;1906,30444765072;0,690036263166985
"F_518";95;99;95;96;3261,75832791327;0,689203173508108
"F_519";42;40;47;46;292,598586157222;0,596062052505966
"F_520";96;100;93;101;2102,26114280627;0,697098331104264
"F_521";38;51;39;48;441,303942655866;0,610915762115884
"F_522";29;32;31;33;163,277990346643;0,554922927371198
"F_523";62;62;62;57;1180,91550335881;0,688411622832205
"F_524";69;66;72;64;796,03954623763;0,659805162639662
"F_525";65;59;72;59;1186,80306834711;0,64065840102608
"F_526";41;45;40;40;380,072872536381;0,60862060212215
"F_527";29;34;27;34;196,31030132208;0,586697988547936
"F_528";23;26;24;27;94,9960756457475;0,542124542124543
"F_529";37;33;35;30;58,6554763121893;0,559820678061081
"F_530";47;48;49;52;268,370591150159;0,606465320989527
"F_531";107;103;106;102;3696,13384488302;0,715359828141785
"F_532";86;87;84;90;2383,09993049263;0,694191904568882
"F_533";45;44;49;49;516,902657058187;0,625874490967944
"F_534";61;58;61;56;1094,97348366736;0,672878311629997
"F_535";84;82;87;81;2847,08911995832;0,69423210562891
"F_536";89;96;98;98;1984,12977912383;0,697341632249435
"F_537";52;50;56;53;980,594951247327;0,657849969818364
"F_538";45;36;47;37;348,664194129381;0,60936308646368
"F_539";91;91;92;92;2944,93309562436;0,707381837493366
"F_540";74;70;69;70;1123,56757852242;0,654081187254477
"F_541";107;97;107;89;4687,52065682488;0,731287744769112
"F_542";56;55;55;57;444,870955273226;0,615906288532674
"F_543";77;83;75;80;1906,59361957611;0,662320441988952
"F_544";40;32;39;32;318,108743069081;0,590745577292661
"F_545";45;53;48;53;398,555996269745;0,621816484257483
"F_546";66;60;67;65;849,59222792887;0,652976741652597
"F_547";33;33;35;34;245,768225579615;0,591299200947025
"F_548";79;79;75;74;2551,49138415777;0,708008504606665
"F_549";73;69;70;75;1426,74169918687;0,679129843643782
"F_550";38;45;40;46;272,736102971537;0,601565636290645
"F_551";33;34;32;31;297,083003835453;0,610355888193065
"F_552";45;44;46;44;735,270771960502;0,622494547720427
"F_553";94;88;92;90;3147,70771546521;0,715317143027632
"F_554";51;54;53;55;411,238839732417;0,612758127172356
"F_555";31;31;32;34;107,567283034171;0,556184466920293
"F_556";91;93;91;92;2564,04294128291;0,714209115281503
"F_557";100;93;104;93;2853,39312300541;0,691309613055765
"F_558";75;82;78;86;2640,05750909214;0,704844778927568
"F_559";33;23;34;26;114,103200828039;0,558855065031932
"F_560";46;43;41;41;348,59597614404;0,617015801122034
"F_561";96;108;98;112;2743,93506662035;0,705965490842708
"F_562";63;60;65;63;1030,13688943067;0,640932420872543
"F_563";66;71;65;68;1180,55354770095;0,669496258237464
"F_564";37;38;38;39;317,625772662692;0,567963234945752
"F_565";30;35;31;34;275,379242775115;0,585322982276255
"F_566";30;40;29;39;540,640561181112;0,630151387720778
"F_567";39;35;41;36;242,902702433928;0,583783783783782
"F_568";62;63;63;63;1002,00502269259;0,669683257918554
"F_569";51;53;52;56;793,372984382156;0,614233744940308
"F_570";48;44;42;44;642,51577039617;0,672199170124488
"F_571";67;66;68;69;857,133496684438;0,644031374234448
"F_572";107;115;108;113;3612,54930449683;0,716043483454786
"F_573";72;73;70;71;1382,56468946786;0,665113182423437
"F_574";74;69;73;70;1493,12417254823;0,668674698795183
"F_575";27;23;27;24;90,1058594302005;0,556856187290969
"F_576";50;53;52;54;599,247990100188;0,595410747988476
"F_577";67;70;70;71;1209,29405622383;0,650779002225722
"F_578";65;57;65;55;1564,98053948062;0,679437769213332
"F_579";42;37;44;42;285,534364370853;0,602866482273069
"F_580";39;35;39;36;271,718495440696;0,592878338278931
"F_581";35;45;38;43;1234,42426614581;0,652088772845958
"F_582";20;24;23;23;104,663458847746;0,556158663883089
"F_583";77;77;79;78;1601,72175853705;0,663236514522824
"F_584";77;89;83;86;1799,5399985469;0,69079174830011
"F_585";104;112;99;112;5595,83686646849;0,733614833853502
"F_586";72;75;73;76;1746,06652615574;0,666074008223137
"F_587";40;38;41;40;216,381105843747;0,584866077962627
"F_588";89;79;86;74;1291,75692187692;0,656984709815315
"F_589";49;57;52;58;543,158038968238;0,643823845327608
"F_590";50;51;51;53;759,690074785029;0,636846578835531
"F_591";46;38;48;39;517,34743941594;0,619566902682309
"F_592";70;68;63;66;1191,12136407534;0,640076886112448
"F_593";22;23;22;23;97,5900457858778;0,550236379492358
"F_594";63;65;60;66;1084,5066850552;0,648490749756576
"F_595";42;40;44;41;351,472510442124;0,611227247233976
"F_596";66;62;69;63;520,084661707031;0,630880959898958
"F_597";48;54;50;54;421,311711588878;0,601626016260162
"F_598";31;34;31;36;208,907016202483;0,582648845686511
"F_599";103;107;100;101;3695,46555497642;0,723694536673711
"F_600";58;70;57;64;1510,08858226036;0,683076923076928
"F_601";47;64;45;61;597,02443667951;0,634755903844118
"F_602";36;27;37;29;187,08643443285;0,579494368443949
"F_603";69;79;73;80;1448,11018292571;0,661005734450818
"F_604";54;59;58;63;506,792747838077;0,62404997397189
"F_605";52;58;54;59;376,858903617126;0,592936986843406
"F_606";50;45;50;46;728,509121105306;0,646009592067685
"F_607";88;94;83;94;3462,91544296687;0,711200759373519
"F_608";50;50;50;51;1334,06115554007;0,673975375274081
"F_609";34;30;33;30;341,402404191241;0,629258306650572
"F_610";66;68;70;75;1491,47160751315;0,674354503009508
"F_611";68;64;68;63;1582,89819511645;0,679245283018871
"F_612";41;39;40;41;359,498234113893;0,629754150031521
"F_613";106;95;99;91;4733,10622304472;0,726589490272142
"F_614";55;39;57;39;984,306882482114;0,632378540908374
"F_615";21;30;24;33;153,717471463001;0,570042796005705
"F_616";66;64;63;63;1115,18188440312;0,661845083641587
"F_617";87;73;90;79;2527,26367657049;0,664670658682636
"F_618";55;60;57;63;822,598331243022;0,597309417040358
"F_619";47;47;45;48;428,065792024677;0,584238998001851
"F_620";61;55;56;52;896,353335245637;0,6385086551265
"F_621";45;50;47;49;332,085304017755;0,611351930236115
"F_622";48;44;50;44;902,29566582631;0,659260888693359
"F_623";57;59;55;59;1827,42202043402;0,692347675425936
"F_624";35;37;38;43;434,800586615872;0,57314974182444
"F_625";61;73;61;75;527,187565923241;0,624505105230255
"F_626";42;41;49;44;403,403896924579;0,585322982276255
"F_627";60;59;59;59;1898,45822975818;0,691828254847652
"F_628";30;28;33;30;205,983122202788;0,581772299330291
"F_629";81;83;87;83;2603,92845531289;0,702367002577928
"F_630";81;67;81;69;829,838508186784;0,661224489795922
"F_631";62;50;67;52;572,338351362114;0,63035019455253
"F_632";100;83;103;92;2186,9888811966;0,698113207547172
"F_633";26;28;28;28;66,570336100276;0,550387952802902
"F_634";52;49;54;46;1312,07744176995;0,679360761645707
"F_635";36;54;37;54;355,239292565769;0,597994712425798
"F_636";44;50;46;54;578,056222094894;0,619438846690435
"F_637";32;32;31;35;186,723340423555;0,588252612983952
"F_638";45;42;45;43;362,557487786619;0,611601448905667
"F_639";42;39;44;38;1125,3168212832;0,656085814360778
"F_640";98;99;99;96;3574,9769055226;0,73119853613907
"F_641";54;53;52;51;578,706011021051;0,605485125511388
"F_642";96;98;91;103;2463,6128769948;0,695359628770303
"F_643";49;52;43;51;536,096046449334;0,647440051847054
"F_644";81;91;79;88;2660,20506461888;0,699579831932775
"F_645";55;55;59;61;591,009815734497;0,647859922178992
"F_646";53;56;54;57;492,081268351592;0,622882676919878
"F_647";53;56;53;56;991,904770641165;0,622042341220423
"F_648";30;25;30;25;158,460955625446;0,557970677216662
"F_649";69;66;68;69;1612,52739084034;0,668152937242226
"F_650";33;38;32;38;171,302349975438;0,567130286687481
"F_651";83;90;82;98;3468,26033575881;0,720346112246125
"F_652";55;48;53;50;367,1104452606;0,607079556388311
"F_653";72;89;74;85;2249,45374996009;0,69673369754737
"F_654";62;60;64;61;966,148813447626;0,608497030607582
"F_655";74;77;75;79;2569,62611296214;0,687148916657117
"F_656";80;73;73;67;3776,45276798151;0,709055420831612
"F_657";36;42;36;39;292,612094862182;0,614076426595636
"F_658";88;85;83;76;3047,27830786158;0,704761904761908
"F_659";27;27;26;27;179,66038797242;0,547122449911004
"F_660";45;42;43;43;280,8371821135;0,599879903923138
"F_661";72;67;69;66;2007,13234546302;0,672048435923312
"F_662";56;46;59;47;592,552199669988;0,630151387720774
"F_663";65;71;64;66;1020,50472908315;0,65102639296188
"F_664";61;54;58;53;702,890374582783;0,658681318681321
"F_665";118;125;119;125;7981,03573239092;0,767133806872721
"F_666";73;72;64;67;2481,361334016;0,696126821903495
"F_667";87;82;89;85;2778,91396426234;0,713528956609731
"F_668";59;66;57;64;1245,59617370016;0,678706901432378
"F_669";39;33;40;35;239,431441881782;0,597458260652877
"F_670";96;91;86;90;4597,84647242031;0,740045681832216
"F_671";42;31;43;30;192,155052923803;0,55724445684005
"F_672";81;86;78;83;3579,10833600356;0,717715380470579
"F_673";28;20;28;19;67,5284057685829;0,539174237654044
"F_674";50;46;49;43;1177,5405323599;0,671483784237948
"F_675";39;44;39;43;183,894152026453;0,563160614459529
"F_676";76;77;77;85;1686,93599879561;0,676752850852435
"F_677";49;59;51;58;516,431487011823;0,628170194927689
"F_678";109;106;104;102;2600,57187219488;0,691987993534982
"F_679";98;97;95;97;2707,84629288604;0,708008504606664
"F_680";53;51;55;50;950,716529002595;0,627775450356096
"F_681";39;39;40;39;314,654265577716;0,610791256941966
"F_682";36;31;37;30;170,042214033428;0,597130902570232
"F_683";42;45;44;45;301,662166933853;0,582818804997811
"F_684";75;71;75;75;1282,87395858507;0,654045501664033
"F_685";97;84;99;88;3430,30679165476;0,718059299191376
"F_686";68;67;73;69;2002,44617767127;0,686204922724677
"F_687";66;77;64;72;2181,97965994865;0,689163552745044
"F_688";46;56;47;54;486,709321780722;0,624407521225064
"F_689";70;69;66;68;872,610287474271;0,643409188492916
"F_690";50;45;52;44;492,903057515774;0,62268855183877
"F_691";91;97;89;93;2503,71474433159;0,710568431035506
"F_692";67;64;65;65;1282,4071878153;0,667855153203345
"F_693";57;64;55;64;1146,68957527998;0,6637506228891
"F_694";106;98;97;95;4615,67563940112;0,743764735078797
"F_695";61;60;61;61;989,611827165434;0,669010547463589
"F_696";50;49;49;49;587,019462186612;0,620240066225166
"F_697";110;111;110;107;4949,21034445172;0,736544605554192
"F_698";77;81;76;84;3184,18151295367;0,710779082177165
"F_699";27;23;28;24;170,684572006136;0,55836050302748
"F_700";60;60;58;63;1030,54428902619;0,641824606488918
"F_701";42;47;41;49;334,097714223252;0,586841589974544
"F_702";58;60;57;57;975,154219852944;0,646357901547421
"F_703";58;50;59;53;603,81319614855;0,640624165018972
"F_704";86;113;84;110;2539,84103137402;0,706007067137814
"F_705";51;51;48;52;727,755311776879;0,614926904334444
"F_706";81;74;83;77;1092,41800187541;0,655726944535612
"F_707";60;56;65;61;1249,56883148157;0,661297440423656
"F_708";38;44;40;42;325,31739752622;0,611164924802446
"F_709";36;36;33;34;205,87901857749;0,604721549636804
"F_710";37;33;37;32;233,204986330552;0,567748046412502
"F_711";35;42;35;43;441,158516737926;0,606956609791908
"F_712";65;65;62;61;746,06723830805;0,635968169761274
"F_713";74;84;73;91;1973,42170312406;0,689480646460002
"F_714";25;22;26;22;107,641464509977;0,564832265359969
"F_715";54;62;53;61;797,368401545924;0,613322418909239
"F_716";44;37;43;40;372,84956044779;0,59470185534279
"F_717";61;52;63;52;883,594232934631;0,640932420872542
"F_718";58;56;59;56;665,067474329437;0,629555718937086
"F_719";27;24;24;28;326,461004669352;0,643064048921794
"F_720";29;28;32;34;118,382070095563;0,558750873922162
"F_721";83;78;79;74;3010,19654764374;0,716899892357376
"F_722";72;80;67;77;2611,13291743013;0,693990969086492
"F_723";53;55;55;52;1064,45963999449;0,686715930572267
"F_724";33;46;35;45;591,033467215483;0,618703550784475
"F_725";83;86;81;85;2572,56181037028;0,717930291052825
"F_726";41;33;42;35;291,33758461792;0,598861025077429
"F_727";57;59;64;61;840,322993982428;0,649087660403922
"F_728";31;23;32;23;110,53164271282;0,545107311749728
"F_729";51;52;49;50;457,706319800116;0,617715257381357
"F_730";82;71;75;68;2890,84685093235;0,691868182605184
"F_731";50;49;51;50;304,940342498715;0,614107883817427
"F_732";76;78;73;79;1848,30329225451;0,665076282940366
"F_733";54;49;57;52;379,569610386433;0,605301691492047
"F_734";67;76;69;78;1745,07719169145;0,685067718155325
"F_735";51;49;53;47;490,743776251086;0,60323051376239
"F_736";49;46;50;47;421,994240688287;0,634991260130305
"F_737";34;38;37;41;280,872643836966;0,581461900373477
"F_738";46;41;45;41;466,68323112586;0,603564595710401
"F_739";100;107;107;108;3471,54380249945;0,726061413603057
"F_740";82;76;78;76;1617,8891605882;0,676065869614259
"F_741";76;66;80;66;2302,34497739443;0,70261399601454
"F_742";77;70;77;69;1637,58586031357;0,694594124804453
"F_743";72;79;76;77;2182,25142871342;0,697017268445845
"F_744";52;45;51;47;301,491352112039;0,629654918850781
"F_745";75;76;72;76;1311,59924173855;0,654616938786656
"F_746";88;95;92;89;2035,53969278458;0,690473447759479
"F_747";60;69;59;66;1690,82199961279;0,664523281596458
"F_748";30;35;27;33;81,1595199317748;0,559011424574492
"F_749";87;90;88;89;2575,52394700265;0,693108233117489
"F_750";52;69;58;70;829,208723940002;0,637591745558985
"F_751";58;55;54;54;1337,850323691;0,643893006767645
"F_752";37;39;37;42;267,29029000388;0,586095629216777
"F_753";80;78;79;77;1490,93444177422;0,66221068331216
"F_754";63;56;61;55;903,821454519101;0,651203215818355
"F_755";89;99;92;95;3331,6945353117;0,710442100272611
"F_756";68;71;66;70;1245,79379531568;0,651026392961878
"F_757";46;48;47;51;311,69270400926;0,601294076340471
"F_758";73;82;70;85;1685,41625904294;0,668376449598574
"F_759";32;30;32;31;188,242670084273;0,564885496183205
"F_760";76;80;72;78;969,865538381905;0,661735482446458
"F_761";34;36;34;37;237,761915867939;0,563160614459528
"F_762";74;75;77;83;1615,39648058733;0,670020120724347
"F_763";34;26;34;29;264,753047119671;0,553488157347985
"F_764";48;48;51;51;475,957036124373;0,628961175236096
"F_765";52;48;56;54;669,324001408881;0,616571516741242
"F_766";92;112;90;107;3316,2588481228;0,712934879571813
"F_767";89;82;88;83;1721,52614234135;0,674734057522374
"F_768";28;29;28;28;355,472079355625;0,600270392068501
"F_769";21;30;23;30;70,8790798536514;0,548449080428219
"F_770";41;42;41;41;493,438138710387;0,621461897356143
"F_771";35;30;39;31;193,011000142938;0,572001145147437
"F_772";44;37;43;36;365,788136313797;0,619823173569101
"F_773";47;43;48;47;425,757075182707;0,622268362315079
"F_774";33;39;34;43;176,644729257679;0,567855620292737
"F_775";65;63;74;64;1251,62020250304;0,655655217676659
"F_776";37;33;39;35;296,971748047988;0,567640513281878
"F_777";70;58;74;61;1221,04155082703;0,632578755738484
"F_778";33;32;36;34;183,35453227121;0,578431845597103
"F_779";52;60;51;59;797,46749738147;0,612319950965368
"F_780";34;31;31;27;168,386309742204;0,590629157018277
"F_781";81;90;76;89;2466,29677956402;0,686912674765072
"F_782";22;25;22;25;212,890524616912;0,599669851433145
"F_783";56;49;57;49;529,809289297698;0,633380884450785
"F_784";41;52;42;53;453,870161209355;0,60936308646368
"F_785";49;42;48;40;323,589095824806;0,60942504193991
"F_786";101;93;107;92;1901,98700700314;0,671032745591941
"F_787";66;68;67;65;1616,7805411612;0,669832932893783
"F_788";46;39;50;43;435,650260639258;0,591036828871467
"F_789";67;63;79;66;1871,54866970197;0,662759840778423
"F_790";81;82;82;85;1265,83671080784;0,685773125107261
"F_791";76;68;75;68;1741,80593896236;0,699620659468927
"F_792";95;89;85;83;2810,53771368093;0,697950628784354
"F_793";36;45;38;48;294,953965327593;0,607048815069879
"F_794";46;41;49;41;341,304469961257;0,592702462177394
"F_795";44;50;49;51;614,525655564769;0,626790756038901
"F_796";89;76;89;76;1977,85852470517;0,69262768661891
"F_797";73;69;76;72;1222,67881005975;0,667594809823468
"F_798";74;72;73;72;1481,0896469904;0,649826539462276
"F_799";41;38;35;36;284,622145422234;0,602745236060133
"F_800";53;69;57;70;1178,80915089979;0,640350408632019
"F_801";45;48;44;45;553,954839132467;0,634655090264176
"F_802";93;83;93;88;1905,13815901369;0,680324612678057
"F_803";37;35;36;35;413,668711047564;0,643754698743424
"F_804";15;22;15;24;121,154044778529;0,535513267220585
"F_805";87;90;83;85;2720,48064988694;0,715530619553544
"F_806";40;44;40;48;583,170950588303;0,617492531163077
"F_807";93;89;92;90;2144,47004912287;0,696774193548389
"F_808";44;45;41;42;423,796065894626;0,637117346938778
"F_809";49;56;47;54;448,461558598154;0,621397470454074
"F_810";89;93;89;97;3040,37495556669;0,699824868651491
"F_811";54;52;57;54;1481,41447443786;0,661808545876121
"F_812";94;82;97;86;2207,44570597497;0,704016913319243
"F_813";49;43;58;46;775,242690618238;0,630980577925156
"F_814";49;51;45;49;653,758931813188;0,645348837209305
"F_815";51;63;52;62;611,787083246232;0,636542239685659
"F_816";73;68;73;70;909,022230159823;0,640692640692641
"F_817";35;32;33;32;368,207422683253;0,588714825909737
"F_818";28;32;27;31;151,862403644987;0,586697988547936
"F_819";70;63;68;68;894,35915223064;0,663199822969687
"F_820";74;65;75;68;1550,93938387757;0,676982154958212
"F_821";43;46;44;47;343,417819816288;0,637151209141644
"F_822";45;34;46;35;207,860096389106;0,577874186550976
"F_823";43;38;42;38;394,085094999155;0,600420715215866
"F_824";49;50;50;49;318,933241255708;0,60144491270319
"F_825";45;38;47;41;145,677165828234;0,569392989455684
"F_826";75;75;74;77;2901,74675167856;0,692707731422632
"F_827";92;101;84;109;2646,74326900618;0,69766629808532
"F_828";74;72;74;71;2350,70032300291;0,714890571888608
"F_829";70;73;69;69;1215,11047470394;0,669271996426979
"F_830";52;52;53;52;275,770445891005;0,617938144329897
"F_831";45;40;45;40;430,02292161217;0,594053518334984
"F_832";44;51;49;54;427,856452819302;0,617015801122033
"F_833";51;47;53;47;416,039303514419;0,607879924953095
"F_834";23;25;24;27;91,7205677326769;0,534868156873244
"F_835";66;65;65;69;1761,34434943409;0,668078466339726
"F_836";103;102;105;98;4827,98479534945;0,725753723211045
"F_837";72;75;79;75;1727,93357136897;0,688648897058826
"F_838";30;33;32;36;128,788864305364;0,580055160400638
"F_839";30;36;30;37;180,536147839378;0,565952223586063
"F_840";54;51;53;54;711,99188327012;0,644169801182162
"F_841";44;46;41;49;285,101028105302;0,577734939759035
"F_842";28;35;29;37;393,54053300638;0,590163934426229
"F_843";74;64;73;66;1180,33105836353;0,65806664104957
"F_844";45;42;46;43;258,723653113731;0,592116961375086
"F_845";71;58;75;63;889,086182631998;0,6415154920533
"F_846";84;93;77;89;3831,59271046367;0,712553495007134
"F_847";80;80;81;80;1908,89768167982;0,665667166416793
"F_848";66;69;68;67;2203,03279527237;0,68833256775379
"F_849";52;55;54;55;590,558648064107;0,618767420253948
"F_850";40;40;40;41;383,052118778639;0,573670861846197
"F_851";32;34;33;34;252,823147938747;0,57570955193776
"F_852";54;58;56;57;825,508222826619;0,642581475128649
"F_853";65;60;65;61;1340,14933162537;0,665150086001223
"F_854";36;40;40;40;406,848543736113;0,620079656545803
"F_855";64;62;63;67;1365,68773200587;0,657669519420674
"F_856";67;67;68;67;939,639992806159;0,624472573839661
"F_857";76;81;79;82;1142,30585804483;0,644620100016131
"F_858";32;35;35;33;421,910084415113;0,616317927098868
"F_859";72;59;75;65;929,046274231359;0,646357901547422
"F_860";55;49;53;47;517,503645323769;0,634084417645193
"F_861";56;61;55;65;944,419549735736;0,626201420810697
"F_862";72;66;73;74;1288,26542946209;0,651132475150727
"F_863";98;99;101;98;3289,47788311619;0,701052631578949
"F_864";54;60;55;59;707,402394170218;0,619470855725506
"F_865";44;42;46;41;816,426087489866;0,586497064579255
"F_866";23;19;24;23;75,6141900686389;0,553974121996303
"F_867";58;68;62;72;1062,5115647464;0,627709707822808
"F_868";58;61;58;63;547,14344751373;0,622010065895293
"F_869";58;64;61;65;937,204720014488;0,631047007422225
"F_870";75;74;77;72;2686,48051447604;0,694111516414804
"F_871";73;71;76;71;1396,65777007538;0,663713874432512
"F_872";32;25;32;25;216,597936246984;0,587301587301586
"F_873";40;42;41;42;236,740038945922;0,589960629921259
"F_874";59;56;55;54;1136,55484026522;0,662576687116567
"F_875";47;47;49;47;309,579328845654;0,599579873962187
"F_876";75;81;77;83;1909,19345045913;0,702572818378954
"F_877";63;58;66;57;1239,62405262725;0,652656794425089
"F_878";94;104;93;97;3106,84950952973;0,725841608137567
"F_879";36;38;37;37;193,18113838608;0,585437319919909
"F_880";29;29;32;29;93,7173003294049;0,587272816342525
"F_881";73;67;75;63;1915,12838699826;0,665593248570321
"F_882";58;54;57;53;502,455460335883;0,628400691932695
"F_883";29;18;29;17;174,568396022927;0,570449678800856
"F_884";42;45;40;48;310,711634337178;0,605546294893165
"F_885";87;83;91;90;1326,61384407956;0,664818101153507
"F_886";21;23;25;23;70,7474985087675;0,538931846790146
"F_887";13;9;13;9;43,1117907617853;0,529294891606694
"F_888";103;90;105;90;4693,99017611939;0,727647951441582
"F_889";70;63;66;66;1391,72166768588;0,653902798232696
"F_890";66;73;72;72;1552,94315520361;0,665741100683069
"F_891";104;108;108;105;3411,50328304411;0,716086255301357
"F_892";82;75;79;72;1429,42503698409;0,683973298339708
"F_893";102;109;96;104;5742,47588551542;0,747941103069631
"F_894";62;54;62;51;841,619153176543;0,630085146641437
"F_895";54;50;59;54;585,240084182979;0,609177295594287
"F_896";93;80;90;85;2407,65536846063;0,700315457413251
"F_897";85;82;84;78;1544,15124689027;0,677517802644967
"F_898";38;37;39;37;488,425277320667;0,579186394820755
"F_899";80;78;81;81;2523,46530601943;0,701586001053437
"F_900";115;97;111;90;5400,46487520657;0,748314606741575
"F_901";35;30;33;29;192,124180569787;0,575598982090555
"F_902";44;47;45;47;488,936550286451;0,631179908387302
"F_903";68;71;69;69;1153,58652895667;0,675038008896899
"F_904";89;83;86;76;2731,63223906275;0,708510638297874
"F_905";58;57;59;53;1004,98502762911;0,662759840778423
"F_906";46;48;45;48;769,490699013574;0,638780838706244
"F_907";51;53;52;55;666,404368172395;0,617142857142856
"F_908";89;94;89;98;3347,78096437954;0,703645007923931
"F_909";99;88;94;86;3266,33971213597;0,720735886490714
"F_910";63;66;67;70;1181,85049044014;0,642065234856195
"F_911";51;50;52;47;585,219866897618;0,632745698300433
"F_912";33;31;34;29;88,9638423676427;0,555617352614015
"F_913";37;42;38;44;211,660954424219;0,597964884277733
"F_914";87;82;87;84;1917,9689826527;0,679630364533139
"F_915";83;85;85;86;2345,10731647229;0,703397289209651
"F_916";71;78;66;79;2122,37416778351;0,705965490842712
"F_917";80;83;82;83;1868,48852394381;0,678706901432375
"F_918";50;45;52;48;269,402041633506;0,602896801448399
"F_919";63;69;59;67;1176,96487596098;0,67705862419519
"F_920";34;36;34;35;200,520096150269;0,582478985472036
"F_921";106;109;100;98;3419,44053917337;0,715445213654811
"F_922";70;67;65;63;1824,16177004614;0,683076923076925
"F_923";58;50;63;53;415,741996076877;0,621719738616326
"F_924";64;60;65;63;796,139331914978;0,636542239685659
"F_925";42;50;39;46;254,680091274587;0,614170807930734
"F_926";29;30;31;34;172,403115868002;0,55208621166068
"F_927";54;43;54;44;389,904269977644;0,625091250391076
"F_928";45;46;47;47;717,536214321444;0,621107714626186
"F_929";60;61;63;65;923,096228524444;0,619791128114982
"F_930";57;68;60;68;1319,6055667473;0,672086113135621
"F_931";90;97;82;96;3139,93851913385;0,729197080291975
"F_932";53;39;55;42;322,93487283919;0,607479477044693
"F_933";63;60;64;57;880,925161883349;0,646323053698515
"F_934";92;96;97;99;2204,3031742384;0,687819151988068
"F_935";34;38;33;37;537,237657709446;0,644862829478217
"F_936";28;30;29;32;143,845979728051;0,574110435323977
"F_937";41;37;41;33;296,122893909155;0,619278851120985
"F_938";88;75;89;75;1801,8146407878;0,66470751316884
"F_939";30;26;30;30;263,177360268808;0,568367153423098
"F_940";48;51;43;52;1377,00737469742;0,67024488426703
"F_941";46;48;47;48;286,202260457973;0,57985875979491
"F_942";37;38;35;37;512,920605840348;0,63267891070298
"F_943";67;76;67;69;1292,80074964427;0,65727287680246
"F_944";68;56;66;52;1075,53524317925;0,660059464816656
"F_945";82;81;81;87;2254,08634053278;0,709979271542795
"F_946";66;73;69;75;1350,619113239;0,670995186387557
"F_947";76;76;75;76;890,617247310606;0,660787123801128
"F_948";73;71;77;72;1618,41923671742;0,659478490483003
"F_949";37;45;40;42;311,661100140177;0,614895363151416
"F_950";34;36;38;38;306,383734440765;0,568609780391783
"F_951";76;85;81;87;2639,84810951421;0,681484850207495
"F_952";59;63;54;63;1011,13252370358;0,656301324865873
"F_953";80;94;75;91;2492,2856152259;0,705134992059295
"F_954";44;52;42;53;586,214157172642;0,63725281735063
"F_955";75;72;78;78;1564,19080562769;0,680710919311796
"F_956";35;29;37;31;263,661473956318;0,57006990346664
"F_957";55;53;56;53;322,827758930392;0,59364167574527
"F_958";74;77;73;77;1293,507286515;0,670995186387556
"F_959";71;61;75;61;1364,58140159339;0,677632694590472
"F_960";66;54;69;56;603,942311867288;0,647754903550011
"F_961";58;49;57;50;966,654231771489;0,654223968565819
"F_962";78;60;75;60;1649,86397756445;0,668115699715768
"F_963";66;63;69;60;618,194279700377;0,646392753154321
"F_964";37;37;35;39;336,872635237923;0,589844518795512
"F_965";70;65;78;67;1160,10704965739;0,659914125289005
"F_966";61;59;66;62;640,350175308698;0,599549887471867
"F_967";68;78;70;81;1002,15460607528;0,667074731511884
"F_968";20;19;21;19;34,4418760243025;0,536471851785555
"F_969";20;24;20;23;66,3689685875364;0,531712942428813
"F_970";21;17;22;16;53,6112434784887;0,55435838150289
"F_971";44;41;48;41;368,626217469884;0,604051194195302
"F_972";68;88;66;87;1615,14890579365;0,680904237191868
"F_973";72;64;71;61;744,41427792497;0,640282006088768
"F_974";35;35;37;41;164,789875739096;0,565045248868777
"F_975";74;70;73;73;1798,83597297868;0,651876019575861
"F_976";87;97;84;87;5267,54516303679;0,730574684624296
"F_977";54;51;54;51;1195,18244920002;0,640692640692644
"F_978";81;71;88;74;1956,44681046098;0,675837185703012
"F_979";46;53;45;54;538,544363725157;0,630085146641439
"F_980";32;34;33;38;239,195982586714;0,59173700577521
"F_981";61;67;60;66;1037,00095248064;0,648982243395411
"F_982";121;109;123;108;4353,95471864859;0,730396636812287
"F_983";28;31;29;30;274,939299237572;0,576984165182653
"F_984";68;63;67;68;813,695365313224;0,659696235967424
"F_985";38;26;38;25;201,484905113815;0,585322982276255
"F_986";32;38;33;40;297,278710780851;0,578766957949113
"F_987";69;83;63;81;1090,47038261911;0,651663405088065
"F_988";79;82;78;78;893,230293451937;0,651309355644901
"F_989";36;34;39;35;312,164404059548;0,581264546159812
"F_990";69;58;70;59;671,648660413698;0,633514770385245
"F_991";51;69;53;68;1465,63504884921;0,697666298085323
"F_992";71;72;68;72;1383,1061929149;0,654366812227076
"F_993";67;68;71;70;1674,01432334979;0,671408569028285
"F_994";54;52;55;57;318,003609229757;0,585122998828582
"F_995";103;90;97;87;3747,81952194792;0,717200119653008
"F_996";23;23;22;23;122,706726361668;0,562025316455695
"F_997";86;93;84;87;1810,72770654431;0,692787794729543
"F_998";59;55;62;57;1298,15856096357;0,674202800742371
"F_999";90;87;91;83;2823,54711220908;0,703975571084623
"F_1000";60;67;63;70;1214,19882610353;0,658826115629811
