"ID";"index"
"F_1";7,76
"F_2";1,54
"F_3";4,31666666666667
"F_4";1,2675
"F_5";3,3075
"F_6";1,9975
"F_7";1,46916666666667
"F_8";5,2
"F_9";2,25
"F_10";4,19333333333333
"F_11";1,17
"F_12";6,38
"F_13";7,20666666666667
"F_14";6,8875
"F_15";1,23
"F_16";6,09166666666667
"F_17";1,6875
"F_18";0,723333333333333
"F_19";2,94833333333333
"F_20";0,935
"F_21";1,65
"F_22";4,56333333333333
"F_23";3,96
"F_24";6,0175
"F_25";5,13333333333333
"F_26";3,52
"F_27";3
"F_28";7,28333333333333
"F_29";1,11
"F_30";3,63
"F_31";4,68666666666667
"F_32";4,68416666666667
"F_33";4,81
"F_34";6,7425
"F_35";0,88
"F_36";8,8375
"F_37";1,2025
"F_38";2,95
"F_39";2,295
"F_40";2,385
"F_41";0,653333333333333
"F_42";2,69416666666667
"F_43";1,235
"F_44";1,11
"F_45";1,96
"F_46";2,5175
"F_47";3,52083333333333
"F_48";1,61333333333333
"F_49";1,36666666666667
"F_50";2,85
"F_51";3,84583333333333
"F_52";1,92
"F_53";6,675
"F_54";7,13
"F_55";4,9375
"F_56";3,045
"F_57";4,25833333333333
"F_58";5,00333333333333
"F_59";4,94
"F_60";3,46666666666667
"F_61";0,75
"F_62";1,05
"F_63";4,25833333333333
"F_64";4,68
"F_65";6,525
"F_66";3,045
"F_67";6,09
"F_68";0,440833333333333
"F_69";4,20083333333333
"F_70";0,5625
"F_71";3,05
"F_72";1,26666666666667
"F_73";2,66
"F_74";3,41333333333333
"F_75";6,0175
"F_76";1,96
"F_77";1,05
"F_78";2,08333333333333
"F_79";0,7
"F_80";1,84083333333333
"F_81";5,005
"F_82";2,25
"F_83";6,97166666666667
"F_84";4,025
"F_85";2,385
"F_86";1,68666666666667
"F_87";2,34
"F_88";3,905
"F_89";8,5
"F_90";6,9
"F_91";4,14166666666667
"F_92";1,235
"F_93";4,875
"F_94";0,46
"F_95";1,80166666666667
"F_96";0,746666666666667
"F_97";5,7375
"F_98";7,33333333333333
"F_99";1,46916666666667
"F_100";5,06666666666667
"F_101";5,53333333333333
"F_102";1,505
"F_103";1,80166666666667
"F_104";1,80166666666667
"F_105";6,45333333333333
"F_106";2,66
"F_107";7,28
"F_108";0,700833333333333
"F_109";1,76333333333333
"F_110";2,20833333333333
"F_111";2,2525
"F_112";1,40083333333333
"F_113";2,8025
"F_114";2,85
"F_115";4,80583333333333
"F_116";3,68333333333333
"F_117";0,991666666666667
"F_118";3,7375
"F_119";4,87666666666667
"F_120";6,09166666666667
"F_121";1,1375
"F_122";3,4125
"F_123";2,56666666666667
"F_124";2,85166666666667
"F_125";0,421666666666667
"F_126";5,95
"F_127";2,43
"F_128";3,85333333333333
"F_129";2,90083333333333
"F_130";4,1875
"F_131";3,7375
"F_132";4,68666666666667
"F_133";3,85333333333333
"F_134";2,95
"F_135";0,7
"F_136";9,09
"F_137";8,66666666666667
"F_138";3,04833333333333
"F_139";2,04166666666667
"F_140";2,21
"F_141";8,1675
"F_142";2,04166666666667
"F_143";1,8
"F_144";5,26666666666667
"F_145";2,52
"F_146";1,65
"F_147";7,05
"F_148";3,85
"F_149";2,6125
"F_150";2,25333333333333
"F_151";6,09166666666667
"F_152";2,475
"F_153";4,94
"F_154";5,4
"F_155";6,1625
"F_156";4,26
"F_157";5,45416666666667
"F_158";10,8266666666667
"F_159";0,878333333333333
"F_160";2,60583333333333
"F_161";6,6
"F_162";1,235
"F_163";1,54
"F_164";1,6875
"F_165";1,36666666666667
"F_166";2,85166666666667
"F_167";2,16666666666667
"F_168";1,33333333333333
"F_169";1,05
"F_170";3,62666666666667
"F_171";7,12833333333333
"F_172";1,14
"F_173";1,04833333333333
"F_174";3,63
"F_175";8,32583333333333
"F_176";1,02083333333333
"F_177";6,97166666666667
"F_178";1,88
"F_179";1,72
"F_180";0,5
"F_181";1,91666666666667
"F_182";4,50166666666667
"F_183";0,991666666666667
"F_184";5,39833333333333
"F_185";1,57666666666667
"F_186";3,09333333333333
"F_187";0,479166666666667
"F_188";2,21
"F_189";1,57666666666667
"F_190";3,045
"F_191";0,6525
"F_192";4,9375
"F_193";1,365
"F_194";0,2125
"F_195";3,30666666666667
"F_196";6,8975
"F_197";2,9
"F_198";1,29833333333333
"F_199";9,71916666666667
"F_200";0,563333333333333
"F_201";3,15166666666667
"F_202";1,29833333333333
"F_203";7,285
"F_204";1,955
"F_205";6,5875
"F_206";5,53333333333333
"F_207";4,25833333333333
"F_208";3,85
"F_209";4,025
"F_210";0,775
"F_211";0,723333333333333
"F_212";2,70666666666667
"F_213";1,65
"F_214";1,64833333333333
"F_215";1,23333333333333
"F_216";3,2
"F_217";8,755
"F_218";1,235
"F_219";1,235
"F_220";2,21
"F_221";9,275
"F_222";4,62333333333333
"F_223";2,51333333333333
"F_224";5,80833333333333
"F_225";0,5625
"F_226";5,13333333333333
"F_227";4,02333333333333
"F_228";7,67666666666667
"F_229";3,90833333333333
"F_230";1,80166666666667
"F_231";9,095
"F_232";2,47333333333333
"F_233";5
"F_234";2,475
"F_235";4,02333333333333
"F_236";1,33
"F_237";1,57666666666667
"F_238";4,5
"F_239";2
"F_240";2,475
"F_241";1,29833333333333
"F_242";4,87166666666667
"F_243";1,4
"F_244";3,62666666666667
"F_245";1,84
"F_246";4,375
"F_247";1,575
"F_248";8,3325
"F_249";3,90833333333333
"F_250";2,20833333333333
"F_251";1,36666666666667
"F_252";0,725
"F_253";6,16333333333333
"F_254";2,70416666666667
"F_255";4,8125
"F_256";1,76
"F_257";3,36
"F_258";5,135
"F_259";6,8975
"F_260";1,26666666666667
"F_261";3,84583333333333
"F_262";1,36666666666667
"F_263";3,04833333333333
"F_264";1,11
"F_265";0,991666666666667
"F_266";5,87666666666667
"F_267";5,66666666666667
"F_268";0,5625
"F_269";4,56333333333333
"F_270";4,50166666666667
"F_271";4,62
"F_272";4,14166666666667
"F_273";9,5375
"F_274";3,10083333333333
"F_275";11,505
"F_276";2,3375
"F_277";6,525
"F_278";7,12833333333333
"F_279";7,20666666666667
"F_280";1,46916666666667
"F_281";5,26166666666667
"F_282";7,43666666666667
"F_283";0,520833333333333
"F_284";4,14166666666667
"F_285";3,79666666666667
"F_286";0,955833333333333
"F_287";3,8525
"F_288";4,6875
"F_289";6,15583333333333
"F_290";4,94
"F_291";5,26666666666667
"F_292";3,15166666666667
"F_293";0,6075
"F_294";0,653333333333333
"F_295";4,37
"F_296";3,05
"F_297";2,42666666666667
"F_298";4,025
"F_299";5,87916666666667
"F_300";0,27
"F_301";5,66666666666667
"F_302";3,91
"F_303";4,625
"F_304";2,47333333333333
"F_305";2,755
"F_306";0,285
"F_307";9,27333333333333
"F_308";1,4
"F_309";4,0825
"F_310";1,2025
"F_311";1,36666666666667
"F_312";3,46666666666667
"F_313";0,653333333333333
"F_314";2,755
"F_315";6,235
"F_316";7,2
"F_317";2,08333333333333
"F_318";6,97666666666667
"F_319";1,05
"F_320";4,31916666666667
"F_321";1,26416666666667
"F_322";3,05
"F_323";2,125
"F_324";1,68416666666667
"F_325";0,700833333333333
"F_326";1,91916666666667
"F_327";1,02
"F_328";1,26666666666667
"F_329";4,5625
"F_330";1,17166666666667
"F_331";0,255
"F_332";6,825
"F_333";6,16333333333333
"F_334";0,520833333333333
"F_335";4,55
"F_336";3,14666666666667
"F_337";4,26
"F_338";4,26
"F_339";7,8375
"F_340";1,40083333333333
"F_341";0,226666666666667
"F_342";7,67916666666667
"F_343";6,52666666666667
"F_344";0,63
"F_345";7,28
"F_346";1,36666666666667
"F_347";2,43
"F_348";5,3325
"F_349";3,1
"F_350";1,3
"F_351";5,265
"F_352";1,26416666666667
"F_353";1,80166666666667
"F_354";4,6875
"F_355";0,316666666666667
"F_356";2,125
"F_357";0,991666666666667
"F_358";2,945
"F_359";1,04833333333333
"F_360";7,3625
"F_361";2,65833333333333
"F_362";1,23333333333333
"F_363";1,05
"F_364";9,70666666666667
"F_365";5,2
"F_366";1,80166666666667
"F_367";4,08
"F_368";1,92
"F_369";0,963333333333333
"F_370";4,32
"F_371";4,87666666666667
"F_372";2,7075
"F_373";1,235
"F_374";4,8125
"F_375";3,5175
"F_376";5,66666666666667
"F_377";4,62333333333333
"F_378";1,725
"F_379";5,945
"F_380";3,05
"F_381";6,97666666666667
"F_382";5,06916666666667
"F_383";4,31916666666667
"F_384";1,57666666666667
"F_385";6,38
"F_386";7,0525
"F_387";1,05
"F_388";0,963333333333333
"F_389";2,00083333333333
"F_390";1,23
"F_391";4,50166666666667
"F_392";2,0825
"F_393";1,08
"F_394";4,87666666666667
"F_395";1,715
"F_396";2,95
"F_397";7,51333333333333
"F_398";3,255
"F_399";6,44583333333333
"F_400";1,9875
"F_401";5,81
"F_402";4,87166666666667
"F_403";0,2
"F_404";1,54
"F_405";0,520833333333333
"F_406";3,63
"F_407";2,66
"F_408";0,3675
"F_409";3,15166666666667
"F_410";0,5
"F_411";0,24
"F_412";3,96416666666667
"F_413";0,421666666666667
"F_414";2,42916666666667
"F_415";1,14
"F_416";3,685
"F_417";3,41333333333333
"F_418";7,3625
"F_419";1,64833333333333
"F_420";0,421666666666667
"F_421";3,79166666666667
"F_422";8,5
"F_423";5,13
"F_424";7,05
"F_425";1,92
"F_426";2,3375
"F_427";3,2
"F_428";2,16416666666667
"F_429";0,725
"F_430";2,99916666666667
"F_431";1,02083333333333
"F_432";1,80166666666667
"F_433";5,945
"F_434";5,7375
"F_435";4,02333333333333
"F_436";0,7
"F_437";1,91916666666667
"F_438";3,57333333333333
"F_439";4,50166666666667
"F_440";1,10833333333333
"F_441";3,35833333333333
"F_442";2,34
"F_443";2,66
"F_444";4,31916666666667
"F_445";4,44
"F_446";4,38
"F_447";2,70666666666667
"F_448";0,826666666666667
"F_449";9,275
"F_450";1,64833333333333
"F_451";1,29833333333333
"F_452";2,0825
"F_453";2,52083333333333
"F_454";6,97666666666667
"F_455";2,9
"F_456";5,81
"F_457";5,74083333333333
"F_458";4,31916666666667
"F_459";4,81
"F_460";5,53333333333333
"F_461";1,88
"F_462";7,5175
"F_463";3,25333333333333
"F_464";2,85166666666667
"F_465";8,16416666666667
"F_466";2,475
"F_467";0,991666666666667
"F_468";2,9
"F_469";3,30666666666667
"F_470";5,59
"F_471";5,07
"F_472";0,963333333333333
"F_473";1,14
"F_474";0,991666666666667
"F_475";4,94
"F_476";3,74
"F_477";1,7625
"F_478";1,6125
"F_479";6,30666666666667
"F_480";2,52
"F_481";2,25
"F_482";3,10083333333333
"F_483";1,96
"F_484";2,08333333333333
"F_485";2,99666666666667
"F_486";3,96416666666667
"F_487";5,67
"F_488";4,08333333333333
"F_489";0,3675
"F_490";5,67166666666667
"F_491";1,6125
"F_492";1,4
"F_493";6,37833333333333
"F_494";5,6
"F_495";1,92
"F_496";4,74833333333333
"F_497";4,94
"F_498";2,75333333333333
"F_499";2,25
"F_500";1,54
"F_501";6,235
"F_502";0,75
"F_503";3,57333333333333
"F_504";3,30666666666667
"F_505";9,18
"F_506";1,46916666666667
"F_507";3,46666666666667
"F_508";1,4
"F_509";1,5
"F_510";1,725
"F_511";1,505
"F_512";5,20083333333333
"F_513";2,99916666666667
"F_514";2,08333333333333
"F_515";0,653333333333333
"F_516";1,91916666666667
"F_517";3,1
"F_518";5,87666666666667
"F_519";3,05
"F_520";9,53333333333333
"F_521";1,65
"F_522";0,6525
"F_523";3,91
"F_524";4,56
"F_525";2,34083333333333
"F_526";1,435
"F_527";0,63
"F_528";0,2125
"F_529";1,11
"F_530";1,29833333333333
"F_531";6,6
"F_532";4,625
"F_533";1,64
"F_534";4,44
"F_535";4,56333333333333
"F_536";6,73666666666667
"F_537";2,8025
"F_538";0,725
"F_539";7,52
"F_540";1,84083333333333
"F_541";5,94833333333333
"F_542";2,66
"F_543";6,235
"F_544";1,96
"F_545";2,04
"F_546";2,9
"F_547";1,07916666666667
"F_548";2,52
"F_549";4,38
"F_550";1,2025
"F_551";1,6125
"F_552";0,99
"F_553";6,525
"F_554";2,66
"F_555";0,403333333333333
"F_556";5,46666666666667
"F_557";8,58333333333333
"F_558";6,30666666666667
"F_559";0,35
"F_560";1,6875
"F_561";11,47
"F_562";2,61
"F_563";3,575
"F_564";1,725
"F_565";1,61333333333333
"F_566";1,235
"F_567";0,700833333333333
"F_568";4,81333333333333
"F_569";1,64833333333333
"F_570";2,2525
"F_571";5,59583333333333
"F_572";7,755
"F_573";4,235
"F_574";2,755
"F_575";0,676666666666667
"F_576";2,38333333333333
"F_577";5,135
"F_578";3,85
"F_579";1,3325
"F_580";1,54
"F_581";2,2325
"F_582";0,676666666666667
"F_583";5,26666666666667
"F_584";5,7375
"F_585";9,275
"F_586";4,625
"F_587";1,80166666666667
"F_588";3,905
"F_589";1,23333333333333
"F_590";1,57666666666667
"F_591";1,76333333333333
"F_592";5,74
"F_593";0,935
"F_594";10,165
"F_595";2,08
"F_596";8,075
"F_597";2,7075
"F_598";1,68666666666667
"F_599";7,92166666666667
"F_600";6,6
"F_601";1,61333333333333
"F_602";0,563333333333333
"F_603";6,3075
"F_604";1,88
"F_605";2,38333333333333
"F_606";2,29666666666667
"F_607";6,09166666666667
"F_608";2,29666666666667
"F_609";0,5
"F_610";5,39833333333333
"F_611";2,04166666666667
"F_612";6,67
"F_613";7,20666666666667
"F_614";1,02083333333333
"F_615";0,7
"F_616";5,19333333333333
"F_617";3,52
"F_618";7,13
"F_619";1,26666666666667
"F_620";4,38
"F_621";1,235
"F_622";2,08333333333333
"F_623";3,04833333333333
"F_624";1,875
"F_625";7,28333333333333
"F_626";1,87833333333333
"F_627";2,655
"F_628";0,904166666666667
"F_629";4,26
"F_630";2,16666666666667
"F_631";1,84
"F_632";10,355
"F_633";3,9675
"F_634";2,755
"F_635";2,42916666666667
"F_636";2,04
"F_637";1,07916666666667
"F_638";2,52
"F_639";5,67166666666667
"F_640";8,08
"F_641";1,17
"F_642";7,28333333333333
"F_643";1,9125
"F_644";6,67333333333333
"F_645";1,76333333333333
"F_646";2,38333333333333
"F_647";2,8025
"F_648";0,440833333333333
"F_649";5,06666666666667
"F_650";0,75
"F_651";5,26166666666667
"F_652";2,125
"F_653";3,46666666666667
"F_654";3,68333333333333
"F_655";3,40583333333333
"F_656";5,395
"F_657";1,11
"F_658";5,06916666666667
"F_659";0,3675
"F_660";1,61
"F_661";5,6025
"F_662";2,25
"F_663";2,8
"F_664";3,575
"F_665";8,83333333333333
"F_666";4,20083333333333
"F_667";2
"F_668";4,56
"F_669";1,29833333333333
"F_670";4,31916666666667
"F_671";1,17166666666667
"F_672";7,67916666666667
"F_673";0,316666666666667
"F_674";2,29166666666667
"F_675";1,65
"F_676";3,2025
"F_677";1,2025
"F_678";6,4525
"F_679";6,1625
"F_680";1,68666666666667
"F_681";1,80166666666667
"F_682";0,8525
"F_683";7,43166666666667
"F_684";4,38
"F_685";5,6025
"F_686";5
"F_687";4,37833333333333
"F_688";2,80333333333333
"F_689";2,04
"F_690";2,84666666666667
"F_691";7,84083333333333
"F_692";2,565
"F_693";2,25333333333333
"F_694";9,63
"F_695";4,5
"F_696";1,04833333333333
"F_697";1,8
"F_698";2
"F_699";0,88
"F_700";2,475
"F_701";1,92
"F_702";0,853333333333333
"F_703";2,25
"F_704";7,43166666666667
"F_705";2,94833333333333
"F_706";5,66666666666667
"F_707";2,85166666666667
"F_708";2,38333333333333
"F_709";0,541666666666667
"F_710";1,3325
"F_711";1,64833333333333
"F_712";3,62666666666667
"F_713";4,87666666666667
"F_714";0,421666666666667
"F_715";3,04833333333333
"F_716";1,17166666666667
"F_717";4,26
"F_718";2,52
"F_719";0,800833333333333
"F_720";1,57166666666667
"F_721";3,52
"F_722";2,29666666666667
"F_723";1,88
"F_724";1,47
"F_725";5,07
"F_726";2,0825
"F_727";2,1675
"F_728";1,08
"F_729";2,70666666666667
"F_730";3,3075
"F_731";1,57666666666667
"F_732";9,095
"F_733";1,68666666666667
"F_734";4,26
"F_735";3,84583333333333
"F_736";6,16
"F_737";1,4
"F_738";1,17166666666667
"F_739";6,235
"F_740";5,66666666666667
"F_741";4,14
"F_742";5,88
"F_743";3,68333333333333
"F_744";4,44083333333333
"F_745";2,9
"F_746";7,2
"F_747";5,67166666666667
"F_748";0,7
"F_749";4,1975
"F_750";3,52
"F_751";1,91666666666667
"F_752";1,43
"F_753";6,3
"F_754";2,385
"F_755";6,74666666666667
"F_756";3,46666666666667
"F_757";5,3325
"F_758";4,31666666666667
"F_759";1,3
"F_760";3,2025
"F_761";0,8
"F_762";3,96666666666667
"F_763";1,72333333333333
"F_764";3,05
"F_765";1,88
"F_766";6,8975
"F_767";4,5625
"F_768";0,99
"F_769";0,826666666666667
"F_770";1,02083333333333
"F_771";1,43333333333333
"F_772";1,80166666666667
"F_773";1,88
"F_774";0,775
"F_775";2,16666666666667
"F_776";1,67416666666667
"F_777";2,7
"F_778";1,88
"F_779";3,4125
"F_780";1,26416666666667
"F_781";1,36666666666667
"F_782";0,800833333333333
"F_783";1,72
"F_784";2,295
"F_785";0,800833333333333
"F_786";6,02083333333333
"F_787";3,8525
"F_788";5,005
"F_789";3,52
"F_790";4,745
"F_791";3,3075
"F_792";5,67166666666667
"F_793";1,33333333333333
"F_794";3,57333333333333
"F_795";2,16666666666667
"F_796";4,2
"F_797";5,74
"F_798";3,575
"F_799";0,8525
"F_800";3,5175
"F_801";0,775
"F_802";5,4
"F_803";0,5
"F_804";0,35
"F_805";4,5
"F_806";1,14
"F_807";7,3625
"F_808";1,43333333333333
"F_809";2,61333333333333
"F_810";5,60333333333333
"F_811";3,85
"F_812";4,26
"F_813";2,52083333333333
"F_814";1,43333333333333
"F_815";1,76
"F_816";4,025
"F_817";1,14
"F_818";1,14083333333333
"F_819";4,26
"F_820";2,42916666666667
"F_821";3,57333333333333
"F_822";1,725
"F_823";1,36666666666667
"F_824";2,56666666666667
"F_825";1,365
"F_826";4,2
"F_827";4,875
"F_828";6,1625
"F_829";4,025
"F_830";1,435
"F_831";2,475
"F_832";2,2525
"F_833";1,23333333333333
"F_834";0,385
"F_835";2,565
"F_836";8,40666666666667
"F_837";3,0975
"F_838";1,46666666666667
"F_839";0,56
"F_840";3,52083333333333
"F_841";2,1675
"F_842";1,2025
"F_843";2,34
"F_844";4,1975
"F_845";1,505
"F_846";5,74
"F_847";8,16416666666667
"F_848";5,06916666666667
"F_849";1,07916666666667
"F_850";0,935
"F_851";1,17
"F_852";1,40083333333333
"F_853";3,685
"F_854";2,125
"F_855";3,85
"F_856";4,14166666666667
"F_857";6,9
"F_858";1,36666666666667
"F_859";3,30666666666667
"F_860";4,5
"F_861";3,2025
"F_862";2,99666666666667
"F_863";4,025
"F_864";2,125
"F_865";2,43
"F_866";4,13666666666667
"F_867";3
"F_868";2,16666666666667
"F_869";1,84083333333333
"F_870";4,50166666666667
"F_871";6,38
"F_872";1,23333333333333
"F_873";2
"F_874";2,90083333333333
"F_875";1,2675
"F_876";5,6025
"F_877";2,66
"F_878";5
"F_879";2,8025
"F_880";1,14083333333333
"F_881";3,09333333333333
"F_882";2,565
"F_883";0,653333333333333
"F_884";1,6125
"F_885";1,95833333333333
"F_886";0,541666666666667
"F_887";0,269166666666667
"F_888";5,3325
"F_889";3,57
"F_890";5,74
"F_891";10,08
"F_892";4,44
"F_893";9,45
"F_894";3,14666666666667
"F_895";1,64833333333333
"F_896";5,945
"F_897";5,74
"F_898";1,11
"F_899";3,96666666666667
"F_900";6,9
"F_901";0,498333333333333
"F_902";1,84083333333333
"F_903";6,23
"F_904";4,80583333333333
"F_905";2,08
"F_906";0,676666666666667
"F_907";2,1675
"F_908";4,25833333333333
"F_909";9,3625
"F_910";3,52083333333333
"F_911";2,475
"F_912";0,991666666666667
"F_913";2,385
"F_914";5,13333333333333
"F_915";5,4
"F_916";7,18666666666667
"F_917";4,31916666666667
"F_918";2,52
"F_919";2,12
"F_920";0,991666666666667
"F_921";7,12
"F_922";0,563333333333333
"F_923";1,725
"F_924";4,26
"F_925";1,46916666666667
"F_926";2,29666666666667
"F_927";2,6125
"F_928";1,08
"F_929";3,3075
"F_930";2,385
"F_931";5,74083333333333
"F_932";1,80166666666667
"F_933";6,21833333333333
"F_934";9,99
"F_935";1,26666666666667
"F_936";0,653333333333333
"F_937";1,40083333333333
"F_938";4,14166666666667
"F_939";1,6875
"F_940";0,725
"F_941";1,36666666666667
"F_942";1,20333333333333
"F_943";3,91
"F_944";3,52
"F_945";4,875
"F_946";4,49666666666667
"F_947";7,8375
"F_948";2,70666666666667
"F_949";1,26416666666667
"F_950";2,3375
"F_951";4,625
"F_952";3,7375
"F_953";6,23
"F_954";1,11
"F_955";7,285
"F_956";2,70666666666667
"F_957";1,88
"F_958";4,38
"F_959";3,62916666666667
"F_960";3,795
"F_961";2,28666666666667
"F_962";4,68666666666667
"F_963";3,1825
"F_964";1,10833333333333
"F_965";4,80583333333333
"F_966";1,79666666666667
"F_967";2,16666666666667
"F_968";0,9625
"F_969";0,8
"F_970";0,403333333333333
"F_971";0,963333333333333
"F_972";4,37833333333333
"F_973";5,1975
"F_974";0,99
"F_975";3,795
"F_976";4,26
"F_977";2
"F_978";3,62916666666667
"F_979";2,04166666666667
"F_980";0,878333333333333
"F_981";3,35
"F_982";9,79333333333333
"F_983";0,9075
"F_984";3,9675
"F_985";1,02
"F_986";4,875
"F_987";3,96416666666667
"F_988";4,81333333333333
"F_989";0,88
"F_990";3,96
"F_991";3,2025
"F_992";3,575
"F_993";2,85
"F_994";2,94833333333333
"F_995";8,5
"F_996";0,825
"F_997";3,91
"F_998";5,06916666666667
"F_999";3,05
"F_1000";4,87666666666667
