"Roost";"In";"Out";"InLink";"OutLink";"Betweeness";"Closeness"
"R_1";19;19;7;6;89,475;0,505330490405117
"R_2";23;23;10;8;551,240873015873;0,587724736515809
"R_3";18;17;4;5;53,7;0,526666666666667
"R_4";23;23;10;13;342,627380952381;0,599620493358634
"R_5";21;21;10;8;10,2785714285714;0,460865337870685
"R_6";28;28;13;15;637,823015873016;0,615584415584416
"R_7";18;18;5;5;94,3333333333333;0,435061955025241
"R_8";22;22;5;5;178,416666666667;0,489164086687307
"R_9";20;20;8;7;313,133333333333;0,596601636249214
"R_10";20;20;5;6;180,916666666667;0,416337285902503
"R_11";21;21;8;7;4,66666666666667;0,418912947414936
"R_12";21;21;7;8;32,0916666666667;0,546082949308756
"R_13";20;20;8;7;26,8333333333333;0,531986531986532
"R_14";21;21;10;8;243,42619047619;0,595477386934674
"R_15";24;24;12;14;962,618362193362;0,677142857142857
"R_16";19;19;5;6;279,611904761905;0,444861567339277
"R_17";23;22;9;9;148,844047619048;0,549565217391304
"R_18";23;23;9;11;145,092857142857;0,513542795232936
"R_19";19;19;4;5;22;0,416703296703297
"R_20";24;24;12;15;419,625;0,561944279786604
"R_21";22;21;11;10;142,87619047619;0,504255319148936
"R_22";23;23;12;12;453,075505050505;0,629064366290644
"R_23";23;23;10;6;270,983333333333;0,60536398467433
"R_24";21;21;11;10;428,273015873016;0,542024013722127
"R_25";16;16;6;5;15,8333333333333;0,420772303595206
"R_26";22;22;11;11;301,923412698413;0,595851665619108
"R_27";21;21;8;7;3,43333333333333;0,41038961038961
"R_28";19;19;6;7;139,233333333333;0,439295644114921
"R_29";19;18;4;5;36,75;0,468842729970326
"R_30";22;22;13;13;501,170851370852;0,662937062937063
"R_31";25;25;12;11;833,084848484849;0,622455679579777
"R_32";20;20;7;9;50,8;0,567664670658683
"R_33";22;22;10;10;126,691666666667;0,458857696030978
"R_34";20;20;8;9;342,370634920635;0,518032786885246
"R_35";21;21;7;6;78,2357142857143;0,434662998624484
"R_36";18;18;4;4;39,5833333333333;0,403747870528109
"R_37";21;21;9;8;46,3833333333333;0,433470507544582
"R_38";18;18;5;5;5,06666666666667;0,47376311844078
"R_39";19;19;8;7;353,283333333333;0,442783745913125
"R_40";24;24;13;14;115,856926406926;0,576993304930006
"R_41";21;21;8;7;429,916666666667;0,59622641509434
"R_42";18;18;3;3;0;0,461538461538462
"R_43";16;16;3;2;0,5;0,347634763476348
"R_44";15;16;3;4;0;0,370746969104419
"R_45";21;21;4;5;61,8369047619048;0,52754590984975
"R_46";21;20;6;6;34,2;0,426258992805755
"R_47";21;21;8;7;2,7;0,425112107623318
"R_48";20;20;6;10;119,758333333333;0,567324955116697
"R_49";20;20;7;10;167,346428571429;0,5056
"R_50";20;20;7;8;131,419444444444;0,598484848484849
"R_51";19;20;5;5;99,0666666666667;0,427604871447903
"R_52";22;22;8;9;130,784523809524;0,553415061295972
"R_53";20;19;5;5;105,016666666667;0,501587301587301
"R_54";23;23;12;13;593,095238095238;0,591760299625468
"R_55";18;18;4;3;0;0,356793375987956
"R_56";20;20;5;4;33,6666666666667;0,516339869281046
"R_57";23;23;9;8;250,434523809524;0,516058791507893
"R_58";21;21;8;10;181,508333333333;0,476861167002012
"R_59";19;19;7;7;62,1166666666667;0,470004957858205
"R_60";27;27;9;9;267,056349206349;0,626155878467636
"R_61";21;21;8;9;271,790909090909;0,575591985428051
"R_62";25;25;6;9;613,894444444444;0,610824742268041
"R_63";21;21;10;10;496,283333333333;0,525207756232687
"R_64";21;21;9;9;56,675;0,566985645933014
"R_65";18;18;3;2;0,5;0,356793375987956
"R_66";19;19;5;6;76,6666666666667;0,548293811451706
"R_67";21;21;8;4;26,4287878787879;0,548928778228141
"R_68";24;24;12;11;497,154761904762;0,637096774193549
"R_69";17;17;5;4;6,73333333333333;0,437875288683603
"R_70";18;18;8;7;166,489393939394;0,514937533948941
"R_71";22;22;8;6;394,58373015873;0,606914212548016
"R_72";19;19;4;4;11,3333333333333;0,418173797970887
"R_73";24;24;10;9;919,368181818182;0,668076109936575
"R_74";18;18;4;5;112,933333333333;0,422648238965671
"R_75";21;21;7;7;171,666666666667;0,572463768115942
"R_76";18;18;8;8;187;0,42876526458616
"R_77";19;19;12;10;182,119047619048;0,459524963645177
"R_78";21;21;11;8;40,6309523809524;0,54233409610984
"R_79";19;19;5;6;45,8833333333333;0,404092071611253
"R_80";25;25;11;11;375,828787878788;0,620825147347741
