"ID";"index"
"F_1";7,36333333333333
"F_2";1,50333333333333
"F_3";4,38
"F_4";0,88
"F_5";3,79666666666667
"F_6";1,6875
"F_7";1,6875
"F_8";6,075
"F_9";2,21
"F_10";3,51333333333333
"F_11";1,20333333333333
"F_12";8,16666666666667
"F_13";6,75
"F_14";6,60083333333333
"F_15";0,725
"F_16";4,5625
"F_17";0,541666666666667
"F_18";0,676666666666667
"F_19";3,46666666666667
"F_20";1,26666666666667
"F_21";1,47
"F_22";5,06916666666667
"F_23";4,25833333333333
"F_24";3,63
"F_25";8,245
"F_26";4,31916666666667
"F_27";3,8525
"F_28";5,535
"F_29";2
"F_30";2,2525
"F_31";4,87666666666667
"F_32";8,41666666666667
"F_33";6,30416666666667
"F_34";10,4533333333333
"F_35";1,91916666666667
"F_36";6,90083333333333
"F_37";4,745
"F_38";4,68416666666667
"F_39";2,34
"F_40";1,87833333333333
"F_41";0,3
"F_42";3,62916666666667
"F_43";8,84
"F_44";0,991666666666667
"F_45";2,5175
"F_46";2,52
"F_47";5,46666666666667
"F_48";1,575
"F_49";0,52
"F_50";4,875
"F_51";4,31666666666667
"F_52";1,76333333333333
"F_53";1,88
"F_54";0,421666666666667
"F_55";3,46166666666667
"F_56";2,42916666666667
"F_57";5,135
"F_58";1,83333333333333
"F_59";4,14166666666667
"F_60";2,99916666666667
"F_61";1,08
"F_62";2,385
"F_63";3,74083333333333
"F_64";3,41333333333333
"F_65";1,20333333333333
"F_66";3,90833333333333
"F_67";9,18666666666667
"F_68";0,240833333333333
"F_69";4,08333333333333
"F_70";1,29833333333333
"F_71";3,46666666666667
"F_72";1,7625
"F_73";2,04166666666667
"F_74";2,90083333333333
"F_75";3,79666666666667
"F_76";1,54
"F_77";1,5375
"F_78";1,435
"F_79";0,421666666666667
"F_80";1,4
"F_81";4,995
"F_82";2,95
"F_83";10,175
"F_84";5,95
"F_85";1,80166666666667
"F_86";2,43
"F_87";1,68
"F_88";5,6025
"F_89";7,84
"F_90";8,58333333333333
"F_91";3,4125
"F_92";1,08
"F_93";3,4125
"F_94";0,63
"F_95";1,87833333333333
"F_96";1,11
"F_97";7,0525
"F_98";6,97666666666667
"F_99";1,07916666666667
"F_100";7,05
"F_101";6,59333333333333
"F_102";8,08333333333333
"F_103";3,36
"F_104";8,3325
"F_105";5,94
"F_106";1,235
"F_107";2,08333333333333
"F_108";0,563333333333333
"F_109";1,3
"F_110";2,95
"F_111";2,475
"F_112";2,66
"F_113";1,64833333333333
"F_114";2,66
"F_115";4,62
"F_116";4,02
"F_117";1,33
"F_118";2,04166666666667
"F_119";2,85
"F_120";1,91916666666667
"F_121";1,07916666666667
"F_122";3,30666666666667
"F_123";3,68333333333333
"F_124";2,52
"F_125";1,105
"F_126";4,32
"F_127";3,46666666666667
"F_128";0,9625
"F_129";2,125
"F_130";3,30666666666667
"F_131";5,7375
"F_132";7,75833333333333
"F_133";4,32
"F_134";6,97666666666667
"F_135";0,6525
"F_136";6,67
"F_137";6,74916666666667
"F_138";4,875
"F_139";1,61
"F_140";1,88
"F_141";5,87666666666667
"F_142";2,16666666666667
"F_143";2,12333333333333
"F_144";5,46416666666667
"F_145";2,61333333333333
"F_146";2,34083333333333
"F_147";5,59
"F_148";1,57666666666667
"F_149";2,99916666666667
"F_150";1,87833333333333
"F_151";5,2
"F_152";5,945
"F_153";6,09
"F_154";4,87666666666667
"F_155";6,45333333333333
"F_156";5,395
"F_157";5,95
"F_158";8,00333333333333
"F_159";1,05
"F_160";3,46666666666667
"F_161";8,4975
"F_162";1,02
"F_163";1,435
"F_164";1,2675
"F_165";1,95
"F_166";5,0625
"F_167";4,32
"F_168";0,403333333333333
"F_169";0,315
"F_170";1,17
"F_171";7,285
"F_172";1,11
"F_173";2,08333333333333
"F_174";3,685
"F_175";6,74666666666667
"F_176";2,00083333333333
"F_177";5,88
"F_178";0,935
"F_179";0,700833333333333
"F_180";0,935
"F_181";1,9975
"F_182";6,375
"F_183";0,675
"F_184";6,67333333333333
"F_185";1,435
"F_186";3,8525
"F_187";0,585
"F_188";1,6125
"F_189";1,33333333333333
"F_190";3,63
"F_191";0,723333333333333
"F_192";4,0825
"F_193";1,235
"F_194";0,63
"F_195";2,94833333333333
"F_196";8,075
"F_197";5,39833333333333
"F_198";1,05
"F_199";9,44666666666667
"F_200";0,403333333333333
"F_201";4,44
"F_202";1,505
"F_203";9,33333333333333
"F_204";1,6875
"F_205";7,28333333333333
"F_206";4,49666666666667
"F_207";3,41
"F_208";3,905
"F_209";5,805
"F_210";1,91916666666667
"F_211";0,88
"F_212";1,84
"F_213";1,3
"F_214";1,61333333333333
"F_215";0,9075
"F_216";0,5
"F_217";8,6625
"F_218";1,2025
"F_219";0,52
"F_220";1,76
"F_221";4,50166666666667
"F_222";5
"F_223";2,85166666666667
"F_224";1,92
"F_225";0,9625
"F_226";7,76
"F_227";3,04833333333333
"F_228";11,9991666666667
"F_229";4,1875
"F_230";2,755
"F_231";7,76
"F_232";3,795
"F_233";5,535
"F_234";2,385
"F_235";6,235
"F_236";2,43
"F_237";1,76333333333333
"F_238";2,99916666666667
"F_239";2,8025
"F_240";1,3975
"F_241";1,235
"F_242";1,575
"F_243";1,3975
"F_244";3,3075
"F_245";2,79583333333333
"F_246";4,25833333333333
"F_247";2,21
"F_248";1,68416666666667
"F_249";5,53333333333333
"F_250";2,52083333333333
"F_251";1,2025
"F_252";0,4025
"F_253";8,085
"F_254";4,5625
"F_255";2,80333333333333
"F_256";2,66
"F_257";2,70666666666667
"F_258";6,815
"F_259";5,60333333333333
"F_260";1,46916666666667
"F_261";5,005
"F_262";2,295
"F_263";3,255
"F_264";1,53333333333333
"F_265";1,07666666666667
"F_266";6,4525
"F_267";1,64833333333333
"F_268";1,08
"F_269";7,0525
"F_270";5,945
"F_271";7,6
"F_272";4,5
"F_273";7,36
"F_274";2,38333333333333
"F_275";8,085
"F_276";2,80333333333333
"F_277";4,93333333333333
"F_278";9,3625
"F_279";7,0525
"F_280";1,65
"F_281";3,20333333333333
"F_282";6,08166666666667
"F_283";0,48
"F_284";5,06916666666667
"F_285";5,1975
"F_286";1,365
"F_287";3,62666666666667
"F_288";6,45
"F_289";4,49166666666667
"F_290";4,68
"F_291";4,62333333333333
"F_292";3,96666666666667
"F_293";0,3325
"F_294";0,88
"F_295";3,79666666666667
"F_296";3,51333333333333
"F_297";1,26666666666667
"F_298";5,94833333333333
"F_299";8,16666666666667
"F_300";0,140833333333333
"F_301";0,5
"F_302";5,74
"F_303";7,285
"F_304";4,0825
"F_305";5,87916666666667
"F_306";0,27
"F_307";9,35
"F_308";0,676666666666667
"F_309";3,15
"F_310";2,55666666666667
"F_311";1,3975
"F_312";3,8525
"F_313";0,240833333333333
"F_314";1,65
"F_315";6,09
"F_316";8,24833333333333
"F_317";2,295
"F_318";4,5625
"F_319";0,54
"F_320";5,81
"F_321";1,2675
"F_322";5,7375
"F_323";1,4
"F_324";0,933333333333333
"F_325";0,48
"F_326";2,00083333333333
"F_327";0,991666666666667
"F_328";1,88
"F_329";3,36
"F_330";1,505
"F_331";0,35
"F_332";8,925
"F_333";4,38
"F_334";0,283333333333333
"F_335";3,90833333333333
"F_336";1,80166666666667
"F_337";3,96416666666667
"F_338";4,08333333333333
"F_339";7,13
"F_340";3,79666666666667
"F_341";0,46
"F_342";9,99166666666667
"F_343";6,0175
"F_344";0,853333333333333
"F_345";7,67916666666667
"F_346";1,26666666666667
"F_347";2,8025
"F_348";4,5
"F_349";1,26416666666667
"F_350";0,7
"F_351";4,14166666666667
"F_352";1,23
"F_353";1,33
"F_354";3,62916666666667
"F_355";0,676666666666667
"F_356";2,51333333333333
"F_357";1,17166666666667
"F_358";1,84083333333333
"F_359";0,963333333333333
"F_360";7,59833333333333
"F_361";0,9625
"F_362";1,46916666666667
"F_363";1,2
"F_364";0,963333333333333
"F_365";5,88
"F_366";2,21
"F_367";5,74083333333333
"F_368";1,505
"F_369";1,47
"F_370";3,10083333333333
"F_371";3,96666666666667
"F_372";2,16666666666667
"F_373";1,88
"F_374";4,5625
"F_375";3,62916666666667
"F_376";8,415
"F_377";3,04833333333333
"F_378";2,47333333333333
"F_379";8,49333333333333
"F_380";4,07583333333333
"F_381";6,3075
"F_382";5,94833333333333
"F_383";4,255
"F_384";1,02
"F_385";5,4
"F_386";6,09166666666667
"F_387";3,74083333333333
"F_388";1,23333333333333
"F_389";2,475
"F_390";1,7625
"F_391";4,6875
"F_392";1,02
"F_393";1,65
"F_394";9,00583333333333
"F_395";1,6125
"F_396";2,8
"F_397";8,58333333333333
"F_398";4,08333333333333
"F_399";5,07
"F_400";3,25333333333333
"F_401";7,05333333333333
"F_402";4,25
"F_403";0,541666666666667
"F_404";1,92
"F_405";1,3975
"F_406";2,29166666666667
"F_407";3,36
"F_408";0,348333333333333
"F_409";3,46666666666667
"F_410";0,421666666666667
"F_411";0,498333333333333
"F_412";4,44083333333333
"F_413";0,27
"F_414";2,0825
"F_415";0,749166666666667
"F_416";4,32
"F_417";4,4375
"F_418";8
"F_419";1,2025
"F_420";0,6075
"F_421";3,255
"F_422";3,15166666666667
"F_423";7,28
"F_424";4,43333333333333
"F_425";3,15166666666667
"F_426";3,10083333333333
"F_427";2,9
"F_428";1,91916666666667
"F_429";0,6075
"F_430";2,56666666666667
"F_431";0,479166666666667
"F_432";0,991666666666667
"F_433";7,125
"F_434";5,26166666666667
"F_435";4,87666666666667
"F_436";0,749166666666667
"F_437";2,125
"F_438";3,91
"F_439";3,15166666666667
"F_440";0,54
"F_441";4,025
"F_442";3,30666666666667
"F_443";2,08333333333333
"F_444";5,66666666666667
"F_445";0,285
"F_446";4,025
"F_447";1,9975
"F_448";1,3
"F_449";5,20083333333333
"F_450";2,52
"F_451";3,30666666666667
"F_452";2,38333333333333
"F_453";2,205
"F_454";2,85
"F_455";1,955
"F_456";7,91666666666667
"F_457";4,31666666666667
"F_458";3,36
"F_459";3,36
"F_460";4,50166666666667
"F_461";2,38
"F_462";11,7
"F_463";5,1975
"F_464";4,50166666666667
"F_465";7,84
"F_466";2,43
"F_467";1,235
"F_468";1,7625
"F_469";4,5625
"F_470";8,24833333333333
"F_471";5,4
"F_472";1,14
"F_473";1,235
"F_474";0,826666666666667
"F_475";6,16
"F_476";4,625
"F_477";1,96
"F_478";1,87833333333333
"F_479";5,06916666666667
"F_480";3,30416666666667
"F_481";1,80166666666667
"F_482";3,25
"F_483";2,56666666666667
"F_484";1,14083333333333
"F_485";1,40083333333333
"F_486";3,96666666666667
"F_487";5,06916666666667
"F_488";0,825
"F_489";0,775
"F_490";4,94083333333333
"F_491";1,17166666666667
"F_492";1,80166666666667
"F_493";5,67
"F_494";5,33333333333333
"F_495";1,76
"F_496";4,94083333333333
"F_497";4,87666666666667
"F_498";1,3325
"F_499";2,475
"F_500";1,84083333333333
"F_501";5,94833333333333
"F_502";1,07916666666667
"F_503";3,85333333333333
"F_504";4,0825
"F_505";9,99
"F_506";3
"F_507";5,00333333333333
"F_508";2,80333333333333
"F_509";1,36666666666667
"F_510";3,255
"F_511";1,0175
"F_512";5,53
"F_513";3,05
"F_514";1,57666666666667
"F_515";0,991666666666667
"F_516";1,88
"F_517";3,575
"F_518";7,84083333333333
"F_519";2,2525
"F_520";8,6625
"F_521";1,6125
"F_522";1,65
"F_523";4,0825
"F_524";5,26666666666667
"F_525";2,34083333333333
"F_526";1,61
"F_527";1,68
"F_528";0,1875
"F_529";1,2675
"F_530";0,725
"F_531";7,13
"F_532";6,6
"F_533";1,575
"F_534";3,685
"F_535";4,2
"F_536";5,53333333333333
"F_537";1,68666666666667
"F_538";0,800833333333333
"F_539";6,74916666666667
"F_540";3,905
"F_541";8,08333333333333
"F_542";2,94833333333333
"F_543";6,1625
"F_544";2,125
"F_545";2,29666666666667
"F_546";2,04
"F_547";1,46916666666667
"F_548";4,14166666666667
"F_549";4,26
"F_550";1,4
"F_551";1,2675
"F_552";0,991666666666667
"F_553";6,9
"F_554";1,95833333333333
"F_555";0,826666666666667
"F_556";7,755
"F_557";8,84
"F_558";5,00333333333333
"F_559";0,749166666666667
"F_560";1,72333333333333
"F_561";11,7975
"F_562";2,61
"F_563";3,46666666666667
"F_564";1,68666666666667
"F_565";0,775
"F_566";1,14083333333333
"F_567";1,84
"F_568";5,26666666666667
"F_569";1,91916666666667
"F_570";2,16666666666667
"F_571";3,46666666666667
"F_572";11,1116666666667
"F_573";5,005
"F_574";4,08
"F_575";0,285
"F_576";2,00083333333333
"F_577";3,91
"F_578";3,96416666666667
"F_579";1,65
"F_580";0,935
"F_581";1,57666666666667
"F_582";0,75
"F_583";4,025
"F_584";7,19416666666667
"F_585";6,6
"F_586";2,6125
"F_587";1,04833333333333
"F_588";4,87666666666667
"F_589";1,68666666666667
"F_590";2,8
"F_591";2,385
"F_592";4,625
"F_593";1,6875
"F_594";5,005
"F_595";1,6125
"F_596";3,57333333333333
"F_597";2,16416666666667
"F_598";1,5
"F_599";6,825
"F_600";4,875
"F_601";2,29666666666667
"F_602";0,826666666666667
"F_603";7,28
"F_604";1,84
"F_605";2,20833333333333
"F_606";2,04166666666667
"F_607";6,3075
"F_608";4,31666666666667
"F_609";1,07916666666667
"F_610";4,94
"F_611";4,38
"F_612";1,46916666666667
"F_613";8,3325
"F_614";1,75583333333333
"F_615";0,723333333333333
"F_616";3,41
"F_617";3,74083333333333
"F_618";2,04166666666667
"F_619";2,38333333333333
"F_620";4,25833333333333
"F_621";1,8
"F_622";2,04166666666667
"F_623";2,7075
"F_624";1,80166666666667
"F_625";4,2
"F_626";1,17166666666667
"F_627";3,36
"F_628";0,7
"F_629";6,525
"F_630";3,91
"F_631";1,47
"F_632";6,45
"F_633";0,63
"F_634";1,235
"F_635";2,29666666666667
"F_636";1,91666666666667
"F_637";1,10833333333333
"F_638";1,3
"F_639";1,47
"F_640";6,665
"F_641";2,85
"F_642";7,2
"F_643";1,505
"F_644";5,81
"F_645";1,80166666666667
"F_646";2,80333333333333
"F_647";4,02
"F_648";0,52
"F_649";4,875
"F_650";1,20333333333333
"F_651";6,60083333333333
"F_652";1,96
"F_653";5,8
"F_654";2,56666666666667
"F_655";3,3075
"F_656";7,20666666666667
"F_657";1,02083333333333
"F_658";3,91
"F_659";0,541666666666667
"F_660";1,54
"F_661";3,85
"F_662";1,23333333333333
"F_663";2,66
"F_664";2,755
"F_665";8,66666666666667
"F_666";2,85
"F_667";4,8125
"F_668";5,265
"F_669";1,0725
"F_670";5,67
"F_671";0,991666666666667
"F_672";8,30333333333333
"F_673";0,653333333333333
"F_674";1,46916666666667
"F_675";1,92
"F_676";3,62666666666667
"F_677";2,0825
"F_678";6,0175
"F_679";7,52083333333333
"F_680";0,906666666666667
"F_681";2,5175
"F_682";1,33
"F_683";0,9625
"F_684";4,94083333333333
"F_685";6,4525
"F_686";4,32
"F_687";3,15166666666667
"F_688";1,96
"F_689";3,08
"F_690";3,10083333333333
"F_691";7,59833333333333
"F_692";3,255
"F_693";2,21
"F_694";9,275
"F_695";2,385
"F_696";1,17166666666667
"F_697";8,92666666666667
"F_698";7,66666666666667
"F_699";0,991666666666667
"F_700";2,70666666666667
"F_701";2,2525
"F_702";1,6125
"F_703";1,29833333333333
"F_704";8,40666666666667
"F_705";2,85166666666667
"F_706";5,06916666666667
"F_707";4,68666666666667
"F_708";2,08333333333333
"F_709";1,23333333333333
"F_710";0,700833333333333
"F_711";1,2025
"F_712";3,74
"F_713";4,875
"F_714";1,10833333333333
"F_715";3,68333333333333
"F_716";1,14083333333333
"F_717";3,62666666666667
"F_718";3,4125
"F_719";0,541666666666667
"F_720";0,99
"F_721";4,8125
"F_722";2,61333333333333
"F_723";2,21
"F_724";1,10833333333333
"F_725";6,82333333333333
"F_726";2,04166666666667
"F_727";1,80166666666667
"F_728";0,628333333333333
"F_729";1,16666666666667
"F_730";5,39
"F_731";1,88
"F_732";7,28
"F_733";2,38333333333333
"F_734";3,46666666666667
"F_735";2,1675
"F_736";1,26666666666667
"F_737";2,385
"F_738";1,46916666666667
"F_739";10,5466666666667
"F_740";5,46416666666667
"F_741";4,56
"F_742";4,02
"F_743";3,79166666666667
"F_744";1,14083333333333
"F_745";5,46666666666667
"F_746";9,45166666666667
"F_747";5,06916666666667
"F_748";1,11
"F_749";5,535
"F_750";3,41333333333333
"F_751";3,2025
"F_752";1,14
"F_753";5,13
"F_754";1,235
"F_755";8,08333333333333
"F_756";3,575
"F_757";1,61
"F_758";4,49666666666667
"F_759";0,7
"F_760";3,905
"F_761";0,421666666666667
"F_762";4,31916666666667
"F_763";1,11
"F_764";1,435
"F_765";1,6875
"F_766";6,82
"F_767";6,38
"F_768";0,853333333333333
"F_769";0,773333333333333
"F_770";1,76
"F_771";1,7625
"F_772";1,84083333333333
"F_773";1,50333333333333
"F_774";2,12333333333333
"F_775";3,57333333333333
"F_776";0,88
"F_777";2,80333333333333
"F_778";0,935
"F_779";1,96
"F_780";1,80166666666667
"F_781";4,30666666666667
"F_782";0,675
"F_783";1,725
"F_784";1,02
"F_785";2,34083333333333
"F_786";5,6
"F_787";3,91
"F_788";1,47
"F_789";3,045
"F_790";3,57333333333333
"F_791";3,15
"F_792";5,7375
"F_793";1,80166666666667
"F_794";0,8525
"F_795";2,04
"F_796";6,60083333333333
"F_797";5
"F_798";4,2
"F_799";1,47
"F_800";3,35
"F_801";1,07916666666667
"F_802";7,20666666666667
"F_803";0,6975
"F_804";0,403333333333333
"F_805";6,09
"F_806";1,72
"F_807";9,075
"F_808";1,2025
"F_809";3,255
"F_810";6,30416666666667
"F_811";2,85166666666667
"F_812";6,825
"F_813";0,935
"F_814";1,725
"F_815";3,04833333333333
"F_816";4,38
"F_817";1,20333333333333
"F_818";1,6875
"F_819";5,1975
"F_820";5,06916666666667
"F_821";1,2025
"F_822";1,72333333333333
"F_823";1,57666666666667
"F_824";1,84
"F_825";1,26666666666667
"F_826";5,67
"F_827";7,52083333333333
"F_828";6,74666666666667
"F_829";3,85333333333333
"F_830";1,7625
"F_831";1,33333333333333
"F_832";2,475
"F_833";2,12333333333333
"F_834";0,725
"F_835";5,00333333333333
"F_836";5,945
"F_837";4,31916666666667
"F_838";1,6125
"F_839";0,93
"F_840";3,04833333333333
"F_841";2,16666666666667
"F_842";0,520833333333333
"F_843";3,25333333333333
"F_844";2,42916666666667
"F_845";3,2025
"F_846";7,20666666666667
"F_847";4,87166666666667
"F_848";5,95
"F_849";2,38333333333333
"F_850";1,365
"F_851";1,3325
"F_852";1,8
"F_853";3,0975
"F_854";1,65
"F_855";5,67
"F_856";3,795
"F_857";3,46666666666667
"F_858";0,826666666666667
"F_859";2,29666666666667
"F_860";2,85166666666667
"F_861";2,85
"F_862";1,65
"F_863";8,3325
"F_864";3,46666666666667
"F_865";1,7625
"F_866";0,285
"F_867";3,57333333333333
"F_868";1,9975
"F_869";4,255
"F_870";4,1975
"F_871";5,06916666666667
"F_872";0,366666666666667
"F_873";1,08
"F_874";2,2525
"F_875";3,20333333333333
"F_876";6,37833333333333
"F_877";4,26
"F_878";6,375
"F_879";1,43333333333333
"F_880";1,29833333333333
"F_881";2,755
"F_882";1,2675
"F_883";0,6525
"F_884";1,84083333333333
"F_885";4,26
"F_886";0,333333333333333
"F_887";0,11
"F_888";6,23
"F_889";2,70416666666667
"F_890";5,46666666666667
"F_891";8,58333333333333
"F_892";3,575
"F_893";9,3625
"F_894";3,465
"F_895";2,85166666666667
"F_896";3,68333333333333
"F_897";5,4675
"F_898";1,10833333333333
"F_899";6,02083333333333
"F_900";7,04583333333333
"F_901";0,88
"F_902";1,3325
"F_903";3,52
"F_904";5,95
"F_905";2,21
"F_906";1,505
"F_907";2
"F_908";8
"F_909";8,415
"F_910";4,0825
"F_911";2,6125
"F_912";0,7
"F_913";1,235
"F_914";6,4525
"F_915";6,02
"F_916";5,67
"F_917";7,13
"F_918";1,91916666666667
"F_919";2,38333333333333
"F_920";0,46
"F_921";9,71916666666667
"F_922";5,74
"F_923";1,80166666666667
"F_924";4,68416666666667
"F_925";3,2025
"F_926";1,4
"F_927";1,7625
"F_928";0,88
"F_929";2,56666666666667
"F_930";1,91916666666667
"F_931";8,41666666666667
"F_932";1,505
"F_933";5,88
"F_934";6,60083333333333
"F_935";0,935
"F_936";1,235
"F_937";0,800833333333333
"F_938";5,46416666666667
"F_939";1,2025
"F_940";1,54
"F_941";1,235
"F_942";1,2025
"F_943";3,84583333333333
"F_944";3,46166666666667
"F_945";4,25
"F_946";4,73333333333333
"F_947";5,53
"F_948";4,94
"F_949";0,935
"F_950";2,04166666666667
"F_951";5,265
"F_952";5,80833333333333
"F_953";5,8
"F_954";1,875
"F_955";7,5175
"F_956";2,03666666666667
"F_957";1,54083333333333
"F_958";3,15166666666667
"F_959";3,7375
"F_960";3,74083333333333
"F_961";2,475
"F_962";6,0175
"F_963";3,905
"F_964";1,4
"F_965";2,52083333333333
"F_966";1,68666666666667
"F_967";3,0875
"F_968";0,46
"F_969";1,17166666666667
"F_970";0,240833333333333
"F_971";1,20333333333333
"F_972";5,6025
"F_973";4,38
"F_974";1,2675
"F_975";4,235
"F_976";3,74
"F_977";3,1
"F_978";3,25333333333333
"F_979";2,79583333333333
"F_980";1,26666666666667
"F_981";3,15
"F_982";7,28
"F_983";0,46
"F_984";2,2525
"F_985";1,10833333333333
"F_986";1,14083333333333
"F_987";5,6
"F_988";3,96666666666667
"F_989";0,563333333333333
"F_990";3,20333333333333
"F_991";3,7275
"F_992";6,30666666666667
"F_993";3,30416666666667
"F_994";3,68333333333333
"F_995";8,575
"F_996";0,853333333333333
"F_997";6,67
"F_998";2,94833333333333
"F_999";4,62333333333333
"F_1000";3,79666666666667
