"Foraging";"In";"Out";"InLink";"OutLink";"Betweeness";"Closeness"
"F_1";110;97;102;90;2211,15344952122;0,680208806173401
"F_2";46;48;47;49;645,04530560661;0,618767420253948
"F_3";55;64;56;64;1028,49649944162;0,638134781220059
"F_4";40;43;39;41;578,211243639088;0,643133047210304
"F_5";64;61;64;64;1240,56332347123;0,665630205441424
"F_6";39;37;40;38;215,880584980598;0,584694922694238
"F_7";40;49;42;50;379,123280210531;0,581377303588748
"F_8";81;84;79;79;1623,1142983406;0,69238766316276
"F_9";54;57;58;61;1505,05650807768;0,669234634064651
"F_10";61;53;60;53;536,542753114734;0,627315541601256
"F_11";28;44;26;41;351,723063656493;0,585151559525552
"F_12";102;95;94;92;7484,98486559063;0,77132930124823
"F_13";104;79;97;74;2669,74785807614;0,710652676507206
"F_14";84;84;87;83;1780,27437235255;0,683310533515734
"F_15";44;38;43;34;251,3281711746;0,603443068559346
"F_16";62;69;60;66;1270,39085669342;0,669720670391068
"F_17";33;35;37;35;200,709683092781;0,584125127905275
"F_18";18;18;20;19;41,9676431997642;0,536808167651801
"F_19";52;65;57;64;889,370579319065;0,67155901630161
"F_20";34;27;39;28;168,752449555122;0,58281880499781
"F_21";49;50;50;53;878,363310196774;0,629126213592234
"F_22";82;67;87;74;1748,20054700938;0,670469798657721
"F_23";63;69;61;70;1458,19053880308;0,6604594788166
"F_24";73;75;75;74;939,265781481568;0,659551056338031
"F_25";84;83;89;85;2716,19376507114;0,672463117742751
"F_26";70;71;70;72;1630,76959745588;0,647160440509611
"F_27";69;67;68;72;922,143544535721;0,61476923076923
"F_28";89;99;89;97;2924,97066535772;0,696733697547368
"F_29";46;49;46;52;391,765294257987;0,611539050145384
"F_30";56;53;54;50;1899,01483291175;0,665778073975349
"F_31";59;68;65;66;1679,44107055368;0,700806734479137
"F_32";71;65;72;60;1842,45939788402;0,685498627630381
"F_33";81;77;91;77;2249,27115004755;0,687070151306744
"F_34";92;102;90;99;2925,58352694327;0,699131043331196
"F_35";41;38;41;35;452,279203162647;0,606496003237882
"F_36";83;79;86;78;2042,04134898823;0,668637403089967
"F_37";34;33;37;33;209,969072828471;0,578515587298522
"F_38";75;75;74;75;1197,4769856115;0,641652839479742
"F_39";49;50;48;50;449,899608996262;0,631678785962695
"F_40";40;48;41;48;808,107305866666;0,645175178946239
"F_41";25;28;26;29;108,880989014929;0,549379038540855
"F_42";76;67;77;69;2004,4243606905;0,671070309001346
"F_43";41;37;41;41;315,479695868462;0,61203859702864
"F_44";35;38;34;41;393,294692328891;0,600872136735
"F_45";46;51;47;51;810,211176633934;0,651061749850651
"F_46";40;40;41;39;474,145955960296;0,616096207215541
"F_47";61;52;65;53;808,353991525037;0,644273660450371
"F_48";57;51;55;52;480,291389522012;0,613887750921752
"F_49";35;32;38;37;166,377098980545;0,581969998543618
"F_50";55;55;60;62;1017,45134222144;0,642374879434147
"F_51";76;76;74;70;1354,26710990548;0,679322264407553
"F_52";58;51;58;48;763,125903971285;0,633347421808962
"F_53";88;85;95;89;4270,65867178657;0,7050935184096
"F_54";105;104;101;100;5478,92582812699;0,742935052057512
"F_55";74;70;73;68;1393,54580568569;0,67234997195738
"F_56";61;59;56;59;1113,20879466288;0,641172380595819
"F_57";75;81;73;86;1843,54565260032;0,685106869356501
"F_58";82;88;87;95;2489,45600605233;0,680942913944904
"F_59";57;56;62;59;867,53272796954;0,642926096749976
"F_60";53;55;50;54;994,244932309351;0,639940212459298
"F_61";42;44;46;45;653,377266004459;0,612977450529222
"F_62";44;46;43;47;743,681205092088;0,638848920863312
"F_63";62;66;69;71;1361,19664611354;0,62843363388551
"F_64";86;69;91;73;1886,57289236716;0,678591644967737
"F_65";92;96;94;94;3292,231470085;0,711961040503626
"F_66";62;55;64;58;1102,47823508914;0,654295382600155
"F_67";87;81;89;81;3889,36952581908;0,727780475959207
"F_68";14;17;16;18;76,4235219817285;0,51699154735208
"F_69";78;69;76;68;1969,44541110928;0,677211614506837
"F_70";39;40;41;38;626,964527226534;0,664781234403598
"F_71";59;57;60;59;1271,20200867176;0,648666197716579
"F_72";48;44;48;43;442,751468511388;0,623012160898035
"F_73";61;65;60;68;769,853508985249;0,645939975214184
"F_74";53;55;54;52;665,401394591701;0,629588782101781
"F_75";79;90;80;88;3348,34955060485;0,725139124122917
"F_76";37;39;37;39;269,952086647034;0,610511305764921
"F_77";43;44;43;48;581,76794118449;0,623498205648307
"F_78";55;54;54;54;1106,53652255596;0,660750702750376
"F_79";28;34;29;38;167,775777629914;0,553794983138541
"F_80";41;40;42;41;212,155242994834;0,593700475435815
"F_81";91;101;86;96;3438,63852304879;0,697382198952881
"F_82";58;50;56;50;695,338002003044;0,649685670929982
"F_83";95;99;95;98;2562,98464331477;0,69998832184982
"F_84";61;78;63;78;804,204250670643;0,622300664451826
"F_85";52;51;53;51;461,313423349497;0,606496003237882
"F_86";38;44;40;43;672,400705899049;0,645522588982826
"F_87";45;54;43;56;381,173895317974;0,622623870364599
"F_88";65;57;63;52;1826,14976755408;0,676065869614261
"F_89";102;95;98;100;2239,91489795423;0,699702328839084
"F_90";80;87;87;94;2485,32086470824;0,706381474279655
"F_91";68;72;62;76;1574,73608851409;0,65882611562981
"F_92";36;34;34;31;544,505894653494;0,586841589974544
"F_93";78;79;74;78;2158,84298741062;0,686204922724675
"F_94";36;28;37;29;175,907339494235;0,555437149608488
"F_95";54;53;57;54;531,314505823481;0,611009174311925
"F_96";25;29;27;29;153,27016432611;0,563743240065835
"F_97";116;96;112;97;4775,75326798035;0,717028530414501
"F_98";93;97;87;92;4195,24705957554;0,736544605554192
"F_99";45;44;41;44;343,76012041639;0,614863825203878
"F_100";77;72;80;72;1245,01687273083;0,678169372631106
"F_101";90;86;87;93;1841,81403780335;0,677441229656422
"F_102";43;44;44;42;642,827328980262;0,656984709815318
"F_103";61;55;64;58;1754,90907874443;0,652870057727919
"F_104";47;44;45;45;698,682184880355;0,661772012144634
"F_105";90;81;89;81;2166,47302627346;0,681368648402869
"F_106";79;74;83;73;2152,99404840772;0,673823843516387
"F_107";87;79;81;79;2600,42090840487;0,715402518350546
"F_108";31;33;31;34;185,028486648546;0,594348041646008
"F_109";42;38;42;38;300,500367280336;0,596299243931555
"F_110";50;55;48;54;330,881509994182;0,611289582377236
"F_111";38;41;33;38;296,559130478852;0,620143810459883
"F_112";45;41;50;45;579,908280217851;0,638508655126501
"F_113";64;53;63;57;1239,96723533451;0,663787375415285
"F_114";57;63;56;60;1430,72655540814;0,659043430456296
"F_115";84;85;80;84;3041,15404337103;0,699579831932776
"F_116";65;66;67;68;1095,4242581043;0,653902798232698
"F_117";25;22;25;21;88,593097569409;0,53661593554163
"F_118";74;59;73;57;877,034109589105;0,628466579292267
"F_119";67;63;72;60;950,614518804817;0,65824730946629
"F_120";80;75;80;71;1791,9375109773;0,685420240137222
"F_121";37;37;37;37;398,514543790926;0,616412998765941
"F_122";64;63;63;63;1455,43436443804;0,667111853088486
"F_123";77;68;84;73;1291,50332493225;0,64524463103504
"F_124";77;71;75;70;1458,54215621052;0,659007201363313
"F_125";30;35;32;35;135,09823639327;0,553437052767647
"F_126";85;78;83;83;1965,09247258591;0,699498191154166
"F_127";49;61;53;59;877,14991633336;0,651097110580059
"F_128";67;63;67;63;1119,1487268049;0,662247265495531
"F_129";52;59;52;56;631,450430830525;0,60408163265306
"F_130";70;69;73;65;2826,83613466268;0,70892962743939
"F_131";67;67;62;68;1367,46157501826;0,670357322596884
"F_132";89;96;94;95;2640,67149934827;0,692507654092774
"F_133";70;74;70;75;1236,60726973706;0,655834564254065
"F_134";56;68;54;61;1257,65869051197;0,66217410517013
"F_135";26;18;27;20;33,5151120741492;0,54485955822198
"F_136";88;81;88;83;2865,01080744911;0,719827068572118
"F_137";95;85;95;88;2838,29832339145;0,703934233705229
"F_138";76;75;78;74;1640,80378966312;0,686952037132547
"F_139";57;55;56;56;518,878204921034;0,622042341220423
"F_140";51;48;52;49;663,256169234884;0,598980713500549
"F_141";90;79;84;74;1902,006928906;0,666370205669818
"F_142";49;59;52;64;670,66851611787;0,612101097778911
"F_143";48;44;45;44;460,367695876963;0,614359657664121
"F_144";65;71;64;74;1315,72042645861;0,663383321343591
"F_145";64;65;61;64;1336,29680233506;0,679052905857034
"F_146";45;43;44;42;490,759954374788;0,648666197716576
"F_147";93;87;94;84;3392,63887253294;0,726853816770756
"F_148";72;63;66;59;563,592664373745;0,627315541601255
"F_149";65;60;62;57;1522,28760007613;0,669683257918553
"F_150";46;43;46;45;326,922602780833;0,569853115938583
"F_151";64;60;65;60;866,201192882448;0,651946921905593
"F_152";71;68;71;70;930,979653054837;0,652550215012793
"F_153";75;74;74;76;986,974312874516;0,64172153524972
"F_154";65;72;69;73;1213,24979880767;0,635529873296931
"F_155";91;95;95;97;2540,98091750955;0,699702328839086
"F_156";78;80;79;76;2362,0788717942;0,682843472317159
"F_157";78;77;77;78;2241,82984270117;0,683310533515737
"F_158";87;83;82;80;2172,0091490758;0,700356370859382
"F_159";41;49;45;51;542,569868628025;0,614391143911438
"F_160";51;44;53;44;597,43370013199;0,644308287649148
"F_161";85;93;81;91;2105,45939388164;0,675875288944017
"F_162";43;44;43;45;443,967784912043;0,611539050145385
"F_163";44;40;49;39;972,988277533374;0,646985806033792
"F_164";40;45;43;44;627,229023328739;0,651592564409178
"F_165";57;65;55;65;565,152101515458;0,65576281385045
"F_166";79;78;80;81;1585,59690582991;0,663897657418177
"F_167";70;65;75;71;1904,72764680428;0,662210683312162
"F_168";28;21;30;22;144,856762685847;0,555823442136498
"F_169";38;32;37;30;171,902902255205;0,611289582377237
"F_170";71;74;66;71;2346,69976025773;0,682377049180332
"F_171";71;83;68;83;2707,30218361991;0,699253383107798
"F_172";37;45;40;46;227,020562296102;0,589090909090908
"F_173";39;34;41;34;149,719812605273;0,566005665722379
"F_174";60;69;61;65;730,190012776237;0,634621492853362
"F_175";91;112;88;110;1668,72147164101;0,680247403960735
"F_176";34;32;35;36;106,046045918195;0,565178445146385
"F_177";91;89;94;91;2925,0308399535;0,711116383912687
"F_178";39;36;42;37;486,357890986055;0,616698389834869
"F_179";43;48;43;49;792,310138654798;0,615368820902419
"F_180";27;26;29;27;195,776807004357;0,556752740107746
"F_181";56;58;53;61;1479,16128623583;0,654759954120927
"F_182";73;64;77;67;650,164618337049;0,643927593060107
"F_183";34;34;35;32;116,844223811264;0,582054767916099
"F_184";75;81;78;78;2202,82105315094;0,688135009471331
"F_185";28;43;29;42;168,093675583977;0,576179948091895
"F_186";48;51;47;57;893,400009416674;0,622365278787248
"F_187";31;26;31;28;186,498806527321;0,573012762296256
"F_188";37;40;39;40;396,314586043701;0,634823130692651
"F_189";32;32;31;32;162,926873474367;0,589525448733709
"F_190";64;62;62;63;1060,65014989144;0,698682830166689
"F_191";34;39;36;44;304,17911705246;0,611507855539685
"F_192";64;71;61;69;2671,27084032969;0,690791748300109
"F_193";32;28;31;29;180,534040180557;0,566754916792737
"F_194";24;31;24;31;125,480667824598;0,569203741512747
"F_195";56;76;56;77;1555,5624128224;0,686755270394138
"F_196";111;102;104;102;4209,38438286193;0,734378828718454
"F_197";83;83;84;78;1667,90273082577;0,683388439174554
"F_198";30;36;29;37;345,871763196433;0,602836166147038
"F_199";86;90;86;86;3258,84607867442;0,711200759373521
"F_200";30;28;26;27;200,349742271917;0,600300450676013
"F_201";56;62;55;57;1251,78625003008;0,641000962463909
"F_202";38;36;37;38;319,562572257873;0,590163934426229
"F_203";97;79;101;82;2043,21329319122;0,689084324883602
"F_204";48;44;50;45;762,301562656792;0,630151387720775
"F_205";82;91;87;92;2819,9858118417;0,685146025032867
"F_206";76;69;75;73;2107,80755872435;0,69087136929461
"F_207";79;72;78;70;2294,17449019774;0,674316571042866
"F_208";67;73;68;69;1607,992519119;0,671070309001345
"F_209";59;63;66;69;876,413681766941;0,621075536213863
"F_210";42;35;44;34;312,858458869159;0,599370031498423
"F_211";24;25;23;24;134,205890494124;0,575019186492708
"F_212";47;49;48;53;380,579132504811;0,613196930946291
"F_213";39;38;39;38;208,881664288231;0,575074354792285
"F_214";36;37;39;41;202,315955849285;0,5633723389257
"F_215";29;30;31;30;98,6767381302497;0,574385510996118
"F_216";77;64;71;65;2236,43901858202;0,702861163227022
"F_217";96;109;95;105;4145,54778206411;0,723388848660394
"F_218";21;32;22;33;141,732834867044;0,580729545124253
"F_219";18;12;18;13;24,8362469149241;0,525927875756779
"F_220";62;68;62;63;2072,01323310745;0,675570583262893
"F_221";78;75;80;72;1353,87506660049;0,669496258237464
"F_222";87;76;84;76;1676,98076042131;0,695521002552801
"F_223";60;51;60;55;727,995705854467;0,617619783616691
"F_224";78;91;82;87;2186,68697872394;0,686322780099618
"F_225";20;27;19;26;344,900530166974;0,620625388279149
"F_226";92;95;93;98;6173,01790974403;0,729951896730199
"F_227";67;78;66;76;1511,31678148463;0,679823069071115
"F_228";97;108;98;104;2848,86275900289;0,716257393798174
"F_229";70;74;69;81;1292,65948497539;0,669159921853198
"F_230";53;51;55;49;568,168608943962;0,647649918962725
"F_231";96;92;96;85;2830,28775572697;0,694513643473728
"F_232";66;51;62;47;1287,831254678;0,667297522961316
"F_233";77;76;75;77;1253,31024165282;0,66235703630035
"F_234";50;46;51;45;583,436195447167;0,631645502924286
"F_235";85;83;77;77;2130,2458691881;0,69697674418605
"F_236";39;41;40;43;401,945425693371;0,626790756038902
"F_237";44;42;43;41;590,834535246155;0,632512003376776
"F_238";59;54;61;56;789,695908188198;0,6385086551265
"F_239";44;45;47;46;646,293537744913;0,641309581126628
"F_240";57;53;59;54;744,404594680968;0,638066851181606
"F_241";41;35;38;36;503,317975725717;0,578264434904249
"F_242";94;86;90;77;4853,13563365963;0,737995567594192
"F_243";35;34;37;34;269,816152333243;0,589699444143833
"F_244";60;63;64;65;1224,0642199726;0,688332567753792
"F_245";48;41;51;41;384,849672965372;0,604874110701851
"F_246";67;81;72;90;1281,19453861607;0,663640389725423
"F_247";47;43;47;45;481,845216061838;0,621655258245177
"F_248";101;82;93;78;2929,88340035735;0,704058260409939
"F_249";78;77;83;79;2233,42284399953;0,687858618315355
"F_250";40;48;35;48;488,725638777071;0,617333539317164
"F_251";42;50;43;50;356,632449186166;0,620207977650164
"F_252";35;30;34;31;106,508273630631;0,550666054203032
"F_253";80;71;80;68;1878,85650008439;0,667446133288794
"F_254";43;51;44;51;315,871584760864;0,624537640010419
"F_255";98;103;102;105;1867,18275752667;0,699253383107796
"F_256";55;47;58;49;420,073098245735;0,597607178464605
"F_257";68;65;63;68;488,145032718891;0,64048725757333
"F_258";92;97;89;90;3377,51209753136;0,719222462203029
"F_259";81;87;84;92;3513,48244854236;0,710652676507206
"F_260";28;34;28;36;241,575338655525;0,611944869831546
"F_261";69;70;68;66;1804,58655811256;0,67878376082895
"F_262";50;48;52;52;896,720664795843;0,659333406665939
"F_263";65;72;69;76;1907,98841186546;0,666592526690393
"F_264";47;39;47;39;445,579590035195;0,6310802274163
"F_265";31;29;33;30;96,507665258612;0,554666173136538
"F_266";85;96;87;98;3321,42838679183;0,683388439174557
"F_267";85;93;85;97;3498,40593141826;0,718877428639964
"F_268";24;32;21;31;118,658671517843;0,551527419948472
"F_269";103;110;100;106;3019,31297255093;0,710736941957671
"F_270";69;68;67;67;899,391018823162;0,651946921905593
"F_271";74;79;78;85;1422,50037860204;0,667111853088483
"F_272";86;89;93;85;2536,32583867064;0,693348756506653
"F_273";114;117;108;110;3764,17256477011;0,722342733188722
"F_274";61;46;62;44;842,097022869931;0,607571841265013
"F_275";102;99;95;92;2791,7937616348;0,700315457413252
"F_276";58;55;64;59;1372,1934903198;0,658681318681322
"F_277";85;84;83;89;3174,86902946068;0,709811119663691
"F_278";101;105;96;102;3118,1192532586;0,709181258873642
"F_279";83;73;79;72;1813,3349117254;0,700438212094655
"F_280";30;31;31;31;154,817605323254;0,552111638189103
"F_281";79;82;74;77;1880,81377509095;0,679129843643783
"F_282";90;106;92;104;3060,58755141435;0,703438563548882
"F_283";31;30;31;36;278,702001409021;0,563610719322989
"F_284";95;88;94;81;2288,58521535599;0,685341870569405
"F_285";78;71;84;69;2013,31086656312;0,677824267782428
"F_286";38;40;42;41;204,864331148785;0,59653662420382
"F_287";57;76;59;74;1903,53531776473;0,70097064670799
"F_288";78;83;77;87;2259,6828378192;0,683661248930712
"F_289";84;67;83;72;1100,54167923913;0,66353019316987
"F_290";71;71;72;72;1098,04260121492;0,649439297903463
"F_291";95;95;98;97;4662,73846807581;0,722603978300184
"F_292";73;77;72;79;2905,1250195381;0,712045616535998
"F_293";18;18;18;18;28,5961195667078;0,530959340951369
"F_294";32;31;33;34;167,739608145622;0,569176716361218
"F_295";64;62;70;63;692,17392935028;0,617015801122033
"F_296";59;59;66;60;1072,32282359935;0,668562824159283
"F_297";44;52;46;50;1081,69509211622;0,651663405088068
"F_298";64;68;65;66;1564,42416173705;0,669271996426982
"F_299";92;100;99;102;3418,14932750156;0,701709201592135
"F_300";18;29;21;30;117,180789660752;0,547072514032766
"F_301";79;89;79;89;2674,87297390417;0,692747760762787
"F_302";80;72;82;75;1980,20103728348;0,691110342442067
"F_303";72;68;78;68;2874,28749881912;0,698560689936485
"F_304";62;51;61;56;693,800509102732;0,61844820470491
"F_305";87;76;87;80;1241,575548539;0,653902798232697
"F_306";21;22;23;24;55,5446095369155;0,538520282107723
"F_307";80;88;86;87;2079,08602583077;0,703067268781892
"F_308";38;44;39;45;304,061584949738;0,595499478416372
"F_309";57;61;63;60;702,162986426253;0,639053254437871
"F_310";49;40;48;41;829,869690436844;0,642443729903542
"F_311";34;32;33;36;205,888411789616;0,57551608257321
"F_312";65;64;68;64;1199,27734165177;0,6552610002733
"F_313";26;24;27;26;148,34206237313;0,572356170923847
"F_314";43;51;48;52;377,824921675335;0,604813077039502
"F_315";94;91;98;94;3018,57992570063;0,707006369426754
"F_316";93;97;88;92;2841,04399482519;0,699253383107794
"F_317";61;65;59;68;1846,13906826099;0,67928377153219
"F_318";90;89;88;92;1828,81266503716;0,670582312468537
"F_319";31;29;33;29;143,525066533717;0,569961489088574
"F_320";66;71;72;72;1434,76826514157;0,669683257918554
"F_321";38;50;40;50;625,800384728003;0,618799359933928
"F_322";79;69;75;67;2714,76302375102;0,702655178477234
"F_323";30;33;29;31;203,949028473712;0,565845369583686
"F_324";47;40;45;42;649,882292389827;0,620400558919422
"F_325";29;25;30;27;91,2354292190335;0,5516797054763
"F_326";50;50;52;47;368,86551848356;0,638066851181607
"F_327";27;27;29;26;211,796513816248;0,593113002176923
"F_328";31;37;31;36;150,021655015986;0,570884327825134
"F_329";55;58;59;61;603,686145480301;0,628994175979852
"F_330";23;21;25;25;224,486289089168;0,598084214727598
"F_331";18;14;17;15;60,765684094192;0,555797672585654
"F_332";69;82;73;81;1577,28007062436;0,677211614506837
"F_333";68;78;72;82;1199,59439912608;0,66677790755882
"F_334";25;17;24;16;191,958348961409;0,575875486381322
"F_335";91;80;90;78;2285,08584568208;0,696207677565483
"F_336";57;56;64;57;886,909113373184;0,65074367603952
"F_337";76;71;77;72;1552,9065914005;0,687424737656983
"F_338";75;68;79;68;1565,7352673225;0,669683257918558
"F_339";77;78;75;77;1721,45560995084;0,672500841467526
"F_340";38;42;41;45;603,598406542087;0,604416658263587
"F_341";17;18;18;19;45,8763369098508;0,531430091320153
"F_342";97;104;102;106;2373,46305576913;0,686204922724672
"F_343";87;75;87;74;1795,97290612937;0,668339187155045
"F_344";33;44;31;44;1041,6625277093;0,621687496758804
"F_345";87;86;83;89;1814,2565794899;0,683154775472991
"F_346";29;35;28;33;611,864399811168;0,609115390478126
"F_347";54;53;57;53;380,840080835615;0,595026554822057
"F_348";91;88;86;84;3617,1090437602;0,711961040503628
"F_349";66;61;69;63;1260,45531711003;0,668152937242227
"F_350";34;32;33;30;211,031304642555;0,58281880499781
"F_351";83;85;81;87;1818,61969217767;0,692267713807242
"F_352";40;31;43;34;344,625183812362;0,610107384599724
"F_353";44;52;45;51;518,052400942438;0,64106951871658
"F_354";68;69;69;66;1176,70689161534;0,652372659991295
"F_355";16;17;16;18;36,7458063780045;0,525236593059938
"F_356";39;46;42;50;278,273185121399;0,572356170923847
"F_357";36;29;39;30;103,543702463817;0,556261890399517
"F_358";61;57;61;55;704,338775440786;0,639564660691423
"F_359";33;46;35;47;165,036380259656;0,593524111298147
"F_360";114;114;106;109;6313,38821188607;0,750187734668338
"F_361";44;48;43;45;629,759460073666;0,632145117063912
"F_362";36;36;37;38;365,421767249193;0,596982222000895
"F_363";28;33;27;32;243,553298956555;0,599669851433143
"F_364";90;105;82;106;3062,56999183545;0,705259442287331
"F_365";77;84;77;83;1605,41316308534;0,68175614194723
"F_366";47;52;42;49;643,740325731841;0,631146677898285
"F_367";84;77;84;75;2071,69096391563;0,698805013115712
"F_368";32;33;36;36;162,158700611153;0,558829013611784
"F_369";42;35;42;38;263,707186979597;0,585895117540686
"F_370";61;60;55;60;1256,69338721739;0,659514771414427
"F_371";71;60;68;64;943,403836374046;0,643512802619574
"F_372";53;46;52;48;716,125479352172;0,655081967213119
"F_373";38;27;38;30;102,312684287807;0,557659208261617
"F_374";75;72;81;75;1534,50582279035;0,653119041133208
"F_375";62;65;58;63;1055,70751302281;0,658572762731419
"F_376";73;82;68;81;2742,05804663416;0,710779082177165
"F_377";87;87;92;91;1732,9245514334;0,679784519421606
"F_378";46;39;48;40;349,776155785885;0,62017589239524
"F_379";99;94;94;89;3907,55179535481;0,720259552992075
"F_380";68;77;65;73;1786,35372391907;0,690990835206644
"F_381";101;98;105;103;2415,29382682627;0,692547660311961
"F_382";71;84;70;90;1704,5121544818;0,66800401203611
"F_383";69;68;69;68;801,374761443129;0,625482625482624
"F_384";39;45;42;45;309,743889117777;0,587906429307046
"F_385";87;84;82;82;1476,39962542071;0,685381053113033
"F_386";92;89;91;87;4133,16431335807;0,715402518350541
"F_387";63;68;64;67;1303,68177400481;0,649263431542462
"F_388";41;47;41;46;329,678372628056;0,57985875979491
"F_389";47;58;50;62;461,812509585668;0,626954657183201
"F_390";48;53;52;52;410,053326104731;0,621784232365145
"F_391";90;93;86;91;2805,1311509611;0,710357904716761
"F_392";38;42;41;42;464,732084570298;0,607141048366674
"F_393";44;44;46;44;328,067037341428;0,573259372609027
"F_394";100;99;99;96;4986,22033543225;0,73110934927121
"F_395";61;59;58;56;489,369844735444;0,639701173959446
"F_396";52;47;53;50;722,389657316284;0,64082963596515
"F_397";94;104;89;101;4013,60297205083;0,730040801412829
"F_398";79;81;78;84;2833,42866543398;0,682726806765763
"F_399";85;73;81;70;2272,76764314887;0,685263518920774
"F_400";52;46;53;49;691,299682624382;0,621204269872526
"F_401";81;76;84;76;1874,25272211659;0,683778234086245
"F_402";94;77;92;77;2377,19987206485;0,703892901180205
"F_403";24;24;23;24;89,3752377482177;0,553462603878116
"F_404";46;38;48;41;427,990709374556;0,595262922687322
"F_405";32;30;33;29;105,029825939637;0,574220433970397
"F_406";46;51;44;49;512,078130011068;0,630914162412505
"F_407";61;56;62;56;986,517663560316;0,643167551907293
"F_408";20;21;21;23;47,3341392191415;0,535537190082645
"F_409";55;58;54;57;1040,84725422013;0,604020758804856
"F_410";19;21;18;21;38,3828635445015;0,530465949820789
"F_411";17;15;18;16;56,7149574699125;0,518826278888601
"F_412";66;73;69;74;2633,95989456731;0,669945233039009
"F_413";28;27;26;29;260,765166770291;0,555874988407678
"F_414";37;36;42;38;271,622141226228;0,580223609699433
"F_415";27;23;27;24;79,5592651026458;0,547222349020861
"F_416";66;67;67;66;1059,27211164964;0,647894935956334
"F_417";56;59;55;57;751,675537732773;0,635833244934762
"F_418";83;82;82;84;1687,32394940468;0,674885998986661
"F_419";46;39;45;37;291,355024056146;0,622850314334702
"F_420";26;27;30;29;189,144087865238;0,564672633066414
"F_421";70;63;71;65;1351,01315900475;0,68237704918033
"F_422";97;104;92;97;4491,07466957921;0,730663741086127
"F_423";69;70;68;73;1833,55193323294;0,683466362599778
"F_424";68;69;67;66;945,496002763921;0,655978112175104
"F_425";54;65;55;67;1861,12871073444;0,659442213543105
"F_426";63;64;64;70;1878,77938724788;0,6856554564173
"F_427";71;68;71;73;1273,09567586644;0,660714285714288
"F_428";50;49;52;49;573,771756518473;0,629060187857482
"F_429";19;21;20;23;102,878453668253;0,558308494783904
"F_430";29;31;30;33;123,302976639123;0,60054102795311
"F_431";35;45;36;46;737,157098474786;0,654223968565821
"F_432";34;36;34;39;324,078779736556;0,579914860681113
"F_433";86;90;89;90;2320,22076223273;0,680363223609535
"F_434";80;79;77;84;1667,74930304402;0,671671896010759
"F_435";80;84;85;82;2295,36456568381;0,683973298339708
"F_436";25;21;26;22;168,696244577651;0,569880205362235
"F_437";42;44;40;40;341,438565390962;0,593994648696858
"F_438";80;81;81;84;2574,65795388294;0,699049507259903
"F_439";52;51;55;49;415,591116899607;0,608991617983235
"F_440";20;26;25;28;134,037286108795;0,539781169796029
"F_441";61;67;62;64;734,666954469741;0,638100814392932
"F_442";53;53;53;55;706,152227148582;0,64821023034498
"F_443";67;76;64;76;1611,13742003738;0,673899600876952
"F_444";82;77;92;77;2154,22369746572;0,689361702127661
"F_445";75;88;75;89;2149,7947938573;0,700356370859384
"F_446";53;67;56;66;698,666891644596;0,637083488335017
"F_447";50;61;54;65;718,965064837795;0,59364167574527
"F_448";35;42;35;44;154,543302441947;0,586095629216777
"F_449";90;99;90;101;2541,12401851316;0,698438592402704
"F_450";55;64;56;66;787,418096541978;0,656301324865874
"F_451";44;32;43;30;299,452138487318;0,604508093389137
"F_452";64;65;61;61;2379,86948111057;0,681368648402869
"F_453";55;52;58;54;594,531285713459;0,62669245647969
"F_454";106;87;111;92;1683,16795500788;0,685341870569405
"F_455";52;54;57;54;795,395778329609;0,660459478816598
"F_456";103;91;100;95;5021,81534527249;0,732942039618492
"F_457";77;64;77;60;1696,79392722241;0,663530193169869
"F_458";50;44;51;41;350,481000446425;0,603716573500528
"F_459";73;84;75;87;826,605792651038;0,636846578835529
"F_460";88;92;88;94;2551,68485376627;0,696005573618209
"F_461";45;44;46;46;671,958951611722;0,621784232365146
"F_462";92;108;92;102;2049,57915621731;0,695158016816471
"F_463";68;63;68;64;1321,15280272434;0,659152141639636
"F_464";66;63;69;64;1291,69274435141;0,670394810423895
"F_465";102;86;99;84;2489,15375931041;0,694111516414801
"F_466";55;55;55;55;653,026750829175;0,614296694850114
"F_467";34;31;34;32;106,376354084866;0,554794520547945
"F_468";51;52;55;55;460,526038191162;0,601384569077956
"F_469";71;85;67;87;1313,90890120997;0,675000000000002
"F_470";87;84;88;85;1614,43757388553;0,649157957437593
"F_471";85;82;83;88;1990,87176396153;0,671784813673304
"F_472";28;31;29;32;97,1833789299046;0,553488157347985
"F_473";21;34;22;34;92,5544190833523;0,575101942911968
"F_474";24;27;24;27;201,575733906552;0,556339335437163
"F_475";93;93;87;88;1816,07880060266;0,674696082845566
"F_476";61;48;63;50;319,741284836196;0,615337234370187
"F_477";35;38;33;38;246,221854084025;0,595884282731881
"F_478";45;61;44;61;1225,98637205252;0,66397119911382
"F_479";79;73;80;72;2424,203185154;0,686283489809942
"F_480";53;47;51;50;395,188153670785;0,63762565820967
"F_481";29;27;29;26;329,579451310717;0,576789838337182
"F_482";63;54;60;58;695,150952041579;0,631878557874763
"F_483";30;35;33;36;162,82183979222;0,562922614575506
"F_484";46;44;46;44;384,639655803853;0,622656209421909
"F_485";50;53;52;53;611,859442040417;0,634319276152178
"F_486";64;64;64;71;1467,61990135523;0,662759840778419
"F_487";79;82;83;86;1568,65854493144;0,671333370666967
"F_488";71;70;70;74;1868,87199754326;0,667780748663102
"F_489";23;26;24;25;130,956993885769;0,557348086847365
"F_490";79;73;76;73;1371,33389464216;0,650249511824692
"F_491";39;39;38;39;392,580456027947;0,61351074718526
"F_492";34;36;38;40;310,774842628516;0,592555978448913
"F_493";68;70;71;65;1442,80556099549;0,647300215982723
"F_494";65;62;62;59;868,325653455238;0,636136906341206
"F_495";54;52;56;53;1227,2151053096;0,674430379746842
"F_496";72;60;70;57;1320,67754565332;0,646846166297956
"F_497";64;68;68;63;1384,52105169242;0,682105263157901
"F_498";41;46;40;47;669,320117193084;0,626659696811291
"F_499";39;39;42;40;164,266746829078;0,565471698113207
"F_500";25;28;28;29;118,740254048172;0,550362684785603
"F_501";85;81;86;89;1986,63133285727;0,691748413156381
"F_502";35;29;39;31;224,02375097424;0,574137931034482
"F_503";53;52;53;56;730,980417477563;0,619598924953483
"F_504";68;63;72;66;1580,58744691694;0,675989624450214
"F_505";100;101;94;99;4828,10604016461;0,731466227347616
"F_506";57;47;58;43;911,506104881089;0,658608944072082
"F_507";72;67;72;63;2232,39850911578;0,67549444976616
"F_508";50;45;50;46;319,152207003452;0,590920293784196
"F_509";61;65;58;60;569,438484337851;0,63891701753451
"F_510";47;63;50;63;707,069810888626;0,655225185832973
"F_511";42;40;42;43;364,234235412017;0,613008795254652
"F_512";73;71;70;69;2113,58624401936;0,698642112011196
"F_513";68;65;71;63;1250,13039616137;0,649791316602527
"F_514";52;57;48;52;374,247517663626;0,631678785962695
"F_515";36;32;37;34;216,994598417444;0,584809015073905
"F_516";49;52;52;55;814,195224358041;0,610324814173708
"F_517";74;69;78;65;1670,48614244671;0,680363223609536
"F_518";71;81;70;80;1059,51318166029;0,640384615384616
"F_519";49;44;45;45;661,63893025166;0,627479717351479
"F_520";108;99;107;99;3317,43793145427;0,708259482453033
"F_521";47;52;52;52;866,990535627687;0,631379364828568
"F_522";33;30;34;31;288,316950695002;0,586410996429094
"F_523";67;60;70;59;1615,48572125332;0,682804579370056
"F_524";72;63;73;64;946,621984251358;0,664560119740565
"F_525";60;52;55;53;1268,56414936623;0,685302692505576
"F_526";35;36;36;35;194,895464250907;0,570911515382416
"F_527";31;30;31;32;287,168159811834;0,600210283883241
"F_528";29;30;27;31;233,062527529273;0,580504576049585
"F_529";36;29;36;29;164,210038028266;0,587330361079808
"F_530";38;29;41;30;187,709141133933;0,57873901708989
"F_531";106;96;111;96;3243,91244979907;0,685655456417297
"F_532";82;81;83;82;3087,26579735264;0,718618870639015
"F_533";52;44;57;49;1126,41240341837;0,643098546215335
"F_534";69;64;69;67;685,001599310177;0,654616938786658
"F_535";85;87;83;87;2223,29961124048;0,685930079533103
"F_536";88;92;90;87;3399,10200227154;0,71497584541063
"F_537";57;58;54;58;1625,86931332456;0,663677130044845
"F_538";26;28;25;28;84,1539006413215;0,571564794507484
"F_539";88;98;86;96;2363,76973059891;0,700561009817673
"F_540";65;68;64;66;1095,20836804378;0,645244631035042
"F_541";87;87;91;91;1605,18787297949;0,679591836734696
"F_542";50;45;49;46;511,978560255517;0,62278559925191
"F_543";74;83;77;82;2544,22056483692;0,69246765249538
"F_544";50;47;63;51;1157,90610161451;0,642960579243767
"F_545";60;61;62;63;580,436325152284;0,622300664451827
"F_546";65;54;66;59;1424,17007022147;0,693148308759763
"F_547";28;31;29;33;117,774127587473;0,5490016486536
"F_548";77;75;72;79;2115,57734560039;0,696895709801189
"F_549";69;71;71;71;1379,21296281612;0,684168473918506
"F_550";34;34;38;32;197,105585105971;0,57670659546832
"F_551";41;36;47;39;267,388213126417;0,583783783783783
"F_552";33;36;35;35;103,170631117797;0,561472530560629
"F_553";89;71;90;72;2453,1155933126;0,704969126727435
"F_554";49;49;52;48;665,30297320921;0,640213618157545
"F_555";23;26;22;25;169,574159409976;0,553846153846154
"F_556";93;90;90;92;1879,91439319908;0,691110342442064
"F_557";109;99;110;100;4551,25287293127;0,733345567994132
"F_558";70;70;78;71;1198,77383273801;0,655691079144563
"F_559";29;29;30;29;157,638130092768;0,554614850798057
"F_560";41;48;40;48;518,435060469063;0,607879924953095
"F_561";92;85;92;82;3051,27789151321;0,717930291052826
"F_562";52;47;55;50;935,331399315414;0,631678785962695
"F_563";64;67;64;63;2056,0256840253;0,693830304433385
"F_564";40;51;40;50;186,209596687114;0,576595642345245
"F_565";30;36;35;38;187,329093321704;0,571265189421014
"F_566";35;43;38;42;302,847946217637;0,611196084429488
"F_567";44;45;43;44;507,011465554306;0,612007351439656
"F_568";71;67;69;66;2052,134859714;0,692067890543821
"F_569";37;41;43;44;550,274019920077;0,610293743318229
"F_570";37;47;41;44;453,230183824332;0,61828872040848
"F_571";62;69;60;65;2341,52985858431;0,709601041789988
"F_572";104;95;91;86;3566,97537126132;0,706381474279655
"F_573";59;56;62;58;1043,116701057;0,660386712940016
"F_574";57;62;61;62;1359,9385894585;0,660823548867209
"F_575";21;17;22;18;48,6552756946048;0,535130791893581
"F_576";64;65;62;68;1281,61339668883;0,657741687698896
"F_577";73;68;67;68;793,086632777913;0,6589709762533
"F_578";74;67;80;74;3177,82790922544;0,707214913574424
"F_579";41;41;42;41;268,65617987832;0,597249900358707
"F_580";47;48;47;46;254,106377816231;0,584238998001851
"F_581";41;37;41;37;405,579551652326;0,586439683005575
"F_582";33;27;34;26;147,605748970696;0,574523147704398
"F_583";79;90;81;86;3421,194257347;0,702984812056532
"F_584";67;73;65;72;1715,27774207906;0,685616242493569
"F_585";106;101;103;104;2081,22882539014;0,679091372571236
"F_586";70;65;71;67;1078,69463240549;0,655081967213117
"F_587";47;53;44;50;502,346518963984;0,600330512294054
"F_588";66;81;68;82;1174,95307493603;0,650496500081395
"F_589";54;55;53;55;548,138508839673;0,634252155970585
"F_590";44;48;42;48;511,478557700572;0,646601941747576
"F_591";54;48;56;55;1086,14630387923;0,644169801182163
"F_592";65;65;70;66;1195,37702416204;0,631878557874762
"F_593";38;34;38;36;311,724988906047;0,60524057151512
"F_594";102;96;102;100;4597,25713026821;0,714634873323399
"F_595";37;44;40;45;414,009060608737;0,61166386040104
"F_596";68;70;70;75;856,542042131807;0,653475061324613
"F_597";45;48;46;52;425,581177560051;0,60671086593451
"F_598";53;53;54;56;763,328694329002;0,634319276152179
"F_599";91;90;89;91;2685,04826874902;0,690871369294609
"F_600";78;80;88;82;1978,26735895424;0,679091372571236
"F_601";58;56;57;58;614,042637476404;0,627118644067796
"F_602";39;38;39;40;286,438752561128;0,564459930313588
"F_603";88;85;87;86;1986,19664032222;0,678937531857055
"F_604";59;43;56;46;436,306567286157;0,649193111664684
"F_605";42;46;43;50;407,822498736299;0,602745236060132
"F_606";44;45;49;48;317,059102067637;0,602018781700396
"F_607";71;67;71;70;2223,02869610606;0,691190036900373
"F_608";63;54;64;59;1045,01609108333;0,633012989756046
"F_609";27;25;28;24;124,198650584004;0,543944825082808
"F_610";63;59;62;63;827,865487056381;0,625907168589777
"F_611";43;46;44;44;785,560767158699;0,63959878354586
"F_612";81;90;83;88;2098,63162514097;0,682687927107064
"F_613";101;94;100;91;4284,72228151476;0,720216281165518
"F_614";53;60;55;61;737,112989295878;0,626692456479691
"F_615";25;29;27;27;198,798370169556;0,553437052767647
"F_616";84;90;92;93;2219,16055438591;0,691788331698313
"F_617";78;82;79;83;2679,23883314951;0,685812356979406
"F_618";94;85;98;86;1765,40392965172;0,685577033055018
"F_619";55;49;59;50;1032,08712072122;0,63472229575899
"F_620";67;77;66;72;1158,32158885148;0,673218397259507
"F_621";46;42;48;40;414,607851788287;0,615084658799384
"F_622";46;41;47;43;537,303151219165;0,613573548981471
"F_623";54;45;57;43;708,409287785101;0,65007320644217
"F_624";45;42;48;43;393,689272795902;0,583613261282312
"F_625";89;107;84;105;2257,22325526273;0,686991404011463
"F_626";38;36;38;37;256,041933749961;0,562552792116377
"F_627";60;65;59;67;2214,20932377878;0,680054458815526
"F_628";34;36;36;41;412,75402701444;0,601233762977078
"F_629";83;83;82;79;2592,61016917071;0,709475054743447
"F_630";48;38;46;35;240,846903706775;0,611913633811444
"F_631";49;40;47;39;407,689828007264;0,609672989879468
"F_632";105;107;100;101;3483,60606795236;0,714209115281504
"F_633";89;81;88;84;2482,25348198709;0,683817238035481
"F_634";50;51;53;51;232,104130715096;0,595588235294117
"F_635";50;50;48;49;1901,21335849215;0,653724506489259
"F_636";45;41;46;38;418,630237449838;0,603807796917497
"F_637";28;30;32;32;180,619198579552;0,577595760057816
"F_638";62;59;56;53;1803,67406116323;0,675570583262899
"F_639";98;83;100;85;2435,58488232569;0,691150187373886
"F_640";106;113;102;110;4762,71465832219;0,72959649443126
"F_641";48;41;47;41;275,625375471464;0,602381789859804
"F_642";70;82;76;81;1702,3382665026;0,663897657418177
"F_643";37;45;38;47;347,533397418448;0,60456906551011
"F_644";96;92;89;88;4233,62118068319;0,717930291052825
"F_645";37;39;35;38;319,332116291929;0,601958322872206
"F_646";45;49;49;56;320,265210525724;0,61435965766412
"F_647";70;74;67;74;3260,15348468347;0,706423099587511
"F_648";32;24;31;28;225,415214730559;0,562315305595947
"F_649";86;84;86;88;2781,97521924848;0,68667659525719
"F_650";25;26;23;24;63,4720320943898;0,541243396993093
"F_651";72;67;70;67;1981,94955240643;0,666889185580776
"F_652";57;64;61;70;616,656391929386;0,641000962463908
"F_653";76;74;77;76;1469,70747090405;0,673331835542576
"F_654";60;59;59;57;1066,37804164684;0,641515492053301
"F_655";83;73;82;72;2134,28831437177;0,684441906936913
"F_656";97;86;97;84;3316,3496692612;0,700642898889539
"F_657";46;49;51;50;793,659093019471;0,641138089635258
"F_658";79;76;70;72;2386,0922138739;0,687503584332171
"F_659";25;30;27;29;254,41885626444;0,557218555359301
"F_660";48;53;48;52;435,770282512381;0,595588235294117
"F_661";93;84;86;88;3449,76562560409;0,699171818499943
"F_662";44;54;44;56;501,617553709085;0,606158669161146
"F_663";64;58;63;55;1005,26156918085;0,655834564254064
"F_664";55;65;59;68;639,013631527747;0,634688691232529
"F_665";103;98;96;92;2836,23793292317;0,70257281837895
"F_666";68;64;75;66;1090,96236094826;0,663273210136109
"F_667";39;42;39;44;229,299937865169;0,570775603485215
"F_668";53;52;52;52;464,341529308609;0,606128021033471
"F_669";41;44;43;43;488,529545688649;0,622042341220423
"F_670";93;93;90;90;2392,01551167981;0,711749688297811
"F_671";24;24;22;23;122,131172430534;0,542861024317349
"F_672";101;101;98;98;3461,40080813726;0,718791221969063
"F_673";27;27;26;27;184,449582317944;0,567506154137473
"F_674";49;51;54;55;548,488511898764;0,596062052505965
"F_675";49;41;53;41;356,06877208582;0,61285210367568
"F_676";84;86;84;85;2039,05730064257;0,679784519421607
"F_677";45;37;44;36;267,854728412527;0,60265433340036
"F_678";82;75;76;75;1864,98237687816;0,685733897723374
"F_679";95;106;95;107;2236,38460703144;0,699661491770751
"F_680";47;44;51;47;455,194717564212;0,603048443080637
"F_681";41;44;44;45;316,651526474513;0,57762359063313
"F_682";28;29;28;29;141,578492493613;0,58438139806961
"F_683";111;95;110;101;2467,18790004014;0,695077404766048
"F_684";74;72;72;76;2230,90890657768;0,667334669338684
"F_685";79;80;78;81;2805,7959301837;0,695359628770303
"F_686";62;61;66;67;386,471625796572;0,599879903923138
"F_687";61;64;59;64;1295,00558457381;0,650885003800631
"F_688";51;50;53;56;237,492546332036;0,599639855942376
"F_689";61;61;61;56;812,274318999175;0,649967469095645
"F_690";50;55;48;57;520,511529336915;0,636103151862466
"F_691";100;98;102;94;3082,24541211783;0,720346112246126
"F_692";51;61;54;66;772,770307291664;0,640418825791977
"F_693";52;45;51;47;584,518078310173;0,623855120732723
"F_694";103;106;94;98;3122,35263575366;0,721994700072273
"F_695";76;76;82;75;1496,38202193773;0,67340748230536
"F_696";31;32;33;32;383,256609883334;0,59665538522795
"F_697";48;52;48;57;585,393882855765;0,597994712425798
"F_698";55;53;58;58;457,137017678353;0,588512518409425
"F_699";28;28;28;28;145,722814760649;0,557918741564666
"F_700";51;58;54;55;1260,94968516188;0,659696235967425
"F_701";51;62;48;62;588,582200770468;0,609053497942386
"F_702";53;50;53;55;1015,20762803818;0,636542239685659
"F_703";52;53;55;52;432,027607235401;0,622526873344757
"F_704";82;89;84;91;2999,50448509189;0,715616045845274
"F_705";78;66;81;62;2335,99480757667;0,683466362599774
"F_706";84;96;79;94;3485,41082864862;0,709895185645768
"F_707";51;58;47;59;1350,89205362749;0,668078466339727
"F_708";42;46;40;44;465,539140478459;0,6385086551265
"F_709";35;43;35;45;294,357362862109;0,601837441638635
"F_710";29;26;29;26;107,61249025073;0,5740554518029
"F_711";43;41;40;40;377,237130785994;0,608095769503905
"F_712";61;62;62;61;1535,00953712337;0,676982154958217
"F_713";67;68;68;71;774,504545207021;0,620432667425732
"F_714";22;21;23;23;74,5475161013559;0,533891511534694
"F_715";55;64;57;63;835,295065699539;0,623530635597628
"F_716";22;28;23;28;218,829797648681;0,58472344161545
"F_717";56;66;61;68;968,953678636325;0,650178978197204
"F_718";50;57;50;56;929,739334821843;0,630449645017092
"F_719";46;44;48;45;425,905555411917;0,602836166147037
"F_720";31;36;32;35;243,463843389766;0,584980237154148
"F_721";66;66;68;65;805,249996167609;0,650073206442169
"F_722";71;60;69;61;1939,12158331906;0,668301928866097
"F_723";58;55;56;53;458,040140607369;0,607633433017384
"F_724";40;43;43;47;677,892814005229;0,61879935993393
"F_725";69;83;76;88;2218,88870619118;0,680363223609537
"F_726";37;55;39;56;354,522316809778;0,599190283400808
"F_727";42;53;43;51;762,56078198028;0,639974375400385
"F_728";41;39;41;40;367,547772216015;0,587877599058453
"F_729";46;48;46;47;385,939968170697;0,607602635580333
"F_730";84;84;79;77;4187,99082893148;0,711665182546753
"F_731";56;53;53;51;624,268988436532;0,643098546215334
"F_732";113;111;108;108;4788,29678802164;0,757631296214374
"F_733";49;61;53;62;358,122005428299;0,601113172541743
"F_734";56;59;62;62;758,485214792937;0,627972760607648
"F_735";52;47;55;47;351,626770407425;0,577651423890521
"F_736";80;74;83;74;2197,64649263898;0,672576301615803
"F_737";45;35;42;36;234,671384424325;0,588599204595669
"F_738";37;33;36;33;240,939939494851;0,613416568592334
"F_739";109;95;111;95;2529,01977051773;0,692988033990404
"F_740";91;81;90;82;2723,67100143564;0,694151708164451
"F_741";78;89;81;91;2123,62495424927;0,687188306104906
"F_742";61;61;60;62;434,951758195567;0,653546311944614
"F_743";59;64;58;63;2729,68822580837;0,704513399153741
"F_744";75;105;80;107;2384,44112438385;0,699171818499944
"F_745";67;69;68;76;1402,377072151;0,649650463339297
"F_746";93;109;96;105;3252,11363758853;0,711411785650706
"F_747";79;70;74;70;2615,24344169767;0,710821227394013
"F_748";33;32;32;32;108,461407240037;0,579382340147889
"F_749";87;87;89;92;1528,85287926768;0,685498627630376
"F_750";53;47;56;48;491,431259793185;0,612570260602963
"F_751";39;48;41;46;624,513144611477;0,647754903550013
"F_752";42;44;43;45;283,937699462103;0,603412694417877
"F_753";87;84;86;82;2011,21416981583;0,692227739923782
"F_754";40;66;44;62;510,958591228858;0,638440645470523
"F_755";102;103;108;97;5888,03950141147;0,753157001947606
"F_756";56;57;60;57;857,726335753274;0,645522588982827
"F_757";80;88;81;90;2103,31700545611;0,685930079533102
"F_758";68;77;62;81;1656,34676891398;0,666407248874314
"F_759";42;38;42;36;288,123580656314;0,586525759577277
"F_760";51;48;49;49;273,473306844475;0,592643859996043
"F_761";45;34;45;34;282,99906889588;0,599220233929819
"F_762";81;93;76;89;2563,33820944635;0,695359628770303
"F_763";36;37;35;40;284,737998568013;0,589960629921259
"F_764";43;47;43;46;204,889639497512;0,592673159638106
"F_765";61;59;61;61;1506,00601819848;0,66217410517013
"F_766";107;127;103;133;3917,95047830767;0,722603978300182
"F_767";100;88;99;84;2912,93755109732;0,705176470588237
"F_768";23;27;22;26;74,2545369525423;0,53965967407941
"F_769";32;28;36;29;371,047215846043;0,603443068559348
"F_770";38;32;42;34;234,144978790268;0,597190395536514
"F_771";44;39;45;42;560,773364984827;0,600811907983761
"F_772";46;40;47;39;1143,65000638507;0,660605058687394
"F_773";44;45;42;45;519,642689292997;0,605485125511388
"F_774";32;33;34;38;316,647537446455;0,584894613583137
"F_775";69;61;68;61;1113,04435268524;0,632211792005063
"F_776";38;26;41;27;240,089873818033;0,593435968516408
"F_777";71;62;73;66;1604,52215848827;0,648350459707953
"F_778";31;34;29;30;143,434267416399;0,580504576049584
"F_779";61;56;64;60;698,876712071535;0,625319492984194
"F_780";42;45;41;45;454,592276548148;0,627676841719463
"F_781";40;41;40;43;340,828006331139;0,590163934426228
"F_782";25;26;24;28;187,104358170811;0,576041516505693
"F_783";45;47;45;48;395,615640838944;0,60320016101439
"F_784";43;48;41;48;538,846605991282;0,606281292671824
"F_785";39;41;40;42;212,748394281735;0,589438489526993
"F_786";82;77;86;85;1720,63425786703;0,677977604343402
"F_787";74;79;75;81;975,704325009491;0,632879315806145
"F_788";86;80;88;83;1791,11100678525;0,678706901432374
"F_789";62;67;60;67;1330,98871911298;0,640521478948494
"F_790";94;96;97;95;3742,69044120672;0,725490196078436
"F_791";68;67;71;68;1466,33084812127;0,688807170765347
"F_792";67;67;71;65;1025,59854388165;0,661078636814829
"F_793";49;34;49;36;246,186106249904;0,588368098159508
"F_794";55;66;58;67;916,429817346359;0,642684822816709
"F_795";48;58;52;56;987,780036991539;0,657453109575523
"F_796";66;65;66;65;849,766547999311;0,648911984410524
"F_797";79;69;76;70;1619,19211411359;0,663126452041158
"F_798";66;74;61;75;1635,29149599218;0,657886071781365
"F_799";31;26;31;27;160,411099033569;0,577178623013962
"F_800";68;69;64;70;1678,48658868128;0,680440458621871
"F_801";34;30;33;32;163,274341381873;0,566487099518003
"F_802";66;78;62;77;2183,64449990552;0,699416569428244
"F_803";34;34;33;34;115,949316461908;0,55405093127513
"F_804";31;33;31;33;477,294271615494;0,609921139659119
"F_805";93;99;91;97;2550,00075271664;0,685185185185186
"F_806";39;50;40;51;526,102196200174;0,616191210485735
"F_807";95;82;94;80;2881,06200210504;0,705425444274454
"F_808";41;39;39;37;287,894370408701;0,624830605649954
"F_809";56;57;56;59;753,178458809344;0,63878083870624
"F_810";68;77;66;75;1851,81954867557;0,673369656799418
"F_811";49;63;47;57;890,841896888506;0,669720670391069
"F_812";84;90;89;102;3256,12130076812;0,723301556655006
"F_813";31;42;34;41;302,624917793882;0,582507288629737
"F_814";39;32;44;33;179,799360775168;0,594053518334984
"F_815";41;46;44;51;531,145243430958;0,622720897615711
"F_816";81;71;76;75;1457,58340602532;0,666481347639964
"F_817";38;36;40;38;260,011718480176;0,580954688635811
"F_818";30;32;29;31;378,79938498041;0,617651604925549
"F_819";69;60;70;63;611,795065750993;0,622397590986967
"F_820";31;40;31;40;126,892443256699;0,557270360728895
"F_821";63;61;64;60;1129,7655997904;0,660459478816597
"F_822";47;45;45;46;561,217270775568;0,626495949830154
"F_823";32;35;36;36;172,647200607107;0,566862114620767
"F_824";49;50;49;47;503,343043058492;0,610138436482083
"F_825";34;34;33;32;129,65042443827;0,581969998543617
"F_826";90;79;92;81;1546,53069661102;0,656337257049002
"F_827";81;85;80;81;2115,75550693361;0,697219960451322
"F_828";81;97;75;96;2075,33352880175;0,684402831696737
"F_829";69;77;67;77;1980,09843912198;0,689322063136109
"F_830";50;49;51;54;423,434041099681;0,61023161109697
"F_831";53;46;55;47;369,481896688601;0,58793526238352
"F_832";32;33;32;33;121,309876260646;0,581067325868837
"F_833";52;52;49;47;1549,08384553637;0,670319838962206
"F_834";23;21;23;21;85,2000362817279;0,533321469881663
"F_835";59;59;67;62;1406,06928799975;0,666814996106354
"F_836";101;95;102;97;3020,50603227462;0,706839622641511
"F_837";67;75;59;67;822,889130900078;0,648140138408306
"F_838";43;40;47;42;393,917720183354;0,596863330843913
"F_839";25;24;25;23;147,651695745983;0,594406981356604
"F_840";66;63;57;61;990,190604002811;0,660168511481911
"F_841";48;48;52;48;379,568335893188;0,623238887444764
"F_842";46;34;46;36;692,730324717383;0,637557836515457
"F_843";64;60;65;63;719,738352154368;0,628268958649966
"F_844";64;61;65;63;1278,20032192361;0,665113182423441
"F_845";52;53;51;54;1318,97542247319;0,661845083641588
"F_846";97;96;96;90;2373,60070455834;0,698845750262331
"F_847";90;80;87;81;1779,20800306362;0,674392439243926
"F_848";64;69;69;73;1458,41929206284;0,657417055113794
"F_849";50;54;53;52;589,203261270105;0,615337234370187
"F_850";45;41;43;37;376,43358669441;0,591124260355028
"F_851";35;35;38;36;205,940257435337;0,562341683084716
"F_852";37;37;38;38;266,38293625419;0,588801571709232
"F_853";59;75;58;75;1278,33644735363;0,647440051847052
"F_854";49;51;49;50;491,071346043834;0,635462496686989
"F_855";74;68;73;63;1550,83461595593;0,664633808282976
"F_856";79;87;82;84;2146,1760458672;0,675228117607301
"F_857";83;81;87;78;1421,92957297665;0,668786610878663
"F_858";43;40;42;41;611,87073200899;0,625580545843553
"F_859";67;65;68;71;737,512063220026;0,650885003800632
"F_860";73;73;69;72;1973,77076947205;0,680401838923891
"F_861";46;44;46;44;298,430985841053;0,599370031498424
"F_862";70;67;69;68;667,39163968028;0,634386410541355
"F_863";95;99;89;96;4226,63665274891;0,718532725964998
"F_864";61;62;62;64;1124,93511231306;0,665593248570319
"F_865";45;55;45;60;467,265276596009;0,581518311908803
"F_866";62;55;62;56;1192,82519567431;0,618671620993961
"F_867";60;65;58;66;725,752247649475;0,622720897615708
"F_868";46;44;47;43;276,701594899725;0,587819947043246
"F_869";50;43;50;44;465,575369108521;0,616984045290787
"F_870";67;68;71;73;1136,34158266035;0,650390625000002
"F_871";79;75;79;76;1543,50674429544;0,685185185185187
"F_872";50;43;49;47;340,850393823968;0,616508099768577
"F_873";37;42;40;44;236,827342679838;0,602866482273069
"F_874";72;69;74;69;2120,950190457;0,694433180791292
"F_875";57;64;60;66;750,682497901933;0,633715705450125
"F_876";68;67;63;61;1669,36954735222;0,665260821309658
"F_877";68;62;69;62;1061,76302019053;0,641035238757287
"F_878";120;97;117;96;3382,34217416987;0,728842412451366
"F_879";45;40;46;41;383,318481865981;0,609797039523881
"F_880";48;49;47;51;301,096670653242;0,603716573500527
"F_881";66;63;68;65;1432,27811721836;0,670319838962203
"F_882";42;37;39;37;427,995051159809;0,628862193778524
"F_883";20;21;23;22;90,8541456896404;0,57309494215508
"F_884";53;49;55;51;435,158115672935;0,60186765739532
"F_885";53;50;54;49;867,184876057358;0,633883248730966
"F_886";17;20;17;21;88,8610733392854;0,537168974324507
"F_887";16;21;16;21;93,0751212603631;0,551172413793103
"F_888";90;75;93;77;1460,74381754005;0,66987036209209
"F_889";43;45;44;50;397,781965036249;0,591824644549762
"F_890";76;68;82;74;1019,91017528463;0,657344958052313
"F_891";98;94;95;97;2928,99476775008;0,686008583690989
"F_892";66;63;68;67;1584,75659876543;0,676867483484846
"F_893";89;88;93;89;1554,05507630229;0,669346733668344
"F_894";59;63;58;61;1182,92641324973;0,673596673596678
"F_895";58;44;59;45;1538,13106440151;0,67606586961426
"F_896";87;87;94;89;1580,60370804587;0,677479513987003
"F_897";79;76;82;77;2258,83117927484;0,683583281062898
"F_898";42;37;45;40;398,867449284224;0,593906366113449
"F_899";75;83;71;76;2036,79915143356;0,710147503110008
"F_900";102;105;93;98;4855,80322686467;0,744596273291928
"F_901";22;27;23;28;163,183277183032;0,58120818384563
"F_902";45;41;47;44;236,160571607275;0,571646559534594
"F_903";65;82;65;84;1298,94787009667;0,67009502515372
"F_904";68;67;68;69;1448,4131537227;0,669496258237465
"F_905";57;54;60;54;797,65866145319;0,660350336014103
"F_906";38;38;39;39;225,598427003081;0,586296278182617
"F_907";55;48;58;47;983,638378425699;0,650284784377548
"F_908";81;88;84;93;2299,60570499452;0,665408525754886
"F_909";105;98;100;97;3541,4086602641;0,712384121701929
"F_910";53;58;53;59;754,640999224902;0,634587898999525
"F_911";66;64;64;68;1163,80693926309;0,649298597194391
"F_912";34;48;34;46;384,341460933248;0,60213973579788
"F_913";43;47;42;50;282,253604028008;0,593700475435815
"F_914";75;76;78;79;2096,36033279234;0,688372093023261
"F_915";95;97;89;92;4494,54316696694;0,72888672706269
"F_916";99;90;102;93;2995,99169094372;0,702161307327361
"F_917";87;97;85;93;4640,28927187443;0,70476190476191
"F_918";50;44;51;42;280,357973145057;0,619887274419566
"F_919";49;48;49;51;400,606622267853;0,613228298122665
"F_920";40;40;40;40;467,549143030837;0,623465779072187
"F_921";100;95;106;95;2579,34973820451;0,679823069071114
"F_922";26;28;28;29;194,560387416528;0,577540106951869
"F_923";63;64;62;65;816,939656385019;0,627020241644437
"F_924";65;61;65;65;1211,45432928909;0,65955105633803
"F_925";36;38;39;42;373,65017079601;0,592468122961351
"F_926";60;55;59;52;780,438066535771;0,640247810296948
"F_927";43;41;40;38;379,516295342237;0,583073929961089
"F_928";35;34;38;39;414,877753328868;0,60009010361916
"F_929";52;61;48;60;982,430746483913;0,641412520064207
"F_930";68;63;60;58;1904,41585175788;0,686676595257193
"F_931";97;96;98;102;2557,66359809932;0,712934879571814
"F_932";52;45;51;42;358,024189452333;0,610076335877862
"F_933";64;71;66;74;1231,02472439901;0,660459478816596
"F_934";98;89;101;89;2229,23530550561;0,699008746355687
"F_935";47;41;46;44;293,364676685878;0,589061962557122
"F_936";36;20;35;18;68,2626364306038;0,571428571428571
"F_937";44;38;44;38;178,286971487025;0,585694743013484
"F_938";71;63;72;65;937,329466589002;0,634285714285715
"F_939";29;29;30;30;103,050423523377;0,557711095603628
"F_940";37;29;39;30;471,914566098907;0,608466145568977
"F_941";45;41;48;47;826,279538077168;0,640658401026085
"F_942";30;38;30;36;197,616577930665;0,594259653992959
"F_943";75;74;67;70;1063,92439735045;0,660350336014104
"F_944";46;67;46;70;364,311465022846;0,624765478424014
"F_945";85;87;83;87;3395,65559380736;0,704430602891061
"F_946";78;74;83;73;1573,38990798539;0,677249872888539
"F_947";89;81;93;80;2147,25188767701;0,693308657683192
"F_948";42;52;36;54;368,973406899764;0,621913260012451
"F_949";42;44;40;46;508,327217281333;0,588425857752907
"F_950";30;45;29;46;282,472404064941;0,588021778584391
"F_951";87;86;87;88;2566,35407632014;0,679091372571235
"F_952";72;65;76;66;920,751889380176;0,646776369031564
"F_953";83;91;86;85;2613,26229080747;0,705633056683741
"F_954";48;52;48;51;381,462534513904;0,58089838639337
"F_955";76;85;80;86;1590,0380102264;0,680981595092026
"F_956";47;42;46;44;796,751395456648;0,630781373322812
"F_957";39;40;37;37;229,231458623272;0,581236363636363
"F_958";68;76;65;67;1829,15818317448;0,694513643473729
"F_959";66;63;67;65;723,88513238661;0,648350459707952
"F_960";70;80;71;78;2455,4664702358;0,703603709355563
"F_961";67;67;71;69;649,087729157871;0,61166386040104
"F_962";73;64;68;64;1679,04487569934;0,666666666666669
"F_963";60;58;59;57;951,940774449246;0,648490749756575
"F_964";47;44;54;47;803,495181404276;0,606557377049179
"F_965";78;78;79;78;2293,733318107;0,692307692307698
"F_966";53;43;56;45;755,597926532023;0,611258413216397
"F_967";68;73;75;71;1035,76050267971;0,668935885274262
"F_968";27;31;27;29;163,436337124329;0,581208183845631
"F_969";22;21;25;22;50,5588447460582;0,538520282107723
"F_970";21;21;22;23;84,6234333681563;0,560999578829144
"F_971";43;35;46;39;878,800258210919;0,63912139467932
"F_972";87;86;91;88;1756,61123983359;0,682027649769586
"F_973";60;50;65;54;577,808237323519;0,629093198992443
"F_974";38;31;38;31;318,298149293796;0,600571113671659
"F_975";71;71;74;74;1117,65716305671;0,632278481012658
"F_976";75;85;79;85;1409,85190280737;0,667408974501728
"F_977";51;53;54;52;577,061492922057;0,605332256109875
"F_978";70;76;71;78;2831,44367393947;0,697828744397235
"F_979";43;41;41;40;262,796795714786;0,585666129268649
"F_980";24;34;23;34;131,767300598748;0,57306754624982
"F_981";63;70;64;67;1975,13116266922;0,687148916657116
"F_982";85;96;81;90;2585,53009860053;0,679553313304236
"F_983";28;33;30;35;163,261423074176;0,549253184275635
"F_984";54;58;59;61;656,08216324685;0,627709707822808
"F_985";30;33;30;33;180,247425081697;0,572547521253223
"F_986";73;70;70;75;1265,80644271352;0,654545454545456
"F_987";71;63;72;61;1113,20747459974;0,670507299065946
"F_988";77;78;77;79;2742,4085699439;0,706964675355315
"F_989";32;29;31;28;275,025935867478;0,585551702241975
"F_990";71;66;73;67;1327,49315622197;0,669271996426979
"F_991";75;65;77;64;1448,31934705835;0,673483146067418
"F_992";70;74;73;73;1331,1227668485;0,651203215818351
"F_993";56;53;51;51;663,007123781117;0,64076113100647
"F_994";59;62;63;65;1152,5187677501;0,635732088879462
"F_995";105;107;99;103;4117,13558652641;0,721560130010838
"F_996";24;26;25;26;141,224094213773;0,577345405509534
"F_997";74;72;76;73;1242,01335808386;0,659659935068511
"F_998";59;57;61;53;1613,51414823941;0,683973298339708
"F_999";76;68;78;68;1232,0259893116;0,684480986639263
"F_1000";69;69;69;70;1115,30818608139;0,645487831143658
