"File";"Sim";"In";"Out";"InLink";"OutLink";"Betweenness";"Closeness"
"R1_forested";"Sim_1";0,00258960342816617;0,00250545471734376;0,0158678061324867;0,0172416411775128;0,141240760816866;0,0036492398149276
"R1_forested";"Sim_2";0,00176267338129077;0,00174846527998018;0,0111778795264629;0,0129007596638976;0,0986006820777587;0,0021950503631829
"R1_forested";"Sim_3";0,00202672706704832;0,00205804001884524;0,0168042711203088;0,0182367103649116;0,129114082278012;0,00315108941264364
"R1_forested";"Sim_4";0,00229109307905806;0,00225104164297441;0,0147081581924779;0,0151129629098397;0,126403903565742;0,00227206888763587
"R1_forested";"Sim_5";0,00180518981153055;0,00179015117359649;0,0118843975584246;0,0105229154598633;0,113334755840764;0,00198062740641125
"R1_forested";"Sim_6";0,00187987317798188;0,00189967820252834;0,015970608529047;0,0156587167150903;0,120424009744084;0,00253937065386267
"R1_forested";"Sim_7";0,00179943592068665;0,00172583803519077;0,0127724961081387;0,0144499545401123;0,0949395682654447;0,002772828487831
"R1_forested";"Sim_8";0,00177416775884798;0,00183007228979948;0,0144627588599612;0,0152860149036764;0,120149806201108;0,00233278842397844
"R1_forested";"Sim_9";0,00183146553194458;0,00180902621384316;0,0142072512181127;0,012963926639775;0,126937885859814;0,00252223966001985
"R1_forested";"Sim_10";0,00267569335499362;0,00270937374893443;0,0172148845566866;0,0208238328891758;0,122541921439903;0,00304877398145309
"R1_forested";"Sim_11";0,00230374217915152;0,00226853810626337;0,0133060301497238;0,0147368528162223;0,120257457376106;0,00309854417656097
"R1_forested";"Sim_12";0,00193726210668499;0,00195024235043162;0,0154431162696859;0,0161872400867309;0,124296436244171;0,00272572295238482
"R1_forested";"Sim_13";0,00158343906672631;0,00154518403926629;0,0136489086737395;0,0133103055292835;0,122675736419559;0,00243682214031993
"R1_forested";"Sim_14";0,00218827030612478;0,00219611839886757;0,0193171353148596;0,0197040603123747;0,120036162732268;0,00308236999286304
"R1_forested";"Sim_15";0,00162787568839395;0,00161698498842167;0,013439784216093;0,0143118302536476;0,136401698293423;0,00319400757461841
"R1_forested";"Sim_16";0,00156362039065705;0,00153392562774446;0,0114618271996494;0,0121563975518781;0,141198098976931;0,00317328673180794
"R1_forested";"Sim_17";0,00142617963051983;0,00143940966806788;0,0101497097183796;0,0105082814985449;0,0978592716877709;0,00200562873008314
"R1_forested";"Sim_18";0,00205427613292042;0,00199756790662386;0,0135805808779554;0,0150020003015563;0,1515711358478;0,00330824008173036
"R1_forested";"Sim_19";0,00193088059077873;0,00185345986672514;0,0154131320324611;0,01424925304186;0,146688726247778;0,00289243017738539
"R1_forested";"Sim_20";0,00227333601443824;0,00230271653278846;0,0168556377441543;0,0159135495661678;0,126796063903904;0,00296491746671823
"R2_2015";"Sim_1";0,00175575424610397;0,00179042335820834;0,0138804964922112;0,0168327446764061;0,137393955306694;0,00301562565446101
"R2_2015";"Sim_2";0,00179500199441129;0,00183743311721474;0,0155881794236548;0,0143636322877593;0,106745578740938;0,00229850370682294
"R2_2015";"Sim_3";0,00223863665354351;0,00219633653437201;0,0163901535455321;0,0165078035833814;0,117290869039898;1
"R2_2015";"Sim_4";0,00208040229082296;0,00203965503314596;0,0137602748028948;0,014310374127775;0,13823226216647;0,00288560021533835
"R2_2015";"Sim_5";0,00186234755158521;0,00186516939957959;0,0131178942412086;0,0179893917012173;0,129954266331573;0,00307814683570684
"R2_2015";"Sim_6";0,00206245630553925;0,0020674508673203;0,0149562798094609;0,016684591905276;0,114227665607637;0,00255495455353483
"R2_2015";"Sim_7";0,0019926012854431;0,00193841573727305;0,01447618640069;0,0146163273852858;0,128489196957188;0,00272044371612246
"R2_2015";"Sim_8";0,00223146062031876;0,00216845714225955;0,0148048417725126;0,0168714630216416;0,109549433401939;0,00243960307068569
"R2_2015";"Sim_9";0,0018940951637465;0,00190796102994506;0,0119530535617591;0,0147269773313851;0,122433859829697;0,00187799282399159
"R2_2015";"Sim_10";0,00170591870548653;0,00169260767065649;0,0126156664003317;0,0128798815059563;0,149657228641437;0,00280909413824815
"R2_2015";"Sim_11";0,00166061132082151;0,00164092959164486;0,0108750800747276;0,0115899896964097;0,104546927968922;0,00230177367516249
"R2_2015";"Sim_12";0,00172317363456209;0,00169816618348095;0,0143881212261889;0,0154579187475389;0,119744879948077;0,00280974009139845
"R2_2015";"Sim_13";0,00228609718561867;0,00225484496658457;0,0183096991394228;0,0183728638364454;0,114585544604948;0,00317059873866643
"R2_2015";"Sim_14";0,00259142106015475;0,00253241644110669;0,0170724614711988;0,0201776817021845;0,16660479187951;0,00370897486100463
"R2_2015";"Sim_15";0,00191697443003036;0,00182958158142099;0,0137608979468449;0,0142239837073803;0,093566131348728;1
"R2_2015";"Sim_16";0,00243705046871978;0,00241265292760462;0,0118560948402631;0,0148463691954465;0,127545034007433;0,00265227657417677
"R2_2015";"Sim_17";0,0018805763678541;0,00198497258151731;0,0106423836613301;0,010943911103231;0,116750943883286;0,00224345705552498
"R2_2015";"Sim_18";0,00249194860908719;0,00246411552285353;0,0159454410073597;0,0177150050553385;0,142418803705143;0,00357356669178976
"R2_2015";"Sim_19";0,00219425820246855;0,00225323005584155;0,0145454796241957;0,0151833878518403;0,133503059497127;0,00330442243440709
"R2_2015";"Sim_20";0,00186136102625023;0,00186734284762879;0,014497728092486;0,0162112951748433;0,125916591356776;0,00261784163257139
"R3_fragmented";"Sim_1";0,00188627328237345;0,00191678263822193;0,0148469107321927;0,0166141628452309;0,11083475854072;0,00283925465843082
"R3_fragmented";"Sim_2";0,00216535747931113;0,00221697793840103;0,017697109375125;0,0183373175635891;0,121110824466078;1
"R3_fragmented";"Sim_3";0,00211395820827676;0,0021501584226109;0,0182605155236912;0,0197130082946348;0,121685546555143;0,00298039802934935
"R3_fragmented";"Sim_4";0,00234820993266383;0,00233729250953651;0,0159286901026116;0,0161636076705394;0,136453213766359;1
"R3_fragmented";"Sim_5";0,00204619477513646;0,00207596486009998;0,0143946068527004;0,0160867276565546;0,13370268608402;0,0031162284885623
"R3_fragmented";"Sim_6";0,00204544915653715;0,00211016580530698;0,0164661024999204;0,0169234125705858;0,118947367885684;0,0030303438558954
"R3_fragmented";"Sim_7";0,00240290163147017;0,00241310815819074;0,0163744366230048;0,0147771512231749;0,136128245655594;1
"R3_fragmented";"Sim_8";0,00213640210536292;0,00218118207330498;0,0164832984304559;0,0165855675437394;0,113350675756424;0,00259204036074712
"R3_fragmented";"Sim_9";0,00228458752897864;0,00221746287327984;0,0158308338897675;0,0150481693117486;0,117704056722849;0,00317551160079088
"R3_fragmented";"Sim_10";0,00244452690218089;0,00239255801776672;0,0145359384478547;0,0154336664757017;0,132235579967378;0,00293671888003244
"R3_fragmented";"Sim_11";0,00202459283852807;0,00194991895080898;0,0115303121176328;0,0124431957435971;0,118814119632797;0,00252284884303067
"R3_fragmented";"Sim_12";0,00180815389140543;0,00182239126605521;0,0140463568645437;0,0153805479294037;0,12078086983851;1
"R3_fragmented";"Sim_13";0,00173955074872545;0,00177774244077877;0,0109837854295708;0,0118889521693855;0,124038459418968;0,00228392362671381
"R3_fragmented";"Sim_14";0,00146660033349011;0,00153088034462601;0,010321150097225;0,0128818988703284;0,0979785500918453;0,00206930319210241
"R3_fragmented";"Sim_15";0,00177959878910394;0,00178656547277722;0,0131025778905876;0,0140886301324529;0,1122755000716;0,00291765027891788
"R3_fragmented";"Sim_16";0,00172926299989984;0,00173690342323907;0,0151744378839465;0,0165171501065488;0,106396862748662;0,00247924358500318
"R3_fragmented";"Sim_17";0,0019862125277107;0,00192808876472106;0,0113156064503533;0,00978488266132194;0,106831923868331;0,00217920637632751
"R3_fragmented";"Sim_18";0,00181504496972085;0,00175441676920829;0,0131572748582308;0,0123062652007303;0,137328931408184;0,00233653629957764
"R3_fragmented";"Sim_19";0,00251718199440809;0,00248596114679434;0,0154679364500799;0,0165532354614388;0,136879032765928;0,00342701173549198
"R3_fragmented";"Sim_20";0,00205224694310269;0,00203182503681265;0,0120299513093042;0,0123174198909137;0,130486891558988;0,00252141486669955
"R4_deforested";"Sim_1";0,00221163024656568;0,00226160502998829;0,0163779058771594;0,019142666657341;0,124042125946268;0,00288597981473748
"R4_deforested";"Sim_2";0,002098837310332;0,00207239700578288;0,0168705459234799;0,0174377676967901;0,122858607441524;0,00285337437263256
"R4_deforested";"Sim_3";0,002389423766336;0,00243190253423364;0,0197619644006024;0,018936816187764;0,145012098246016;0,00385643755254961
"R4_deforested";"Sim_4";0,00213378430171318;0,00209738255918102;0,0181158596447338;0,0192856058000633;0,116044875658495;0,0034600001943812
"R4_deforested";"Sim_5";0,00297061834196033;0,00292178282418654;0,0208551433835631;0,0218225414614936;0,159534323904967;0,00487305656059212
"R4_deforested";"Sim_6";0,00265293773263442;0,00271577892662189;0,019913872874066;0,0212292146133912;0,107671153156172;0,0037476324157707
"R4_deforested";"Sim_7";0,00287019079011142;0,00293166332416306;0,0187389036050883;0,0192877619133016;0,151280697814632;0,00408241863336267
"R4_deforested";"Sim_8";0,00230799876298604;0,00232110360476601;0,015818074676861;0,01880812508226;0,114914903806939;0,00419339339448055
"R4_deforested";"Sim_9";0,00208155198785021;0,00200999682536107;0,0162928695719267;0,0180883042559555;0,120412198241039;0,00297861057661164
"R4_deforested";"Sim_10";0,00247252741138226;0,00241891457652099;0,0151491736808488;0,0158012266263525;0,119550443979312;0,00396830469781373
"R4_deforested";"Sim_11";0,00212690278834504;0,00219126086621502;0,018410783945107;0,0190790921238162;0,121016459180705;0,00427095123771937
"R4_deforested";"Sim_12";0,00257569600696905;0,00262370030231662;0,0217235456984614;0,020401012041703;0,143333513062028;0,00462392080863283
"R4_deforested";"Sim_13";0,00151951557101537;0,0015069421118411;0,0153097732293659;0,0170446493091519;0,118780633282201;0,00292392132025132
"R4_deforested";"Sim_14";0,00228598916891887;0,00234094248846473;0,0168130178095807;0,016290814325433;0,10831129501149;0,00314005658627925
"R4_deforested";"Sim_15";0,00290973916562809;0,00299252649724147;0,0173508198827452;0,0186641651789559;0,141366205934639;0,00395921143698197
"R4_deforested";"Sim_16";0,00246035339522244;0,00245026766025769;0,020112311961649;0,0214485378657501;0,114826333331117;0,00429781768956961
"R4_deforested";"Sim_17";0,00240740075055701;0,00244103611826929;0,0207815010843798;0,020356191663165;0,108496539845293;0,00414722265690404
"R4_deforested";"Sim_18";0,00256758929952838;0,00262475158181763;0,0218462733800399;0,0261775557346858;0,13034328857063;0,00448580760397577
"R4_deforested";"Sim_19";0,00295546149393089;0,00296427951019196;0,0177525524520061;0,0181484909566775;0,126586318711137;0,00411055004591165
"R4_deforested";"Sim_20";0,0024181992520198;0,00246416092134849;0,0163537762020139;0,015546147250964;0,142467943082123;0,00388571021505302
