"ID";"density";"cell_id";"lon";"lat"
"R_1";3,62592605936001e-05;7334503;469288,2855;939519,6599
"R_2";1,13964294765673e-05;3923130;464773,2855;945389,6599
"R_3";2,11974486894366e-05;4434888;467162,332324355;944508,440098854
"R_4";2,0499203041258e-05;564788;463963,2855;951169,6599
"R_5";1,1057929560076e-05;783057;465933,2855;950794,6599
"R_6";2,2106414416964e-05;7336689;465692,483190379;939512,641814318
"R_7";2,34786601834028e-05;1636894;464768,2855;949324,6599
"R_8";3,20860164269436e-05;4306884;466243,2855;944729,6599
"R_9";1,21958631826383e-05;3733573;461113,2855;945714,6599
"R_10";1,49628017503197e-05;2532448;468837,160419191;947783,963498625
"R_11";2,21956229762362e-05;349907;464407,615069862;951539,563610424
"R_12";2,35571127596576e-05;6180703;466712,378507831;941502,959849599
"R_13";2,25423828725872e-05;1372523;464687,586333477;949779,28233299
"R_14";2,26847402973929e-05;6113886;466702,379534131;941617,978228522
"R_15";1,77528149435067e-05;6428878;458438,227770654;941072,891128408
"R_16";1,34742718551894e-05;4496983;458088,263691136;944398,422519015
"R_17";2,17500680181383e-05;7051821;464803,2855;940004,6599
"R_18";3,73382922151679e-05;4871662;472283,2855;943759,6599
"R_19";3,15050887831871e-05;6483460;469898,2855;940984,6599
"R_20";1,66531545661528e-05;4675456;464427,613017263;944093,373774914
"R_21";2,72072368407473e-05;4588673;466262,424691308;944243,397747423
"R_22";1,8511005104883e-05;5239067;464632,591978124;943123,218752692
"R_23";1,56221477045449e-05;3387035;471421,895120775;946313,728568041
"R_24";1,52018846122965e-05;2441835;466047,446756747;947938,988270218
"R_25";1,87698777793002e-05;6750302;467807,266128038;940522,80322921
"R_26";1,44028835091373e-05;1713792;471608,2855;949194,6599
"R_27";2,24790724291925e-05;7313972;468308,2855;939554,6599
"R_28";1,89220518207605e-05;6361027;467782,268693787;941192,910306415
"R_29";9,69075988528696e-06;5171882;462783,2855;943239,6599
"R_30";2,05750961774961e-05;644002;467857,26099654;951034,482902978
"R_31";1,89171074063491e-05;1818541;457928,280111928;949009,159274112
"R_32";1,79260174471454e-05;2627657;465557,497045422;947618,937128866
"R_33";4,40290320118236e-05;7537866;469353,2855;939169,6599
"R_34";1,36063116980458e-05;1301149;470941,94438315;949904,30231008
"R_35";1,57896448510215e-05;6893812;459108,2855;940274,6599
"R_36";1,1764375298032e-05;3190685;462848,2855;946649,6599
"R_37";1,67392017771392e-05;2156298;461813,2855;948429,6599
"R_38";2,67056041402829e-05;4080276;466152,435980602;945118,537587056
"R_39";2,72065060481682e-05;7052737;469382,104485869;940002,720124513
"R_40";3,15760650409007e-05;6236567;470058,2855;941409,6599
"R_41";2,47770455843729e-05;4549174;472116,82379296;944313,408934593
"R_42";2,6593440380256e-05;6416554;469443,2855;941099,6599
"R_43";9,33041708004922e-06;734597;470556,98389568;950879,458131386
"R_44";9,21434295097022e-06;2558960;470673,2855;947739,6599
"R_45";1,32822085643242e-05;2798882;464707,584280878;947323,889982932
"R_46";1,0289666705244e-05;5586855;460573,008655714;942523,122862658
"R_47";2,09097030140917e-05;137609;463242,734633752;951904,621943528
"R_48";3,58679284768778e-05;63969;458168,2855;952029,6599
"R_49";1,63824447845363e-05;656661;458528,2855;951009,6599
"R_50";3,00599016795722e-05;6396371;470203,2855;941134,6599
"R_51";1,90989810040428e-05;7413191;470551,98440883;939382,621038144
"R_52";1,79561762392598e-05;5314464;463968,2855;942994,6599
"R_53";1,54558982821443e-05;2491838;469137,129630207;947853,974685796
"R_54";2,08307368063941e-05;6877585;465123,2855;940304,6599
"R_55";1,41413742916797e-05;3250382;470831,955672444;946548,766124971
"R_56";1,100302532367e-05;5860862;465257,527834406;942053,047748797
"R_57";8,64918062878483e-06;770476;461128,2855;950814,6599
"R_58";2,3081495578456e-05;1665938;464737,581201979;949274,201625544
"R_59";2,0313465212055e-05;7230950;459898,2855;939694,6599
"R_60";1,72597738853535e-05;856166;468353,2855;950669,6599
"R_61";1,01869578722847e-05;1541957;469408,2855;949489,6599
"R_62";2,01811658364726e-05;7184019;472168,2855;939779,6599
"R_63";1,26828987075367e-05;4556152;463433,2855;944299,6599
"R_64";1,37079818264293e-05;3106237;461832,879341979;946793,805280069
"R_65";2,08663799754815e-05;6619434;467093,2855;940749,6599
"R_66";1,01058964506128e-05;2606282;460358,2855;947654,6599
"R_67";1,31985484589733e-05;4870776;467853,2855;943759,6599
"R_68";2,37715797452041e-05;7437306;460403,2855;939339,6599
"R_69";1,00702747120515e-05;2644664;463443,2855;947589,6599
"R_70";3,09306964329313e-05;4286509;466043,2855;944764,6599
"R_71";2,52005215687167e-05;124059;468118,2855;951929,6599
"R_72";1,64758500193202e-05;2095304;461867,875749931;948534,083361168
"R_73";1,21205479404305e-05;4132962;468133,2855;945029,6599
"R_74";1,40977198509889e-05;266091;466553,2855;951684,6599
"R_75";1,21133201497758e-05;4003898;461913,2855;945249,6599
"R_76";2,05135966696754e-05;1109739;458018,2855;950229,6599
"R_77";1,02280869689169e-05;4761904;460918,2855;943944,6599
"R_78";1,25900112948719e-05;6071755;459398,129245904;941687,989415693
"R_79";2,0256528157566e-05;5882164;470092,031618606;942018,042155212
"R_80";2,62323447822978e-05;5289966;472201,815069415;943038,20516827
