"Foraging";"In";"Out";"InLink";"OutLink";"Betweeness";"Closeness"
"F_1";96;81;94;84;3065,7626910611;0,709307141589258
"F_2";39;36;37;37;263,172109490112;0,613730609737367
"F_3";63;62;58;60;1985,96271460524;0,670972652883042
"F_4";35;34;32;34;210,948731699131;0,586755420684252
"F_5";49;63;52;63;1034,05112145171;0,639100951081163
"F_6";46;48;46;49;353,171419760953;0,6129461090091
"F_7";46;45;49;44;394,788622948678;0,610169491525423
"F_8";83;85;81;83;1066,37103789143;0,669182333765018
"F_9";56;46;54;46;696,579887019354;0,62432947597571
"F_10";65;61;64;61;1475,71694808461;0,673248643730839
"F_11";40;45;44;49;592,950526725112;0,612495146226318
"F_12";93;97;94;93;3360,76546311048;0,726748063096382
"F_13";116;107;114;103;7716,12012397331;0,767114171263295
"F_14";90;86;89;79;2345,36368687806;0,690712145655683
"F_15";35;35;36;36;162,713207213932;0,575986162494593
"F_16";67;67;68;64;674,593114931918;0,646713564369257
"F_17";28;24;28;26;67,7389117720375;0,546738178633976
"F_18";24;28;26;30;106,386791568276;0,548037889039242
"F_19";62;57;60;58;2139,58561155177;0,700888681010296
"F_20";36;43;36;46;198,725595408183;0,568523489296316
"F_21";46;52;48;50;527,398407837909;0,626430474996082
"F_22";61;66;59;70;1098,51193426772;0,654974594328801
"F_23";68;66;68;73;1219,45471019986;0,674248304255393
"F_24";79;77;81;88;1676,39999172105;0,660707002788772
"F_25";83;65;87;64;2078,85157938737;0,668004012036112
"F_26";62;67;68;64;1406,73278895207;0,668234874413318
"F_27";64;62;68;66;1253,99530245103;0,641343890434413
"F_28";86;92;85;82;3858,85240150268;0,725621935718182
"F_29";47;53;46;54;639,019793438189;0,615337234370187
"F_30";63;65;69;71;1108,99762542413;0,644239036973346
"F_31";84;83;84;79;1994,03718343535;0,670769919427038
"F_32";92;92;93;88;3369,64961047602;0,709559041136434
"F_33";89;97;92;104;3967,31671447943;0,709189649664574
"F_34";83;88;78;81;2904,88992630573;0,727056597365425
"F_35";30;29;29;28;306,646886665948;0,577039711191335
"F_36";89;82;90;79;2385,21112616225;0,686244204018549
"F_37";63;74;62;72;1032,30217642022;0,642547033285095
"F_38";72;67;75;70;1106,54398286506;0,65697030809869
"F_39";60;64;62;66;660,53631928492;0,626823529411764
"F_40";57;61;54;58;1534,15921291292;0,673619383695581
"F_41";26;27;23;28;211,851738301162;0,588137173134473
"F_42";64;74;65;71;2259,68893203178;0,679784519421606
"F_43";101;100;106;104;2337,65071623892;0,692155798565804
"F_44";35;38;37;39;272,26287756552;0,572077575017178
"F_45";56;60;60;61;789,424318813943;0,670364819826882
"F_46";46;52;47;51;507,19845214072;0,609567587357116
"F_47";64;66;58;64;1033,22892779091;0,655475969161795
"F_48";41;55;42;56;711,949332563836;0,618097447795823
"F_49";39;36;34;32;279,307879598773;0,608034083992695
"F_50";51;61;53;57;963,932095206895;0,652266173350023
"F_51";79;81;81;82;3052,73806911495;0,718274415817858
"F_52";42;42;45;43;218,212356395527;0,572509240952462
"F_53";55;50;54;50;308,184063855868;0,614989996408966
"F_54";26;29;29;31;89,092343923092;0,570330266325394
"F_55";68;56;73;59;692,806929062045;0,639223632291779
"F_56";77;64;79;68;1739,71167020025;0,669070289216076
"F_57";63;68;67;65;1195,95869047889;0,658211167847145
"F_58";50;45;45;45;303,280684800949;0,601674328963481
"F_59";84;79;87;78;1992,00405655669;0,692139813628022
"F_60";67;64;67;69;1379,80251777503;0,655368467089441
"F_61";41;42;43;42;434,883783187205;0,620529012888865
"F_62";43;44;46;45;905,380192561277;0,642891617954632
"F_63";60;64;57;65;1697,87670960502;0,649932230956902
"F_64";71;65;72;67;2548,74166874708;0,678991368177807
"F_65";63;55;63;58;631,497924552101;0,630383341221013
"F_66";54;54;61;59;784,515487737221;0,629066789807312
"F_67";105;99;101;101;3210,05187709627;0,707615663404443
"F_68";17;20;17;19;59,0354655777127;0,545256072045848
"F_69";68;73;71;71;1196,20366221755;0,662357036300349
"F_70";25;28;27;29;75,5340908243341;0,579186394820755
"F_71";57;55;54;53;727,678566774859;0,648056048090647
"F_72";47;39;45;37;399,781524525846;0,610045290316014
"F_73";60;58;63;60;1196,14884019814;0,657042322996483
"F_74";67;61;63;63;813,046235557354;0,635213327398742
"F_75";82;76;80;79;2237,2117162118;0,6698179623856
"F_76";44;37;45;38;228,235365287043;0,586170139941519
"F_77";25;28;23;28;90,3235693795833;0,543821448013065
"F_78";46;43;48;45;538,351335344436;0,635853480008913
"F_79";34;32;39;32;384,1193848733;0,601716608944435
"F_80";38;27;40;28;228,993609385291;0,583857707817887
"F_81";63;71;61;69;2049,73343684911;0,683076923076927
"F_82";63;63;67;64;1568,76592266448;0,647055648512982
"F_83";94;94;94;93;2905,88541597395;0,703570673991128
"F_84";122;123;119;110;5639,35786427907;0,745012740041018
"F_85";59;62;58;63;757,743325932968;0,643229669692874
"F_86";42;41;47;43;591,66348584808;0,619983450558545
"F_87";67;50;63;50;823,660603338695;0,660132158590311
"F_88";70;67;66;65;1355,0414039129;0,641845224710079
"F_89";84;98;83;93;2316,12324833533;0,697893744105628
"F_90";97;94;96;93;5820,76556961481;0,755577965460736
"F_91";68;69;66;67;1420,10963886237;0,658493177773388
"F_92";35;28;32;30;364,607603060318;0,609487010015761
"F_93";75;66;81;71;1166,03081353901;0,666288725114218
"F_94";23;21;27;21;96,9465835633802;0,566556707657116
"F_95";53;58;52;56;550,437182862473;0,61555840821566
"F_96";32;31;31;31;118,898810175313;0,551045736612273
"F_97";87;97;89;95;2402,8315821745;0,703686311340692
"F_98";83;92;82;90;2705,54293771168;0,726202158979396
"F_99";50;44;51;44;522,566966003108;0,645001614118156
"F_100";104;124;101;125;6297,86181685804;0,734585830361412
"F_101";77;82;76;82;1370,40828737866;0,679037520391519
"F_102";102;85;99;86;3001,78025827318;0,710593702579668
"F_103";54;61;57;62;988,411182264763;0,636880412261596
"F_104";85;83;78;74;2847,83050442994;0,70492767258615
"F_105";75;83;73;88;1858,7553442716;0,672523477734022
"F_106";38;37;36;37;310,801867729808;0,571346868744637
"F_107";40;34;38;35;165,0067598286;0,565631782579975
"F_108";23;29;23;27;210,978897118673;0,612038597028641
"F_109";31;25;33;28;191,210776128072;0,566610264021098
"F_110";56;63;52;56;1681,86927094752;0,668674698795185
"F_111";46;38;47;40;402,35165841209;0,626430474996084
"F_112";53;57;56;59;667,503141216939;0,638338658146967
"F_113";66;76;63;76;1418,18127260355;0,657633441220035
"F_114";63;58;63;60;1585,72571958707;0,656409133220177
"F_115";67;56;71;55;947,585789081018;0,643098546215332
"F_116";78;65;80;67;1556,86351187462;0,665837239785833
"F_117";36;34;38;34;289,655571144085;0,603826044909183
"F_118";49;54;51;53;558,070558576862;0,607233309695065
"F_119";68;68;70;78;1251,63213855615;0,655289654644645
"F_120";65;50;66;52;455,837999672811;0,618116569731468
"F_121";45;39;45;38;324,045735445546;0,602611921541817
"F_122";50;74;54;73;911,492879774457;0,662320441988955
"F_123";49;52;54;51;828,442641713443;0,619278851120983
"F_124";63;51;62;51;1249,89283404072;0,636562519912492
"F_125";28;20;28;24;115,135494294029;0,554143130529644
"F_126";78;91;77;84;2674,79177858831;0,710888670137696
"F_127";49;57;55;60;481,067978775379;0,639912884732411
"F_128";32;31;33;32;178,630392977914;0,548454098765658
"F_129";56;60;53;64;1379,59639472049;0,649481520007805
"F_130";71;71;72;76;1598,82855119655;0,664191921990139
"F_131";76;59;79;65;1383,89498579228;0,663919718216258
"F_132";90;110;89;107;3837,31986100416;0,717844311377249
"F_133";85;81;92;89;3140,94380199815;0,703265243866674
"F_134";77;76;80;77;1179,05655710023;0,669047884808574
"F_135";28;25;29;26;73,7992006068848;0,550883674763572
"F_136";95;106;89;99;4321,81857798318;0,723415040370763
"F_137";91;92;87;86;3143,18193877138;0,729427799547306
"F_138";67;70;70;71;626,083983098806;0,641742146849104
"F_139";56;59;57;60;529,944717182424;0,615021547301456
"F_140";39;42;39;43;305,252008145239;0,578197497757241
"F_141";80;80;83;83;2032,781255015;0,677517802644966
"F_142";48;45;50;45;1193,78593891052;0,626136007521153
"F_143";58;54;57;58;600,803770691832;0,628525889730092
"F_144";87;90;87;87;1928,48770383765;0,675045611189947
"F_145";57;56;57;57;991,103033594412;0,664523281596455
"F_146";49;42;54;49;554,929471333033;0,605472893117972
"F_147";83;87;83;93;3194,32213581988;0,73085974174826
"F_148";53;51;57;54;341,44263630373;0,597089264546205
"F_149";66;74;69;80;741,875687419371;0,635523134993002
"F_150";51;38;50;39;641,457018566299;0,626581087579186
"F_151";86;82;79;73;2461,89015500903;0,70258105351994
"F_152";80;88;84;90;1398,62566219131;0,66987036209209
"F_153";94;83;96;81;3259,66477058805;0,732879308447553
"F_154";78;82;81;88;2798,8417433117;0,692027939733307
"F_155";78;83;78;85;1657,64547403869;0,690839518694394
"F_156";81;79;86;79;3027,78461302014;0,708477140560732
"F_157";89;91;91;86;3089,61467060651;0,706256627783672
"F_158";94;90;93;87;2329,80184409774;0,689798032107717
"F_159";35;38;35;38;264,578755399679;0,596827672730531
"F_160";54;50;57;54;394,129621912085;0,611682586333577
"F_161";92;103;88;94;3365,77102030095;0,722455916207651
"F_162";38;36;38;39;696,667656629161;0,635139287720007
"F_163";39;44;37;45;518,4144072776;0,581236363636363
"F_164";45;37;44;36;325,912951931327;0,611994854097322
"F_165";43;48;47;48;224,954423238312;0,581986950442752
"F_166";65;77;65;77;986,905816601811;0,644287510883236
"F_167";75;69;68;72;2740,67688507919;0,68739320405051
"F_168";39;37;41;34;346,295196388266;0,58938053097345
"F_169";28;34;27;39;204,330128939718;0,565765255557128
"F_170";35;41;34;44;642,137492362774;0,624179943767575
"F_171";81;93;77;89;1787,48691099108;0,688965517241381
"F_172";46;42;41;42;338,435851527643;0,629423500997586
"F_173";42;40;44;44;252,828411702864;0,573780692097831
"F_174";70;69;68;66;3572,77865146886;0,717328865485879
"F_175";98;91;104;85;3242,79970521244;0,713444027852171
"F_176";52;46;54;45;365,220181080758;0,603838210849744
"F_177";91;73;94;70;1708,19929544393;0,709475054743449
"F_178";56;51;57;52;514,265758405534;0,614076426595634
"F_179";35;41;34;41;667,472507456366;0,634755903844121
"F_180";24;31;25;30;87,1516080134686;0,546962687180049
"F_181";48;50;48;50;524,558216635012;0,613322418909239
"F_182";71;66;69;68;1722,37465957198;0,702663415549101
"F_183";40;42;41;41;295,293695271903;0,599759855913547
"F_184";87;82;92;85;4115,14900427677;0,703314755060137
"F_185";35;44;41;48;363,897955681119;0,600510945248709
"F_186";69;83;67;81;1360,42040450939;0,633950290851402
"F_187";30;34;31;35;362,293878328334;0,589542843654102
"F_188";56;53;57;52;585,459693273796;0,62880281985649
"F_189";50;43;50;42;392,223584953031;0,62722364070152
"F_190";48;56;50;58;539,432461322539;0,637591745558984
"F_191";27;31;27;33;185,834116627973;0,614926904334446
"F_192";66;62;64;59;1453,3042487033;0,67633286318759
"F_193";33;28;36;31;199,688551102706;0,557934321245066
"F_194";33;30;35;33;230,434225935524;0,575615564859985
"F_195";53;58;52;63;710,902048210256;0,65141553007662
"F_196";96;106;101;107;3618,1525235452;0,730023018743838
"F_197";88;81;86;76;2392,00344936014;0,676982154958214
"F_198";28;35;28;35;170,491870190021;0,58650854224153
"F_199";119;118;120;118;6821,41247642927;0,755940069616104
"F_200";34;31;33;30;221,714304923415;0,595014741356204
"F_201";60;60;65;67;975,545145794522;0,636778922766388
"F_202";44;36;47;38;737,731455807748;0,617441644862893
"F_203";92;90;89;93;1897,30053421046;0,659007201363313
"F_204";45;45;43;47;574,907030350185;0,612244897959183
"F_205";102;116;103;115;5850,26817368598;0,73861395899054
"F_206";83;62;84;62;702,691807342796;0,672297183619914
"F_207";74;91;73;91;1697,58285303781;0,674089068825913
"F_208";82;76;83;75;918,804149350593;0,666000000000002
"F_209";74;84;73;85;2122,61729949456;0,694015075202338
"F_210";27;33;29;32;178,248146290133;0,597958919005196
"F_211";29;40;29;44;790,800735947571;0,603139464681022
"F_212";46;47;50;46;336,616698605276;0,596441649418882
"F_213";31;32;32;31;336,902207324416;0,57397299626544
"F_214";29;30;31;30;210,585682733107;0,599160335865653
"F_215";51;47;49;44;370,108124868453;0,610996717701983
"F_216";21;22;21;22;77,0309110446978;0,561725097697431
"F_217";114;105;108;101;5927,99959841725;0,746032733835339
"F_218";46;52;44;54;594,118720040574;0,621777782388149
"F_219";24;26;24;28;177,282582648117;0,565663810350684
"F_220";51;54;52;57;616,934859237501;0,606741573033707
"F_221";83;77;81;74;1645,73387093744;0,683934276586036
"F_222";74;79;79;78;2161,32002534381;0,700708423932109
"F_223";57;55;54;53;793,753262883365;0,662283851720901
"F_224";47;46;48;47;551,627873092466;0,633340729704886
"F_225";36;43;34;40;473,142154611731;0,613573548981471
"F_226";109;100;106;105;3122,93921149036;0,717586495869751
"F_227";79;64;84;65;1267,97522740501;0,660568657703331
"F_228";89;90;91;94;1753,06798888006;0,658789910424797
"F_229";68;75;66;75;1943,95059095667;0,675799086757993
"F_230";70;70;67;68;836,207288870316;0,643119246368105
"F_231";98;107;93;107;4619,34952662614;0,738541153277481
"F_232";57;61;56;65;746,646460067454;0,62851270866538
"F_233";77;85;81;86;2730,79169999705;0,688419529338804
"F_234";64;61;65;64;1040,32313649564;0,644897520038733
"F_235";86;90;83;92;1964,34323405018;0,681407377934408
"F_236";48;44;52;48;380,602184894725;0,615937933514874
"F_237";46;49;45;50;826,772420110785;0,640418825791977
"F_238";55;59;56;65;657,208927071354;0,641302719705563
"F_239";53;54;53;54;761,215961370341;0,638202725724022
"F_240";49;49;52;53;472,473623505115;0,623303696771174
"F_241";39;39;36;35;382,075745233678;0,585431601976832
"F_242";48;44;46;41;363,864399713599;0,597666766377504
"F_243";43;35;41;33;395,251024396056;0,601595824760375
"F_244";72;81;77;83;1192,91120631075;0,657568510432896
"F_245";55;67;55;66;737,232020095104;0,640884450479543
"F_246";59;58;60;57;445,525188828341;0,616286243059838
"F_247";48;44;47;45;307,120221273443;0,597119005399374
"F_248";46;61;45;59;688,270008602817;0,62432947597571
"F_249";87;84;89;80;1732,44326530076;0,6842856327416
"F_250";46;45;47;46;547,199445097126;0,626528692380057
"F_251";40;44;41;47;398,101341483888;0,603667932281228
"F_252";41;26;40;28;199,793501491643;0,605699272433305
"F_253";100;90;92;87;2346,14993295917;0,692035929526405
"F_254";58;71;56;71;1446,67959884112;0,660910985412328
"F_255";69;70;67;74;1897,33887923709;0,696490820357893
"F_256";67;67;64;63;708,498872571085;0,63474246018299
"F_257";59;58;57;59;704,583813014494;0,644377553214365
"F_258";88;84;93;83;2388,31717525575;0,674848007205585
"F_259";86;84;85;81;2939,00118773436;0,6953999651952
"F_260";43;40;43;42;285,093717336723;0,613806027464593
"F_261";62;75;65;74;1208,11808428411;0,675593426658559
"F_262";50;45;51;44;591,879290067695;0,634843301524091
"F_263";65;64;63;61;639,778692294236;0,631945176594624
"F_264";38;42;33;39;623,382744160161;0,646594966613095
"F_265";28;30;29;30;124,724421708641;0,562420830401125
"F_266";85;95;85;98;3255,9953183768;0,715189118243651
"F_267";47;43;45;42;329,629927377624;0,614126759697546
"F_268";32;42;32;41;155,630275038311;0,570097013505801
"F_269";98;92;94;88;2327,64057830065;0,715112325367762
"F_270";87;85;89;87;2244,90089822242;0,717526365562566
"F_271";78;66;78;69;2685,77022229018;0,715658766640801
"F_272";70;80;71;84;1802,86114172216;0,671070309001345
"F_273";92;99;92;99;2282,67114187521;0,699971973094171
"F_274";48;60;51;63;718,35070820094;0,612977450529221
"F_275";94;104;88;97;2370,69712682686;0,701774926239875
"F_276";65;66;71;78;1376,33120559879;0,653496434879313
"F_277";76;85;77;87;2180,07143888047;0,702490477585707
"F_278";101;91;95;92;3031,532309531;0,728293358606111
"F_279";96;105;96;101;5273,3353770795;0,746571674119099
"F_280";41;31;43;32;385,957091376815;0,610635696821516
"F_281";85;81;85;82;2527,77813948431;0,69343699024746
"F_282";100;110;95;107;4243,94739268528;0,735144416508252
"F_283";20;20;20;21;68,2401047835607;0,530325149303252
"F_284";74;80;77;83;1817,25338161815;0,670844991606045
"F_285";62;62;61;65;657,83444493896;0,616984045290786
"F_286";37;42;37;46;165,091612449426;0,599489923488522
"F_287";57;61;55;64;1597,19035706813;0,683700239534622
"F_288";80;86;79;87;1462,43559015728;0,654566898178485
"F_289";71;75;67;73;1385,70264449167;0,668823923231426
"F_290";60;78;59;76;1346,66682102077;0,673052090234346
"F_291";100;89;90;90;4545,9084647977;0,725578017189204
"F_292";86;79;86;83;2284,86461890244;0,698397902709003
"F_293";21;26;21;27;100,023694513578;0,552712384851586
"F_294";39;32;47;32;304,036887936461;0,605020641761968
"F_295";80;73;83;73;2558,92480279186;0,711580696859978
"F_296";56;56;57;61;875,413861715372;0,634789515488483
"F_297";40;47;40;55;613,342036979718;0,595529061102831
"F_298";69;71;68;67;860,236825032766;0,651097110580058
"F_299";84;85;86;82;2202,74334613445;0,687306501547988
"F_300";24;13;25;13;61,7807120210371;0,525213581599124
"F_301";16;18;17;19;31,1808568765501;0,531948881789138
"F_302";64;80;67;76;1406,12942706223;0,686362074888356
"F_303";83;80;87;82;1699,01954606798;0,686385653921472
"F_304";63;52;58;51;411,766659244476;0,620111731843575
"F_305";73;85;75;89;1604,89218515229;0,678054298642537
"F_306";16;17;19;17;46,7831357448772;0,54912738765975
"F_307";99;98;95;97;2821,884557834;0,707615663404442
"F_308";38;46;38;46;221,511235082001;0,590600059119124
"F_309";70;72;67;73;1225,84913036159;0,677885594082922
"F_310";40;51;41;52;749,472620898997;0,62268855183877
"F_311";30;31;30;35;342,031174027126;0,599777860051832
"F_312";69;66;68;62;958,418997370718;0,628730266953375
"F_313";21;20;21;19;180,746608223154;0,550453660507659
"F_314";52;49;53;49;761,269686565452;0,623939542194509
"F_315";83;83;93;86;2540,14177635281;0,698479286837968
"F_316";89;96;90;94;2335,07597202605;0,68264905187632
"F_317";52;59;47;59;1091,18616917934;0,656265396616856
"F_318";82;78;79;78;2103,0545604614;0,708661417322837
"F_319";32;33;32;34;111,153649010492;0,58888834307609
"F_320";89;88;85;82;2422,10824548517;0,702408156090704
"F_321";34;28;30;29;314,052232819551;0,609350696880051
"F_322";63;62;67;62;961,213119932912;0,651167843563283
"F_323";36;37;36;39;246,399510860808;0,572919653610138
"F_324";51;55;52;57;595,335538980635;0,613153022289963
"F_325";23;28;25;30;88,0627112656501;0,568367153423098
"F_326";40;35;42;36;227,586928831576;0,596269584680426
"F_327";26;20;26;23;140,1647411915;0,544884323439844
"F_328";39;53;42;56;669,608209371791;0,659768849752347
"F_329";60;47;64;53;548,920206767386;0,639906053165369
"F_330";38;34;38;34;159,452501536695;0,576667757018336
"F_331";24;23;22;23;123,077915706211;0,557711095603628
"F_332";112;101;114;103;3020,58055578522;0,697991266375548
"F_333";76;78;77;79;1080,25736313418;0,632478632478632
"F_334";19;19;19;20;71,8788235638236;0,527664069721379
"F_335";66;73;65;75;1233,87758012548;0,658739229822405
"F_336";35;39;34;39;189,90025511096;0,600920328430929
"F_337";68;77;70;82;1340,13578767386;0,655619360131256
"F_338";68;72;68;67;1195,23998173871;0,667780748663104
"F_339";102;96;103;100;3084,49539571284;0,718972279864223
"F_340";77;83;73;76;2676,71600051038;0,697082117064211
"F_341";27;17;27;17;78,0702724960252;0,555411415863602
"F_342";108;99;107;98;2657,42883905813;0,695827819182282
"F_343";84;74;86;72;1583,29666713426;0,678284485685189
"F_344";44;42;46;48;490,375378631319;0,601583749008901
"F_345";83;98;86;97;3624,37727286167;0,710821227394013
"F_346";39;37;42;40;262,92255765664;0,558907175159681
"F_347";49;49;53;51;439,751091151879;0,592526690391458
"F_348";75;73;78;75;1147,81958847116;0,650814332247558
"F_349";47;45;50;46;259,040841894005;0,610312385451879
"F_350";40;45;41;45;861,780818880099;0,635651187206381
"F_351";77;84;77;90;1932,37534955952;0,685028571428573
"F_352";43;40;47;44;514,626347210559;0,595842818374304
"F_353";58;58;57;58;651,900187173194;0,613328694655628
"F_354";79;79;82;77;1356,63542472646;0,670777425888832
"F_355";16;21;14;18;44,6935679980997;0,533463866144536
"F_356";57;47;59;49;1055,74326056601;0,663530193169874
"F_357";30;39;28;35;248,647499363467;0,595872435183712
"F_358";49;48;49;48;265,839505439623;0,592509118946649
"F_359";47;41;44;40;474,555467376332;0,621545672304198
"F_360";108;96;115;104;3592,98216093381;0,733551987468185
"F_361";40;32;42;34;437,112454053875;0,598054377650286
"F_362";38;39;41;41;718,30583269047;0,620753935376967
"F_363";31;28;33;30;172,464658011402;0,570341119939101
"F_364";40;45;40;46;103,802108468238;0,572930606002675
"F_365";76;78;78;82;1328,44711445083;0,667334669338679
"F_366";45;44;43;41;178,689069805544;0,59141588554514
"F_367";78;76;76;81;1125,3242126596;0,657150374950667
"F_368";31;41;31;39;205,943671587651;0,615217235114801
"F_369";43;41;44;43;550,54160188478;0,58798140118891
"F_370";58;51;58;47;1059,8144291652;0,645369682483286
"F_371";66;75;65;75;1372,36495321184;0,680316891017641
"F_372";57;51;61;55;586,806155330525;0,595428491958634
"F_373";43;42;44;41;204,489911408208;0,591491755232539
"F_374";75;71;71;70;2231,29866731878;0,700356370859385
"F_375";66;62;70;64;1798,93479080376;0,682105263157897
"F_376";91;86;93;85;1749,29774987159;0,671295777802667
"F_377";56;57;63;60;632,492973994495;0,617320823506389
"F_378";49;47;49;49;530,406899526957;0,626987447698746
"F_379";116;109;115;113;5418,64020561473;0,735685793188099
"F_380";74;52;74;53;562,149232011883;0,622307125281616
"F_381";87;93;83;85;2944,49528494616;0,714064473088565
"F_382";81;84;83;89;2477,25139938408;0,680873298952678
"F_383";71;65;74;66;2569,89416528708;0,687070151306743
"F_384";52;41;47;39;437,029976171146;0,625058657907086
"F_385";83;84;88;78;5410,24603850536;0,741235392320537
"F_386";87;92;86;92;2021,88884165911;0,693372818027232
"F_387";51;55;49;53;353,152882678396;0,608342636760376
"F_388";39;39;40;43;398,999031103604;0,617193694203898
"F_389";60;53;64;58;883,515438161402;0,656516976998907
"F_390";46;48;47;45;369,298685286685;0,631665472326435
"F_391";79;80;79;82;2126,51089694889;0,683505330976682
"F_392";34;38;37;41;350,955713305994;0,568491136887429
"F_393";42;50;40;46;497,745162633412;0,6192020826016
"F_394";94;78;90;74;1173,49818498372;0,648315396679467
"F_395";57;59;61;59;946,458071468692;0,644204417217477
"F_396";50;55;48;59;822,902915131403;0,642905409028997
"F_397";96;93;88;95;3734,50481661729;0,741235392320536
"F_398";55;65;55;69;656,85057723313;0,610654359852072
"F_399";74;75;69;76;1360,28483200105;0,678699216450021
"F_400";46;40;48;44;619,205981745584;0,638066851181608
"F_401";81;77;84;77;1920,09750799487;0,678591644967736
"F_402";74;65;72;63;1458,87156772735;0,666473937021882
"F_403";31;25;31;25;154,143626095102;0,543688263626222
"F_404";52;50;50;48;494,8590032369;0,629489603024575
"F_405";31;36;31;34;172,041287813842;0,602745236060132
"F_406";54;56;57;55;503,886214756157;0,626594187748274
"F_407";63;63;68;66;752,895584136043;0,635684893734357
"F_408";23;25;26;29;71,2824989779823;0,54441416893733
"F_409";65;71;70;71;1523,33518667532;0,649467445363039
"F_410";19;21;20;23;66,4044948321264;0,535489346495735
"F_411";24;26;26;28;87,5939915118085;0,545047830356819
"F_412";74;80;69;77;1954,74810363809;0,693509198195074
"F_413";20;19;20;19;32,9942513970378;0,535872334719057
"F_414";34;40;36;40;186,8212443608;0,578521170940748
"F_415";34;35;36;34;298,250012302264;0,622171476022422
"F_416";70;76;72;77;2621,03363111698;0,701586001053437
"F_417";86;74;84;76;2539,83460216365;0,689290355224877
"F_418";89;90;88;91;2303,95005470047;0,710947693037604
"F_419";46;51;47;51;651,143315043404;0,640542013528967
"F_420";35;42;36;40;280,888260668293;0,587203777540483
"F_421";67;59;64;60;2376,07315884458;0,705757682797602
"F_422";49;47;49;52;454,118904827336;0,615204606336791
"F_423";89;78;83;73;3248,21355191689;0,708761972330615
"F_424";75;87;69;81;1937,48403809776;0,683232645617237
"F_425";41;40;41;41;386,076031966253;0,588946204863669
"F_426";54;65;53;63;1822,16561841445;0,685208683425365
"F_427";67;56;71;57;1222,53018765637;0,655784337323038
"F_428";58;48;54;50;1118,92356690446;0,656394756726574
"F_429";35;33;39;34;269,30247704134;0,578783723759679
"F_430";47;46;48;47;448,872986821416;0,612538960707168
"F_431";27;30;25;29;55,5781281869669;0,553692670084522
"F_432";47;39;48;36;351,581820738479;0,604203417166472
"F_433";106;97;100;101;3225,40471706326;0,718429379614539
"F_434";85;96;84;92;3130,69849842691;0,702087286527517
"F_435";72;69;74;72;1089,16892491301;0,648596007141702
"F_436";24;19;23;21;62,8869559389234;0,58993740403921
"F_437";38;41;40;42;910,408597522817;0,652230685527748
"F_438";53;68;54;66;929,888673434097;0,644169801182162
"F_439";67;67;69;64;1465,88098653212;0,678999059777747
"F_440";28;23;28;25;110,559225588928;0,547822510624686
"F_441";64;56;65;56;480,100916612548;0,634554308702098
"F_442";55;61;54;60;920,997357935492;0,655712597908373
"F_443";71;70;71;70;793,255755902954;0,653389581085061
"F_444";82;85;83;83;2811,55083341347;0,714064473088564
"F_445";26;25;26;24;34,9749470274544;0,543747448632467
"F_446";64;60;60;60;935,352160423935;0,646727519906781
"F_447";59;51;57;48;1976,57597155997;0,684012324546391
"F_448";25;22;25;23;62,9444931110496;0,557348086847365
"F_449";88;84;83;78;3206,97688020541;0,71361390558962
"F_450";49;55;50;54;773,700251105479;0,626810419651353
"F_451";41;34;41;32;315,053100667397;0,58981549815498
"F_452";57;52;60;52;414,004163891109;0,619342839429634
"F_453";63;69;65;67;978,657930531325;0,646811265781809
"F_454";66;75;63;69;2170,42471211354;0,684606071681479
"F_455";48;53;48;55;460,721878543942;0,639871897518016
"F_456";79;81;76;81;1723,02687795086;0,653175978292852
"F_457";76;84;78;85;1937,64601613598;0,659333406665934
"F_458";50;52;49;49;382,546037525534;0,623180570573068
"F_459";76;71;77;70;1000,12437590226;0,657366585510301
"F_460";90;101;92;100;3294,17631683421;0,70011096186416
"F_461";51;52;52;54;592,510719978519;0,609828059822972
"F_462";98;95;102;95;2285,92540923745;0,692027939733304
"F_463";75;72;75;69;1846,00587346943;0,671784813673298
"F_464";65;64;60;63;1369,08663359085;0,661319328750958
"F_465";103;95;95;99;4448,08067125933;0,740091369304856
"F_466";51;55;51;55;275,449664615625;0,604008585507421
"F_467";33;36;33;37;117,036548322863;0,569798944816768
"F_468";55;43;52;41;828,625048051565;0,613938053097344
"F_469";74;70;66;67;1876,33855948902;0,693790149892935
"F_470";105;109;100;108;3972,03393569848;0,708971553610505
"F_471";90;99;86;101;3433,03781178753;0,711648283804485
"F_472";47;47;48;47;231,772052555906;0,616444695839975
"F_473";26;32;26;33;61,3019918618594;0,552901023890785
"F_474";28;28;31;29;252,882757666624;0,571810159790126
"F_475";96;88;93;96;2698,81168215497;0,68994095099969
"F_476";54;59;58;58;979,086816271955;0,654223968565816
"F_477";45;52;42;55;411,28314412949;0,621590791247537
"F_478";39;47;39;49;599,01860586195;0,646881070580622
"F_479";89;85;93;82;2497,2435913681;0,702778754836442
"F_480";52;45;48;43;875,900909431269;0,644065975393545
"F_481";41;35;38;38;394,305791963202;0,62085038065151
"F_482";71;73;74;76;1690,64040190704;0,682827914606641
"F_483";52;49;54;46;595,244219392931;0,636440857931623
"F_484";46;53;48;52;475,413605230399;0,614819677512
"F_485";70;65;70;70;1870,89765643064;0,665963002055444
"F_486";68;72;74;75;1144,05657238903;0,642788203753352
"F_487";99;93;97;94;2650,79365870016;0,705741063438988
"F_488";19;28;18;27;61,7876160333999;0,558646721655249
"F_489";28;27;27;27;230,539950082329;0,580217993146573
"F_490";69;71;72;70;1867,60537106912;0,669496258237464
"F_491";52;45;57;49;679,169671951099;0,59739871430707
"F_492";35;33;33;31;204,440189562192;0,586399522584305
"F_493";81;80;74;78;2733,07270211101;0,706032015265558
"F_494";63;75;63;71;1456,9165294841;0,659805162639667
"F_495";39;35;41;37;196,217520897538;0,592076019637089
"F_496";68;73;67;66;1922,00585438507;0,705757682797599
"F_497";66;69;66;67;785,037035309527;0,660532260730621
"F_498";41;40;45;45;400,559323791356;0,566326530612244
"F_499";59;60;54;63;678,619637182746;0,649615259564324
"F_500";41;49;43;51;649,38032098708;0,630748184783754
"F_501";100;78;95;78;6619,2269169994;0,749296831051943
"F_502";27;25;27;24;153,477752800614;0,545678000819337
"F_503";62;63;64;66;491,367615062765;0,608126616953279
"F_504";52;56;54;55;1047,20280968301;0,660750702750375
"F_505";91;82;89;83;2406,62619807323;0,714294226300427
"F_506";57;51;55;48;640,013333018867;0,637781702879277
"F_507";71;66;73;67;1565,99413493724;0,664007976071788
"F_508";44;44;40;42;529,862525493426;0,640042712226378
"F_509";58;59;58;61;633,838883952549;0,639223632291779
"F_510";62;62;68;66;1224,70933840142;0,665519347138179
"F_511";46;38;45;39;297,490946818323;0,617301750772399
"F_512";84;72;85;70;2640,1741842223;0,692435654544615
"F_513";65;61;63;64;845,459831946486;0,674969595964148
"F_514";36;36;40;38;167,055866667846;0,56959860118595
"F_515";49;51;47;53;1232,08687202553;0,646915978630408
"F_516";63;57;64;57;917,259486581336;0,632478632478633
"F_517";59;70;58;68;676,783644591494;0,65882611562981
"F_518";101;113;101;101;3491,01140522067;0,710846516923225
"F_519";56;52;58;54;719,615358767354;0,641021527800059
"F_520";110;108;113;105;4110,45653351764;0,726633531337136
"F_521";58;50;59;47;476,46336485025;0,635597264195961
"F_522";38;34;40;34;266,27788751512;0,587117501861066
"F_523";85;70;79;75;1771,09753990981;0,671077822187891
"F_524";64;64;66;64;1096,6582617081;0,6725763016158
"F_525";51;51;53;55;740,217456116302;0,634084417645193
"F_526";33;33;36;37;226,622260196359;0,601988550768302
"F_527";44;46;44;45;308,631916405747;0,603139464681021
"F_528";20;19;21;19;52,2008703227743;0,526459092705635
"F_529";32;34;38;36;299,186315737999;0,604160787001572
"F_530";38;42;40;41;232,804206844568;0,5936710741346
"F_531";109;108;108;107;3525,62456672521;0,710012911479373
"F_532";74;87;80;87;1609,08704224648;0,695077404766048
"F_533";37;39;37;42;384,506752548319;0,592602845363677
"F_534";75;72;76;75;2007,81773002958;0,682827914606643
"F_535";88;78;86;80;3648,28993067881;0,708678174509342
"F_536";87;98;95;101;2076,74373194051;0,701356142424209
"F_537";56;51;55;50;530,762486908124;0,604617852063306
"F_538";37;38;41;42;193,916637067062;0,577863044337539
"F_539";67;63;71;69;1020,32173770194;0,659376925107811
"F_540";58;65;51;62;659,658018407066;0,653653217011998
"F_541";102;95;104;96;3740,63299458672;0,724648193819819
"F_542";43;44;38;39;434,879766207381;0,637557836515453
"F_543";85;71;88;71;1644,22854772443;0,668078466339725
"F_544";54;46;52;43;637,052666150713;0,616603230120357
"F_545";66;54;69;56;876,217573467221;0,640548858681715
"F_546";60;66;59;60;779,403960271803;0,661209901601733
"F_547";28;26;30;26;123,217845904943;0,548589628599147
"F_548";84;77;83;79;899,128736494025;0,641343890434411
"F_549";86;76;89;82;1859,45912025872;0,668973214285716
"F_550";26;35;25;34;117,940937281046;0,596732605254511
"F_551";48;47;48;45;437,448257297064;0,623777213503726
"F_552";36;35;38;32;100,462283198747;0,577139720962477
"F_553";84;99;81;101;2594,84910992138;0,698023779855831
"F_554";46;56;49;55;823,468114585536;0,641584158415844
"F_555";29;24;30;26;156,630708412637;0,563732636113122
"F_556";83;92;84;90;4172,21366722328;0,712960319725952
"F_557";100;97;107;104;2773,42708040589;0,709005098118075
"F_558";97;94;92;88;5096,14840401594;0,725841608137567
"F_559";30;25;28;24;63,7255036521052;0,544973496867812
"F_560";34;35;34;35;422,275373785005;0,600842020850038
"F_561";110;98;110;102;3941,45867050096;0,73775031693478
"F_562";57;47;57;47;1626,64623954333;0,690751944684532
"F_563";66;75;77;79;1950,64652031047;0,668041237113407
"F_564";47;45;44;45;655,995480749473;0,593553498044262
"F_565";32;50;31;47;333,666914254237;0,600932377562784
"F_566";33;35;31;32;144,174206928319;0,579331941544884
"F_567";38;39;39;43;435,026592620676;0,609394062627083
"F_568";73;81;73;83;2793,76876209577;0,70661463920686
"F_569";46;45;47;44;740,651480529402;0,618671620993962
"F_570";32;42;35;43;281,96930435216;0,598597878842349
"F_571";63;64;63;63;1187,71825466788;0,658826115629811
"F_572";99;110;96;109;3365,25587917239;0,722821826952069
"F_573";44;46;49;53;437,280692930373;0,620240066225165
"F_574";74;75;79;78;2023,94809624899;0,687015026304631
"F_575";25;17;27;17;67,5787498281919;0,562779911179546
"F_576";53;59;54;62;933,165688779627;0,635981665393431
"F_577";66;69;65;70;1575,42113663089;0,695319297024539
"F_578";66;70;68;73;1765,64721584514;0,665815051374619
"F_579";45;40;41;40;419,476852336208;0,633166784624
"F_580";26;33;26;35;116,406826056342;0,584968819229603
"F_581";45;45;43;41;481,687321786688;0,578996174800045
"F_582";32;33;35;34;363,464524046923;0,606882865734506
"F_583";80;78;80;78;1377,5855825371;0,673861720067456
"F_584";68;74;70;74;1800,38420948265;0,682680151706702
"F_585";122;115;120;115;5493,19336199949;0,73133235724744
"F_586";72;71;65;65;2113,51870715347;0,680093039087766
"F_587";36;37;37;37;580,113203478236;0,587647058823529
"F_588";72;70;70;71;1588,20404748286;0,672651778700484
"F_589";43;41;48;45;230,409878495834;0,577734939759035
"F_590";47;51;53;55;519,898935734555;0,614536022227461
"F_591";50;39;50;39;387,360130395835;0,604032932592986
"F_592";71;85;75;89;2265,74366562616;0,684754669560749
"F_593";44;43;44;44;414,590683850057;0,622623870364599
"F_594";69;82;70;84;2184,66290625663;0,686440677966106
"F_595";35;51;37;50;445,495562485528;0,606342623033735
"F_596";79;84;82;83;1989,17097428569;0,686071399956512
"F_597";33;40;35;43;110,655086196915;0,565621107462348
"F_598";28;36;28;36;204,70144478871;0,609784632287863
"F_599";93;99;94;103;2399,53439730872;0,689163552745044
"F_600";93;99;86;92;4528,63548391536;0,721681756886924
"F_601";50;48;50;51;454,408499714277;0,640384615384618
"F_602";40;38;37;35;337,12564765837;0,604233870967741
"F_603";70;75;69;77;3077,6243177009;0,705674593830946
"F_604";57;47;55;48;494,980050063605;0,614920595838974
"F_605";41;49;42;49;591,056847168731;0,612382509194932
"F_606";59;55;64;60;837,757075804888;0,639053254437871
"F_607";97;90;103;92;2053,52668980956;0,686755270394136
"F_608";50;55;54;60;680,789842008622;0,606023840577511
"F_609";40;30;41;31;252,296218906924;0,581349110130447
"F_610";88;83;87;79;1865,37747656062;0,683193708326211
"F_611";72;69;73;70;1927,84652292284;0,674301399451023
"F_612";37;35;36;34;107,818704444623;0,562515836594498
"F_613";107;99;108;99;4031,43023387298;0,721508016755744
"F_614";44;45;47;46;361,778907087509;0,589873542291983
"F_615";26;27;25;28;140,564918570923;0,564353639017041
"F_616";76;73;81;68;2218,31724597861;0,66448644753617
"F_617";68;87;66;94;2417,14459060006;0,678899082568808
"F_618";45;41;48;41;619,331132755132;0,598878975291495
"F_619";45;44;45;47;574,586669658424;0,616317927098863
"F_620";68;73;63;82;1356,57937912676;0,682299373932842
"F_621";37;41;34;38;290,156008907949;0,623712305675222
"F_622";50;50;52;53;408,527606749595;0,612457595945558
"F_623";57;52;57;51;334,746453703269;0,593377221204771
"F_624";38;33;35;33;319,230904785081;0,595469898668785
"F_625";69;63;66;63;1189,18957035643;0,678000610811363
"F_626";26;29;29;30;176,291386496897;0,549303519061584
"F_627";65;66;69;75;1266,33982135475;0,655440131219247
"F_628";29;34;28;39;221,00922240065;0,581744067549861
"F_629";84;89;88;88;2163,38840222658;0,685193017752834
"F_630";85;74;89;72;1286,99426741772;0,679938744257276
"F_631";51;47;51;50;323,493944305064;0,605778851304232
"F_632";113;113;115;108;4702,47670872463;0,724683238224201
"F_633";27;24;27;26;119,040193176865;0,557944708182072
"F_634";43;53;44;53;460,373690229358;0,638270684698117
"F_635";57;43;61;47;751,014913759625;0,613604954701335
"F_636";37;42;43;40;358,588756689071;0,589467473078623
"F_637";37;33;41;33;234,115827692437;0,578878748370273
"F_638";51;55;50;62;277,307155161748;0,597113056991721
"F_639";46;40;46;40;719,944811716255;0,633682207421506
"F_640";102;100;101;101;2133,14973679391;0,672131331367251
"F_641";42;37;41;34;168,999152019463;0,560569360404761
"F_642";78;86;78;87;1615,74290711983;0,67507602207456
"F_643";38;43;41;46;167,050530284255;0,568841817560641
"F_644";82;106;89;103;3467,00691907134;0,722133873066362
"F_645";50;44;49;42;534,086224089164;0,617740722037286
"F_646";57;47;59;48;414,221461240794;0,598382749326145
"F_647";56;59;60;60;578,946509694082;0,614737705758678
"F_648";28;29;29;30;94,0176829004624;0,54879053670506
"F_649";78;65;78;69;2022,60895519986;0,701996837852087
"F_650";31;26;30;26;96,8569060265257;0,567586761990434
"F_651";96;88;101;94;2975,64525557065;0,702778754836449
"F_652";50;53;48;53;395,508627594849;0,608651502843216
"F_653";80;74;81;74;2512,83073157857;0,697163194807915
"F_654";60;60;59;60;1209,1533268637;0,64222346033515
"F_655";67;68;68;72;897,356578356853;0,66217410517013
"F_656";77;74;75;69;1051,50214512517;0,643830760803018
"F_657";48;36;46;37;495,079121182948;0,622636805584411
"F_658";92;84;88;83;3394,0423283194;0,709895185645768
"F_659";28;25;31;24;194,330103004014;0,564991987934772
"F_660";45;47;43;48;538,051688314464;0,606348756752382
"F_661";86;78;87;82;1918,44827453072;0,670769919427039
"F_662";54;53;50;52;575,369043363817;0,632512003376776
"F_663";61;55;63;56;892,156586124733;0,646357901547422
"F_664";74;72;77;77;1415,09191355296;0,671017721405625
"F_665";96;106;89;104;5413,40605076073;0,740255890925261
"F_666";73;65;70;64;1616,35304945611;0,680386392272158
"F_667";86;74;92;79;1119,26680728198;0,654645536855213
"F_668";59;56;56;58;1024,8880935346;0,662210683312161
"F_669";25;23;26;23;96,4012104747627;0,564901467386694
"F_670";84;85;82;84;1025,58134198346;0,640124735684231
"F_671";31;26;31;29;287,665590796951;0,584495368113114
"F_672";103;101;96;96;3345,27093559641;0,702144856911923
"F_673";23;20;24;22;142,288671104027;0,582949174301218
"F_674";35;42;37;41;267,533557073518;0,573495220873158
"F_675";41;43;44;42;606,80588831908;0,614013521819299
"F_676";74;63;71;63;1201,20015740584;0,651507575922265
"F_677";43;44;46;49;234,323234134446;0,592849018347262
"F_678";84;83;83;77;2031,62461226741;0,684754669560748
"F_679";95;101;101;101;3038,58809644282;0,696409898919487
"F_680";43;43;38;38;296,498917196397;0,584666406554817
"F_681";44;42;46;41;416,178850780415;0,60054102795311
"F_682";33;33;32;33;147,476191732814;0,573879575286986
"F_683";38;31;40;31;173,464911554653;0,614977376958356
"F_684";78;74;78;73;2904,47694677237;0,685052058927739
"F_685";89;96;87;100;1688,52735145909;0,662027833001989
"F_686";90;82;91;78;1841,90527999353;0,697853117868953
"F_687";68;63;67;64;1121,48775744735;0,656869513758756
"F_688";42;51;46;52;845,448820183949;0,663838835790153
"F_689";71;65;73;72;1905,05571190272;0,682789023431724
"F_690";53;51;56;51;598,048124426043;0,62404997397189
"F_691";110;132;110;124;4517,16376046435;0,730957781517526
"F_692";52;56;56;55;648,93200827324;0,632979565974973
"F_693";50;50;53;52;497,781005322264;0,626751432514953
"F_694";101;97;104;96;3659,12889718667;0,707423580786029
"F_695";60;61;65;61;986,838556623695;0,659224635688756
"F_696";33;29;31;29;150,140610421216;0,549520063808136
"F_697";110;108;108;108;3689,92719153013;0,706406448875691
"F_698";83;86;81;83;2323,84049712695;0,702572818378951
"F_699";32;29;30;29;285,082585006278;0,589119858469703
"F_700";47;50;50;53;779,11936405859;0,625992146378145
"F_701";48;56;48;56;599,935424248378;0,638889777124039
"F_702";45;45;47;46;632,054924459754;0,611869908740123
"F_703";67;68;65;68;1556,46157252162;0,697706902572465
"F_704";105;92;102;89;3206,99269515804;0,722560424326445
"F_705";47;44;45;43;924,726148181195;0,641536090418704
"F_706";69;76;71;76;1686,57167663374;0,680077606453593
"F_707";68;62;73;71;833,141835907487;0,634205180294565
"F_708";48;43;43;43;344,557975442046;0,618180318062746
"F_709";41;33;46;33;494,460433139204;0,60980324333123
"F_710";27;37;28;38;152,402994947434;0,571652011368187
"F_711";51;42;52;42;416,879877719611;0,600060066072679
"F_712";78;57;77;58;1014,16313306579;0,651344743276285
"F_713";72;66;68;64;2394,39169768718;0,699498191154165
"F_714";30;28;32;28;104,903565579522;0,54580222181752
"F_715";62;62;62;64;591,138307858458;0,614202274823239
"F_716";34;28;34;28;307,192913104309;0,572219570405727
"F_717";57;57;58;57;1043,10261725497;0,651224441016059
"F_718";66;72;63;71;1618,43137659321;0,661465287970253
"F_719";48;46;51;46;372,273490903818;0,57544978015015
"F_720";38;26;36;25;113,224494671228;0,554127761856337
"F_721";70;77;74;78;1595,30291151003;0,67009502515372
"F_722";61;54;59;56;1541,90439166596;0,678169372631109
"F_723";59;43;57;41;533,078723350616;0,608175979382488
"F_724";33;39;34;37;294,966656915175;0,603449143754592
"F_725";81;82;78;75;2255,90154664068;0,701873536299771
"F_726";36;33;39;33;235,259276091655;0,58578060102614
"F_727";39;42;41;42;226,756092236746;0,607775141449168
"F_728";25;24;27;26;98,0579452815702;0,571183533447683
"F_729";37;37;41;41;124,731257684399;0,586152943477409
"F_730";77;85;73;85;2306,19691809985;0,687448389760533
"F_731";51;50;48;46;278,728132982655;0,615880974888002
"F_732";69;80;70;85;1064,81695134808;0,636089651073946
"F_733";49;50;48;45;978,671263105491;0,676714648602884
"F_734";63;56;61;58;615,097536421792;0,620593259822953
"F_735";54;48;55;48;717,194397105904;0,626725219573401
"F_736";53;36;58;39;321,923723698824;0,613931764874581
"F_737";42;36;48;42;226,882123734529;0,565407689695505
"F_738";48;43;48;45;318,97107660941;0,594100622447765
"F_739";119;112;110;108;5055,52569955725;0,739361046009625
"F_740";74;71;71;69;1423,8333477501;0,659551056338031
"F_741";84;95;92;97;1610,15199579757;0,681399631675878
"F_742";84;81;84;79;1665,32993804603;0,685428078079797
"F_743";61;58;61;57;588,992029469696;0,601764936199262
"F_744";47;39;45;39;466,282832198395;0,603856460679816
"F_745";75;87;74;85;1761,24253696776;0,670132483649171
"F_746";98;99;97;99;3787,78440865298;0,719265614687711
"F_747";86;89;87;85;2940,80838237593;0,700233644859814
"F_748";32;30;34;31;133,644169848701;0,569663562060444
"F_749";78;71;74;72;1277,36607859213;0,666037002055672
"F_750";71;64;74;63;808,469123827158;0,648224250551543
"F_751";57;62;53;62;447,795667554528;0,612413793103447
"F_752";49;50;48;48;353,533037424391;0,595026554822057
"F_753";88;89;89;88;2550,6210634976;0,684168473918505
"F_754";49;47;48;45;564,155776686048;0,614107883817426
"F_755";103;110;100;109;4069,47050938804;0,733614833853501
"F_756";77;71;75;66;1086,84337701134;0,649094689422163
"F_757";56;50;56;48;374,311927331636;0,626803864976787
"F_758";84;96;80;98;4506,56506598253;0,722543004207
"F_759";48;37;46;36;246,0628995491;0,561672460807556
"F_760";75;83;74;75;2279,10045632942;0,704886223319814
"F_761";30;33;32;36;140,548591936772;0,560071760946347
"F_762";91;89;90;97;2115,20905375964;0,675418333427237
"F_763";30;31;31;34;134,015687037931;0,568771646818806
"F_764";48;50;48;45;822,727340023336;0,644627032607766
"F_765";50;52;47;47;969,542692101943;0,652479181407505
"F_766";89;90;85;83;2155,83589243325;0,70663129973475
"F_767";80;83;77;84;2696,06725709012;0,692891904701356
"F_768";29;32;31;34;140,625287911788;0,551857478248861
"F_769";40;37;40;39;568,845167705941;0,595168353010097
"F_770";44;42;45;39;548,381514933829;0,649157957437597
"F_771";29;29;30;31;146,236639283266;0,569555302166476
"F_772";48;45;51;45;756,425012290326;0,654602640689335
"F_773";43;38;45;37;600,905595149659;0,621075536213864
"F_774";42;42;42;41;149,849642411925;0,573659881133537
"F_775";70;57;73;59;966,258879928013;0,636731572070493
"F_776";33;26;31;26;159,858800302065;0,562130732439275
"F_777";63;69;63;73;1469,90513112956;0,655081967213116
"F_778";35;33;35;33;325,538829761583;0,610001831837332
"F_779";64;72;65;77;2267,85309313945;0,68600858369099
"F_780";36;37;34;37;124,939298737875;0,594613362432417
"F_781";75;66;74;69;1189,07897089263;0,646706586826349
"F_782";31;27;31;29;153,008748691602;0,568895806837379
"F_783";58;63;57;63;1493,98170217428;0,661772012144638
"F_784";36;46;39;47;183,317807738855;0,573495220873159
"F_785";58;48;57;49;765,973132685144;0,637625658209671
"F_786";98;92;103;89;2363,54160871266;0,685600558179968
"F_787";74;72;80;71;2245,38422202509;0,701832445407179
"F_788";34;44;32;44;332,015161094091;0,630237521948965
"F_789";75;68;75;66;2022,20752873084;0,647265266454297
"F_790";80;62;74;67;1571,97909330303;0,68983772586029
"F_791";49;56;49;54;533,31962979819;0,622850314334701
"F_792";74;72;74;74;1199,33777658492;0,669309362961312
"F_793";39;40;39;38;339,735362681055;0,582813138089958
"F_794";34;49;38;48;571,344518485168;0,636123404119841
"F_795";41;43;42;41;322,439350044291;0,622061708023288
"F_796";76;84;70;81;1695,00459138951;0,696005573618208
"F_797";86;103;86;99;3663,42662495461;0,715027019289269
"F_798";86;85;82;87;2223,17614949558;0,680772769089238
"F_799";47;44;50;48;519,341846533184;0,614737705758678
"F_800";63;60;65;70;1582,73375733578;0,679977311401024
"F_801";38;38;39;39;260,985434570056;0,599022615752075
"F_802";74;84;77;80;1600,87278832021;0,669743119881115
"F_803";39;41;38;42;397,16739816782;0,617925403599926
"F_804";29;30;30;32;179,688453367121;0,569138885460087
"F_805";80;88;75;90;3472,58361512424;0,720475990143643
"F_806";43;46;45;50;356,393592892735;0,575532660566314
"F_807";92;85;95;81;3461,65120633856;0,718799841705745
"F_808";32;37;35;41;163,928385840228;0,567039079720358
"F_809";66;59;69;67;1144,18415214356;0,665024630541874
"F_810";93;94;91;90;3136,58088537899;0,708326439932882
"F_811";58;63;58;63;904,377781158573;0,617683429513601
"F_812";77;88;74;85;1743,60945860338;0,701175644849975
"F_813";51;45;51;45;543,337202432248;0,609797039523881
"F_814";46;41;44;43;781,960684544113;0,649918136771232
"F_815";56;51;57;48;624,391491671239;0,625482625482626
"F_816";68;76;64;76;1044,64349503421;0,652088772845955
"F_817";28;33;29;35;153,345777054951;0,558074577533634
"F_818";40;40;41;38;309,569253649025;0,622113358727127
"F_819";74;64;79;69;1058,64458792596;0,652763408657775
"F_820";80;73;83;72;2065,27622974694;0,667000500751128
"F_821";35;31;36;32;127,576218946334;0,616400320849017
"F_822";39;39;41;42;339,827046193949;0,595056090539064
"F_823";43;40;42;41;606,910178835561;0,602824040550325
"F_824";36;40;40;45;238,412245703539;0,584210526315787
"F_825";44;36;44;35;224,502684642347;0,608935936769814
"F_826";75;81;72;84;2179,93411761499;0,686165645927539
"F_827";85;87;87;89;2371,29392150024;0,713121482873903
"F_828";82;76;78;76;1972,54712897307;0,671295777802672
"F_829";80;78;79;74;1548,94423114099;0,676256557793199
"F_830";41;38;45;42;267,000056312781;0,58740518609984
"F_831";54;69;51;68;1061,67593954835;0,671897769308377
"F_832";43;41;44;41;476,107452907993;0,605197794874901
"F_833";47;59;46;56;930,227802868709;0,639087322742299
"F_834";23;25;21;23;76,5637397234925;0,532705296836119
"F_835";66;64;64;67;1473,27289400306;0,660896411048026
"F_836";76;96;82;92;2700,88976116849;0,695989410371335
"F_837";74;73;77;72;1182,02885262133;0,670965142051181
"F_838";39;28;37;27;109,546735698531;0,577456647398843
"F_839";36;39;37;40;554,567383760495;0,62191326001245
"F_840";68;73;67;75;1013,10912116685;0,646336992387156
"F_841";43;51;42;49;485,325289690107;0,634957627118646
"F_842";45;42;47;42;392,403120157697;0,577195296927209
"F_843";61;45;62;49;297,661003841557;0,599939945951355
"F_844";56;47;55;45;1862,65976616508;0,683053570818099
"F_845";39;46;37;45;596,145256289047;0,635974917505758
"F_846";89;89;85;90;3370,11525363067;0,718016291327268
"F_847";94;100;95;103;3102,3335402783;0,712977280837399
"F_848";61;73;59;76;1603,93408258219;0,683022436956598
"F_849";50;59;50;57;586,441889758379;0,637747773628269
"F_850";39;44;40;44;1657,6510635472;0,662627959937217
"F_851";35;38;35;37;213,817150036704;0,583403087344998
"F_852";35;41;37;43;225,628883576939;0,5760691975012
"F_853";56;62;56;64;669,125351982969;0,632578755738483
"F_854";54;54;56;60;950,830462567838;0,63163219069096
"F_855";70;69;71;68;1565,34920827261;0,672515932142544
"F_856";71;75;74;71;2047,17356007307;0,692515654966847
"F_857";58;73;54;71;1776,2176043236;0,677311095291367
"F_858";45;39;47;39;340,260289117122;0,605454545454544
"F_859";69;58;70;61;708,136800227185;0,656107359042002
"F_860";48;38;51;40;348,61163396222;0,608898821617228
"F_861";55;52;60;53;832,739533525237;0,629443330147962
"F_862";49;60;53;60;416,639979704611;0,632732339652916
"F_863";90;91;89;94;2152,57658148473;0,684152855773184
"F_864";62;57;59;56;774,00412898312;0,634117958212113
"F_865";49;50;57;53;820,289086761588;0,616400320849015
"F_866";25;22;25;24;98,1281593793204;0,54227167865382
"F_867";62;68;61;66;2375,01210169094;0,700364554122271
"F_868";46;56;44;59;643,887220203749;0,626961215011923
"F_869";39;41;40;44;294,194178917943;0,59561782679982
"F_870";87;88;93;88;2732,29045622046;0,684449722520383
"F_871";79;88;77;86;2188,6314481665;0,710947693037605
"F_872";18;23;18;25;62,875445987877;0,538558990808378
"F_873";33;39;35;41;84,5061986106329;0,565407689695505
"F_874";65;67;67;70;1196,50851337794;0,648175182481755
"F_875";48;54;45;57;748,306127264427;0,633213606592016
"F_876";81;81;77;71;4018,37515448996;0,734513816555362
"F_877";59;64;59;67;1225,27954170862;0,646392753154323
"F_878";84;88;85;87;2864,63657889588;0,707465329005612
"F_879";42;44;43;40;317,883355512665;0,611526571921196
"F_880";40;42;42;50;651,18367325908;0,639994874915919
"F_881";63;65;61;60;1048,97008712218;0,662584011319423
"F_882";60;56;61;56;862,656034813054;0,625789545117609
"F_883";25;20;28;21;76,6655345410071;0,539174237654044
"F_884";51;64;50;66;425,539862863872;0,604904632152587
"F_885";91;77;93;78;1540,00932214834;0,663662433428925
"F_886";17;16;16;17;29,3035792709706;0,517728352407688
"F_887";18;16;18;16;46,4798595878172;0,525881733637481
"F_888";89;85;79;84;2400,18091565214;0,694296437010614
"F_889";56;51;58;55;906,178978744476;0,635765803988122
"F_890";71;79;79;78;1133,53350151872;0,646260337038675
"F_891";108;96;107;99;2656,00840406748;0,689361702127661
"F_892";68;59;73;58;714,182652004976;0,640145244833664
"F_893";97;102;98;109;3054,33376151974;0,689956834532375
"F_894";66;61;67;61;1317,61424457751;0,667082155496701
"F_895";47;48;48;51;1348,15848460864;0,677173360447384
"F_896";75;80;77;79;1003,33034131079;0,667267808836791
"F_897";83;77;82;77;2421,04920045113;0,705549997057269
"F_898";29;22;30;25;182,819507427522;0,554399400649296
"F_899";85;86;86;85;2244,49760761776;0,687172549783899
"F_900";95;91;88;85;3520,27340129383;0,726897889886008
"F_901";35;34;38;35;421,350005815094;0,601897876186172
"F_902";46;42;46;40;630,431939055913;0,622688551838769
"F_903";67;70;69;70;789,405845127402;0,643291799478414
"F_904";80;78;87;80;1388,19445218201;0,655942219304007
"F_905";51;53;52;52;515,54530355634;0,612538960707169
"F_906";46;35;47;35;264,728794772614;0,605148914689549
"F_907";70;68;70;72;1453,80856080368;0,65841361204785
"F_908";94;99;93;98;3214,13529351338;0,694159747072926
"F_909";110;114;108;115;5967,238452848;0,744226471318602
"F_910";48;42;46;44;567,027661603602;0,625920240593967
"F_911";61;55;62;54;1131,52026103127;0,654423967158706
"F_912";45;41;45;40;439,465944386583;0,617079322592269
"F_913";34;55;37;54;578,991921189809;0,628170194927689
"F_914";81;80;84;74;1938,79226693424;0,669683257918558
"F_915";78;80;79;85;2508,39246952699;0,696612237782556
"F_916";89;74;94;77;1806,08360895299;0,677372328764029
"F_917";87;99;87;100;3042,45610728457;0,700806734479131
"F_918";54;55;49;50;476,375494766528;0,631945176594624
"F_919";66;68;71;70;2002,31634509163;0,698218924365446
"F_920";30;28;31;29;121,03824643275;0,551020408163265
"F_921";119;114;120;113;4120,99185578038;0,71808510638298
"F_922";73;76;73;72;2532,93143919968;0,690274658835726
"F_923";58;59;60;60;683,945910635565;0,635543350333465
"F_924";82;77;78;81;2296,5407254104;0,684387202849903
"F_925";45;46;42;44;246,676037235904;0,608558810091882
"F_926";27;32;30;31;233,118405667322;0,570438821055035
"F_927";57;50;54;49;479,515287156956;0,607879924953095
"F_928";38;38;41;45;573,111865895639;0,603716573500527
"F_929";64;64;64;68;1468,49925274159;0,656840721056383
"F_930";62;64;61;63;637,740788200322;0,637998935604045
"F_931";110;108;109;107;3613,8531862033;0,723956760673955
"F_932";43;50;41;47;341,855009629977;0,615533123157971
"F_933";57;52;58;58;331,395272770862;0,618339746433249
"F_934";110;89;106;88;3355,09508330639;0,727939569114183
"F_935";39;30;41;30;178,046480272148;0,579791453057591
"F_936";33;31;33;33;151,2824113021;0,580870239364279
"F_937";40;48;38;45;275,809017753704;0,600018018559114
"F_938";89;85;91;89;5557,79081394779;0,725604367668603
"F_939";26;22;24;22;221,44156822375;0,596406041670811
"F_940";47;47;52;48;675,397451487329;0,618307854180851
"F_941";45;43;47;46;476,300169748903;0,610138436482084
"F_942";29;31;29;32;169,409069660093;0,57466085039068
"F_943";76;72;76;76;2204,82504840318;0,688609339996555
"F_944";62;72;64;71;1326,55599133358;0,656840721056382
"F_945";68;58;68;53;1483,34477641756;0,675114039533712
"F_946";61;65;59;63;1271,39621666187;0,675509675092697
"F_947";77;58;72;54;557,892266075284;0,631080227416298
"F_948";55;59;54;61;1399,07277862658;0,66300175871338
"F_949";37;39;36;37;662,154583296023;0,618914370088903
"F_950";45;46;45;49;318,418444172597;0,581619880260437
"F_951";92;90;94;85;2911,7333871687;0,705134992059296
"F_952";81;85;82;82;1648,25237266838;0,694900124047905
"F_953";81;83;81;84;1720,82738908394;0,691190036900374
"F_954";51;55;49;54;386,327196251718;0,620979020979021
"F_955";71;82;68;76;2071,40423149768;0,694674624789942
"F_956";45;43;45;44;391,423055920299;0,579186394820755
"F_957";44;45;46;45;371,396091464068;0,630967293704012
"F_958";59;65;61;66;884,061506899026;0,652003654875345
"F_959";61;69;64;73;1803,4323003555;0,67637102234259
"F_960";63;62;60;65;1558,34874312232;0,659986787051317
"F_961";43;57;42;59;562,025683847804;0,618895198760971
"F_962";70;57;74;56;846,525275071587;0,64966454591765
"F_963";66;60;64;59;1136,57214940486;0,663420033204207
"F_964";35;40;33;39;331,959674226101;0,598520175342246
"F_965";49;54;53;52;626,139554253251;0,63191186547889
"F_966";36;39;36;38;541,99766371882;0,593201049037556
"F_967";75;79;71;75;1213,42993919857;0,657128761716824
"F_968";22;29;22;31;89,8159581594762;0,575560292677305
"F_969";27;27;27;32;127,442350748668;0,579427146268135
"F_970";17;17;17;17;29,5465621213125;0,527780223650613
"F_971";39;40;40;41;473,82220093698;0,597684645068652
"F_972";81;63;86;71;971,034659005456;0,660066733473557
"F_973";82;85;79;81;2175,1637754531;0,693974899272914
"F_974";39;41;41;41;340,008679841398;0,611277114331459
"F_975";83;72;81;73;1937,32609077124;0,673899600876948
"F_976";77;62;83;61;1027,46045735235;0,65522518583297
"F_977";46;60;50;59;468,426268755668;0,582128254683539
"F_978";66;59;62;58;1596,52179826014;0,642134018961918
"F_979";48;36;48;38;275,253034985008;0,609319725125034
"F_980";34;34;35;34;199,410259657764;0,57107469512195
"F_981";67;57;68;63;680,79042083662;0,639360000000002
"F_982";111;91;105;91;3097,07900841855;0,700888681010292
"F_983";20;19;18;17;74,9779969477639;0,584370003509729
"F_984";61;53;63;51;515,596065813373;0,63314672018591
"F_985";26;32;24;34;193,012786785132;0,574027963991571
"F_986";52;50;55;48;601,236722871865;0,654438257451689
"F_987";80;81;80;84;1064,80249900343;0,664891846921798
"F_988";81;71;73;67;1465,13534767733;0,687882300285758
"F_989";26;24;28;24;74,8177614293936;0,547637320469247
"F_990";51;65;52;63;933,767294934505;0,663640389725423
"F_991";70;73;70;67;1135,33655220245;0,6589709762533
"F_992";76;68;78;70;1920,45701580324;0,679129843643781
"F_993";55;68;58;63;1281,3810472644;0,655518979866361
"F_994";54;57;62;56;888,717868530099;0,647342160399163
"F_995";94;106;100;109;2305,15880391051;0,700094607379378
"F_996";22;21;23;22;107,848056584952;0,538810733066655
"F_997";79;88;83;98;1708,08257895147;0,673884448042095
"F_998";65;64;65;63;1450,51558160786;0,674772036474166
"F_999";85;78;86;73;3402,67532404538;0,710551584337999
"F_1000";54;55;56;61;503,049531333174;0,623725286160249
