"Roost";"In";"Out";"InLink";"OutLink";"Betweeness";"Closeness"
"R_1";21;21;7;7;11,5261904761905;0,450570342205323
"R_2";21;21;7;7;260,076587301587;0,628647214854111
"R_3";18;18;5;6;0,527777777777778;0,442577030812325
"R_4";27;27;12;15;545,652272727273;0,730354391371341
"R_5";22;22;8;8;342,209523809524;0,609254498714653
"R_6";28;28;13;12;361,300036075036;0,702222222222223
"R_7";18;18;4;4;19,5333333333333;0,43327239488117
"R_8";18;18;6;6;40,9166666666667;0,463343108504399
"R_9";21;21;6;7;169,916666666667;0,617589576547231
"R_10";15;15;3;4;0,983333333333333;0,350981118104406
"R_11";16;16;2;2;0;0,348017621145374
"R_12";18;18;6;6;18,9722222222222;0,499473129610116
"R_13";26;26;14;13;277,436940836941;0,690962099125365
"R_14";24;24;11;13;619,23740981241;0,729792147806005
"R_15";31;31;14;15;760,471428571429;0,711177794448613
"R_16";22;22;8;8;331,035028860029;0,582309582309583
"R_17";25;25;13;13;394,843650793651;0,671863926293409
"R_18";20;20;6;6;29,9487012987013;0,569027611044418
"R_19";20;20;9;6;259,618686868687;0,530201342281879
"R_20";25;26;10;12;297,347763347763;0,624505928853755
"R_21";23;23;8;8;249,033838383838;0,521452145214521
"R_22";17;17;6;6;4,45;0,44319775596073
"R_23";21;21;11;13;90,6940476190476;0,628647214854112
"R_24";22;22;9;11;24,7166666666667;0,492211838006231
"R_25";16;16;3;3;141,133333333333;0,5287228109314
"R_26";26;25;12;13;943,725541125541;0,751784298176051
"R_27";25;24;10;8;68,2726551226551;0,514378730330982
"R_28";21;21;10;9;52,0357142857143;0,486652977412731
"R_29";22;22;13;14;49,204797979798;0,569027611044418
"R_30";20;20;8;7;15,9083333333333;0,467225234105471
"R_31";22;22;11;10;409,048701298701;0,678596993557624
"R_32";29;29;13;13;1271,31608946609;0,786721991701245
"R_33";20;20;7;6;202,221428571429;0,5
"R_34";23;23;10;10;225,385317460318;0,614785992217899
"R_35";21;21;10;11;223,148412698413;0,603053435114504
"R_36";18;19;5;5;13,9635281385281;0,430517711171662
"R_37";25;25;10;12;220,706421356421;0,6139896373057
"R_38";23;23;9;10;179,14880952381;0,515217391304348
"R_39";27;27;11;11;332,45;0,67425320056899
"R_40";21;21;10;9;497,306349206349;0,706408345752608
"R_41";20;20;8;7;69,1333333333333;0,541714285714286
"R_42";19;19;8;6;9,28333333333333;0,497376705141658
"R_43";18;18;3;4;19,3952380952381;0,439295644114921
"R_44";20;20;7;7;128,890909090909;0,489669421487603
"R_45";20;20;7;8;14,5;0,504792332268371
"R_46";18;18;7;7;65,3666666666667;0,548293811451706
"R_47";18;18;5;5;18,9166666666667;0,428571428571429
"R_48";19;18;7;8;3,16666666666667;0,424161073825503
"R_49";24;24;13;14;125,36626984127;0,534686971235195
"R_50";21;21;7;6;260,421356421356;0,605750798722045
"R_51";24;24;11;10;133,050649350649;0,527252502780868
"R_52";26;26;11;10;321,556060606061;0,676659528907923
"R_53";19;19;6;5;10,6761904761905;0,488156539649846
"R_54";24;24;9;10;250,117857142857;0,634538152610442
"R_55";19;19;5;7;14,95;0,466995073891626
"R_56";19;19;5;7;2,2;0,540478905359179
"R_57";22;22;9;8;71,5746031746032;0,532584269662921
"R_58";23;24;12;12;187,252777777778;0,569369369369369
"R_59";23;23;10;9;230,522691197691;0,511602806260119
"R_60";18;18;4;4;0,333333333333333;0,403747870528109
"R_61";18;18;4;3;65,5666666666667;0,471407260069617
"R_62";21;21;10;8;111,539682539683;0,573155985489722
"R_63";20;20;6;5;14,75;0,425302826379543
"R_64";23;23;9;7;236,590151515151;0,572118286059143
"R_65";19;19;8;7;91,8091630591631;0,503719447396387
"R_66";19;19;11;9;123,177056277056;0,54017094017094
"R_67";18;18;5;6;144,383333333333;0,488408037094281
"R_68";22;21;9;10;56,7613275613276;0,49119170984456
"R_69";22;22;7;8;115,811111111111;0,524916943521594
"R_70";26;25;11;12;494,284271284271;0,615184944841012
"R_71";23;23;13;11;881,512121212121;0,718726307808946
"R_72";16;16;2;1;0;0,424350940017905
"R_73";20;20;6;5;76,75;0,480243161094225
"R_74";23;23;9;9;46,9488095238095;0,506139882541377
"R_75";20;20;8;8;36,115873015873;0,492723492723493
"R_76";22;22;7;7;15,5833333333333;0,433074463225217
"R_77";21;21;8;9;263,092857142857;0,543266475644699
"R_78";24;24;10;10;571,842676767677;0,688453159041395
"R_79";17;17;3;3;2,03333333333333;0,457087753134041
"R_80";20;20;7;6;42,2666666666667;0,519736842105263
