"ID";"Cell";"100m";"250m";"500m"
"F_1";2653532;6589;1070;246
"F_2";2036517;5081;757;157
"F_3";3135045;7713;1229;265
"F_4";1267470;3090;482;112
"F_5";6916060;17363;2770;618
"F_6";2582125;6505;1036;231
"F_7";2365926;5863;954;220
"F_8";3616336;9116;1443;335
"F_9";1821736;4510;702;159
"F_10";5708050;14342;2315;518
"F_11";1127234;2760;408;79
"F_12";4083655;10257;1609;358
"F_13";4211348;10540;1664;382
"F_14";2102079;5309;848;198
"F_15";213956;530;96;17
"F_16";5646937;14191;2255;517
"F_17";1943366;4927;811;182
"F_18";7059436;17560;2790;627
"F_19";955552;2456;403;103
"F_20";6717802;16747;2639;585
"F_21";4824223;12131;1895;434
"F_22";6654299;16623;2647;589
"F_23";7264316;18216;2879;641
"F_24";695589;1660;258;64
"F_25";5279334;13098;2107;477
"F_26";7110124;17770;2816;639
"F_27";6595074;16422;2625;579
"F_28";3803752;9481;1531;348
"F_29";5401735;13552;2115;480
"F_30";1862623;4666;707;161
"F_31";5907096;14707;2345;532
"F_32";2493876;6160;1014;221
"F_33";5721417;14284;2292;508
"F_34";3882433;9638;1536;351
"F_35";5880435;14681;2335;527
"F_36";3658309;9036;1469;321
"F_37";402232;937;143;39
"F_38";6550162;16355;2598;593
"F_39";4123952;10383;1660;380
"F_40";7291324;18259;2896;648
"F_41";1850749;4509;702;159
"F_42";7269769;18198;2872;638
"F_43";1657034;4120;662;141
"F_44";189162;452;65;4
"F_45";5853550;14644;2320;520
"F_46";3260610;8180;1300;297
"F_47";3875620;9588;1515;342
"F_48";2611729;6387;989;210
"F_49";117279;344;22;10
"F_50";7205810;18051;2871;637
"F_51";1306930;3320;516;128
"F_52";5628920;14017;2243;512
"F_53";2397566;5992;947;217
"F_54";7117076;17827;2839;649
"F_55";6169697;15489;2484;568
"F_56";544347;1361;197;36
"F_57";1730855;4324;686;152
"F_58";6965955;17389;2780;622
"F_59";905737;2289;394;99
"F_60";6878184;17213;2767;617
"F_61";6194428;15419;2456;555
"F_62";1606798;3932;587;133
"F_63";1549119;3808;596;137
"F_64";4343387;10751;1691;368
"F_65";1590455;3986;609;143
"F_66";6393538;16077;2545;569
"F_67";5953733;14860;2348;533
"F_68";863234;2053;299;57
"F_69";7046059;17617;2813;637
"F_70";5783383;14477;2311;516
"F_71";7072472;17630;2818;640
"F_72";2849515;7236;1155;258
"F_73";65191;209;26;12
"F_74";7241376;18086;2885;643
"F_75";1303461;3291;505;123
"F_76";1306197;3283;501;121
"F_77";5437556;13600;2192;489
"F_78";7061923;17684;2840;649
"F_79";6719990;16712;2625;579
"F_80";2297644;5790;924;207
"F_81";1189378;2962;489;116
"F_82";4001411;9922;1591;349
"F_83";2189045;5444;844;197
"F_84";4391273;10966;1777;407
"F_85";3528109;8772;1421;325
"F_86";6893879;17126;2733;601
"F_87";3943882;9805;1544;355
"F_88";5839609;14528;2274;499
"F_89";2883268;7181;1133;248
"F_90";1841217;4613;743;178
"F_91";5944339;14826;2335;527
"F_92";23594;18;8;4
"F_93";3515045;8845;1450;338
"F_94";5357167;13358;2095;472
"F_95";3345923;8379;1322;307
"F_96";3190001;7846;1225;263
"F_97";2491578;6190;1026;226
"F_98";2244266;5591;903;197
"F_99";1535428;3850;612;145
"F_100";4777062;11952;1881;428
"F_101";4415289;11150;1792;414
"F_102";63784;284;56;25
"F_103";1479048;3646;589;134
"F_104";5857994;14576;2351;534
"F_105";1820822;4610;742;177
"F_106";6845124;17013;2687;607
"F_107";5274794;13161;2133;488
"F_108";46557;4;2;1
"F_109";6317003;15737;2525;560
"F_110";7322995;18390;2948;672
"F_111";4444030;11135;1786;411
"F_112";3758617;9403;1499;334
"F_113";7191653;17924;2878;640
"F_114";3277179;8137;1283;290
"F_115";4862403;12152;1961;437
"F_116";6735826;16777;2709;617
"F_117";1952859;4820;768;163
"F_118";3298522;8188;1303;299
"F_119";6361295;15918;2539;567
"F_120";4532934;11367;1763;401
"F_121";2135776;5250;824;188
"F_122";5685068;14210;2262;520
"F_123";1325351;3224;536;111
"F_124";4168964;10310;1630;367
"F_125";221691;481;77;9
"F_126";621008;1562;277;73
"F_127";2797482;7104;1160;260
"F_128";283957;689;102;20
"F_129";6220015;15536;2445;550
"F_130";4843145;12061;1925;421
"F_131";6246879;15572;2459;557
"F_132";4692503;11647;1875;425
"F_133";1256115;3103;488;115
"F_134";5711938;14246;2277;501
"F_135";2383;119;48;22
"F_136";4826309;12091;1879;426
"F_137";5079478;12692;2003;456
"F_138";2878794;7247;1159;260
"F_139";4347185;10796;1709;376
"F_140";5566056;13779;2206;495
"F_141";3736697;9324;1468;320
"F_142";4802078;11896;1859;418
"F_143";7491455;18679;3006;672
"F_144";1412861;3532;543;114
"F_145";3784305;9525;1490;330
"F_146";619195;1472;241;56
"F_147";4121619;10267;1671;385
"F_148";3612608;9075;1426;328
"F_149";6715748;16790;2656;593
"F_150";5436201;13533;2165;477
"F_151";3363768;8399;1330;311
"F_152";1922463;4898;800;177
"F_153";1799292;4405;718;166
"F_154";6273063;15719;2460;557
"F_155";5596486;13993;2234;508
"F_156";991890;2530;374;90
"F_157";1329600;3291;563;123
"F_158";2398621;6045;968;226
"F_159";319980;747;125;30
"F_160";7308289;18236;2887;644
"F_161";5018486;12548;2003;456
"F_162";5999810;14985;2398;529
"F_163";6361978;15807;2495;547
"F_164";1668711;4122;663;142
"F_165";5326615;13283;2123;484
"F_166";6805150;17047;2701;613
"F_167";5473463;13653;2155;472
"F_168";918009;2177;349;79
"F_169";957952;2431;393;98
"F_170";4224245;10459;1632;368
"F_171";4593726;11501;1817;399
"F_172";2840795;7091;1155;258
"F_173";5573357;13854;2236;509
"F_174";7046844;17656;2829;644
"F_175";3818576;9496;1537;351
"F_176";6003658;15032;2417;538
"F_177";3526153;8820;1440;334
"F_178";1831116;4544;716;165
"F_179";828162;2042;295;55
"F_180";5118673;12764;1974;443
"F_181";7343241;18386;2947;671
"F_182";3802584;9567;1507;338
"F_183";5277898;13171;2137;490
"F_184";5543544;13816;2163;476
"F_185";5802397;14411;2285;504
"F_186";1917753;4808;764;161
"F_187";7039360;17573;2795;629
"F_188";3825413;9547;1557;360
"F_189";4740595;11872;1907;439
"F_190";749277;1875;344;77
"F_191";984721;2462;405;104
"F_192";7075241;17624;2816;639
"F_193";552043;1310;176;27
"F_194";4892253;12192;1919;419
"F_195";5040162;12615;2030;468
"F_196";2439264;6044;968;226
"F_197";6424228;16014;2520;558
"F_198";2841745;6993;1116;240
"F_199";4553645;11386;1829;404
"F_200";6629814;16561;2623;578
"F_201";5909317;14673;2331;525
"F_202";6478213;16099;2554;573
"F_203";5422276;13563;2177;482
"F_204";5935066;14798;2324;522
"F_205";3960690;9919;1590;349
"F_206";2838019;7097;1157;259
"F_207";3079949;7718;1231;266
"F_208";6895278;17196;2761;614
"F_209";701509;1811;261;65
"F_210";242748;662;91;15
"F_211";6725653;16704;2622;578
"F_212";6948398;17382;2777;621
"F_213";869531;2077;309;61
"F_214";6578511;16465;2584;587
"F_215";1504448;3753;632;153
"F_216";148970;331;75;8
"F_217";3554963;8953;1435;332
"F_218";4657417;11636;1813;397
"F_219";2327234;5817;877;185
"F_220";930302;2356;363;85
"F_221";1436437;3549;550;117
"F_222";4363067;11008;1736;388
"F_223";7554255;18913;2984;662
"F_224";4843881;12098;1939;428
"F_225";6315847;15679;2502;550
"F_226";2734790;6875;1068;245
"F_227";679379;1721;283;75
"F_228";3888598;9656;1543;354
"F_229";6744136;16902;2701;613
"F_230";2752791;6903;1080;250
"F_231";4164575;10381;1659;380
"F_232";7426985;18506;2937;667
"F_233";6040169;15114;2392;527
"F_234";7539864;18775;2986;663
"F_235";2134790;5346;863;205
"F_236";7607645;18968;3006;672
"F_237";7143149;17823;2838;648
"F_238";7391768;18488;2929;663
"F_239";6579795;16529;2610;598
"F_240";6277695;15805;2494;572
"F_241";7527102;18718;2963;653
"F_242";1582584;4028;626;151
"F_243";5049810;12516;1991;451
"F_244";6210316;15487;2483;567
"F_245";6780264;16965;2726;624
"F_246";6689627;16791;2657;593
"F_247";6591371;16527;2667;598
"F_248";7353607;18323;2921;660
"F_249";629494;1551;273;71
"F_250";4748298;11822;1887;430
"F_251";1744170;4409;662;141
"F_252";605155;1496;251;61
"F_253";6049592;15149;2406;533
"F_254";4787381;12033;1913;442
"F_255";1315676;3321;517;128
"F_256";7331606;18385;2946;671
"F_257";5687628;14192;2255;517
"F_258";3661120;9176;1467;320
"F_259";3879169;9620;1528;347
"F_260";6433215;16028;2525;560
"F_261";2681948;6702;1057;240
"F_262";7282691;18263;2898;649
"F_263";5116395;12795;1986;449
"F_264";1637940;4182;687;152
"F_265";507969;1285;224;49
"F_266";4375712;10915;1698;371
"F_267";5076058;12667;1993;452
"F_268";886958;2222;367;87
"F_269";3395333;8525;1380;307
"F_270";3485251;8663;1378;306
"F_271";5646822;14186;2253;516
"F_272";6494411;16182;2587;588
"F_273";4152958;10381;1659;380
"F_274";4264610;10589;1684;365
"F_275";3211912;8070;1256;277
"F_276";7132570;17730;2800;632
"F_277";1407411;3550;550;117
"F_278";3967392;9964;1608;357
"F_279";5968842;14889;2360;538
"F_280";6830914;17028;2694;610
"F_281";6384057;15894;2530;562
"F_282";2668561;6614;1080;250
"F_283";7480879;18586;2969;655
"F_284";1938708;4839;776;166
"F_285";7142127;17772;2817;639
"F_286";7503489;18844;3014;675
"F_287";439858;1076;199;37
"F_288";4672154;11646;1817;399
"F_289";5844175;14611;2307;514
"F_290";801236;2003;338;74
"F_291";1238915;3115;492;117
"F_292";2675173;6799;1096;258
"F_293";6946237;17275;2734;602
"F_294";276256;595;64;3
"F_295";5501656;13755;2196;491
"F_296";932338;2457;403;103
"F_297";6989694;17414;2732;601
"F_298";5989641;15057;2369;542
"F_299";3457658;8591;1349;293
"F_300";6373705;15812;2497;548
"F_301";621919;1463;237;55
"F_302";2065101;5203;863;205
"F_303";1434441;3594;568;125
"F_304";7511376;18803;2997;668
"F_305";2053459;5202;863;205
"F_306";7050606;17554;2788;626
"F_307";4089359;10252;1607;357
"F_308";3049991;7673;1213;284
"F_309";647503;1725;284;76
"F_310";1737286;4210;640;131
"F_311";7378868;18424;2904;652
"F_312";7104155;17762;2813;637
"F_313";5670660;14070;2206;495
"F_314";4082457;10197;1585;347
"F_315";5279482;13105;2110;478
"F_316";2847925;7157;1123;244
"F_317";7580396;18913;2983;662
"F_318";4072629;10286;1621;363
"F_319";141140;375;34;16
"F_320";3418898;8541;1387;310
"F_321";7245160;17985;2844;625
"F_322";855085;2081;311;62
"F_323";1722700;4207;639;131
"F_324";4230746;10494;1646;374
"F_325";1374605;3362;533;109
"F_326";2328006;5855;892;192
"F_327";6118318;15245;2386;524
"F_328";1659918;4119;662;141
"F_329";5269576;13191;2145;494
"F_330";6973200;17460;2750;609
"F_331";270796;612;71;6
"F_332";3990289;9947;1601;354
"F_333";2185545;5415;832;191
"F_334";6120892;15228;2380;521
"F_335";1171819;2956;487;114
"F_336";1417529;3620;578;130
"F_337";6410138;16036;2529;562
"F_338";428824;1105;152;43
"F_339";2773381;6916;1085;252
"F_340";4506660;11216;1761;399
"F_341";7033100;17550;2786;625
"F_342";4086312;10244;1604;355
"F_343";5221202;12951;2049;451
"F_344";7605510;18861;2963;652
"F_345";3700471;9256;1499;334
"F_346";7489486;18580;2966;654
"F_347";7502366;18788;2992;665
"F_348";2582373;6517;1041;233
"F_349";6899366;17255;2784;624
"F_350";3817617;9448;1517;342
"F_351";5849069;14566;2289;506
"F_352";700301;1750;236;54
"F_353";3301256;8179;1300;297
"F_354";6738025;16887;2695;610
"F_355";6940265;17266;2731;600
"F_356";96759;190;18;8
"F_357";2786653;6853;1118;241
"F_358";548985;1447;231;52
"F_359";5277789;13166;2135;489
"F_360";3017307;7491;1199;278
"F_361";7150421;17896;2809;635
"F_362";7582406;18868;2966;654
"F_363";5729148;14235;2272;499
"F_364";1902741;4784;754;182
"F_365";3212696;8109;1272;284
"F_366";5739008;14292;2295;509
"F_367";6201364;15475;2478;565
"F_368";1014758;2511;367;87
"F_369";4120065;10189;1640;371
"F_370";7382956;18483;2927;663
"F_371";6483303;16208;2597;593
"F_372";3076657;7554;1224;263
"F_373";4881447;12233;1935;426
"F_374";6172312;15475;2478;565
"F_375";6396223;16066;2541;567
"F_376";2299738;5749;908;199
"F_377";2205265;5384;878;186
"F_378";5434383;13587;2187;487
"F_379";4066118;10251;1607;357
"F_380";5725460;14341;2315;518
"F_381";2351715;5879;960;223
"F_382";6160326;15457;2471;562
"F_383";4404639;10908;1754;396
"F_384";2209175;5579;898;195
"F_385";3064333;7663;1210;283
"F_386";5912916;14707;2345;532
"F_387";3193946;7898;1245;273
"F_388";5814085;14559;2286;505
"F_389";7366299;18376;2943;670
"F_390";2285802;5779;920;205
"F_391";6358128;15905;2534;564
"F_392";1246369;3052;467;106
"F_393";4910516;12234;1936;426
"F_394";5500683;13706;2177;482
"F_395";211863;570;112;25
"F_396";1906170;4665;764;161
"F_397";2188914;5438;841;195
"F_398";4642700;11481;1809;395
"F_399";1924073;4834;774;165
"F_400";404557;909;132;33
"F_401";3605874;9029;1408;319
"F_402";1950313;4838;776;166
"F_403";4648014;11601;1799;391
"F_404";5169305;12971;2057;454
"F_405";4740818;11883;1912;441
"F_406";4123807;10376;1657;379
"F_407";3898742;9727;1513;341
"F_408";416172;1053;132;33
"F_409";4035351;10021;1573;341
"F_410";4772938;11892;1857;417
"F_411";7079613;17552;2787;626
"F_412";4026948;10036;1579;344
"F_413";7210464;17993;2848;627
"F_414";1614732;4038;688;152
"F_415";7179374;17891;2865;635
"F_416";5986852;15063;2371;543
"F_417";5702129;14336;2255;517
"F_418";4695350;11644;1874;424
"F_419";2088127;5192;859;203
"F_420";5952774;14812;2329;524
"F_421";74347;231;35;16
"F_422";244898;624;76;8
"F_423";4355319;10912;1697;371
"F_424";6229821;15590;2466;560
"F_425";2100581;5234;818;185
"F_426";6890131;17229;2774;620
"F_427";4235439;10583;1681;390
"F_428";4844432;12125;1950;433
"F_429";5714338;14221;2267;496
"F_430";5334987;13266;2117;481
"F_431";300941;812;151;42
"F_432";1237725;3055;468;106
"F_433";2072855;5155;844;197
"F_434";2626884;6564;1002;215
"F_435";6712136;16755;2642;587
"F_436";6301114;15669;2498;548
"F_437";2194343;5419;892;192
"F_438";6752978;16908;2704;614
"F_439";5905652;14780;2374;545
"F_440";6278085;15679;2444;550
"F_441";6985877;17513;2772;619
"F_442";6347215;15940;2548;571
"F_443";685261;1725;284;76
"F_444";4740599;11872;1907;439
"F_445";6913862;17399;2784;624
"F_446";6672010;16637;2653;592
"F_447";1964051;4799;760;159
"F_448";1188093;3043;521;130
"F_449";7182697;17912;2873;638
"F_450";6126538;15365;2434;546
"F_451";2281274;5698;887;190
"F_452";6411097;16084;2548;570
"F_453";7174818;17954;2890;646
"F_454";419532;1076;141;37
"F_455";6527368;16377;2607;597
"F_456";3600133;8887;1409;320
"F_457";3164146;7860;1230;266
"F_458";4324245;10811;1715;379
"F_459";7273080;18219;2880;641
"F_460";2699755;6721;1065;244
"F_461";7559672;18894;2976;658
"F_462";2601742;6469;1022;224
"F_463";5697397;14245;2218;501
"F_464";6423727;15989;2510;553
"F_465";2877504;7183;1134;248
"F_466";2395015;6010;954;220
"F_467";2018909;5072;811;182
"F_468";4433089;11023;1742;391
"F_469";1495748;3754;632;154
"F_470";3777609;9481;1473;322
"F_471";2522374;6277;1003;216
"F_472";4642045;11593;1854;415
"F_473";245752;667;93;16
"F_474";543374;1312;177;28
"F_475";6047194;15175;2416;537
"F_476";5931751;14923;2373;544
"F_477";5655458;14182;2251;515
"F_478";6495840;16108;2558;575
"F_479";2821601;7003;1119;242
"F_480";7206935;18107;2893;647
"F_481";875478;2229;312;62
"F_482";582092;1505;196;36
"F_483";5550177;13857;2179;483
"F_484";4713230;11811;1883;428
"F_485";76457;192;19;9
"F_486";5563720;13808;2217;500
"F_487";1038618;2542;437;92
"F_488";5685355;14079;2210;497
"F_489";5348207;13346;2091;469
"F_490";5264588;13087;2045;449
"F_491";1990000;4934;756;157
"F_492";2391634;5986;945;216
"F_493";2454472;6223;981;232
"F_494";6936253;17356;2767;617
"F_495";546049;1446;231;52
"F_496";6189963;15486;2483;567
"F_497";6520870;16343;2593;591
"F_498";2829492;6962;1103;235
"F_499";2799284;7049;1138;250
"F_500";6425921;15954;2496;547
"F_501";1518617;3881;625;150
"F_502";891883;2178;349;79
"F_503";6942105;17358;2768;617
"F_504";7246770;18065;2876;640
"F_505";2584431;6475;1024;225
"F_506";4513285;11256;1777;407
"F_507";6930043;17336;2759;613
"F_508";1387247;3413;554;118
"F_509";3531307;8787;1427;328
"F_510";7423644;18484;2928;663
"F_511";335715;807;149;41
"F_512";6093022;15142;2403;532
"F_513";5394487;13481;2145;494
"F_514";1898657;4725;730;172
"F_515";3896044;9737;1517;342
"F_516";4084629;10160;1570;340
"F_517";4479412;11306;1797;416
"F_518";5222481;13015;2074;462
"F_519";458781;1150;228;51
"F_520";3491123;8811;1379;306
"F_521";1462707;3700;552;118
"F_522";3962892;9884;1576;343
"F_523";4145429;10440;1682;390
"F_524";5641236;14197;2257;518
"F_525";7598059;18925;2988;664
"F_526";1221061;3093;484;113
"F_527";390812;947;147;40
"F_528";7030132;17547;2785;625
"F_529";1156131;2898;463;104
"F_530";1062712;2730;454;100
"F_531";4765609;11961;1885;429
"F_532";6058366;15152;2407;533
"F_533";7233812;17999;2850;628
"F_534";5121340;12897;2027;467
"F_535";3036524;7580;1176;268
"F_536";4185374;10549;1668;384
"F_537";1949583;4802;761;159
"F_538";7590706;18993;3015;676
"F_539";2081755;5164;848;198
"F_540";6640327;16650;2658;594
"F_541";2177306;5438;842;196
"F_542";4637910;11532;1829;404
"F_543";4425024;11056;1755;397
"F_544";6937439;17270;2732;601
"F_545";7014922;17513;2771;619
"F_546";6166978;15499;2488;569
"F_547";7103870;17748;2807;635
"F_548";3828551;9559;1562;362
"F_549";5071726;12740;2022;465
"F_550";234274;674;96;17
"F_551";5733995;14332;2311;516
"F_552";7515231;18850;3016;676
"F_553";2041556;5188;799;177
"F_554";2543834;6333;1026;226
"F_555";6832844;16980;2674;601
"F_556";2093359;5308;848;198
"F_557";3853443;9641;1537;351
"F_558";872999;2250;320;66
"F_559";2989438;7405;1164;262
"F_560";5848810;14553;2283;504
"F_561";3784027;9511;1485;328
"F_562";726931;1774;246;59
"F_563";1870643;4777;751;181
"F_564";3762922;9328;1469;321
"F_565";5078502;12644;1984;448
"F_566";1039621;2592;457;101
"F_567";1472962;3632;583;132
"F_568";440631;1114;214;44
"F_569";5075081;12618;1973;443
"F_570";2310483;5706;891;192
"F_571";571332;1403;213;44
"F_572";3368740;8358;1371;303
"F_573";5531071;13918;2204;494
"F_574";256980;647;85;12
"F_575";183581;464;70;6
"F_576";1450032;3502;531;108
"F_577";3654434;9133;1449;338
"F_578";6862671;17163;2690;608
"F_579";2826334;7094;1156;258
"F_580";231194;520;92;16
"F_581";1037363;2479;412;81
"F_582";4694501;11602;1857;417
"F_583";3539126;8742;1409;320
"F_584";5054381;12745;2024;466
"F_585";3208672;8053;1249;274
"F_586";6776658;16930;2712;618
"F_587";293863;748;126;31
"F_588";722477;1842;273;71
"F_589";4580565;11425;1844;411
"F_590";2254498;5521;875;184
"F_591";47329;43;17;8
"F_592";2926161;7292;1177;268
"F_593";1676896;4096;653;137
"F_594";6568984;16424;2568;579
"F_595";2917551;7297;1121;243
"F_596";1774685;4482;749;180
"F_597";328255;870;174;52
"F_598";1423662;3491;527;106
"F_599";2078951;5169;850;199
"F_600";3152720;7870;1234;268
"F_601";3043387;7633;1197;277
"F_602";152456;360;86;13
"F_603";4882687;12295;1960;437
"F_604";3587103;8962;1439;333
"F_605";4449046;11095;1770;404
"F_606";2229246;5566;893;192
"F_607";4173659;10399;1666;383
"F_608";7019192;17436;2741;605
"F_609";584735;1492;249;60
"F_610";6622145;16613;2643;587
"F_611";4823575;12099;1882;428
"F_612";1777547;4480;748;180
"F_613";2645234;6610;1078;250
"F_614";2623234;6526;987;209
"F_615";7190463;17865;2854;630
"F_616";5912427;14683;2336;527
"F_617";4730106;11784;1872;423
"F_618";1937939;4801;761;159
"F_619";857385;2051;299;56
"F_620";193689;533;98;18
"F_621";5524539;13882;2189;488
"F_622";6640786;16673;2668;598
"F_623";5949285;14928;2375;545
"F_624";1873871;4648;699;158
"F_625";6442605;16061;2597;592
"F_626";1699506;4210;640;131
"F_627";1400921;3516;537;111
"F_628";868633;2032;291;53
"F_629";1328993;3261;551;117
"F_630";4792726;12009;1904;438
"F_631";5588391;14024;2246;513
"F_632";4047868;10066;1591;349
"F_633";976973;2365;366;86
"F_634";2930699;7373;1210;283
"F_635";1571985;3934;588;134
"F_636";2292161;5661;873;184
"F_637";133817;300;4;2
"F_638";7474087;18682;3007;672
"F_639";1112919;2771;413;81
"F_640";4321615;10824;1720;381
"F_641";2551706;6291;1009;218
"F_642";4788669;11952;1881;427
"F_643";1210527;3003;505;123
"F_644";6284912;15730;2464;559
"F_645";3234207;8022;1295;295
"F_646";6321083;15796;2549;571
"F_647";5746658;14239;2274;500
"F_648";5452741;13488;2148;469
"F_649";4221605;10472;1637;370
"F_650";297273;774;136;35
"F_651";3698800;9172;1465;319
"F_652";2822458;7045;1136;250
"F_653";495606;1248;210;42
"F_654";3518192;8712;1397;315
"F_655";776709;1939;312;62
"F_656";3817907;9462;1523;345
"F_657";1060536;2621;411;80
"F_658";3218362;8102;1269;283
"F_659";7146663;17854;2792;628
"F_660";5694967;14269;2228;505
"F_661";3887612;9607;1523;345
"F_662";3176161;7880;1238;269
"F_663";6100196;15355;2430;544
"F_664";6654805;16648;2658;594
"F_665";4036716;10089;1600;353
"F_666";6346882;15923;2542;568
"F_667";5017870;12517;1991;451
"F_668";6965570;17370;2772;619
"F_669";244280;593;64;3
"F_670";3674475;9263;1502;335
"F_671";3437017;8576;1343;290
"F_672";2688844;6756;1079;250
"F_673";1467323;3640;586;133
"F_674";2884695;7107;1103;235
"F_675";7456869;18692;2953;674
"F_676";6715381;16772;2649;590
"F_677";7183921;17973;2898;649
"F_678";5718523;14284;2292;508
"F_679";4838694;12129;1952;433
"F_680";2568033;6381;987;209
"F_681";3420027;8453;1351;294
"F_682";13096;74;30;14
"F_683";6215299;15591;2467;560
"F_684";2821377;6992;1115;240
"F_685";2416207;6053;971;228
"F_686";2768382;6956;1101;260
"F_687";7110179;17773;2817;639
"F_688";6629067;16668;2666;597
"F_689";120385;354;26;12
"F_690";4966144;12400;1944;430
"F_691";4556650;11391;1831;405
"F_692";5562965;13915;2260;520
"F_693";2996803;7483;1195;276
"F_694";4824011;12121;1891;432
"F_695";580326;1417;219;46
"F_696";7384611;18421;2903;651
"F_697";1631390;4145;672;146
"F_698";1774422;4469;744;178
"F_699";6824627;17005;2684;605
"F_700";5200214;12919;2036;445
"F_701";4870063;12100;1940;428
"F_702";5139853;12806;2049;451
"F_703";3578123;8949;1434;331
"F_704";2134434;5328;856;202
"F_705";4465230;11033;1745;393
"F_706";2454344;6216;979;231
"F_707";7305235;18229;2884;643
"F_708";5674;139;56;25
"F_709";593830;1511;257;63
"F_710";1967369;4820;768;163
"F_711";3825404;9546;1557;360
"F_712";6056648;15212;2431;544
"F_713";5919826;14762;2367;541
"F_714";1656452;4091;651;136
"F_715";6467075;16123;2563;577
"F_716";819320;2036;293;53
"F_717";6443891;15980;2564;578
"F_718";7345305;18344;2930;664
"F_719";6678657;16679;2612;573
"F_720";3445930;8585;1346;292
"F_721";6535312;16339;2592;590
"F_722";3303357;8139;1284;290
"F_723";5094068;12695;2004;457
"F_724";1999296;4963;768;162
"F_725";5796742;14419;2288;506
"F_726";2763423;6854;1060;241
"F_727";7241755;18105;2892;647
"F_728";98901;152;3;2
"F_729";6536159;16381;2609;598
"F_730";3646404;9022;1405;318
"F_731";4190770;10528;1660;380
"F_732";2641470;6567;1061;242
"F_733";3575486;8962;1439;333
"F_734";6886411;17188;2758;612
"F_735";3911108;9764;1528;347
"F_736";5904941;14744;2360;538
"F_737";1551398;3777;583;132
"F_738";1460138;3717;559;121
"F_739";4188090;10540;1664;382
"F_740";1058834;2681;435;91
"F_741";1035719;2542;437;92
"F_742";1484054;3750;630;153
"F_743";6529845;16356;2599;593
"F_744";5666992;14177;2249;515
"F_745";6837288;17056;2705;615
"F_746";2075981;5166;849;199
"F_747";2586217;6419;1002;215
"F_748";359800;995;166;49
"F_749";5852893;14611;2307;514
"F_750";7229218;18059;2874;639
"F_751";7470805;18663;2999;669
"F_752";2563219;6431;1007;218
"F_753";5151678;12816;2053;452
"F_754";7447964;18683;2949;672
"F_755";2419031;6049;970;227
"F_756";7130374;17766;2815;638
"F_757";2380125;5847;947;217
"F_758";6307917;15718;2518;557
"F_759";2295620;5689;884;188
"F_760";6332420;15927;2543;568
"F_761";3361474;8285;1284;290
"F_762";6740934;16887;2695;610
"F_763";2710776;6691;1053;238
"F_764";6815049;17106;2725;624
"F_765";973879;2356;363;85
"F_766";4379828;10975;1722;382
"F_767";1546808;3838;607;143
"F_768";950547;2351;361;84
"F_769";5789983;14371;2269;497
"F_770";992832;2577;393;98
"F_771";7491871;18699;3014;675
"F_772";2995981;7442;1179;269
"F_773";662777;1617;241;56
"F_774";4230260;10469;1636;370
"F_775";4561092;11323;1803;393
"F_776";7314953;18134;2904;652
"F_777";6258250;15559;2454;554
"F_778";889733;2216;365;86
"F_779";3375833;8422;1339;288
"F_780";1049860;2668;430;89
"F_781";5078837;12660;1990;451
"F_782";491548;1191;187;32
"F_783";1884220;4729;732;172
"F_784";1292917;3200;468;106
"F_785";5643231;14151;2239;510
"F_786";4364395;10930;1704;374
"F_787";6628356;16633;2651;591
"F_788";6794924;16972;2671;600
"F_789";6234650;15541;2447;551
"F_790";1969346;4918;808;180
"F_791";1013581;2597;401;102
"F_792";6140223;15323;2418;538
"F_793";1183567;2962;489;116
"F_794";5800465;14460;2304;513
"F_795";354332;1012;173;52
"F_796";3421845;8543;1388;310
"F_797";6002832;14990;2400;530
"F_798";2713897;6702;1057;240
"F_799";6214702;15561;2455;555
"F_800";2074544;5094;820;186
"F_801";5601390;13948;2215;499
"F_802";6047310;15181;2419;538
"F_803";6830599;17013;2687;607
"F_804";3625618;8999;1396;314
"F_805";1297088;3263;494;118
"F_806";1066331;2620;410;80
"F_807";4153543;10410;1670;385
"F_808";2355725;5934;982;232
"F_809";2132269;5365;870;208
"F_810";5497719;13703;2176;482
"F_811";1935096;4804;762;160
"F_812";1774319;4464;742;177
"F_813";1008296;2479;354;81
"F_814";2300494;5787;923;206
"F_815";7607053;18938;2994;666
"F_816";6007017;15054;2426;542
"F_817";4909889;12202;1923;420
"F_818";623751;1554;274;71
"F_819";5859104;14631;2373;544
"F_820";7023107;17486;2761;614
"F_821";2091060;5194;860;204
"F_822";7503384;18839;3012;674
"F_823";1822457;4546;717;166
"F_824";1500446;3699;610;144
"F_825";1350453;3462;573;127
"F_826";1247440;3105;488;115
"F_827";1204142;2974;494;118
"F_828";2008361;4981;775;165
"F_829";1672998;4191;691;154
"F_830";1898269;4706;723;168
"F_831";4106016;10213;1649;376
"F_832";5052831;12667;1993;452
"F_833";5608387;14007;2239;510
"F_834";6699252;16692;2617;575
"F_835";2193739;5389;880;187
"F_836";4969513;12423;1954;434
"F_837";4731931;11875;1908;440
"F_838";2689736;6801;1097;258
"F_839";579092;1355;194;35
"F_840";5536785;13913;2202;493
"F_841";2459087;6163;958;222
"F_842";1313076;3191;465;105
"F_843";5966701;14927;2375;545
"F_844";6669778;16670;2666;598
"F_845";375516;909;132;33
"F_846";2380642;5873;957;221
"F_847";4610989;11493;1814;397
"F_848";4491683;11193;1752;395
"F_849";3905614;9780;1534;350
"F_850";7198654;17839;2844;625
"F_851";4715252;11767;1865;420
"F_852";911000;2262;383;94
"F_853";6884299;17228;2773;620
"F_854";4399522;10943;1767;403
"F_855";1192091;2952;485;114
"F_856";1238620;3100;486;114
"F_857";6494717;16197;2593;591
"F_858";4088043;10186;1581;345
"F_859";5681852;14194;2256;518
"F_860";6081849;15165;2412;536
"F_861";7036529;17576;2797;630
"F_862";5321753;13330;2142;493
"F_863";3786099;9470;1468;320
"F_864";7392205;18510;2938;667
"F_865";5563138;13779;2206;495
"F_866";604520;1464;238;55
"F_867";722831;1860;280;74
"F_868";6724902;16812;2665;597
"F_869";4120755;10224;1654;378
"F_870";4709566;11773;1868;422
"F_871";6695141;16776;2651;591
"F_872";2235250;5576;897;194
"F_873";3047171;7677;1215;285
"F_874";6344268;15938;2547;570
"F_875";7429402;18481;2927;662
"F_876";989099;2535;376;91
"F_877";2847277;7124;1110;238
"F_878";2487941;6153;1012;220
"F_879";1831607;4568;726;170
"F_880";1071168;2717;449;98
"F_881";6985721;17505;2768;617
"F_882";4731071;11832;1891;432
"F_883";573106;1346;191;34
"F_884";5154859;12830;2058;455
"F_885";4162614;10428;1677;388
"F_886";7315077;18140;2906;653
"F_887";392184;871;117;27
"F_888";3709297;9261;1501;335
"F_889";7354100;18348;2931;664
"F_890";904831;2244;376;91
"F_891";4289113;10652;1709;376
"F_892";1335994;3320;574;128
"F_893";3566254;8936;1429;329
"F_894";6721651;16795;2658;594
"F_895";2149913;5376;817;184
"F_896";5971920;14898;2363;540
"F_897";3248644;8018;1294;294
"F_898";1208489;2901;465;105
"F_899";4720326;11876;1909;440
"F_900";2238442;5590;902;197
"F_901";7426301;18471;2923;661
"F_902";1724188;4281;669;144
"F_903";1492870;3756;633;154
"F_904";963053;2395;378;92
"F_905";7360688;18386;2947;671
"F_906";7471626;18704;3016;676
"F_907";7406991;18523;2943;670
"F_908";4864094;12092;1937;427
"F_909";4922604;12257;1945;430
"F_910";131757;342;21;10
"F_911";5763443;14497;2319;520
"F_912";6523048;16307;2579;584
"F_913";1045009;2571;449;97
"F_914";5293861;13243;2107;477
"F_915";4984348;12439;2018;463
"F_916";1209932;2973;493;117
"F_917";4593662;11498;1816;398
"F_918";3874621;9683;1554;359
"F_919";2020330;4998;782;169
"F_920";5891859;14671;2331;525
"F_921";4446584;11117;1779;408
"F_922";4499850;11166;1741;391
"F_923";2175051;5471;855;201
"F_924";3344189;8292;1287;291
"F_925";5983186;15025;2356;537
"F_926";2979377;7483;1195;276
"F_927";3827547;9508;1542;353
"F_928";6269006;15516;2437;547
"F_929";5569309;13797;2213;498
"F_930";6596852;16510;2660;595
"F_931";2369312;5887;963;224
"F_932";2451231;6206;975;229
"F_933";5931395;14905;2366;541
"F_934";2604547;6464;1020;223
"F_935";930729;2377;371;89
"F_936";27913;89;36;16
"F_937";4862563;12160;1964;439
"F_938";6148406;15297;2465;559
"F_939";5461786;13650;2154;472
"F_940";6661168;16531;2611;573
"F_941";6765983;16832;2673;601
"F_942";309482;803;147;40
"F_943";6689068;16763;2646;588
"F_944";6829039;17080;2714;619
"F_945";1558069;3820;600;139
"F_946";423059;1107;153;43
"F_947";3668726;9266;1503;336
"F_948";1764670;4417;723;168
"F_949";5037805;12497;1983;447
"F_950";5997473;15013;2351;534
"F_951";1932881;4838;776;166
"F_952";486826;1245;208;42
"F_953";3514723;8829;1444;336
"F_954";2685268;6723;1065;244
"F_955";3241633;8103;1328;309
"F_956";2678426;6671;1045;235
"F_957";5300998;13309;2134;489
"F_958";4090200;10293;1624;364
"F_959";2675499;6815;1102;260
"F_960";4607289;11598;1856;416
"F_961";7186484;17956;2891;646
"F_962";6415555;16016;2521;558
"F_963";5551268;13911;2201;493
"F_964";854260;2040;294;54
"F_965";6489134;16209;2598;593
"F_966";5943856;14802;2325;523
"F_967";7188840;17929;2880;641
"F_968";5975957;14809;2328;524
"F_969";7045443;17586;2801;632
"F_970";58617;171;11;5
"F_971";7069095;17607;2809;636
"F_972";2954195;7386;1215;285
"F_973";6523759;16342;2593;591
"F_974";1139795;2807;427;88
"F_975";3196070;8004;1230;266
"F_976";5299574;13238;2106;476
"F_977";7086073;17729;2800;631
"F_978";4721142;11771;1867;421
"F_979";2076299;5182;855;202
"F_980";6310536;15704;2512;554
"F_981";7397539;18486;2929;663
"F_982";4530288;11380;1768;403
"F_983";4305369;10738;1686;366
"F_984";6968507;17371;2773;619
"F_985";1028413;2468;407;79
"F_986";576434;1368;199;38
"F_987";5205457;13035;2082;466
"F_988";4403686;11006;1793;414
"F_989";4195214;10460;1632;368
"F_990";5333396;13331;2143;493
"F_991";5275320;13187;2143;493
"F_992";3231063;8011;1291;293
"F_993";7531189;18777;2987;663
"F_994";7563268;18928;2989;664
"F_995";5262617;13133;2064;457
"F_996";3364066;8269;1336;287
"F_997";870112;2106;321;66
"F_998";193010;499;84;12
"F_999";3802477;9562;1505;337
"F_1000";1453235;3662;537;111
